	subject_location	subject_id	date	daytime	setting_id	trial_id	sample_id	sample_n	sample_rate	sample_time_smi	frame_id	frame_n	frame_rate	frame_time_smi	fix_pos_x	fix_pos_y
0	38_valpre	38	12-12-2019	14:14:35:718	rl	valpre	11	11	60	56193	00005.png	1.0	25	56187.0	798	276
1	38_valpre	38	12-12-2019	14:14:35:918	rl	valpre	23	23	60	56393	00010.png	6.0	25	56387.0	802	275
2	38_valpre	38	12-12-2019	14:14:36:116	rl	valpre	35	35	60	56592	00015.png	11.0	25	56587.0	801	280
3	38_valpre	38	12-12-2019	14:14:36:315	rl	valpre	47	47	60	56791	00020.png	16.0	25	56787.0	794	284
4	38_valpre	38	12-12-2019	14:14:36:514	rl	valpre	59	59	60	56990	00025.png	21.0	25	56987.0	794	275
5	38_valpre	38	12-12-2019	14:14:36:714	rl	valpre	69	69	60	57189	00030.png	26.0	25	57187.0	795	268
6	38_valpre	38	12-12-2019	14:14:36:913	rl	valpre	81	81	60	57388	00035.png	31.0	25	57387.0	796	272
7	38_valpre	38	12-12-2019	14:14:37:112	rl	valpre	93	93	60	57587	00040.png	36.0	25	57587.0	794	277
8	38_valpre	38	12-12-2019	14:14:37:311	rl	valpre	105	105	60	57787	00045.png	41.0	25	57787.0	791	281
9	38_valpre	38	12-12-2019	14:14:37:511	rl	valpre	117	117	60	57986	00050.png	46.0	25	57987.0	769	284
10	38_valpre	38	12-12-2019	14:14:37:710	rl	valpre	129	129	60	58185	00055.png	51.0	25	58187.0	768	285
11	38_valpre	38	12-12-2019	14:14:37:909	rl	valpre	141	141	60	58384	00060.png	56.0	25	58387.0	766	280
12	38_valpre	38	12-12-2019	14:14:38:108	rl	valpre	153	153	60	58583	00065.png	61.0	25	58587.0	769	274
13	38_valpre	38	12-12-2019	14:14:38:307	rl	valpre	165	165	60	58782	00070.png	66.0	25	58787.0	784	264
14	38_valpre	38	12-12-2019	14:14:38:506	rl	valpre	177	177	60	58982	00075.png	71.0	25	58987.0	784	272
15	38_valpre	38	12-12-2019	14:14:38:706	rl	valpre	189	189	60	59181	00080.png	76.0	25	59187.0	781	274
16	38_valpre	38	12-12-2019	14:14:38:904	rl	valpre	201	201	60	59380	00085.png	81.0	25	59387.0	790	270
17	38_valpre	38	12-12-2019	14:14:39:103	rl	valpre	213	213	60	59579	00090.png	86.0	25	59587.0	785	273
18	38_valpre	38	12-12-2019	14:14:39:319	rl	valpre	226	226	60	59795	00095.png	91.0	25	59787.0	777	268
19	38_valpre	38	12-12-2019	14:14:39:518	rl	valpre	238	238	60	59993	00100.png	96.0	25	59987.0	776	267
20	38_valpre	38	12-12-2019	14:14:39:717	rl	valpre	250	250	60	60193	00105.png	101.0	25	60187.0	795	269
21	38_valpre	38	12-12-2019	14:14:39:917	rl	valpre	262	262	60	60392	00110.png	106.0	25	60387.0	790	271
22	38_valpre	38	12-12-2019	14:14:40:116	rl	valpre	274	274	60	60591	00115.png	111.0	25	60587.0	638	154
23	38_valpre	38	12-12-2019	14:14:40:315	rl	valpre	286	286	60	60790	00120.png	116.0	25	60787.0	625	127
24	38_valpre	38	12-12-2019	14:14:40:498	rl	valpre	297	297	60	60973	00125.png	121.0	25	60987.0	603	129
25	38_valpre	38	12-12-2019	14:14:40:713	rl	valpre	307	307	60	61188	00130.png	126.0	25	61187.0	607	135
26	38_valpre	38	12-12-2019	14:14:40:912	rl	valpre	319	319	60	61388	00135.png	131.0	25	61387.0	611	137
27	38_valpre	38	12-12-2019	14:14:41:112	rl	valpre	331	331	60	61587	00140.png	136.0	25	61587.0	637	138
28	38_valpre	38	12-12-2019	14:14:41:311	rl	valpre	343	343	60	61786	00145.png	141.0	25	61787.0	635	130
29	38_valpre	38	12-12-2019	14:14:41:510	rl	valpre	355	355	60	61985	00150.png	146.0	25	61987.0	628	139
30	38_valpre	38	12-12-2019	14:14:41:709	rl	valpre	367	367	60	62184	00155.png	151.0	25	62187.0	625	140
31	38_valpre	38	12-12-2019	14:14:41:908	rl	valpre	379	379	60	62383	00160.png	156.0	25	62387.0	623	140
32	38_valpre	38	12-12-2019	14:14:42:107	rl	valpre	391	391	60	62582	00165.png	161.0	25	62587.0	610	147
33	38_valpre	38	12-12-2019	14:14:42:306	rl	valpre	403	403	60	62782	00170.png	166.0	25	62787.0	614	144
34	38_valpre	38	12-12-2019	14:14:42:505	rl	valpre	415	415	60	62981	00175.png	171.0	25	62987.0	621	139
35	38_valpre	38	12-12-2019	14:14:42:705	rl	valpre	427	427	60	63180	00180.png	176.0	25	63187.0	621	125
36	38_valpre	38	12-12-2019	14:14:42:904	rl	valpre	439	439	60	63379	00185.png	181.0	25	63387.0	620	128
37	38_valpre	38	12-12-2019	14:14:43:119	rl	valpre	452	452	60	63595	00190.png	186.0	25	63587.0	614	136
38	38_valpre	38	12-12-2019	14:14:43:319	rl	valpre	464	464	60	63794	00195.png	191.0	25	63787.0	613	128
39	38_valpre	38	12-12-2019	14:14:43:518	rl	valpre	476	476	60	63993	00200.png	196.0	25	63987.0	618	137
40	38_valpre	38	12-12-2019	14:14:43:717	rl	valpre	488	488	60	64192	00205.png	201.0	25	64187.0	612	138
41	38_valpre	38	12-12-2019	14:14:43:916	rl	valpre	500	500	60	64391	00210.png	206.0	25	64387.0	612	131
42	38_valpre	38	12-12-2019	14:14:44:115	rl	valpre	512	512	60	64590	00215.png	211.0	25	64587.0	611	124
43	38_valpre	38	12-12-2019	14:14:44:314	rl	valpre	524	524	60	64790	00220.png	216.0	25	64787.0	613	122
44	38_valpre	38	12-12-2019	14:14:44:514	rl	valpre	532	532	60	64989	00225.png	221.0	25	64987.0	612	125
45	38_valpre	38	12-12-2019	14:14:44:713	rl	valpre	543	543	60	65188	00230.png	226.0	25	65187.0	610	137
46	38_valpre	38	12-12-2019	14:14:44:912	rl	valpre	555	555	60	65387	00235.png	231.0	25	65387.0	587	132
47	38_valpre	38	12-12-2019	14:14:45:111	rl	valpre	567	567	60	65586	00240.png	236.0	25	65587.0	588	126
48	38_valpre	38	12-12-2019	14:14:45:310	rl	valpre	579	579	60	65785	00245.png	241.0	25	65787.0	590	111
49	38_valpre	38	12-12-2019	14:14:45:510	rl	valpre	591	591	60	65985	00250.png	246.0	25	65987.0	592	114
50	38_valpre	38	12-12-2019	14:14:45:709	rl	valpre	603	603	60	66184	00255.png	251.0	25	66187.0	593	119
51	38_valpre	38	12-12-2019	14:14:45:908	rl	valpre	615	615	60	66383	00260.png	256.0	25	66387.0	615	135
52	38_valpre	38	12-12-2019	14:14:46:107	rl	valpre	627	627	60	66582	00265.png	261.0	25	66587.0	617	134
53	38_valpre	38	12-12-2019	14:14:46:306	rl	valpre	639	639	60	66781	00270.png	266.0	25	66787.0	619	131
54	38_valpre	38	12-12-2019	14:14:46:505	rl	valpre	651	651	60	66980	00275.png	271.0	25	66987.0	620	125
55	38_valpre	38	12-12-2019	14:14:46:704	rl	valpre	663	663	60	67180	00280.png	276.0	25	67187.0	619	115
56	38_valpre	38	12-12-2019	14:14:46:904	rl	valpre	675	675	60	67380	00285.png	281.0	25	67387.0	619	105
57	38_valpre	38	12-12-2019	14:14:47:119	rl	valpre	688	688	60	67594	00290.png	286.0	25	67587.0	447	264
58	38_valpre	38	12-12-2019	14:14:47:318	rl	valpre	700	700	60	67793	00295.png	291.0	25	67787.0	473	259
59	38_valpre	38	12-12-2019	14:14:47:517	rl	valpre	712	712	60	67993	00300.png	296.0	25	67987.0	438	266
60	38_valpre	38	12-12-2019	14:14:47:716	rl	valpre	724	724	60	68192	00305.png	301.0	25	68187.0	446	244
61	38_valpre	38	12-12-2019	14:14:47:915	rl	valpre	736	736	60	68391	00310.png	306.0	25	68387.0	454	238
62	38_valpre	38	12-12-2019	14:14:48:115	rl	valpre	748	748	60	68590	00315.png	311.0	25	68587.0	461	242
63	38_valpre	38	12-12-2019	14:14:48:314	rl	valpre	759	759	60	68789	00320.png	316.0	25	68787.0	454	238
64	38_valpre	38	12-12-2019	14:14:48:513	rl	valpre	771	771	60	68988	00325.png	321.0	25	68987.0	453	240
65	38_valpre	38	12-12-2019	14:14:48:712	rl	valpre	783	783	60	69187	00330.png	326.0	25	69187.0	482	254
66	38_valpre	38	12-12-2019	14:14:48:911	rl	valpre	795	795	60	69387	00335.png	331.0	25	69387.0	473	249
67	38_valpre	38	12-12-2019	14:14:49:111	rl	valpre	807	807	60	69586	00340.png	336.0	25	69587.0	472	252
68	38_valpre	38	12-12-2019	14:14:49:310	rl	valpre	819	819	60	69785	00345.png	341.0	25	69787.0	470	242
69	38_valpre	38	12-12-2019	14:14:49:509	rl	valpre	831	831	60	69984	00350.png	346.0	25	69987.0	468	252
70	38_valpre	38	12-12-2019	14:14:49:708	rl	valpre	843	843	60	70183	00355.png	351.0	25	70187.0	459	250
71	38_valpre	38	12-12-2019	14:14:49:907	rl	valpre	855	855	60	70383	00360.png	356.0	25	70387.0	459	257
72	38_valpre	38	12-12-2019	14:14:50:106	rl	valpre	867	867	60	70581	00365.png	361.0	25	70587.0	461	262
73	38_valpre	38	12-12-2019	14:14:50:305	rl	valpre	879	879	60	70781	00370.png	366.0	25	70787.0	466	264
74	38_valpre	38	12-12-2019	14:14:50:504	rl	valpre	891	891	60	70980	00375.png	371.0	25	70987.0	469	259
75	38_valpre	38	12-12-2019	14:14:50:704	rl	valpre	903	903	60	71179	00380.png	376.0	25	71187.0	469	254
76	38_valpre	38	12-12-2019	14:14:50:920	rl	valpre	916	916	60	71395	00385.png	381.0	25	71387.0	474	247
77	38_valpre	38	12-12-2019	14:14:51:119	rl	valpre	928	928	60	71594	00390.png	386.0	25	71587.0	472	252
78	38_valpre	38	12-12-2019	14:14:51:318	rl	valpre	940	940	60	71793	00395.png	391.0	25	71787.0	471	254
79	38_valpre	38	12-12-2019	14:14:51:517	rl	valpre	952	952	60	71993	00400.png	396.0	25	71987.0	440	268
80	38_valpre	38	12-12-2019	14:14:51:716	rl	valpre	964	964	60	72191	00405.png	401.0	25	72187.0	438	266
81	38_valpre	38	12-12-2019	14:14:51:915	rl	valpre	976	976	60	72390	00410.png	406.0	25	72387.0	462	250
82	38_valpre	38	12-12-2019	14:14:52:114	rl	valpre	986	986	60	72590	00415.png	411.0	25	72587.0	458	250
83	38_valpre	38	12-12-2019	14:14:52:314	rl	valpre	998	998	60	72789	00420.png	416.0	25	72787.0	462	251
84	38_valpre	38	12-12-2019	14:14:52:513	rl	valpre	1009	1009	60	72988	00425.png	421.0	25	72987.0	463	250
85	38_valpre	38	12-12-2019	14:14:52:712	rl	valpre	1021	1021	60	73187	00430.png	426.0	25	73187.0	462	251
86	38_valpre	38	12-12-2019	14:14:52:911	rl	valpre	1033	1033	60	73386	00435.png	431.0	25	73387.0	462	250
87	38_valpre	38	12-12-2019	14:14:53:110	rl	valpre	1045	1045	60	73585	00440.png	436.0	25	73587.0	461	256
88	38_valpre	38	12-12-2019	14:14:53:309	rl	valpre	1057	1057	60	73785	00445.png	441.0	25	73787.0	460	257
89	38_valpre	38	12-12-2019	14:14:53:508	rl	valpre	1069	1069	60	73984	00450.png	446.0	25	73987.0	453	243
90	38_valpre	38	12-12-2019	14:14:53:708	rl	valpre	1081	1081	60	74183	00455.png	451.0	25	74187.0	495	230
91	38_valpre	38	12-12-2019	14:14:53:907	rl	valpre	1093	1093	60	74382	00460.png	456.0	25	74387.0	777	254
92	38_valpre	38	12-12-2019	14:14:54:106	rl	valpre	1105	1105	60	74581	00465.png	461.0	25	74587.0	821	232
93	38_valpre	38	12-12-2019	14:14:54:305	rl	valpre	1117	1117	60	74780	00470.png	466.0	25	74787.0	793	251
94	38_valpre	38	12-12-2019	14:14:54:504	rl	valpre	1129	1129	60	74980	00475.png	471.0	25	74987.0	773	259
95	38_valpre	38	12-12-2019	14:14:54:720	rl	valpre	1142	1142	60	75195	00480.png	476.0	25	75187.0	774	223
96	38_valpre	38	12-12-2019	14:14:54:919	rl	valpre	1154	1154	60	75395	00485.png	481.0	25	75387.0	780	218
97	38_valpre	38	12-12-2019	14:14:55:118	rl	valpre	1166	1166	60	75593	00490.png	486.0	25	75587.0	790	222
98	38_valpre	38	12-12-2019	14:14:55:317	rl	valpre	1178	1178	60	75792	00495.png	491.0	25	75787.0	793	223
99	38_valpre	38	12-12-2019	14:14:55:517	rl	valpre	1190	1190	60	75992	00500.png	496.0	25	75987.0	793	221
100	38_valpre	38	12-12-2019	14:14:55:715	rl	valpre	1202	1202	60	76191	00505.png	501.0	25	76187.0	750	232
101	38_valpre	38	12-12-2019	14:14:55:915	rl	valpre	1214	1214	60	76390	00510.png	506.0	25	76387.0	749	231
102	38_valpre	38	12-12-2019	14:14:56:114	rl	valpre	1224	1224	60	76589	00515.png	511.0	25	76587.0	743	245
103	38_valpre	38	12-12-2019	14:14:56:313	rl	valpre	1236	1236	60	76788	00520.png	516.0	25	76787.0	787	231
104	38_valpre	38	12-12-2019	14:14:56:512	rl	valpre	1248	1248	60	76988	00525.png	521.0	25	76987.0	794	231
105	38_valpre	38	12-12-2019	14:14:56:712	rl	valpre	1260	1260	60	77187	00530.png	526.0	25	77187.0	791	225
106	38_valpre	38	12-12-2019	14:14:56:911	rl	valpre	1272	1272	60	77386	00535.png	531.0	25	77387.0	753	233
107	38_valpre	38	12-12-2019	14:14:57:109	rl	valpre	1284	1284	60	77585	00540.png	536.0	25	77587.0	753	233
108	38_valpre	38	12-12-2019	14:14:57:309	rl	valpre	1296	1296	60	77784	00545.png	541.0	25	77787.0	756	238
109	38_valpre	38	12-12-2019	14:14:57:508	rl	valpre	1308	1308	60	77983	00550.png	546.0	25	77987.0	755	245
110	38_valpre	38	12-12-2019	14:14:57:707	rl	valpre	1320	1320	60	78182	00555.png	551.0	25	78187.0	753	243
111	38_valpre	38	12-12-2019	14:14:57:906	rl	valpre	1332	1332	60	78381	00560.png	556.0	25	78387.0	754	240
112	38_valpre	38	12-12-2019	14:14:58:105	rl	valpre	1344	1344	60	78581	00565.png	561.0	25	78587.0	749	238
113	38_valpre	38	12-12-2019	14:14:58:304	rl	valpre	1356	1356	60	78780	00570.png	566.0	25	78787.0	750	230
114	38_valpre	38	12-12-2019	14:14:58:504	rl	valpre	1368	1368	60	78979	00575.png	571.0	25	78987.0	729	234
115	38_valpre	38	12-12-2019	14:14:58:719	rl	valpre	1381	1381	60	79195	00580.png	576.0	25	79187.0	744	234
116	38_valpre	38	12-12-2019	14:14:58:919	rl	valpre	1393	1393	60	79394	00585.png	581.0	25	79387.0	753	233
117	38_valpre	38	12-12-2019	14:14:59:118	rl	valpre	1405	1405	60	79593	00590.png	586.0	25	79587.0	748	232
118	38_valpre	38	12-12-2019	14:14:59:317	rl	valpre	1417	1417	60	79792	00595.png	591.0	25	79787.0	747	238
119	38_valpre	38	12-12-2019	14:14:59:516	rl	valpre	1429	1429	60	79991	00600.png	596.0	25	79987.0	748	242
120	38_valpre	38	12-12-2019	14:14:59:715	rl	valpre	1441	1441	60	80190	00605.png	601.0	25	80187.0	739	240
121	38_valpre	38	12-12-2019	14:14:59:914	rl	valpre	1452	1452	60	80389	00610.png	606.0	25	80387.0	771	217
122	38_valpre	38	12-12-2019	14:15:00:114	rl	valpre	1462	1462	60	80589	00615.png	611.0	25	80587.0	756	216
123	38_valpre	38	12-12-2019	14:15:00:312	rl	valpre	1474	1474	60	80788	00620.png	616.0	25	80787.0	757	223
124	38_valpre	38	12-12-2019	14:15:00:511	rl	valpre	1486	1486	60	80987	00625.png	621.0	25	80987.0	750	216
125	38_valpre	38	12-12-2019	14:15:00:711	rl	valpre	1498	1498	60	81186	00630.png	626.0	25	81187.0	749	213
126	38_valpre	38	12-12-2019	14:15:00:910	rl	valpre	1510	1510	60	81385	00635.png	631.0	25	81387.0	756	225
127	38_valpre	38	12-12-2019	14:15:01:109	rl	valpre	1522	1522	60	81584	00640.png	636.0	25	81587.0	748	227
128	38_valpre	38	12-12-2019	14:15:01:308	rl	valpre	1534	1534	60	81783	00645.png	641.0	25	81787.0	765	229
129	38_valpre	38	12-12-2019	14:15:01:508	rl	valpre	1546	1546	60	81983	00650.png	646.0	25	81987.0	781	218
130	38_valpre	38	12-12-2019	14:15:01:706	rl	valpre	1558	1558	60	82182	00655.png	651.0	25	82187.0	752	282
131	38_valpre	38	12-12-2019	14:15:01:906	rl	valpre	1570	1570	60	82381	00660.png	656.0	25	82387.0	735	280
132	38_valpre	38	12-12-2019	14:15:02:105	rl	valpre	1582	1582	60	82580	00665.png	661.0	25	82587.0	726	263
133	38_valpre	38	12-12-2019	14:15:02:304	rl	valpre	1594	1594	60	82779	00670.png	666.0	25	82787.0	543	143
134	38_valpre	38	12-12-2019	14:15:02:503	rl	valpre	1606	1606	60	82979	00675.png	671.0	25	82987.0	561	153
135	38_valpre	38	12-12-2019	14:15:02:719	rl	valpre	1619	1619	60	83195	00680.png	676.0	25	83187.0	579	138
136	38_valpre	38	12-12-2019	14:15:02:918	rl	valpre	1631	1631	60	83393	00685.png	681.0	25	83387.0	582	106
137	38_valpre	38	12-12-2019	14:15:03:117	rl	valpre	1643	1643	60	83593	00690.png	686.0	25	83587.0	601	130
138	38_valpre	38	12-12-2019	14:15:03:317	rl	valpre	1655	1655	60	83792	00695.png	691.0	25	83787.0	600	138
139	38_valpre	38	12-12-2019	14:15:03:516	rl	valpre	1667	1667	60	83991	00700.png	696.0	25	83987.0	602	132
140	38_valpre	38	12-12-2019	14:15:03:715	rl	valpre	1679	1679	60	84190	00705.png	701.0	25	84187.0	607	122
141	38_valpre	38	12-12-2019	14:15:03:914	rl	valpre	1689	1689	60	84389	00710.png	706.0	25	84387.0	598	127
142	38_valpre	38	12-12-2019	14:15:04:113	rl	valpre	1700	1700	60	84588	00715.png	711.0	25	84587.0	597	131
143	38_valpre	38	12-12-2019	14:15:04:312	rl	valpre	1712	1712	60	84787	00720.png	716.0	25	84787.0	606	114
144	38_valpre	38	12-12-2019	14:15:04:511	rl	valpre	1724	1724	60	84986	00725.png	721.0	25	84987.0	616	111
145	38_valpre	38	12-12-2019	14:15:04:711	rl	valpre	1736	1736	60	85186	00730.png	726.0	25	85187.0	614	106
146	38_valpre	38	12-12-2019	14:15:04:910	rl	valpre	1748	1748	60	85385	00735.png	731.0	25	85387.0	616	115
147	38_valpre	38	12-12-2019	14:15:05:109	rl	valpre	1760	1760	60	85584	00740.png	736.0	25	85587.0	615	122
148	38_valpre	38	12-12-2019	14:15:05:308	rl	valpre	1772	1772	60	85783	00745.png	741.0	25	85787.0	613	124
149	38_valpre	38	12-12-2019	14:15:05:507	rl	valpre	1784	1784	60	85982	00750.png	746.0	25	85987.0	615	140
150	38_valpre	38	12-12-2019	14:15:05:706	rl	valpre	1796	1796	60	86182	00755.png	751.0	25	86187.0	612	129
151	38_valpre	38	12-12-2019	14:15:05:905	rl	valpre	1808	1808	60	86380	00760.png	756.0	25	86387.0	612	112
152	38_valpre	38	12-12-2019	14:15:06:104	rl	valpre	1820	1820	60	86579	00765.png	761.0	25	86587.0	615	109
153	38_valpre	38	12-12-2019	14:15:06:303	rl	valpre	1832	1832	60	86779	00770.png	766.0	25	86787.0	617	107
154	38_valpre	38	12-12-2019	14:15:06:519	rl	valpre	1845	1845	60	86995	00775.png	771.0	25	86987.0	608	112
155	38_valpre	38	12-12-2019	14:15:06:718	rl	valpre	1857	1857	60	87194	00780.png	776.0	25	87187.0	605	89
156	38_valpre	38	12-12-2019	14:15:06:917	rl	valpre	1869	1869	60	87393	00785.png	781.0	25	87387.0	614	107
157	38_valpre	38	12-12-2019	14:15:07:117	rl	valpre	1881	1881	60	87592	00790.png	786.0	25	87587.0	604	111
158	38_valpre	38	12-12-2019	14:15:07:316	rl	valpre	1893	1893	60	87791	00795.png	791.0	25	87787.0	587	89
159	38_valpre	38	12-12-2019	14:15:07:515	rl	valpre	1905	1905	60	87990	00800.png	796.0	25	87987.0	570	84
160	38_valpre	38	12-12-2019	14:15:07:697	rl	valpre	1915	1915	60	88173	00805.png	801.0	25	88187.0	581	92
161	38_valpre	38	12-12-2019	14:15:07:913	rl	valpre	1927	1927	60	88388	00810.png	806.0	25	88387.0	590	150
162	38_valpre	38	12-12-2019	14:15:08:112	rl	valpre	1939	1939	60	88588	00815.png	811.0	25	88587.0	586	173
163	38_valpre	38	12-12-2019	14:15:08:311	rl	valpre	1951	1951	60	88787	00820.png	816.0	25	88787.0	606	113
164	38_valpre	38	12-12-2019	14:15:08:511	rl	valpre	1963	1963	60	88986	00825.png	821.0	25	88987.0	619	89
165	38_valpre	38	12-12-2019	14:15:08:710	rl	valpre	1975	1975	60	89185	00830.png	826.0	25	89187.0	630	123
166	38_valpre	38	12-12-2019	14:15:08:909	rl	valpre	1987	1987	60	89384	00835.png	831.0	25	89387.0	627	121
167	38_valpre	38	12-12-2019	14:15:09:108	rl	valpre	1999	1999	60	89583	00840.png	836.0	25	89587.0	636	123
168	38_valpre	38	12-12-2019	14:15:09:307	rl	valpre	2011	2011	60	89782	00845.png	841.0	25	89787.0	515	281
169	38_valpre	38	12-12-2019	14:15:09:507	rl	valpre	2023	2023	60	89982	00850.png	846.0	25	89987.0	512	284
170	38_valpre	38	12-12-2019	14:15:09:705	rl	valpre	2035	2035	60	90181	00855.png	851.0	25	90187.0	592	244
171	38_valpre	38	12-12-2019	14:15:09:905	rl	valpre	2047	2047	60	90380	00860.png	856.0	25	90387.0	586	233
172	38_valpre	38	12-12-2019	14:15:10:104	rl	valpre	2059	2059	60	90579	00865.png	861.0	25	90587.0	591	234
173	38_valpre	38	12-12-2019	14:15:10:320	rl	valpre	2072	2072	60	90795	00870.png	866.0	25	90787.0	550	237
174	38_valpre	38	12-12-2019	14:15:10:519	rl	valpre	2084	2084	60	90994	00875.png	871.0	25	90987.0	541	246
175	38_valpre	38	12-12-2019	14:15:10:718	rl	valpre	2096	2096	60	91193	00880.png	876.0	25	91187.0	541	237
176	38_valpre	38	12-12-2019	14:15:10:917	rl	valpre	2108	2108	60	91393	00885.png	881.0	25	91387.0	540	227
177	38_valpre	38	12-12-2019	14:15:11:116	rl	valpre	2120	2120	60	91591	00890.png	886.0	25	91587.0	538	218
178	38_valpre	38	12-12-2019	14:15:11:315	rl	valpre	2132	2132	60	91790	00895.png	891.0	25	91787.0	541	203
179	38_valpre	38	12-12-2019	14:15:11:514	rl	valpre	2144	2144	60	91990	00900.png	896.0	25	91987.0	529	222
180	38_valpre	38	12-12-2019	14:15:11:713	rl	valpre	2154	2154	60	92189	00905.png	901.0	25	92187.0	533	242
181	38_valpre	38	12-12-2019	14:15:11:913	rl	valpre	2166	2166	60	92388	00910.png	906.0	25	92387.0	540	235
182	38_valpre	38	12-12-2019	14:15:12:112	rl	valpre	2178	2178	60	92587	00915.png	911.0	25	92587.0	535	218
183	38_valpre	38	12-12-2019	14:15:12:311	rl	valpre	2190	2190	60	92786	00920.png	916.0	25	92787.0	541	224
184	38_valpre	38	12-12-2019	14:15:12:510	rl	valpre	2202	2202	60	92985	00925.png	921.0	25	92987.0	541	211
185	38_valpre	38	12-12-2019	14:15:12:709	rl	valpre	2214	2214	60	93184	00930.png	926.0	25	93187.0	542	231
186	38_valpre	38	12-12-2019	14:15:12:908	rl	valpre	2226	2226	60	93383	00935.png	931.0	25	93387.0	564	256
187	38_valpre	38	12-12-2019	14:15:13:107	rl	valpre	2238	2238	60	93583	00940.png	936.0	25	93587.0	565	258
188	38_valpre	38	12-12-2019	14:15:13:307	rl	valpre	2250	2250	60	93782	00945.png	941.0	25	93787.0	560	241
189	38_valpre	38	12-12-2019	14:15:13:506	rl	valpre	2262	2262	60	93981	00950.png	946.0	25	93987.0	556	228
190	38_valpre	38	12-12-2019	14:15:13:705	rl	valpre	2274	2274	60	94180	00955.png	951.0	25	94187.0	558	210
191	38_valpre	38	12-12-2019	14:15:13:904	rl	valpre	2286	2286	60	94379	00960.png	956.0	25	94387.0	606	212
192	38_valpre	38	12-12-2019	14:15:14:120	rl	valpre	2299	2299	60	94595	00965.png	961.0	25	94587.0	612	206
193	38_valpre	38	12-12-2019	14:15:14:319	rl	valpre	2311	2311	60	94794	00970.png	966.0	25	94787.0	568	226
194	38_valpre	38	12-12-2019	14:15:14:518	rl	valpre	2323	2323	60	94994	00975.png	971.0	25	94987.0	563	232
195	38_valpre	38	12-12-2019	14:15:14:717	rl	valpre	2335	2335	60	95193	00980.png	976.0	25	95187.0	589	228
196	38_valpre	38	12-12-2019	14:15:14:916	rl	valpre	2347	2347	60	95392	00985.png	981.0	25	95387.0	613	205
197	38_valpre	38	12-12-2019	14:15:15:116	rl	valpre	2359	2359	60	95591	00990.png	986.0	25	95587.0	733	228
198	38_valpre	38	12-12-2019	14:15:15:315	rl	valpre	2371	2371	60	95790	00995.png	991.0	25	95787.0	760	267
199	38_valpre	38	12-12-2019	14:15:15:498	rl	valpre	2381	2381	60	95973	01000.png	996.0	25	95987.0	721	299
200	38_valpre	38	12-12-2019	14:15:15:713	rl	valpre	2393	2393	60	96188	01005.png	1001.0	25	96187.0	683	274
201	38_valpre	38	12-12-2019	14:15:15:912	rl	valpre	2405	2405	60	96388	01010.png	1006.0	25	96387.0	686	267
202	38_valpre	38	12-12-2019	14:15:16:112	rl	valpre	2417	2417	60	96587	01015.png	1011.0	25	96587.0	702	262
203	38_valpre	38	12-12-2019	14:15:16:311	rl	valpre	2429	2429	60	96786	01020.png	1016.0	25	96787.0	700	272
204	38_valpre	38	12-12-2019	14:15:16:510	rl	valpre	2441	2441	60	96985	01025.png	1021.0	25	96987.0	698	267
