	subject_location	subject_id	date	daytime	setting_id	trial_id	sample_id	sample_n	sample_rate	sample_time_smi	frame_id	frame_n	frame_rate	frame_time_smi	fix_pos_x	fix_pos_y
0	42_valpre	42	13-12-2019	18:19:06:514	rl	valpre	11	11	60	274344	00005.png	1.0	25	274338.0	577	256
1	42_valpre	42	13-12-2019	18:19:06:713	rl	valpre	23	23	60	274544	00010.png	6.0	25	274538.0	575	249
2	42_valpre	42	13-12-2019	18:19:06:912	rl	valpre	35	35	60	274743	00015.png	11.0	25	274738.0	570	251
3	42_valpre	42	13-12-2019	18:19:07:111	rl	valpre	47	47	60	274942	00020.png	16.0	25	274938.0	573	251
4	42_valpre	42	13-12-2019	18:19:07:311	rl	valpre	59	59	60	275141	00025.png	21.0	25	275138.0	574	253
5	42_valpre	42	13-12-2019	18:19:07:510	rl	valpre	69	69	60	275340	00030.png	26.0	25	275338.0	571	257
6	42_valpre	42	13-12-2019	18:19:07:709	rl	valpre	79	79	60	275539	00035.png	31.0	25	275538.0	570	258
7	42_valpre	42	13-12-2019	18:19:07:908	rl	valpre	91	91	60	275738	00040.png	36.0	25	275738.0	569	258
8	42_valpre	42	13-12-2019	18:19:08:107	rl	valpre	103	103	60	275938	00045.png	41.0	25	275938.0	569	260
9	42_valpre	42	13-12-2019	18:19:08:306	rl	valpre	115	115	60	276137	00050.png	46.0	25	276138.0	565	261
10	42_valpre	42	13-12-2019	18:19:08:505	rl	valpre	127	127	60	276336	00055.png	51.0	25	276338.0	567	263
11	42_valpre	42	13-12-2019	18:19:08:704	rl	valpre	139	139	60	276535	00060.png	56.0	25	276538.0	564	263
12	42_valpre	42	13-12-2019	18:19:08:904	rl	valpre	151	151	60	276734	00065.png	61.0	25	276738.0	563	263
13	42_valpre	42	13-12-2019	18:19:09:103	rl	valpre	163	163	60	276934	00070.png	66.0	25	276938.0	562	266
14	42_valpre	42	13-12-2019	18:19:09:302	rl	valpre	175	175	60	277132	00075.png	71.0	25	277138.0	561	263
15	42_valpre	42	13-12-2019	18:19:09:501	rl	valpre	187	187	60	277332	00080.png	76.0	25	277338.0	560	267
16	42_valpre	42	13-12-2019	18:19:09:701	rl	valpre	199	199	60	277531	00085.png	81.0	25	277538.0	559	272
17	42_valpre	42	13-12-2019	18:19:09:899	rl	valpre	211	211	60	277730	00090.png	86.0	25	277738.0	559	270
18	42_valpre	42	13-12-2019	18:19:10:115	rl	valpre	224	224	60	277946	00095.png	91.0	25	277938.0	558	277
19	42_valpre	42	13-12-2019	18:19:10:314	rl	valpre	236	236	60	278145	00100.png	96.0	25	278138.0	416	170
20	42_valpre	42	13-12-2019	18:19:10:514	rl	valpre	248	248	60	278344	00105.png	101.0	25	278338.0	403	178
21	42_valpre	42	13-12-2019	18:19:10:712	rl	valpre	260	260	60	278543	00110.png	106.0	25	278538.0	403	170
22	42_valpre	42	13-12-2019	18:19:10:912	rl	valpre	272	272	60	278743	00115.png	111.0	25	278738.0	422	172
23	42_valpre	42	13-12-2019	18:19:11:111	rl	valpre	284	284	60	278941	00120.png	116.0	25	278938.0	422	174
24	42_valpre	42	13-12-2019	18:19:11:310	rl	valpre	296	296	60	279141	00125.png	121.0	25	279138.0	424	171
25	42_valpre	42	13-12-2019	18:19:11:509	rl	valpre	307	307	60	279340	00130.png	126.0	25	279338.0	421	168
26	42_valpre	42	13-12-2019	18:19:11:708	rl	valpre	318	318	60	279539	00135.png	131.0	25	279538.0	420	167
27	42_valpre	42	13-12-2019	18:19:11:907	rl	valpre	330	330	60	279738	00140.png	136.0	25	279738.0	420	169
28	42_valpre	42	13-12-2019	18:19:12:107	rl	valpre	342	342	60	279937	00145.png	141.0	25	279938.0	421	171
29	42_valpre	42	13-12-2019	18:19:12:306	rl	valpre	354	354	60	280136	00150.png	146.0	25	280138.0	421	173
30	42_valpre	42	13-12-2019	18:19:12:505	rl	valpre	366	366	60	280336	00155.png	151.0	25	280338.0	404	176
31	42_valpre	42	13-12-2019	18:19:12:704	rl	valpre	378	378	60	280535	00160.png	156.0	25	280538.0	404	172
32	42_valpre	42	13-12-2019	18:19:12:903	rl	valpre	390	390	60	280734	00165.png	161.0	25	280738.0	404	169
33	42_valpre	42	13-12-2019	18:19:13:102	rl	valpre	402	402	60	280933	00170.png	166.0	25	280938.0	401	172
34	42_valpre	42	13-12-2019	18:19:13:301	rl	valpre	414	414	60	281132	00175.png	171.0	25	281138.0	421	175
35	42_valpre	42	13-12-2019	18:19:13:501	rl	valpre	426	426	60	281331	00180.png	176.0	25	281338.0	421	176
36	42_valpre	42	13-12-2019	18:19:13:700	rl	valpre	438	438	60	281530	00185.png	181.0	25	281538.0	421	172
37	42_valpre	42	13-12-2019	18:19:13:916	rl	valpre	451	451	60	281746	00190.png	186.0	25	281738.0	422	170
38	42_valpre	42	13-12-2019	18:19:14:115	rl	valpre	463	463	60	281945	00195.png	191.0	25	281938.0	422	165
39	42_valpre	42	13-12-2019	18:19:14:314	rl	valpre	475	475	60	282145	00200.png	196.0	25	282138.0	421	145
40	42_valpre	42	13-12-2019	18:19:14:513	rl	valpre	487	487	60	282344	00205.png	201.0	25	282338.0	420	150
41	42_valpre	42	13-12-2019	18:19:14:712	rl	valpre	499	499	60	282543	00210.png	206.0	25	282538.0	418	156
42	42_valpre	42	13-12-2019	18:19:14:912	rl	valpre	511	511	60	282742	00215.png	211.0	25	282738.0	420	153
43	42_valpre	42	13-12-2019	18:19:15:111	rl	valpre	523	523	60	282941	00220.png	216.0	25	282938.0	423	154
44	42_valpre	42	13-12-2019	18:19:15:310	rl	valpre	534	534	60	283140	00225.png	221.0	25	283138.0	0	0
45	42_valpre	42	13-12-2019	18:19:15:508	rl	valpre	544	544	60	283339	00230.png	226.0	25	283338.0	309	338
46	42_valpre	42	13-12-2019	18:19:15:708	rl	valpre	556	556	60	283538	00235.png	231.0	25	283538.0	312	317
47	42_valpre	42	13-12-2019	18:19:15:907	rl	valpre	568	568	60	283737	00240.png	236.0	25	283738.0	288	313
48	42_valpre	42	13-12-2019	18:19:16:106	rl	valpre	580	580	60	283937	00245.png	241.0	25	283938.0	292	308
49	42_valpre	42	13-12-2019	18:19:16:305	rl	valpre	592	592	60	284136	00250.png	246.0	25	284138.0	296	307
50	42_valpre	42	13-12-2019	18:19:16:504	rl	valpre	604	604	60	284335	00255.png	251.0	25	284338.0	297	300
51	42_valpre	42	13-12-2019	18:19:16:704	rl	valpre	616	616	60	284534	00260.png	256.0	25	284538.0	301	295
52	42_valpre	42	13-12-2019	18:19:16:903	rl	valpre	628	628	60	284733	00265.png	261.0	25	284738.0	299	302
53	42_valpre	42	13-12-2019	18:19:17:102	rl	valpre	640	640	60	284932	00270.png	266.0	25	284938.0	301	299
54	42_valpre	42	13-12-2019	18:19:17:301	rl	valpre	652	652	60	285131	00275.png	271.0	25	285138.0	298	296
55	42_valpre	42	13-12-2019	18:19:17:500	rl	valpre	664	664	60	285331	00280.png	276.0	25	285338.0	299	306
56	42_valpre	42	13-12-2019	18:19:17:699	rl	valpre	676	676	60	285530	00285.png	281.0	25	285538.0	300	306
57	42_valpre	42	13-12-2019	18:19:17:899	rl	valpre	688	688	60	285730	00290.png	286.0	25	285738.0	301	297
58	42_valpre	42	13-12-2019	18:19:18:114	rl	valpre	701	701	60	285945	00295.png	291.0	25	285938.0	305	288
59	42_valpre	42	13-12-2019	18:19:18:313	rl	valpre	713	713	60	286144	00300.png	296.0	25	286138.0	305	292
60	42_valpre	42	13-12-2019	18:19:18:513	rl	valpre	725	725	60	286343	00305.png	301.0	25	286338.0	300	297
61	42_valpre	42	13-12-2019	18:19:18:712	rl	valpre	737	737	60	286542	00310.png	306.0	25	286538.0	297	296
62	42_valpre	42	13-12-2019	18:19:18:911	rl	valpre	749	749	60	286741	00315.png	311.0	25	286738.0	295	295
63	42_valpre	42	13-12-2019	18:19:19:110	rl	valpre	761	761	60	286940	00320.png	316.0	25	286938.0	292	295
64	42_valpre	42	13-12-2019	18:19:19:309	rl	valpre	772	772	60	287140	00325.png	321.0	25	287138.0	291	301
65	42_valpre	42	13-12-2019	18:19:19:508	rl	valpre	783	783	60	287339	00330.png	326.0	25	287338.0	291	292
66	42_valpre	42	13-12-2019	18:19:19:707	rl	valpre	795	795	60	287538	00335.png	331.0	25	287538.0	288	291
67	42_valpre	42	13-12-2019	18:19:19:906	rl	valpre	807	807	60	287737	00340.png	336.0	25	287738.0	289	291
68	42_valpre	42	13-12-2019	18:19:20:106	rl	valpre	819	819	60	287936	00345.png	341.0	25	287938.0	290	292
69	42_valpre	42	13-12-2019	18:19:20:305	rl	valpre	831	831	60	288135	00350.png	346.0	25	288138.0	453	297
70	42_valpre	42	13-12-2019	18:19:20:504	rl	valpre	843	843	60	288334	00355.png	351.0	25	288338.0	565	294
71	42_valpre	42	13-12-2019	18:19:20:703	rl	valpre	855	855	60	288534	00360.png	356.0	25	288538.0	614	285
72	42_valpre	42	13-12-2019	18:19:20:902	rl	valpre	867	867	60	288733	00365.png	361.0	25	288738.0	609	268
73	42_valpre	42	13-12-2019	18:19:21:101	rl	valpre	879	879	60	288932	00370.png	366.0	25	288938.0	582	279
74	42_valpre	42	13-12-2019	18:19:21:300	rl	valpre	891	891	60	289131	00375.png	371.0	25	289138.0	551	285
75	42_valpre	42	13-12-2019	18:19:21:500	rl	valpre	903	903	60	289330	00380.png	376.0	25	289338.0	554	290
76	42_valpre	42	13-12-2019	18:19:21:715	rl	valpre	916	916	60	289546	00385.png	381.0	25	289538.0	557	280
77	42_valpre	42	13-12-2019	18:19:21:914	rl	valpre	928	928	60	289745	00390.png	386.0	25	289738.0	555	276
78	42_valpre	42	13-12-2019	18:19:22:114	rl	valpre	940	940	60	289944	00395.png	391.0	25	289938.0	552	276
79	42_valpre	42	13-12-2019	18:19:22:313	rl	valpre	952	952	60	290143	00400.png	396.0	25	290138.0	557	275
80	42_valpre	42	13-12-2019	18:19:22:512	rl	valpre	964	964	60	290343	00405.png	401.0	25	290338.0	553	284
81	42_valpre	42	13-12-2019	18:19:22:711	rl	valpre	976	976	60	290541	00410.png	406.0	25	290538.0	548	287
82	42_valpre	42	13-12-2019	18:19:22:910	rl	valpre	988	988	60	290741	00415.png	411.0	25	290738.0	545	293
83	42_valpre	42	13-12-2019	18:19:23:109	rl	valpre	999	999	60	290940	00420.png	416.0	25	290938.0	546	288
84	42_valpre	42	13-12-2019	18:19:23:309	rl	valpre	1009	1009	60	291139	00425.png	421.0	25	291138.0	542	291
85	42_valpre	42	13-12-2019	18:19:23:507	rl	valpre	1021	1021	60	291338	00430.png	426.0	25	291338.0	541	293
86	42_valpre	42	13-12-2019	18:19:23:707	rl	valpre	1033	1033	60	291537	00435.png	431.0	25	291538.0	537	295
87	42_valpre	42	13-12-2019	18:19:23:906	rl	valpre	1045	1045	60	291736	00440.png	436.0	25	291738.0	539	296
88	42_valpre	42	13-12-2019	18:19:24:105	rl	valpre	1057	1057	60	291936	00445.png	441.0	25	291938.0	538	296
89	42_valpre	42	13-12-2019	18:19:24:305	rl	valpre	1069	1069	60	292135	00450.png	446.0	25	292138.0	531	306
90	42_valpre	42	13-12-2019	18:19:24:503	rl	valpre	1081	1081	60	292334	00455.png	451.0	25	292338.0	529	305
91	42_valpre	42	13-12-2019	18:19:24:702	rl	valpre	1093	1093	60	292533	00460.png	456.0	25	292538.0	528	305
92	42_valpre	42	13-12-2019	18:19:24:901	rl	valpre	1105	1105	60	292732	00465.png	461.0	25	292738.0	527	303
93	42_valpre	42	13-12-2019	18:19:25:101	rl	valpre	1117	1117	60	292931	00470.png	466.0	25	292938.0	526	298
94	42_valpre	42	13-12-2019	18:19:25:300	rl	valpre	1129	1129	60	293131	00475.png	471.0	25	293138.0	392	201
95	42_valpre	42	13-12-2019	18:19:25:499	rl	valpre	1141	1141	60	293330	00480.png	476.0	25	293338.0	381	180
96	42_valpre	42	13-12-2019	18:19:25:715	rl	valpre	1154	1154	60	293545	00485.png	481.0	25	293538.0	381	170
97	42_valpre	42	13-12-2019	18:19:25:914	rl	valpre	1166	1166	60	293744	00490.png	486.0	25	293738.0	377	177
98	42_valpre	42	13-12-2019	18:19:26:113	rl	valpre	1178	1178	60	293944	00495.png	491.0	25	293938.0	359	177
99	42_valpre	42	13-12-2019	18:19:26:313	rl	valpre	1190	1190	60	294143	00500.png	496.0	25	294138.0	384	180
100	42_valpre	42	13-12-2019	18:19:26:511	rl	valpre	1202	1202	60	294342	00505.png	501.0	25	294338.0	381	186
101	42_valpre	42	13-12-2019	18:19:26:711	rl	valpre	1214	1214	60	294541	00510.png	506.0	25	294538.0	388	176
102	42_valpre	42	13-12-2019	18:19:26:893	rl	valpre	1225	1225	60	294724	00515.png	511.0	25	294738.0	387	184
103	42_valpre	42	13-12-2019	18:19:27:109	rl	valpre	1237	1237	60	294939	00520.png	516.0	25	294938.0	385	185
104	42_valpre	42	13-12-2019	18:19:27:308	rl	valpre	1249	1249	60	295139	00525.png	521.0	25	295138.0	386	181
105	42_valpre	42	13-12-2019	18:19:27:507	rl	valpre	1261	1261	60	295338	00530.png	526.0	25	295338.0	389	177
106	42_valpre	42	13-12-2019	18:19:27:706	rl	valpre	1273	1273	60	295537	00535.png	531.0	25	295538.0	388	185
107	42_valpre	42	13-12-2019	18:19:27:906	rl	valpre	1285	1285	60	295736	00540.png	536.0	25	295738.0	387	185
108	42_valpre	42	13-12-2019	18:19:28:104	rl	valpre	1297	1297	60	295935	00545.png	541.0	25	295938.0	388	179
109	42_valpre	42	13-12-2019	18:19:28:304	rl	valpre	1309	1309	60	296134	00550.png	546.0	25	296138.0	390	171
110	42_valpre	42	13-12-2019	18:19:28:503	rl	valpre	1321	1321	60	296334	00555.png	551.0	25	296338.0	391	175
111	42_valpre	42	13-12-2019	18:19:28:702	rl	valpre	1333	1333	60	296533	00560.png	556.0	25	296538.0	390	176
112	42_valpre	42	13-12-2019	18:19:28:901	rl	valpre	1344	1344	60	296732	00565.png	561.0	25	296738.0	390	176
113	42_valpre	42	13-12-2019	18:19:29:100	rl	valpre	1356	1356	60	296931	00570.png	566.0	25	296938.0	391	177
114	42_valpre	42	13-12-2019	18:19:29:299	rl	valpre	1368	1368	60	297130	00575.png	571.0	25	297138.0	392	175
115	42_valpre	42	13-12-2019	18:19:29:515	rl	valpre	1380	1380	60	297346	00580.png	576.0	25	297338.0	395	177
116	42_valpre	42	13-12-2019	18:19:29:714	rl	valpre	1392	1392	60	297545	00585.png	581.0	25	297538.0	395	176
117	42_valpre	42	13-12-2019	18:19:29:913	rl	valpre	1404	1404	60	297744	00590.png	586.0	25	297738.0	397	173
118	42_valpre	42	13-12-2019	18:19:30:112	rl	valpre	1416	1416	60	297943	00595.png	591.0	25	297938.0	401	178
119	42_valpre	42	13-12-2019	18:19:30:312	rl	valpre	1428	1428	60	298142	00600.png	596.0	25	298138.0	286	294
120	42_valpre	42	13-12-2019	18:19:30:511	rl	valpre	1440	1440	60	298341	00605.png	601.0	25	298338.0	264	319
121	42_valpre	42	13-12-2019	18:19:30:710	rl	valpre	1452	1452	60	298541	00610.png	606.0	25	298538.0	264	323
122	42_valpre	42	13-12-2019	18:19:30:909	rl	valpre	1463	1463	60	298740	00615.png	611.0	25	298738.0	247	326
123	42_valpre	42	13-12-2019	18:19:31:108	rl	valpre	1475	1475	60	298939	00620.png	616.0	25	298938.0	244	322
124	42_valpre	42	13-12-2019	18:19:31:308	rl	valpre	1487	1487	60	299138	00625.png	621.0	25	299138.0	242	323
125	42_valpre	42	13-12-2019	18:19:31:507	rl	valpre	1499	1499	60	299337	00630.png	626.0	25	299338.0	243	324
126	42_valpre	42	13-12-2019	18:19:31:706	rl	valpre	1511	1511	60	299536	00635.png	631.0	25	299538.0	245	319
127	42_valpre	42	13-12-2019	18:19:31:905	rl	valpre	1523	1523	60	299736	00640.png	636.0	25	299738.0	249	318
128	42_valpre	42	13-12-2019	18:19:32:104	rl	valpre	1535	1535	60	299935	00645.png	641.0	25	299938.0	247	318
129	42_valpre	42	13-12-2019	18:19:32:304	rl	valpre	1547	1547	60	300134	00650.png	646.0	25	300138.0	247	316
130	42_valpre	42	13-12-2019	18:19:32:502	rl	valpre	1559	1559	60	300333	00655.png	651.0	25	300338.0	251	313
131	42_valpre	42	13-12-2019	18:19:32:702	rl	valpre	1571	1571	60	300532	00660.png	656.0	25	300538.0	253	309
132	42_valpre	42	13-12-2019	18:19:32:901	rl	valpre	1583	1583	60	300731	00665.png	661.0	25	300738.0	257	310
133	42_valpre	42	13-12-2019	18:19:33:100	rl	valpre	1595	1595	60	300930	00670.png	666.0	25	300938.0	260	308
134	42_valpre	42	13-12-2019	18:19:33:299	rl	valpre	1607	1607	60	301130	00675.png	671.0	25	301138.0	259	300
135	42_valpre	42	13-12-2019	18:19:33:515	rl	valpre	1620	1620	60	301346	00680.png	676.0	25	301338.0	261	303
136	42_valpre	42	13-12-2019	18:19:33:714	rl	valpre	1632	1632	60	301544	00685.png	681.0	25	301538.0	262	300
137	42_valpre	42	13-12-2019	18:19:33:913	rl	valpre	1644	1644	60	301744	00690.png	686.0	25	301738.0	263	299
138	42_valpre	42	13-12-2019	18:19:34:112	rl	valpre	1656	1656	60	301943	00695.png	691.0	25	301938.0	262	300
139	42_valpre	42	13-12-2019	18:19:34:311	rl	valpre	1668	1668	60	302142	00700.png	696.0	25	302138.0	257	300
140	42_valpre	42	13-12-2019	18:19:34:510	rl	valpre	1680	1680	60	302341	00705.png	701.0	25	302338.0	252	301
141	42_valpre	42	13-12-2019	18:19:34:709	rl	valpre	1691	1691	60	302540	00710.png	706.0	25	302538.0	0	0
142	42_valpre	42	13-12-2019	18:19:34:909	rl	valpre	1702	1702	60	302739	00715.png	711.0	25	302738.0	570	278
143	42_valpre	42	13-12-2019	18:19:35:108	rl	valpre	1714	1714	60	302939	00720.png	716.0	25	302938.0	567	269
144	42_valpre	42	13-12-2019	18:19:35:307	rl	valpre	1726	1726	60	303137	00725.png	721.0	25	303138.0	563	270
145	42_valpre	42	13-12-2019	18:19:35:506	rl	valpre	1738	1738	60	303337	00730.png	726.0	25	303338.0	562	271
146	42_valpre	42	13-12-2019	18:19:35:705	rl	valpre	1750	1750	60	303536	00735.png	731.0	25	303538.0	559	274
147	42_valpre	42	13-12-2019	18:19:35:904	rl	valpre	1762	1762	60	303735	00740.png	736.0	25	303738.0	559	269
148	42_valpre	42	13-12-2019	18:19:36:104	rl	valpre	1774	1774	60	303934	00745.png	741.0	25	303938.0	558	271
149	42_valpre	42	13-12-2019	18:19:36:303	rl	valpre	1786	1786	60	304133	00750.png	746.0	25	304138.0	556	272
150	42_valpre	42	13-12-2019	18:19:36:502	rl	valpre	1798	1798	60	304332	00755.png	751.0	25	304338.0	557	273
151	42_valpre	42	13-12-2019	18:19:36:701	rl	valpre	1810	1810	60	304532	00760.png	756.0	25	304538.0	557	272
152	42_valpre	42	13-12-2019	18:19:36:900	rl	valpre	1822	1822	60	304731	00765.png	761.0	25	304738.0	555	277
153	42_valpre	42	13-12-2019	18:19:37:099	rl	valpre	1834	1834	60	304930	00770.png	766.0	25	304938.0	550	281
154	42_valpre	42	13-12-2019	18:19:37:315	rl	valpre	1847	1847	60	305146	00775.png	771.0	25	305138.0	553	292
155	42_valpre	42	13-12-2019	18:19:37:514	rl	valpre	1859	1859	60	305345	00780.png	776.0	25	305338.0	552	283
156	42_valpre	42	13-12-2019	18:19:37:713	rl	valpre	1871	1871	60	305544	00785.png	781.0	25	305538.0	551	283
157	42_valpre	42	13-12-2019	18:19:37:912	rl	valpre	1883	1883	60	305743	00790.png	786.0	25	305738.0	551	290
158	42_valpre	42	13-12-2019	18:19:38:111	rl	valpre	1895	1895	60	305942	00795.png	791.0	25	305938.0	551	301
159	42_valpre	42	13-12-2019	18:19:38:311	rl	valpre	1907	1907	60	306141	00800.png	796.0	25	306138.0	551	291
