	setting_id	subject_id	date	trial_id	sample_id	frame_rate	frame_id	fix_pos_x_old	fix_pos_y_old	cam_angle_x	cam_angle_y	cam_angle_z	fix_pos_x	fix_pos_y	fix_pos_avrgd	fix_pos_diff_x	fix_pos_diff_y
0	vr	36	2019-12-16	rat_1	476	10	00260.png	481.0	382.0	0	229	0	481.0	382.0	0	0.0	0.0
1	vr	36	2019-12-16	rat_1	494	10	00270.png	383.5	453.5	360	229	360	383.5	453.5	0	0.0	0.0
2	vr	36	2019-12-16	rat_1	512	10	00280.png	382.5	450.0	0	229	360	382.5	450.0	0	0.0	0.0
3	vr	36	2019-12-16	rat_1	530	10	00290.png	480.5	443.5	0	229	360	480.5	443.5	0	0.0	0.0
4	vr	36	2019-12-16	rat_1	546	10	00300.png	484.0	445.0	1	229	359	484.0	445.0	0	0.0	0.0
5	vr	36	2019-12-16	rat_1	563	10	00310.png	331.5	421.0	1	229	360	331.5	421.0	0	0.0	0.0
6	vr	36	2019-12-16	rat_1	580	10	00320.png	307.0	416.0	1	228	0	307.0	416.0	0	0.0	0.0
7	vr	36	2019-12-16	rat_1	595	10	00330.png	269.0	409.5	1	225	1	269.0	409.5	0	0.0	0.0
8	vr	36	2019-12-16	rat_1	610	10	00340.png	294.0	406.5	2	220	2	294.0	406.5	0	0.0	0.0
9	vr	36	2019-12-16	rat_1	627	10	00350.png	207.5	390.0	2	214	3	207.5	390.0	0	0.0	0.0
10	vr	36	2019-12-16	rat_1	645	10	00360.png	264.5	390.0	3	207	3	266.0	390.0	1	-1.5	0.0
11	vr	36	2019-12-16	rat_1	646	10	00360.png	267.5	390.0	3	206	3	266.0	390.0	1	1.5	0.0
12	vr	36	2019-12-16	rat_1	662	10	00370.png	281.5	404.5	3	200	4	283.0	404.5	1	-1.5	0.0
13	vr	36	2019-12-16	rat_1	663	10	00370.png	284.5	404.5	3	199	4	283.0	404.5	1	1.5	0.0
14	vr	36	2019-12-16	rat_1	676	10	00380.png	311.5	407.0	3	195	3	312.25	407.5	1	-0.75	-0.5
15	vr	36	2019-12-16	rat_1	677	10	00380.png	313.0	408.0	2	195	3	312.25	407.5	1	0.75	0.5
16	vr	36	2019-12-16	rat_1	694	10	00390.png	357.5	358.0	0	192	2	357.5	358.0	0	0.0	0.0
17	vr	36	2019-12-16	rat_1	712	10	00400.png	353.5	368.5	358	191	1	353.5	368.5	0	0.0	0.0
18	vr	36	2019-12-16	rat_1	730	10	00410.png	361.0	335.5	358	191	1	361.0	335.5	0	0.0	0.0
19	vr	36	2019-12-16	rat_1	747	10	00420.png	291.0	420.0	359	192	1	291.0	420.0	0	0.0	0.0
20	vr	36	2019-12-16	rat_1	765	10	00430.png	460.5	430.5	0	189	1	460.5	430.5	0	0.0	0.0
21	vr	36	2019-12-16	rat_1	781	10	00440.png	484.0	429.0	2	192	1	484.0	429.0	0	0.0	0.0
22	vr	36	2019-12-16	rat_1	799	10	00450.png	581.0	406.0	1	200	0	581.0	406.0	0	0.0	0.0
23	vr	36	2019-12-16	rat_1	816	10	00460.png	501.5	407.5	2	210	360	501.5	407.5	0	0.0	0.0
24	vr	36	2019-12-16	rat_1	832	10	00470.png	536.5	447.0	2	221	358	536.5	447.0	0	0.0	0.0
25	vr	36	2019-12-16	rat_1	850	10	00480.png	592.5	429.0	3	234	357	592.5	429.0	0	0.0	0.0
26	vr	36	2019-12-16	rat_1	868	10	00490.png	518.5	425.5	4	242	356	518.5	425.5	0	0.0	0.0
27	vr	36	2019-12-16	rat_1	886	10	00500.png	627.5	407.0	5	246	357	627.5	407.0	0	0.0	0.0
28	vr	36	2019-12-16	rat_1	904	10	00510.png	632.5	400.0	5	247	357	632.5	400.0	0	0.0	0.0
29	vr	36	2019-12-16	rat_1	921	10	00520.png	465.5	414.0	5	241	359	465.5	414.0	0	0.0	0.0
30	vr	36	2019-12-16	rat_1	938	10	00530.png	345.5	414.5	5	227	360	345.5	414.5	0	0.0	0.0
31	vr	36	2019-12-16	rat_1	956	10	00540.png	295.0	413.5	4	213	1	295.0	413.5	0	0.0	0.0
32	vr	36	2019-12-16	rat_1	974	10	00550.png	307.5	412.0	3	199	1	307.5	412.0	0	0.0	0.0
33	vr	36	2019-12-16	rat_1	991	10	00560.png	271.0	409.0	2	186	2	274.5	409.25	1	-3.5	-0.25
34	vr	36	2019-12-16	rat_1	992	10	00560.png	278.0	409.5	2	186	2	274.5	409.25	1	3.5	0.25
35	vr	36	2019-12-16	rat_1	1006	10	00570.png	328.0	281.5	357	175	2	328.0	281.5	0	0.0	0.0
36	vr	36	2019-12-16	rat_1	1024	10	00580.png	359.5	234.0	351	166	2	359.5	234.0	0	0.0	0.0
37	vr	36	2019-12-16	rat_1	1042	10	00590.png	410.0	272.5	347	156	3	410.0	272.5	0	0.0	0.0
38	vr	36	2019-12-16	rat_1	1060	10	00600.png	367.0	483.0	352	152	3	367.0	483.0	0	0.0	0.0
39	vr	36	2019-12-16	rat_1	1077	10	00610.png	283.5	505.5	354	144	2	283.5	505.5	0	0.0	0.0
40	vr	36	2019-12-16	rat_1	1094	10	00620.png	210.0	475.0	355	135	3	210.0	475.0	0	0.0	0.0
41	vr	36	2019-12-16	rat_1	1111	10	00630.png	264.0	463.0	356	127	4	264.0	463.0	0	0.0	0.0
42	vr	36	2019-12-16	rat_1	1129	10	00640.png	283.5	450.5	356	122	5	283.5	450.5	0	0.0	0.0
43	vr	36	2019-12-16	rat_1	1147	10	00650.png	370.0	263.0	349	120	4	370.0	263.0	0	0.0	0.0
44	vr	36	2019-12-16	rat_1	1163	10	00660.png	383.0	231.5	337	122	3	383.25	232.0	1	-0.25	-0.5
45	vr	36	2019-12-16	rat_1	1164	10	00660.png	383.5	232.5	337	122	3	383.25	232.0	1	0.25	0.5
46	vr	36	2019-12-16	rat_1	1181	10	00670.png	367.5	242.0	332	120	4	344.25	245.25	1	23.25	-3.25
47	vr	36	2019-12-16	rat_1	1182	10	00670.png	321.0	248.5	332	120	4	344.25	245.25	1	-23.25	3.25
48	vr	36	2019-12-16	rat_1	1196	10	00680.png	379.5	207.0	327	110	7	379.5	207.0	0	0.0	0.0
49	vr	36	2019-12-16	rat_1	1211	10	00690.png	384.5	229.0	319	104	7	385.0	228.0	1	-0.5	1.0
50	vr	36	2019-12-16	rat_1	1212	10	00690.png	385.5	227.0	319	103	7	385.0	228.0	1	0.5	-1.0
51	vr	36	2019-12-16	rat_1	1230	10	00700.png	338.5	242.5	317	97	7	338.5	242.5	0	0.0	0.0
52	vr	36	2019-12-16	rat_1	1248	10	00710.png	248.0	303.0	318	88	9	248.0	303.0	0	0.0	0.0
53	vr	36	2019-12-16	rat_1	1266	10	00720.png	157.5	429.5	325	75	12	157.5	429.5	0	0.0	0.0
54	vr	36	2019-12-16	rat_1	1282	10	00730.png	160.0	475.5	335	56	17	160.0	475.5	0	0.0	0.0
55	vr	36	2019-12-16	rat_1	1299	10	00740.png	300.5	440.0	342	41	18	300.5	440.0	0	0.0	0.0
56	vr	36	2019-12-16	rat_1	1316	10	00750.png	297.0	436.0	346	33	17	297.0	436.0	0	0.0	0.0
57	vr	36	2019-12-16	rat_1	1332	10	00760.png	339.5	471.0	348	25	19	341.75	471.25	1	-2.25	-0.25
58	vr	36	2019-12-16	rat_1	1333	10	00760.png	344.0	471.5	348	25	19	341.75	471.25	1	2.25	0.25
59	vr	36	2019-12-16	rat_1	1346	10	00770.png	258.0	409.5	349	17	18	259.75	410.0	1	-1.75	-0.5
60	vr	36	2019-12-16	rat_1	1347	10	00770.png	261.5	410.5	349	16	18	259.75	410.0	1	1.75	0.5
61	vr	36	2019-12-16	rat_1	1361	10	00780.png	260.5	398.5	349	10	15	261.25	398.75	1	-0.75	-0.25
62	vr	36	2019-12-16	rat_1	1362	10	00780.png	262.0	399.0	349	9	15	261.25	398.75	1	0.75	0.25
63	vr	36	2019-12-16	rat_1	1377	10	00790.png	159.5	392.5	351	4	12	159.5	392.5	0	0.0	0.0
64	vr	36	2019-12-16	rat_1	1394	10	00800.png	226.0	402.0	352	359	11	226.0	402.0	0	0.0	0.0
65	vr	36	2019-12-16	rat_1	1412	10	00810.png	412.5	411.0	352	358	12	412.5	411.0	0	0.0	0.0
66	vr	36	2019-12-16	rat_1	1430	10	00820.png	462.5	444.0	350	4	12	462.5	444.0	0	0.0	0.0
67	vr	36	2019-12-16	rat_1	1447	10	00830.png	514.0	379.5	346	15	13	514.0	379.5	0	0.0	0.0
68	vr	36	2019-12-16	rat_1	1465	10	00840.png	448.0	464.0	346	26	13	448.0	464.0	0	0.0	0.0
69	vr	36	2019-12-16	rat_1	1483	10	00850.png	491.5	416.5	345	31	13	491.5	416.5	0	0.0	0.0
70	vr	36	2019-12-16	rat_1	1500	10	00860.png	461.5	421.0	343	36	13	459.75	421.0	1	1.75	0.0
71	vr	36	2019-12-16	rat_1	1501	10	00860.png	458.0	421.0	343	36	13	459.75	421.0	1	-1.75	0.0
72	vr	36	2019-12-16	rat_1	1517	10	00870.png	461.5	419.0	341	43	12	461.5	419.0	0	0.0	0.0
73	vr	36	2019-12-16	rat_1	1534	10	00880.png	463.5	380.0	337	54	11	463.5	380.0	0	0.0	0.0
74	vr	36	2019-12-16	rat_1	1550	10	00890.png	479.0	328.5	331	67	10	477.25	327.75	1	1.75	0.75
75	vr	36	2019-12-16	rat_1	1551	10	00890.png	475.5	327.0	331	68	10	477.25	327.75	1	-1.75	-0.75
76	vr	36	2019-12-16	rat_1	1567	10	00900.png	612.5	303.0	329	83	6	610.0	304.25	1	2.5	-1.25
77	vr	36	2019-12-16	rat_1	1568	10	00900.png	607.5	305.5	329	84	6	610.0	304.25	1	-2.5	1.25
78	vr	36	2019-12-16	rat_1	1583	10	00910.png	493.5	322.0	332	102	2	493.5	322.0	0	0.0	0.0
79	vr	36	2019-12-16	rat_1	1600	10	00920.png	537.0	368.0	339	120	357	537.0	368.0	0	0.0	0.0
80	vr	36	2019-12-16	rat_1	1618	10	00930.png	591.0	482.0	346	133	355	591.0	482.0	0	0.0	0.0
81	vr	36	2019-12-16	rat_1	1634	10	00940.png	662.0	448.0	354	143	355	662.0	448.0	0	0.0	0.0
82	vr	36	2019-12-16	rat_1	1652	10	00950.png	544.0	371.5	359	154	357	544.0	371.5	0	0.0	0.0
83	vr	36	2019-12-16	rat_1	1670	10	00960.png	474.5	371.5	2	164	357	474.5	371.5	0	0.0	0.0
84	vr	36	2019-12-16	rat_1	1687	10	00970.png	475.5	387.5	3	171	356	473.75	387.5	1	1.75	0.0
85	vr	36	2019-12-16	rat_1	1688	10	00970.png	472.0	387.5	3	172	356	473.75	387.5	1	-1.75	0.0
86	vr	36	2019-12-16	rat_1	1701	10	00980.png	552.5	413.0	4	177	357	554.5	414.0	1	-2.0	-1.0
87	vr	36	2019-12-16	rat_1	1702	10	00980.png	556.5	415.0	4	177	357	554.5	414.0	1	2.0	1.0
88	vr	36	2019-12-16	rat_1	1719	10	00990.png	522.0	414.5	5	181	359	522.0	414.5	0	0.0	0.0
89	vr	36	2019-12-16	rat_1	1737	10	01000.png	499.0	408.5	7	186	359	499.0	408.5	0	0.0	0.0
