setting_id,setting_start,trial_n,trial_id,trial_person_n,check,comments,subject_id
vr,rl,,valpre,,"3,99",,34
vr,rl,1,loc_1,6,,,34
vr,rl,1,loc_2,6,,,34
vr,rl,2,gas_1,11,,,34
vr,rl,2,gas_2,11,,,34
vr,rl,3,rat_1,20,,,34
vr,rl,3,rat_2,20,,,34
vr,rl,4,bac_1,12,,,34
vr,rl,4,bac_2,12,,,34
vr,rl,5,reg_1,4,,,34
vr,rl,5,reg_2,4,,,34
vr,rl,,valpost,,"3,63",,34
