setting_id,setting_start,trial_n,trial_id,trial_person_n,check,comments,subject_id
vr,vr,,valpre,,"2,98",,37
vr,vr,1,loc_1,6,,,37
vr,vr,1,loc_2,6,,,37
vr,vr,2,gas_1,11,,,37
vr,vr,2,gas_2,11,,,37
vr,vr,3,rat_1,20,,,37
vr,vr,3,rat_2,20,,,37
vr,vr,4,bac_1,12,,,37
vr,vr,4,bac_2,12,,,37
vr,vr,5,reg_1,4,,,37
vr,vr,5,reg_2,4,,,37
vr,vr,,valpost,,"3,22",,37
