setting_id,setting_start,trial_n,trial_id,trial_person_n,check,comments,subject_id
vr,rl,,valpre,,"2,07",,36
vr,rl,1,reg_1,4,,,36
vr,rl,1,reg_2,4,,,36
vr,rl,2,bac_1,12,,,36
vr,rl,2,bac_2,12,,,36
vr,rl,3,rat_1,20,,,36
vr,rl,3,rat_2,20,,,36
vr,rl,4,gas_1,11,,,36
vr,rl,4,gas_2,11,,,36
vr,rl,5,loc_1,6,,,36
vr,rl,5,loc_2,6,,,36
vr,rl,,valpost,,"2,08",,36
