setting_id;setting_start;trial_n;trial_id;trial_person_n;check;comments;subject_id
vr;rl;;valpre;;5,02;;16
vr;rl;1;reg_1;4;;;16
vr;rl;1;reg_2;4;;;16
vr;rl;2;bac_1;12;;;16
vr;rl;2;bac_2;12;;;16
vr;rl;3;rat_1;20;;;16
vr;rl;3;rat_2;20;;;16
vr;rl;4;gas_1;11;;;16
vr;rl;4;gas_2;11;;;16
vr;rl;5;loc_1;6;;;16
vr;rl;5;loc_2;6;;;16
vr;rl;;valpost;;2,47;;16