	subject_location	subject_id	date	daytime	setting_id	trial_id	sample_id	sample_n	sample_rate	sample_time_smi	frame_id	frame_n	frame_rate	frame_time_smi	fix_pos_x	fix_pos_y
0	30_bac	30	03-12-2019	19:13:34:167	rl	bac	997	997	60	2027116	00027.png	1.0	25	2027117.0	818	361
1	30_bac	30	03-12-2019	19:13:34:365	rl	bac	1009	1009	60	2027315	00032.png	6.0	25	2027317.0	700	389
2	30_bac	30	03-12-2019	19:13:34:565	rl	bac	1021	1021	60	2027514	00037.png	11.0	25	2027517.0	696	355
3	30_bac	30	03-12-2019	19:13:34:764	rl	bac	1033	1033	60	2027713	00042.png	16.0	25	2027717.0	702	374
4	30_bac	30	03-12-2019	19:13:34:963	rl	bac	1045	1045	60	2027913	00047.png	21.0	25	2027917.0	699	345
5	30_bac	30	03-12-2019	19:13:35:162	rl	bac	1057	1057	60	2028111	00052.png	26.0	25	2028117.0	213	-567
6	30_bac	30	03-12-2019	19:13:35:362	rl	bac	1069	1069	60	2028311	00057.png	31.0	25	2028317.0	100	-1165
7	30_bac	30	03-12-2019	19:13:35:561	rl	bac	1081	1081	60	2028510	00062.png	36.0	25	2028517.0	-67	-2161
8	30_bac	30	03-12-2019	19:13:35:760	rl	bac	1092	1092	60	2028709	00067.png	41.0	25	2028717.0	-7480	-312816
9	30_bac	30	03-12-2019	19:13:35:976	rl	bac	1105	1105	60	2028925	00072.png	46.0	25	2028917.0	549	4556
10	30_bac	30	03-12-2019	19:13:36:175	rl	bac	1117	1117	60	2029124	00077.png	51.0	25	2029117.0	400	2096
11	30_bac	30	03-12-2019	19:13:36:374	rl	bac	1129	1129	60	2029323	00082.png	56.0	25	2029317.0	345	1916
12	30_bac	30	03-12-2019	19:13:36:573	rl	bac	1141	1141	60	2029522	00087.png	61.0	25	2029517.0	183	1256
13	30_bac	30	03-12-2019	19:13:36:772	rl	bac	1153	1153	60	2029721	00092.png	66.0	25	2029717.0	163	912
14	30_bac	30	03-12-2019	19:13:36:971	rl	bac	1165	1165	60	2029920	00097.png	71.0	25	2029917.0	0	0
15	30_bac	30	03-12-2019	19:13:37:170	rl	bac	1177	1177	60	2030119	00102.png	76.0	25	2030117.0	854	2914
16	30_bac	30	03-12-2019	19:13:37:369	rl	bac	1189	1189	60	2030318	00107.png	81.0	25	2030317.0	174	922
17	30_bac	30	03-12-2019	19:13:37:568	rl	bac	1201	1201	60	2030517	00112.png	86.0	25	2030517.0	-100	856
18	30_bac	30	03-12-2019	19:13:37:768	rl	bac	1213	1213	60	2030717	00117.png	91.0	25	2030717.0	-218	168
19	30_bac	30	03-12-2019	19:13:37:967	rl	bac	1225	1225	60	2030916	00122.png	96.0	25	2030917.0	-142	99
20	30_bac	30	03-12-2019	19:13:38:166	rl	bac	1237	1237	60	2031115	00127.png	101.0	25	2031117.0	361	6023
21	30_bac	30	03-12-2019	19:13:38:365	rl	bac	1249	1249	60	2031314	00132.png	106.0	25	2031317.0	76	2638
22	30_bac	30	03-12-2019	19:13:38:565	rl	bac	1261	1261	60	2031514	00137.png	111.0	25	2031517.0	-512	-2166
23	30_bac	30	03-12-2019	19:13:38:763	rl	bac	1273	1273	60	2031713	00142.png	116.0	25	2031717.0	383	410
24	30_bac	30	03-12-2019	19:13:38:962	rl	bac	1285	1285	60	2031912	00147.png	121.0	25	2031917.0	512	273
25	30_bac	30	03-12-2019	19:13:39:162	rl	bac	1297	1297	60	2032111	00152.png	126.0	25	2032117.0	369	198
26	30_bac	30	03-12-2019	19:13:39:361	rl	bac	1309	1309	60	2032310	00157.png	131.0	25	2032317.0	-51	-354
27	30_bac	30	03-12-2019	19:13:39:577	rl	bac	1320	1320	60	2032526	00162.png	136.0	25	2032517.0	-149	-569
28	30_bac	30	03-12-2019	19:13:39:776	rl	bac	1331	1331	60	2032725	00167.png	141.0	25	2032717.0	-305	-1290
29	30_bac	30	03-12-2019	19:13:39:975	rl	bac	1343	1343	60	2032924	00172.png	146.0	25	2032917.0	887	10613
30	30_bac	30	03-12-2019	19:13:40:174	rl	bac	1355	1355	60	2033123	00177.png	151.0	25	2033117.0	5132	56198
31	30_bac	30	03-12-2019	19:13:40:373	rl	bac	1367	1367	60	2033322	00182.png	156.0	25	2033317.0	-141	-2023
32	30_bac	30	03-12-2019	19:13:40:572	rl	bac	1379	1379	60	2033521	00187.png	161.0	25	2033517.0	-2035	-1837
33	30_bac	30	03-12-2019	19:13:40:772	rl	bac	1391	1391	60	2033721	00192.png	166.0	25	2033717.0	-1616	-1916
34	30_bac	30	03-12-2019	19:13:40:971	rl	bac	1403	1403	60	2033920	00197.png	171.0	25	2033917.0	216	1085
35	30_bac	30	03-12-2019	19:13:41:170	rl	bac	1415	1415	60	2034119	00202.png	176.0	25	2034117.0	307	3926
36	30_bac	30	03-12-2019	19:13:41:369	rl	bac	1427	1427	60	2034318	00207.png	181.0	25	2034317.0	526	9782
37	30_bac	30	03-12-2019	19:13:41:568	rl	bac	1439	1439	60	2034517	00212.png	186.0	25	2034517.0	3262	55610
38	30_bac	30	03-12-2019	19:13:41:767	rl	bac	1451	1451	60	2034716	00217.png	191.0	25	2034717.0	63	1617
39	30_bac	30	03-12-2019	19:13:41:966	rl	bac	1463	1463	60	2034916	00222.png	196.0	25	2034917.0	-1299	-453
40	30_bac	30	03-12-2019	19:13:42:166	rl	bac	1475	1475	60	2035115	00227.png	201.0	25	2035117.0	-624	1594
41	30_bac	30	03-12-2019	19:13:42:365	rl	bac	1487	1487	60	2035314	00232.png	206.0	25	2035317.0	-1781	-6406
42	30_bac	30	03-12-2019	19:13:42:564	rl	bac	1499	1499	60	2035513	00237.png	211.0	25	2035517.0	-100	-636
43	30_bac	30	03-12-2019	19:13:42:763	rl	bac	1511	1511	60	2035712	00242.png	216.0	25	2035717.0	156	-411
44	30_bac	30	03-12-2019	19:13:42:962	rl	bac	1523	1523	60	2035911	00247.png	221.0	25	2035917.0	898	-272
45	30_bac	30	03-12-2019	19:13:43:161	rl	bac	1535	1535	60	2036110	00252.png	226.0	25	2036117.0	984	-140
46	30_bac	30	03-12-2019	19:13:43:360	rl	bac	1546	1546	60	2036309	00257.png	231.0	25	2036317.0	645	-140
47	30_bac	30	03-12-2019	19:13:43:576	rl	bac	1557	1557	60	2036525	00262.png	236.0	25	2036517.0	596	56
48	30_bac	30	03-12-2019	19:13:43:775	rl	bac	1569	1569	60	2036724	00267.png	241.0	25	2036717.0	334	-15784
49	30_bac	30	03-12-2019	19:13:43:975	rl	bac	1581	1581	60	2036924	00272.png	246.0	25	2036917.0	360	-4211
50	30_bac	30	03-12-2019	19:13:44:174	rl	bac	1593	1593	60	2037123	00277.png	251.0	25	2037117.0	0	0
51	30_bac	30	03-12-2019	19:13:44:373	rl	bac	1605	1605	60	2037322	00282.png	256.0	25	2037317.0	-212	-650
52	30_bac	30	03-12-2019	19:13:44:572	rl	bac	1617	1617	60	2037521	00287.png	261.0	25	2037517.0	67	-457
53	30_bac	30	03-12-2019	19:13:44:771	rl	bac	1629	1629	60	2037720	00292.png	266.0	25	2037717.0	303	-504
54	30_bac	30	03-12-2019	19:13:44:970	rl	bac	1641	1641	60	2037919	00297.png	271.0	25	2037917.0	-240	-490
55	30_bac	30	03-12-2019	19:13:45:169	rl	bac	1653	1653	60	2038118	00302.png	276.0	25	2038117.0	-41	-319
56	30_bac	30	03-12-2019	19:13:45:369	rl	bac	1665	1665	60	2038318	00307.png	281.0	25	2038317.0	121	-385
57	30_bac	30	03-12-2019	19:13:45:568	rl	bac	1677	1677	60	2038517	00312.png	286.0	25	2038517.0	-126	-1309
58	30_bac	30	03-12-2019	19:13:45:767	rl	bac	1689	1689	60	2038716	00317.png	291.0	25	2038717.0	43	-1090
59	30_bac	30	03-12-2019	19:13:45:966	rl	bac	1701	1701	60	2038915	00322.png	296.0	25	2038917.0	130	-1554
60	30_bac	30	03-12-2019	19:13:46:165	rl	bac	1713	1713	60	2039114	00327.png	301.0	25	2039117.0	161	-2283
61	30_bac	30	03-12-2019	19:13:46:364	rl	bac	1725	1725	60	2039313	00332.png	306.0	25	2039317.0	103	-4224
62	30_bac	30	03-12-2019	19:13:46:563	rl	bac	1737	1737	60	2039512	00337.png	311.0	25	2039517.0	447	-345
63	30_bac	30	03-12-2019	19:13:46:762	rl	bac	1749	1749	60	2039711	00342.png	316.0	25	2039717.0	674	-24
64	30_bac	30	03-12-2019	19:13:46:962	rl	bac	1761	1761	60	2039911	00347.png	321.0	25	2039917.0	716	80
65	30_bac	30	03-12-2019	19:13:47:161	rl	bac	1773	1773	60	2040110	00352.png	326.0	25	2040117.0	653	208
66	30_bac	30	03-12-2019	19:13:47:360	rl	bac	1783	1783	60	2040309	00357.png	331.0	25	2040317.0	655	169
67	30_bac	30	03-12-2019	19:13:47:575	rl	bac	1796	1796	60	2040524	00362.png	336.0	25	2040517.0	573	213
68	30_bac	30	03-12-2019	19:13:47:774	rl	bac	1808	1808	60	2040724	00367.png	341.0	25	2040717.0	598	200
69	30_bac	30	03-12-2019	19:13:47:974	rl	bac	1820	1820	60	2040923	00372.png	346.0	25	2040917.0	575	218
70	30_bac	30	03-12-2019	19:13:48:173	rl	bac	1832	1832	60	2041122	00377.png	351.0	25	2041117.0	524	408
71	30_bac	30	03-12-2019	19:13:48:372	rl	bac	1844	1844	60	2041321	00382.png	356.0	25	2041317.0	460	380
72	30_bac	30	03-12-2019	19:13:48:571	rl	bac	1856	1856	60	2041520	00387.png	361.0	25	2041517.0	422	365
73	30_bac	30	03-12-2019	19:13:48:771	rl	bac	1868	1868	60	2041720	00392.png	366.0	25	2041717.0	704	359
74	30_bac	30	03-12-2019	19:13:48:970	rl	bac	1880	1880	60	2041919	00397.png	371.0	25	2041917.0	693	331
75	30_bac	30	03-12-2019	19:13:49:169	rl	bac	1892	1892	60	2042118	00402.png	376.0	25	2042117.0	714	126
76	30_bac	30	03-12-2019	19:13:49:368	rl	bac	1904	1904	60	2042317	00407.png	381.0	25	2042317.0	704	145
77	30_bac	30	03-12-2019	19:13:49:567	rl	bac	1916	1916	60	2042516	00412.png	386.0	25	2042517.0	382	-434
78	30_bac	30	03-12-2019	19:13:49:766	rl	bac	1928	1928	60	2042715	00417.png	391.0	25	2042717.0	558	9785
79	30_bac	30	03-12-2019	19:13:49:965	rl	bac	1940	1940	60	2042915	00422.png	396.0	25	2042917.0	-28	2285
80	30_bac	30	03-12-2019	19:13:50:164	rl	bac	1952	1952	60	2043113	00427.png	401.0	25	2043117.0	-252	1638
81	30_bac	30	03-12-2019	19:13:50:364	rl	bac	1964	1964	60	2043313	00432.png	406.0	25	2043317.0	-1725	-2170
82	30_bac	30	03-12-2019	19:13:50:563	rl	bac	1976	1976	60	2043512	00437.png	411.0	25	2043517.0	14499	36288
83	30_bac	30	03-12-2019	19:13:50:762	rl	bac	1988	1988	60	2043711	00442.png	416.0	25	2043717.0	0	0
84	30_bac	30	03-12-2019	19:13:50:961	rl	bac	2000	2000	60	2043910	00447.png	421.0	25	2043917.0	5	1136
85	30_bac	30	03-12-2019	19:13:51:160	rl	bac	2011	2011	60	2044109	00452.png	426.0	25	2044117.0	0	0
86	30_bac	30	03-12-2019	19:13:51:376	rl	bac	2023	2023	60	2044325	00457.png	431.0	25	2044317.0	177	-960
87	30_bac	30	03-12-2019	19:13:51:575	rl	bac	2035	2035	60	2044524	00462.png	436.0	25	2044517.0	0	0
88	30_bac	30	03-12-2019	19:13:51:774	rl	bac	2047	2047	60	2044723	00467.png	441.0	25	2044717.0	63	-1405
89	30_bac	30	03-12-2019	19:13:51:974	rl	bac	2059	2059	60	2044923	00472.png	446.0	25	2044917.0	-368	864
90	30_bac	30	03-12-2019	19:13:52:173	rl	bac	2071	2071	60	2045122	00477.png	451.0	25	2045117.0	124	-242
91	30_bac	30	03-12-2019	19:13:52:372	rl	bac	2083	2083	60	2045321	00482.png	456.0	25	2045317.0	-420	-2590
92	30_bac	30	03-12-2019	19:13:52:571	rl	bac	2095	2095	60	2045520	00487.png	461.0	25	2045517.0	-68	2593
93	30_bac	30	03-12-2019	19:13:52:770	rl	bac	2107	2107	60	2045719	00492.png	466.0	25	2045717.0	417	-1909
94	30_bac	30	03-12-2019	19:13:52:969	rl	bac	2119	2119	60	2045918	00497.png	471.0	25	2045917.0	617	-2187
95	30_bac	30	03-12-2019	19:13:53:168	rl	bac	2131	2131	60	2046117	00502.png	476.0	25	2046117.0	-305	-23501
96	30_bac	30	03-12-2019	19:13:53:367	rl	bac	2143	2143	60	2046316	00507.png	481.0	25	2046317.0	370	-2696
97	30_bac	30	03-12-2019	19:13:53:566	rl	bac	2155	2155	60	2046515	00512.png	486.0	25	2046517.0	803	-1098
98	30_bac	30	03-12-2019	19:13:53:765	rl	bac	2167	2167	60	2046715	00517.png	491.0	25	2046717.0	583	-856
99	30_bac	30	03-12-2019	19:13:53:965	rl	bac	2179	2179	60	2046914	00522.png	496.0	25	2046917.0	270	-5431
100	30_bac	30	03-12-2019	19:13:54:164	rl	bac	2191	2191	60	2047113	00527.png	501.0	25	2047117.0	125	-4835
101	30_bac	30	03-12-2019	19:13:54:363	rl	bac	2203	2203	60	2047312	00532.png	506.0	25	2047317.0	226	-1126
102	30_bac	30	03-12-2019	19:13:54:562	rl	bac	2215	2215	60	2047511	00537.png	511.0	25	2047517.0	816	-8461
103	30_bac	30	03-12-2019	19:13:54:761	rl	bac	2227	2227	60	2047710	00542.png	516.0	25	2047717.0	-410	-3013
104	30_bac	30	03-12-2019	19:13:54:960	rl	bac	2238	2238	60	2047909	00547.png	521.0	25	2047917.0	-189	-1236
105	30_bac	30	03-12-2019	19:13:55:160	rl	bac	2250	2250	60	2048109	00552.png	526.0	25	2048117.0	-230	-714
106	30_bac	30	03-12-2019	19:13:55:375	rl	bac	2263	2263	60	2048324	00557.png	531.0	25	2048317.0	-17	-1479
107	30_bac	30	03-12-2019	19:13:55:575	rl	bac	2275	2275	60	2048524	00562.png	536.0	25	2048517.0	-4	-1531
108	30_bac	30	03-12-2019	19:13:55:774	rl	bac	2287	2287	60	2048723	00567.png	541.0	25	2048717.0	-916	-12014
109	30_bac	30	03-12-2019	19:13:55:973	rl	bac	2299	2299	60	2048922	00572.png	546.0	25	2048917.0	-84	-1005
110	30_bac	30	03-12-2019	19:13:56:172	rl	bac	2311	2311	60	2049121	00577.png	551.0	25	2049117.0	-564	-965
111	30_bac	30	03-12-2019	19:13:56:371	rl	bac	2323	2323	60	2049320	00582.png	556.0	25	2049317.0	-403	-817
112	30_bac	30	03-12-2019	19:13:56:570	rl	bac	2335	2335	60	2049520	00587.png	561.0	25	2049517.0	-222	-609
113	30_bac	30	03-12-2019	19:13:56:770	rl	bac	2347	2347	60	2049719	00592.png	566.0	25	2049717.0	-220	-556
114	30_bac	30	03-12-2019	19:13:56:968	rl	bac	2359	2359	60	2049917	00597.png	571.0	25	2049917.0	-334	-612
115	30_bac	30	03-12-2019	19:13:57:168	rl	bac	2371	2371	60	2050117	00602.png	576.0	25	2050117.0	139	-287
116	30_bac	30	03-12-2019	19:13:57:367	rl	bac	2383	2383	60	2050316	00607.png	581.0	25	2050317.0	340	-107
117	30_bac	30	03-12-2019	19:13:57:566	rl	bac	2395	2395	60	2050515	00612.png	586.0	25	2050517.0	640	-163
118	30_bac	30	03-12-2019	19:13:57:765	rl	bac	2407	2407	60	2050714	00617.png	591.0	25	2050717.0	819	-273
119	30_bac	30	03-12-2019	19:13:57:964	rl	bac	2419	2419	60	2050913	00622.png	596.0	25	2050917.0	810	-96
120	30_bac	30	03-12-2019	19:13:58:163	rl	bac	2431	2431	60	2051112	00627.png	601.0	25	2051117.0	714	419
121	30_bac	30	03-12-2019	19:13:58:362	rl	bac	2443	2443	60	2051312	00632.png	606.0	25	2051317.0	637	617
122	30_bac	30	03-12-2019	19:13:58:562	rl	bac	2455	2455	60	2051511	00637.png	611.0	25	2051517.0	603	684
123	30_bac	30	03-12-2019	19:13:58:761	rl	bac	2467	2467	60	2051710	00642.png	616.0	25	2051717.0	330	212
124	30_bac	30	03-12-2019	19:13:58:960	rl	bac	2477	2477	60	2051909	00647.png	621.0	25	2051917.0	59	1698
125	30_bac	30	03-12-2019	19:13:59:159	rl	bac	2489	2489	60	2052109	00652.png	626.0	25	2052117.0	-392	-307
126	30_bac	30	03-12-2019	19:13:59:375	rl	bac	2502	2502	60	2052324	00657.png	631.0	25	2052317.0	-28950	-32034
127	30_bac	30	03-12-2019	19:13:59:574	rl	bac	2514	2514	60	2052523	00662.png	636.0	25	2052517.0	-2361	-193
128	30_bac	30	03-12-2019	19:13:59:773	rl	bac	2526	2526	60	2052722	00667.png	641.0	25	2052717.0	-563	1570
129	30_bac	30	03-12-2019	19:13:59:972	rl	bac	2538	2538	60	2052921	00672.png	646.0	25	2052917.0	-13776	-79043
130	30_bac	30	03-12-2019	19:14:00:172	rl	bac	2550	2550	60	2053121	00677.png	651.0	25	2053117.0	-647	-2508
131	30_bac	30	03-12-2019	19:14:00:371	rl	bac	2562	2562	60	2053320	00682.png	656.0	25	2053317.0	-443	-1519
132	30_bac	30	03-12-2019	19:14:00:570	rl	bac	2574	2574	60	2053519	00687.png	661.0	25	2053517.0	-850	-4920
133	30_bac	30	03-12-2019	19:14:00:769	rl	bac	2586	2586	60	2053718	00692.png	666.0	25	2053717.0	15348	116739
134	30_bac	30	03-12-2019	19:14:00:968	rl	bac	2598	2598	60	2053917	00697.png	671.0	25	2053917.0	423	6538
135	30_bac	30	03-12-2019	19:14:01:167	rl	bac	2610	2610	60	2054116	00702.png	676.0	25	2054117.0	-831	-968
136	30_bac	30	03-12-2019	19:14:01:367	rl	bac	2622	2622	60	2054316	00707.png	681.0	25	2054317.0	358	933
137	30_bac	30	03-12-2019	19:14:01:566	rl	bac	2634	2634	60	2054515	00712.png	686.0	25	2054517.0	-713	-2080
138	30_bac	30	03-12-2019	19:14:01:765	rl	bac	2646	2646	60	2054714	00717.png	691.0	25	2054717.0	106	732
139	30_bac	30	03-12-2019	19:14:01:964	rl	bac	2658	2658	60	2054913	00722.png	696.0	25	2054917.0	346	1194
140	30_bac	30	03-12-2019	19:14:02:163	rl	bac	2670	2670	60	2055112	00727.png	701.0	25	2055117.0	-164	-821
141	30_bac	30	03-12-2019	19:14:02:362	rl	bac	2682	2682	60	2055311	00732.png	706.0	25	2055317.0	43	-313
142	30_bac	30	03-12-2019	19:14:02:562	rl	bac	2694	2694	60	2055511	00737.png	711.0	25	2055517.0	742	3875
143	30_bac	30	03-12-2019	19:14:02:760	rl	bac	2705	2705	60	2055709	00742.png	716.0	25	2055717.0	514	1427
144	30_bac	30	03-12-2019	19:14:02:960	rl	bac	2717	2717	60	2055909	00747.png	721.0	25	2055917.0	249	209
145	30_bac	30	03-12-2019	19:14:03:176	rl	bac	2730	2730	60	2056125	00752.png	726.0	25	2056117.0	569	774
146	30_bac	30	03-12-2019	19:14:03:375	rl	bac	2742	2742	60	2056324	00757.png	731.0	25	2056317.0	332	412
147	30_bac	30	03-12-2019	19:14:03:574	rl	bac	2754	2754	60	2056523	00762.png	736.0	25	2056517.0	-1847	-9794
148	30_bac	30	03-12-2019	19:14:03:773	rl	bac	2766	2766	60	2056722	00767.png	741.0	25	2056717.0	417	526
149	30_bac	30	03-12-2019	19:14:03:972	rl	bac	2778	2778	60	2056921	00772.png	746.0	25	2056917.0	386	266
