	subject_location	subject_id	date	daytime	setting_id	trial_id	sample_id	sample_n	sample_rate	sample_time_smi	frame_id	frame_n	frame_rate	frame_time_smi	fix_pos_x	fix_pos_y
0	30_gas	30	03-12-2019	19:02:00:886	rl	gas	961	961	60	1333841	00032.png	1.0	25	1333836.0	978	116
1	30_gas	30	03-12-2019	19:02:01:085	rl	gas	973	973	60	1334040	00037.png	6.0	25	1334036.0	833	159
2	30_gas	30	03-12-2019	19:02:01:284	rl	gas	985	985	60	1334239	00042.png	11.0	25	1334236.0	781	167
3	30_gas	30	03-12-2019	19:02:01:484	rl	gas	997	997	60	1334438	00047.png	16.0	25	1334436.0	797	166
4	30_gas	30	03-12-2019	19:02:01:682	rl	gas	1009	1009	60	1334637	00052.png	21.0	25	1334636.0	526	279
5	30_gas	30	03-12-2019	19:02:01:882	rl	gas	1021	1021	60	1334836	00057.png	26.0	25	1334836.0	441	301
6	30_gas	30	03-12-2019	19:02:02:081	rl	gas	1033	1033	60	1335035	00062.png	31.0	25	1335036.0	405	311
7	30_gas	30	03-12-2019	19:02:02:280	rl	gas	1045	1045	60	1335234	00067.png	36.0	25	1335236.0	435	395
8	30_gas	30	03-12-2019	19:02:02:479	rl	gas	1057	1057	60	1335434	00072.png	41.0	25	1335436.0	377	411
9	30_gas	30	03-12-2019	19:02:02:678	rl	gas	1069	1069	60	1335633	00077.png	46.0	25	1335636.0	1006	294
10	30_gas	30	03-12-2019	19:02:02:877	rl	gas	1081	1081	60	1335832	00082.png	51.0	25	1335836.0	21	367
11	30_gas	30	03-12-2019	19:02:03:077	rl	gas	1093	1093	60	1336031	00087.png	56.0	25	1336036.0	-431	565
12	30_gas	30	03-12-2019	19:02:03:276	rl	gas	1105	1105	60	1336231	00092.png	61.0	25	1336236.0	-841	753
13	30_gas	30	03-12-2019	19:02:03:475	rl	gas	1117	1117	60	1336430	00097.png	66.0	25	1336436.0	-3342	1792
14	30_gas	30	03-12-2019	19:02:03:674	rl	gas	1129	1129	60	1336628	00102.png	71.0	25	1336636.0	-914	862
15	30_gas	30	03-12-2019	19:02:03:873	rl	gas	1141	1141	60	1336828	00107.png	76.0	25	1336836.0	747	179
16	30_gas	30	03-12-2019	19:02:04:089	rl	gas	1154	1154	60	1337043	00112.png	81.0	25	1337036.0	1043	101
17	30_gas	30	03-12-2019	19:02:04:288	rl	gas	1166	1166	60	1337243	00117.png	86.0	25	1337236.0	611	163
18	30_gas	30	03-12-2019	19:02:04:487	rl	gas	1177	1177	60	1337442	00122.png	91.0	25	1337436.0	690	143
19	30_gas	30	03-12-2019	19:02:04:686	rl	gas	1189	1189	60	1337641	00127.png	96.0	25	1337636.0	324	163
20	30_gas	30	03-12-2019	19:02:04:886	rl	gas	1201	1201	60	1337840	00132.png	101.0	25	1337836.0	365	202
21	30_gas	30	03-12-2019	19:02:05:084	rl	gas	1213	1213	60	1338039	00137.png	106.0	25	1338036.0	523	210
22	30_gas	30	03-12-2019	19:02:05:284	rl	gas	1225	1225	60	1338239	00142.png	111.0	25	1338236.0	650	214
23	30_gas	30	03-12-2019	19:02:05:483	rl	gas	1237	1237	60	1338437	00147.png	116.0	25	1338436.0	1183	106
24	30_gas	30	03-12-2019	19:02:05:682	rl	gas	1249	1249	60	1338637	00152.png	121.0	25	1338636.0	224	502
25	30_gas	30	03-12-2019	19:02:05:881	rl	gas	1261	1261	60	1338836	00157.png	126.0	25	1338836.0	381	436
26	30_gas	30	03-12-2019	19:02:06:081	rl	gas	1273	1273	60	1339035	00162.png	131.0	25	1339036.0	623	322
27	30_gas	30	03-12-2019	19:02:06:280	rl	gas	1285	1285	60	1339234	00167.png	136.0	25	1339236.0	-30844	19706
28	30_gas	30	03-12-2019	19:02:06:479	rl	gas	1297	1297	60	1339433	00172.png	141.0	25	1339436.0	583	351
29	30_gas	30	03-12-2019	19:02:06:678	rl	gas	1309	1309	60	1339633	00177.png	146.0	25	1339636.0	-341	497
30	30_gas	30	03-12-2019	19:02:06:877	rl	gas	1321	1321	60	1339831	00182.png	151.0	25	1339836.0	246	265
31	30_gas	30	03-12-2019	19:02:07:076	rl	gas	1333	1333	60	1340031	00187.png	156.0	25	1340036.0	1061	-43
32	30_gas	30	03-12-2019	19:02:07:275	rl	gas	1345	1345	60	1340230	00192.png	161.0	25	1340236.0	613	-2
33	30_gas	30	03-12-2019	19:02:07:475	rl	gas	1357	1357	60	1340429	00197.png	166.0	25	1340436.0	521	87
34	30_gas	30	03-12-2019	19:02:07:674	rl	gas	1369	1369	60	1340628	00202.png	171.0	25	1340636.0	1358	25
35	30_gas	30	03-12-2019	19:02:07:889	rl	gas	1382	1382	60	1340844	00207.png	176.0	25	1340836.0	1099	97
36	30_gas	30	03-12-2019	19:02:08:089	rl	gas	1394	1394	60	1341043	00212.png	181.0	25	1341036.0	879	179
37	30_gas	30	03-12-2019	19:02:08:288	rl	gas	1405	1405	60	1341242	00217.png	186.0	25	1341236.0	837	122
38	30_gas	30	03-12-2019	19:02:08:487	rl	gas	1417	1417	60	1341441	00222.png	191.0	25	1341436.0	862	122
39	30_gas	30	03-12-2019	19:02:08:686	rl	gas	1429	1429	60	1341641	00227.png	196.0	25	1341636.0	938	123
40	30_gas	30	03-12-2019	19:02:08:885	rl	gas	1441	1441	60	1341840	00232.png	201.0	25	1341836.0	1030	199
41	30_gas	30	03-12-2019	19:02:09:084	rl	gas	1453	1453	60	1342039	00237.png	206.0	25	1342036.0	217	321
42	30_gas	30	03-12-2019	19:02:09:283	rl	gas	1465	1465	60	1342238	00242.png	211.0	25	1342236.0	347	353
43	30_gas	30	03-12-2019	19:02:09:482	rl	gas	1477	1477	60	1342437	00247.png	216.0	25	1342436.0	984	279
44	30_gas	30	03-12-2019	19:02:09:682	rl	gas	1489	1489	60	1342636	00252.png	221.0	25	1342636.0	830	318
45	30_gas	30	03-12-2019	19:02:09:881	rl	gas	1501	1501	60	1342836	00257.png	226.0	25	1342836.0	524	325
46	30_gas	30	03-12-2019	19:02:10:080	rl	gas	1513	1513	60	1343035	00262.png	231.0	25	1343036.0	-2210	1352
47	30_gas	30	03-12-2019	19:02:10:279	rl	gas	1525	1525	60	1343234	00267.png	236.0	25	1343236.0	-266	526
48	30_gas	30	03-12-2019	19:02:10:478	rl	gas	1537	1537	60	1343433	00272.png	241.0	25	1343436.0	149	309
49	30_gas	30	03-12-2019	19:02:10:677	rl	gas	1549	1549	60	1343632	00277.png	246.0	25	1343636.0	282	172
50	30_gas	30	03-12-2019	19:02:10:877	rl	gas	1561	1561	60	1343831	00282.png	251.0	25	1343836.0	412	170
51	30_gas	30	03-12-2019	19:02:11:076	rl	gas	1573	1573	60	1344030	00287.png	256.0	25	1344036.0	526	108
52	30_gas	30	03-12-2019	19:02:11:275	rl	gas	1585	1585	60	1344230	00292.png	261.0	25	1344236.0	803	155
53	30_gas	30	03-12-2019	19:02:11:474	rl	gas	1597	1597	60	1344429	00297.png	266.0	25	1344436.0	133	213
54	30_gas	30	03-12-2019	19:02:11:673	rl	gas	1609	1609	60	1344628	00302.png	271.0	25	1344636.0	419	170
55	30_gas	30	03-12-2019	19:02:11:889	rl	gas	1622	1622	60	1344844	00307.png	276.0	25	1344836.0	415	241
56	30_gas	30	03-12-2019	19:02:12:088	rl	gas	1632	1632	60	1345043	00312.png	281.0	25	1345036.0	564	242
57	30_gas	30	03-12-2019	19:02:12:287	rl	gas	1643	1643	60	1345241	00317.png	286.0	25	1345236.0	854	245
58	30_gas	30	03-12-2019	19:02:12:486	rl	gas	1655	1655	60	1345441	00322.png	291.0	25	1345436.0	480	416
59	30_gas	30	03-12-2019	19:02:12:686	rl	gas	1667	1667	60	1345640	00327.png	296.0	25	1345636.0	1287	34
60	30_gas	30	03-12-2019	19:02:12:885	rl	gas	1679	1679	60	1345839	00332.png	301.0	25	1345836.0	1524	-10
61	30_gas	30	03-12-2019	19:02:13:084	rl	gas	1691	1691	60	1346038	00337.png	306.0	25	1346036.0	1172	48
62	30_gas	30	03-12-2019	19:02:13:283	rl	gas	1703	1703	60	1346237	00342.png	311.0	25	1346236.0	681	88
63	30_gas	30	03-12-2019	19:02:13:482	rl	gas	1715	1715	60	1346437	00347.png	316.0	25	1346436.0	588	107
64	30_gas	30	03-12-2019	19:02:13:681	rl	gas	1727	1727	60	1346635	00352.png	321.0	25	1346636.0	581	117
65	30_gas	30	03-12-2019	19:02:13:880	rl	gas	1739	1739	60	1346835	00357.png	326.0	25	1346836.0	610	88
66	30_gas	30	03-12-2019	19:02:14:080	rl	gas	1751	1751	60	1347034	00362.png	331.0	25	1347036.0	803	55
67	30_gas	30	03-12-2019	19:02:14:279	rl	gas	1763	1763	60	1347233	00367.png	336.0	25	1347236.0	713	135
68	30_gas	30	03-12-2019	19:02:14:478	rl	gas	1775	1775	60	1347433	00372.png	341.0	25	1347436.0	665	166
69	30_gas	30	03-12-2019	19:02:14:677	rl	gas	1787	1787	60	1347632	00377.png	346.0	25	1347636.0	-487	481
70	30_gas	30	03-12-2019	19:02:14:876	rl	gas	1799	1799	60	1347831	00382.png	351.0	25	1347836.0	-775	737
71	30_gas	30	03-12-2019	19:02:15:075	rl	gas	1811	1811	60	1348030	00387.png	356.0	25	1348036.0	-821	769
72	30_gas	30	03-12-2019	19:02:15:274	rl	gas	1823	1823	60	1348229	00392.png	361.0	25	1348236.0	-280	653
73	30_gas	30	03-12-2019	19:02:15:474	rl	gas	1835	1835	60	1348428	00397.png	366.0	25	1348436.0	872	328
74	30_gas	30	03-12-2019	19:02:15:689	rl	gas	1848	1848	60	1348644	00402.png	371.0	25	1348636.0	741	333
75	30_gas	30	03-12-2019	19:02:15:888	rl	gas	1860	1860	60	1348843	00407.png	376.0	25	1348836.0	407	332
76	30_gas	30	03-12-2019	19:02:16:088	rl	gas	1870	1870	60	1349042	00412.png	381.0	25	1349036.0	406	277
77	30_gas	30	03-12-2019	19:02:16:287	rl	gas	1881	1881	60	1349241	00417.png	386.0	25	1349236.0	360	326
78	30_gas	30	03-12-2019	19:02:16:486	rl	gas	1893	1893	60	1349440	00422.png	391.0	25	1349436.0	360	311
79	30_gas	30	03-12-2019	19:02:16:685	rl	gas	1905	1905	60	1349640	00427.png	396.0	25	1349636.0	0	0
80	30_gas	30	03-12-2019	19:02:16:884	rl	gas	1917	1917	60	1349839	00432.png	401.0	25	1349836.0	0	0
81	30_gas	30	03-12-2019	19:02:17:083	rl	gas	1929	1929	60	1350038	00437.png	406.0	25	1350036.0	0	0
82	30_gas	30	03-12-2019	19:02:17:282	rl	gas	1941	1941	60	1350237	00442.png	411.0	25	1350236.0	377	341
83	30_gas	30	03-12-2019	19:02:17:482	rl	gas	1953	1953	60	1350436	00447.png	416.0	25	1350436.0	387	331
84	30_gas	30	03-12-2019	19:02:17:681	rl	gas	1965	1965	60	1350636	00452.png	421.0	25	1350636.0	0	0
85	30_gas	30	03-12-2019	19:02:17:880	rl	gas	1977	1977	60	1350834	00457.png	426.0	25	1350836.0	4070	-1016
86	30_gas	30	03-12-2019	19:02:18:079	rl	gas	1989	1989	60	1351034	00462.png	431.0	25	1351036.0	-22592	6775
87	30_gas	30	03-12-2019	19:02:18:278	rl	gas	2001	2001	60	1351233	00467.png	436.0	25	1351236.0	144	202
88	30_gas	30	03-12-2019	19:02:18:477	rl	gas	2013	2013	60	1351432	00472.png	441.0	25	1351436.0	-711	374
89	30_gas	30	03-12-2019	19:02:18:676	rl	gas	2025	2025	60	1351631	00477.png	446.0	25	1351636.0	-687	454
90	30_gas	30	03-12-2019	19:02:18:876	rl	gas	2037	2037	60	1351830	00482.png	451.0	25	1351836.0	-284	289
91	30_gas	30	03-12-2019	19:02:19:075	rl	gas	2049	2049	60	1352029	00487.png	456.0	25	1352036.0	-499	355
92	30_gas	30	03-12-2019	19:02:19:274	rl	gas	2061	2061	60	1352228	00492.png	461.0	25	1352236.0	-2099	809
93	30_gas	30	03-12-2019	19:02:19:473	rl	gas	2073	2073	60	1352428	00497.png	466.0	25	1352436.0	-228	359
94	30_gas	30	03-12-2019	19:02:19:689	rl	gas	2086	2086	60	1352644	00502.png	471.0	25	1352636.0	339	242
95	30_gas	30	03-12-2019	19:02:19:888	rl	gas	2096	2096	60	1352842	00507.png	476.0	25	1352836.0	646	169
96	30_gas	30	03-12-2019	19:02:20:087	rl	gas	2108	2108	60	1353041	00512.png	481.0	25	1353036.0	767	148
97	30_gas	30	03-12-2019	19:02:20:286	rl	gas	2120	2120	60	1353241	00517.png	486.0	25	1353236.0	0	0
98	30_gas	30	03-12-2019	19:02:20:485	rl	gas	2132	2132	60	1353440	00522.png	491.0	25	1353436.0	860	123
99	30_gas	30	03-12-2019	19:02:20:684	rl	gas	2144	2144	60	1353639	00527.png	496.0	25	1353636.0	815	146
100	30_gas	30	03-12-2019	19:02:20:884	rl	gas	2156	2156	60	1353838	00532.png	501.0	25	1353836.0	827	142
101	30_gas	30	03-12-2019	19:02:21:083	rl	gas	2168	2168	60	1354037	00537.png	506.0	25	1354036.0	852	162
102	30_gas	30	03-12-2019	19:02:21:282	rl	gas	2180	2180	60	1354236	00542.png	511.0	25	1354236.0	465	314
103	30_gas	30	03-12-2019	19:02:21:481	rl	gas	2192	2192	60	1354435	00547.png	516.0	25	1354436.0	408	308
104	30_gas	30	03-12-2019	19:02:21:680	rl	gas	2204	2204	60	1354635	00552.png	521.0	25	1354636.0	193	354
105	30_gas	30	03-12-2019	19:02:21:879	rl	gas	2216	2216	60	1354834	00557.png	526.0	25	1354836.0	939	185
106	30_gas	30	03-12-2019	19:02:22:079	rl	gas	2228	2228	60	1355033	00562.png	531.0	25	1355036.0	495	308
107	30_gas	30	03-12-2019	19:02:22:278	rl	gas	2240	2240	60	1355232	00567.png	536.0	25	1355236.0	357	357
108	30_gas	30	03-12-2019	19:02:22:477	rl	gas	2252	2252	60	1355431	00572.png	541.0	25	1355436.0	777	110
109	30_gas	30	03-12-2019	19:02:22:676	rl	gas	2264	2264	60	1355630	00577.png	546.0	25	1355636.0	952	48
110	30_gas	30	03-12-2019	19:02:22:875	rl	gas	2276	2276	60	1355829	00582.png	551.0	25	1355836.0	-807	47
111	30_gas	30	03-12-2019	19:02:23:074	rl	gas	2288	2288	60	1356029	00587.png	556.0	25	1356036.0	1034	-4
112	30_gas	30	03-12-2019	19:02:23:273	rl	gas	2300	2300	60	1356228	00592.png	561.0	25	1356236.0	1355	-123
113	30_gas	30	03-12-2019	19:02:23:489	rl	gas	2313	2313	60	1356444	00597.png	566.0	25	1356436.0	774	33
114	30_gas	30	03-12-2019	19:02:23:689	rl	gas	2325	2325	60	1356643	00602.png	571.0	25	1356636.0	741	66
115	30_gas	30	03-12-2019	19:02:23:888	rl	gas	2336	2336	60	1356842	00607.png	576.0	25	1356836.0	1710	-171
116	30_gas	30	03-12-2019	19:02:24:086	rl	gas	2348	2348	60	1357041	00612.png	581.0	25	1357036.0	-2789	2123
117	30_gas	30	03-12-2019	19:02:24:286	rl	gas	2360	2360	60	1357240	00617.png	586.0	25	1357236.0	743	839
118	30_gas	30	03-12-2019	19:02:24:485	rl	gas	2372	2372	60	1357440	00622.png	591.0	25	1357436.0	1031	1409
119	30_gas	30	03-12-2019	19:02:24:684	rl	gas	2384	2384	60	1357638	00627.png	596.0	25	1357636.0	1201	1891
120	30_gas	30	03-12-2019	19:02:24:883	rl	gas	2396	2396	60	1357838	00632.png	601.0	25	1357836.0	1074	1435
121	30_gas	30	03-12-2019	19:02:25:082	rl	gas	2408	2408	60	1358037	00637.png	606.0	25	1358036.0	343	1337
122	30_gas	30	03-12-2019	19:02:25:281	rl	gas	2420	2420	60	1358236	00642.png	611.0	25	1358236.0	2374	-827
123	30_gas	30	03-12-2019	19:02:25:480	rl	gas	2432	2432	60	1358435	00647.png	616.0	25	1358436.0	911	-8
124	30_gas	30	03-12-2019	19:02:25:680	rl	gas	2444	2444	60	1358634	00652.png	621.0	25	1358636.0	462	97
125	30_gas	30	03-12-2019	19:02:25:879	rl	gas	2456	2456	60	1358833	00657.png	626.0	25	1358836.0	41	184
126	30_gas	30	03-12-2019	19:02:26:078	rl	gas	2468	2468	60	1359033	00662.png	631.0	25	1359036.0	197	184
127	30_gas	30	03-12-2019	19:02:26:277	rl	gas	2480	2480	60	1359232	00667.png	636.0	25	1359236.0	339	170
128	30_gas	30	03-12-2019	19:02:26:476	rl	gas	2492	2492	60	1359431	00672.png	641.0	25	1359436.0	444	173
129	30_gas	30	03-12-2019	19:02:26:675	rl	gas	2504	2504	60	1359630	00677.png	646.0	25	1359636.0	120	226
130	30_gas	30	03-12-2019	19:02:26:874	rl	gas	2516	2516	60	1359829	00682.png	651.0	25	1359836.0	1054	232
131	30_gas	30	03-12-2019	19:02:27:073	rl	gas	2528	2528	60	1360028	00687.png	656.0	25	1360036.0	1191	152
132	30_gas	30	03-12-2019	19:02:27:289	rl	gas	2541	2541	60	1360244	00692.png	661.0	25	1360236.0	1227	64
133	30_gas	30	03-12-2019	19:02:27:488	rl	gas	2552	2552	60	1360443	00697.png	666.0	25	1360436.0	659	321
134	30_gas	30	03-12-2019	19:02:27:687	rl	gas	2564	2564	60	1360642	00702.png	671.0	25	1360636.0	817	252
135	30_gas	30	03-12-2019	19:02:27:887	rl	gas	2576	2576	60	1360841	00707.png	676.0	25	1360836.0	1270	127
136	30_gas	30	03-12-2019	19:02:28:086	rl	gas	2588	2588	60	1361041	00712.png	681.0	25	1361036.0	5642	-2009
137	30_gas	30	03-12-2019	19:02:28:285	rl	gas	2600	2600	60	1361240	00717.png	686.0	25	1361236.0	277	396
138	30_gas	30	03-12-2019	19:02:28:485	rl	gas	2612	2612	60	1361439	00722.png	691.0	25	1361436.0	-76	513
139	30_gas	30	03-12-2019	19:02:28:684	rl	gas	2624	2624	60	1361638	00727.png	696.0	25	1361636.0	-1056	883
140	30_gas	30	03-12-2019	19:02:28:883	rl	gas	2636	2636	60	1361838	00732.png	701.0	25	1361836.0	102	329
141	30_gas	30	03-12-2019	19:02:29:082	rl	gas	2648	2648	60	1362036	00737.png	706.0	25	1362036.0	570	126
142	30_gas	30	03-12-2019	19:02:29:281	rl	gas	2660	2660	60	1362236	00742.png	711.0	25	1362236.0	313	296
143	30_gas	30	03-12-2019	19:02:29:480	rl	gas	2672	2672	60	1362435	00747.png	716.0	25	1362436.0	462	100
144	30_gas	30	03-12-2019	19:02:29:679	rl	gas	2684	2684	60	1362634	00752.png	721.0	25	1362636.0	149	127
145	30_gas	30	03-12-2019	19:02:29:878	rl	gas	2696	2696	60	1362833	00757.png	726.0	25	1362836.0	424	120
146	30_gas	30	03-12-2019	19:02:30:077	rl	gas	2708	2708	60	1363032	00762.png	731.0	25	1363036.0	360	158
147	30_gas	30	03-12-2019	19:02:30:276	rl	gas	2720	2720	60	1363231	00767.png	736.0	25	1363236.0	427	107
148	30_gas	30	03-12-2019	19:02:30:476	rl	gas	2732	2732	60	1363431	00772.png	741.0	25	1363436.0	639	-273
149	30_gas	30	03-12-2019	19:02:30:675	rl	gas	2744	2744	60	1363630	00777.png	746.0	25	1363636.0	2207	-1221
