	setting_id	subject_id	date	trial_id	sample_id	frame_rate	frame_id	fix_pos_x_old	fix_pos_y_old	cam_angle_x	cam_angle_y	cam_angle_z	fix_pos_x	fix_pos_y	fix_pos_avrgd	fix_pos_diff_x	fix_pos_diff_y
0	vr	17	2019-10-29	valpost	473	10	00260.png	444.5	451.5	3	182	2	444.5	451.5	0	0.0	0.0
1	vr	17	2019-10-29	valpost	491	10	00270.png	470.0	472.0	3	182	2	470.0	472.0	0	0.0	0.0
2	vr	17	2019-10-29	valpost	508	10	00280.png	462.0	469.5	3	183	2	462.0	469.5	0	0.0	0.0
3	vr	17	2019-10-29	valpost	526	10	00290.png	457.0	465.0	4	185	2	457.0	465.0	0	0.0	0.0
4	vr	17	2019-10-29	valpost	543	10	00300.png	447.0	466.0	4	186	2	447.0	466.0	0	0.0	0.0
5	vr	17	2019-10-29	valpost	560	10	00310.png	443.0	459.0	5	188	1	443.0	459.0	0	0.0	0.0
6	vr	17	2019-10-29	valpost	577	10	00320.png	442.0	458.5	5	188	1	442.0	458.5	0	0.0	0.0
7	vr	17	2019-10-29	valpost	578	10	00320.png	442.0	458.5	5	188	1	442.0	458.5	0	0.0	0.0
8	vr	17	2019-10-29	valpost	593	10	00330.png	442.5	459.0	5	188	1	442.5	459.0	0	0.0	0.0
9	vr	17	2019-10-29	valpost	610	10	00340.png	440.5	459.0	5	188	1	440.5	459.0	0	0.0	0.0
10	vr	17	2019-10-29	valpost	628	10	00350.png	441.0	459.0	4	187	1	441.0	459.0	0	0.0	0.0
11	vr	17	2019-10-29	valpost	645	10	00360.png	442.5	457.5	4	187	1	442.5	457.5	0	0.0	0.0
12	vr	17	2019-10-29	valpost	646	10	00360.png	442.5	457.5	4	187	1	442.5	457.5	0	0.0	0.0
13	vr	17	2019-10-29	valpost	661	10	00370.png	390.5	415.5	4	187	1	390.5	415.5	0	0.0	0.0
14	vr	17	2019-10-29	valpost	678	10	00380.png	389.5	415.0	4	187	1	389.5	415.0	0	0.0	0.0
15	vr	17	2019-10-29	valpost	696	10	00390.png	342.5	417.0	4	187	1	342.5	417.0	0	0.0	0.0
16	vr	17	2019-10-29	valpost	714	10	00400.png	283.0	440.5	5	186	1	283.0	440.5	0	0.0	0.0
17	vr	17	2019-10-29	valpost	732	10	00410.png	341.5	367.5	5	185	1	341.5	367.5	0	0.0	0.0
18	vr	17	2019-10-29	valpost	750	10	00420.png	346.0	370.0	4	185	1	346.0	370.0	0	0.0	0.0
19	vr	17	2019-10-29	valpost	767	10	00430.png	351.0	371.0	4	184	1	351.0	371.0	0	0.0	0.0
20	vr	17	2019-10-29	valpost	785	10	00440.png	358.5	371.5	4	184	1	358.5	371.5	0	0.0	0.0
21	vr	17	2019-10-29	valpost	803	10	00450.png	368.5	369.0	4	183	1	368.5	369.0	0	0.0	0.0
22	vr	17	2019-10-29	valpost	821	10	00460.png	371.5	370.5	3	183	1	371.5	370.5	0	0.0	0.0
23	vr	17	2019-10-29	valpost	839	10	00470.png	374.5	372.0	3	183	1	374.5	372.0	0	0.0	0.0
24	vr	17	2019-10-29	valpost	856	10	00480.png	374.0	371.0	3	183	1	374.0	371.0	0	0.0	0.0
25	vr	17	2019-10-29	valpost	874	10	00490.png	373.5	371.0	3	183	1	373.5	371.0	0	0.0	0.0
26	vr	17	2019-10-29	valpost	891	10	00500.png	374.0	372.0	3	183	2	374.0	372.0	0	0.0	0.0
27	vr	17	2019-10-29	valpost	909	10	00510.png	373.5	369.5	3	183	2	373.5	369.5	0	0.0	0.0
28	vr	17	2019-10-29	valpost	927	10	00520.png	317.0	433.5	3	183	2	317.0	433.5	0	0.0	0.0
29	vr	17	2019-10-29	valpost	944	10	00530.png	289.5	444.0	3	183	2	289.5	444.0	0	0.0	0.0
30	vr	17	2019-10-29	valpost	962	10	00540.png	289.5	444.0	4	183	2	289.5	444.0	0	0.0	0.0
31	vr	17	2019-10-29	valpost	980	10	00550.png	372.0	399.5	4	182	2	372.0	399.5	0	0.0	0.0
32	vr	17	2019-10-29	valpost	998	10	00560.png	372.0	400.5	3	182	1	372.0	400.5	0	0.0	0.0
33	vr	17	2019-10-29	valpost	1016	10	00570.png	278.5	447.0	4	182	2	278.5	447.0	0	0.0	0.0
34	vr	17	2019-10-29	valpost	1033	10	00580.png	277.5	446.5	4	182	2	277.5	446.5	0	0.0	0.0
35	vr	17	2019-10-29	valpost	1050	10	00590.png	279.0	442.0	4	181	2	279.0	442.0	0	0.0	0.0
36	vr	17	2019-10-29	valpost	1069	10	00600.png	288.0	440.0	4	180	2	288.0	440.0	0	0.0	0.0
37	vr	17	2019-10-29	valpost	1086	10	00610.png	290.0	439.5	4	180	2	290.0	439.5	0	0.0	0.0
38	vr	17	2019-10-29	valpost	1104	10	00620.png	289.0	440.0	4	179	2	289.0	440.0	0	0.0	0.0
39	vr	17	2019-10-29	valpost	1121	10	00630.png	288.0	440.0	4	179	2	288.0	440.0	0	0.0	0.0
40	vr	17	2019-10-29	valpost	1138	10	00640.png	287.0	441.0	4	179	2	287.5	441.0	1	-0.5	0.0
41	vr	17	2019-10-29	valpost	1139	10	00640.png	288.0	441.0	4	179	2	287.5	441.0	1	0.5	0.0
42	vr	17	2019-10-29	valpost	1156	10	00650.png	288.5	438.5	4	179	2	288.5	438.5	0	0.0	0.0
43	vr	17	2019-10-29	valpost	1174	10	00660.png	285.5	447.0	4	179	2	285.5	447.0	0	0.0	0.0
44	vr	17	2019-10-29	valpost	1191	10	00670.png	336.0	430.0	4	179	1	336.0	430.0	0	0.0	0.0
45	vr	17	2019-10-29	valpost	1209	10	00680.png	337.0	432.5	4	179	1	337.0	432.5	0	0.0	0.0
46	vr	17	2019-10-29	valpost	1227	10	00690.png	385.5	388.5	4	179	1	385.5	388.5	0	0.0	0.0
47	vr	17	2019-10-29	valpost	1244	10	00700.png	383.5	387.5	4	180	1	383.5	387.5	0	0.0	0.0
48	vr	17	2019-10-29	valpost	1262	10	00710.png	385.0	387.0	4	180	1	385.0	387.0	0	0.0	0.0
49	vr	17	2019-10-29	valpost	1279	10	00720.png	383.5	388.0	4	180	2	383.5	388.0	0	0.0	0.0
50	vr	17	2019-10-29	valpost	1297	10	00730.png	450.0	452.5	5	180	2	450.0	452.5	0	0.0	0.0
51	vr	17	2019-10-29	valpost	1314	10	00740.png	448.0	451.5	5	181	2	447.75	451.5	1	0.25	0.0
52	vr	17	2019-10-29	valpost	1315	10	00740.png	447.5	451.5	5	181	2	447.75	451.5	1	-0.25	0.0
53	vr	17	2019-10-29	valpost	1329	10	00750.png	422.0	424.0	5	181	2	422.0	424.0	0	0.0	0.0
54	vr	17	2019-10-29	valpost	1347	10	00760.png	389.5	397.5	5	180	2	389.5	397.5	0	0.0	0.0
55	vr	17	2019-10-29	valpost	1365	10	00770.png	475.0	469.5	5	181	2	475.0	469.5	0	0.0	0.0
56	vr	17	2019-10-29	valpost	1383	10	00780.png	470.0	464.5	5	182	2	470.0	464.5	0	0.0	0.0
57	vr	17	2019-10-29	valpost	1401	10	00790.png	462.5	462.0	5	183	2	462.5	462.0	0	0.0	0.0
58	vr	17	2019-10-29	valpost	1419	10	00800.png	456.0	461.0	5	185	2	456.0	461.0	0	0.0	0.0
59	vr	17	2019-10-29	valpost	1435	10	00810.png	454.0	458.5	5	185	2	454.0	458.5	0	0.0	0.0
60	vr	17	2019-10-29	valpost	1453	10	00820.png	454.5	460.0	5	184	2	454.5	460.0	0	0.0	0.0
61	vr	17	2019-10-29	valpost	1471	10	00830.png	456.5	462.5	4	184	2	456.5	462.5	0	0.0	0.0
62	vr	17	2019-10-29	valpost	1488	10	00840.png	455.5	462.5	4	184	2	455.5	462.5	0	0.0	0.0
63	vr	17	2019-10-29	valpost	1489	10	00840.png	455.5	462.5	4	184	2	455.5	462.5	0	0.0	0.0
64	vr	17	2019-10-29	valpost	1503	10	00850.png	457.5	463.0	4	184	2	457.5	463.0	0	0.0	0.0
65	vr	17	2019-10-29	valpost	1520	10	00860.png	457.0	462.5	4	184	2	456.75	462.5	1	0.25	0.0
66	vr	17	2019-10-29	valpost	1521	10	00860.png	456.5	462.5	4	184	2	456.75	462.5	1	-0.25	0.0
67	vr	17	2019-10-29	valpost	1538	10	00870.png	459.0	463.0	4	184	2	459.0	463.0	0	0.0	0.0
68	vr	17	2019-10-29	valpost	1556	10	00880.png	458.0	462.5	4	184	2	458.0	462.5	0	0.0	0.0
69	vr	17	2019-10-29	valpost	1573	10	00890.png	460.0	471.5	4	184	2	460.0	471.5	0	0.0	0.0
70	vr	17	2019-10-29	valpost	1591	10	00900.png	388.0	399.0	4	184	2	388.0	399.0	0	0.0	0.0
71	vr	17	2019-10-29	valpost	1609	10	00910.png	374.0	381.5	4	183	2	374.0	381.5	0	0.0	0.0
72	vr	17	2019-10-29	valpost	1626	10	00920.png	366.0	372.5	4	183	2	366.0	372.5	0	0.0	0.0
73	vr	17	2019-10-29	valpost	1644	10	00930.png	364.0	373.5	4	183	2	364.0	373.5	0	0.0	0.0
74	vr	17	2019-10-29	valpost	1661	10	00940.png	367.0	374.0	4	182	2	367.0	374.0	0	0.0	0.0
75	vr	17	2019-10-29	valpost	1679	10	00950.png	402.5	379.0	3	181	2	402.5	379.0	0	0.0	0.0
76	vr	17	2019-10-29	valpost	1697	10	00960.png	404.0	372.0	3	180	2	404.0	372.0	0	0.0	0.0
77	vr	17	2019-10-29	valpost	1715	10	00970.png	406.5	371.5	3	180	2	406.5	371.5	0	0.0	0.0
78	vr	17	2019-10-29	valpost	1733	10	00980.png	411.5	373.5	3	179	2	411.5	373.5	0	0.0	0.0
79	vr	17	2019-10-29	valpost	1750	10	00990.png	410.0	374.5	3	179	2	410.0	374.5	0	0.0	0.0
80	vr	17	2019-10-29	valpost	1768	10	01000.png	410.5	373.5	3	179	2	410.5	373.5	0	0.0	0.0
