	setting_id	subject_id	date	trial_id	sample_id	frame_rate	frame_id	fix_pos_x_old	fix_pos_y_old	cam_angle_x	cam_angle_y	cam_angle_z	fix_pos_x	fix_pos_y	fix_pos_avrgd	fix_pos_diff_x	fix_pos_diff_y
0	vr	17	2019-10-29	rat_2	471	10	00260.png	398.0	426.5	2	196	2	398.0	426.5	0	0.0	0.0
1	vr	17	2019-10-29	rat_2	489	10	00270.png	393.0	434.0	2	196	2	393.0	434.0	0	0.0	0.0
2	vr	17	2019-10-29	rat_2	507	10	00280.png	390.5	439.0	2	196	2	390.5	439.0	0	0.0	0.0
3	vr	17	2019-10-29	rat_2	525	10	00290.png	322.5	425.5	2	197	2	322.5	425.5	0	0.0	0.0
4	vr	17	2019-10-29	rat_2	542	10	00300.png	316.0	426.0	2	197	2	316.0	426.0	0	0.0	0.0
5	vr	17	2019-10-29	rat_2	560	10	00310.png	0.0	840.0	2	197	2	0.0	840.0	0	0.0	0.0
6	vr	17	2019-10-29	rat_2	577	10	00320.png	427.0	458.0	2	198	2	427.0	458.0	0	0.0	0.0
7	vr	17	2019-10-29	rat_2	594	10	00330.png	421.5	456.5	2	200	2	421.5	456.5	0	0.0	0.0
8	vr	17	2019-10-29	rat_2	611	10	00340.png	477.0	474.0	2	204	2	477.0	474.0	0	0.0	0.0
9	vr	17	2019-10-29	rat_2	627	10	00350.png	459.0	470.5	2	207	2	458.5	470.5	1	0.5	0.0
10	vr	17	2019-10-29	rat_2	628	10	00350.png	458.0	470.5	2	208	2	458.5	470.5	1	-0.5	0.0
11	vr	17	2019-10-29	rat_2	645	10	00360.png	512.0	453.5	2	214	2	512.0	453.5	0	0.0	0.0
12	vr	17	2019-10-29	rat_2	662	10	00370.png	493.5	477.5	2	219	2	493.5	477.5	0	0.0	0.0
13	vr	17	2019-10-29	rat_2	678	10	00380.png	502.5	485.0	2	222	1	502.5	485.0	0	0.0	0.0
14	vr	17	2019-10-29	rat_2	695	10	00390.png	482.0	482.0	2	224	2	482.0	482.0	0	0.0	0.0
15	vr	17	2019-10-29	rat_2	712	10	00400.png	470.0	478.5	3	224	1	470.0	478.5	0	0.0	0.0
16	vr	17	2019-10-29	rat_2	730	10	00410.png	455.0	477.0	3	224	2	455.0	477.0	0	0.0	0.0
17	vr	17	2019-10-29	rat_2	747	10	00420.png	451.0	473.0	2	224	1	451.0	473.0	0	0.0	0.0
18	vr	17	2019-10-29	rat_2	765	10	00430.png	446.5	472.5	3	223	2	446.5	472.5	0	0.0	0.0
19	vr	17	2019-10-29	rat_2	782	10	00440.png	502.0	473.0	3	222	2	495.5	461.5	1	6.5	11.5
20	vr	17	2019-10-29	rat_2	783	10	00440.png	489.0	450.0	3	222	2	495.5	461.5	1	-6.5	-11.5
21	vr	17	2019-10-29	rat_2	799	10	00450.png	509.0	474.5	3	222	1	509.0	474.5	0	0.0	0.0
22	vr	17	2019-10-29	rat_2	817	10	00460.png	479.0	475.0	3	221	1	479.0	475.0	0	0.0	0.0
23	vr	17	2019-10-29	rat_2	835	10	00470.png	339.0	422.0	3	220	1	339.0	422.0	0	0.0	0.0
24	vr	17	2019-10-29	rat_2	852	10	00480.png	341.5	425.0	3	219	1	341.5	425.0	0	0.0	0.0
25	vr	17	2019-10-29	rat_2	870	10	00490.png	335.0	426.5	3	218	1	335.0	426.5	0	0.0	0.0
26	vr	17	2019-10-29	rat_2	888	10	00500.png	288.5	427.0	3	218	1	288.5	427.0	0	0.0	0.0
27	vr	17	2019-10-29	rat_2	905	10	00510.png	282.5	414.5	3	216	1	282.5	414.5	0	0.0	0.0
28	vr	17	2019-10-29	rat_2	923	10	00520.png	291.0	414.5	3	215	1	291.0	414.5	0	0.0	0.0
29	vr	17	2019-10-29	rat_2	940	10	00530.png	371.5	427.5	3	215	1	371.5	427.5	0	0.0	0.0
30	vr	17	2019-10-29	rat_2	956	10	00540.png	435.0	435.5	3	215	1	435.0	435.5	0	0.0	0.0
31	vr	17	2019-10-29	rat_2	957	10	00540.png	435.0	435.5	3	215	1	435.0	435.5	0	0.0	0.0
32	vr	17	2019-10-29	rat_2	974	10	00550.png	436.5	436.5	3	215	1	435.75	436.5	1	0.75	0.0
33	vr	17	2019-10-29	rat_2	975	10	00550.png	435.0	436.5	3	215	1	435.75	436.5	1	-0.75	0.0
34	vr	17	2019-10-29	rat_2	989	10	00560.png	415.5	434.0	3	215	1	415.5	434.0	0	0.0	0.0
35	vr	17	2019-10-29	rat_2	1007	10	00570.png	429.5	432.5	3	215	2	429.5	432.5	0	0.0	0.0
36	vr	17	2019-10-29	rat_2	1025	10	00580.png	440.0	433.5	3	215	2	440.0	433.5	0	0.0	0.0
37	vr	17	2019-10-29	rat_2	1043	10	00590.png	438.0	433.5	3	215	2	438.0	433.5	0	0.0	0.0
38	vr	17	2019-10-29	rat_2	1061	10	00600.png	363.5	429.5	3	215	2	363.5	429.5	0	0.0	0.0
39	vr	17	2019-10-29	rat_2	1078	10	00610.png	311.5	425.0	3	215	1	311.5	425.0	0	0.0	0.0
40	vr	17	2019-10-29	rat_2	1094	10	00620.png	314.5	425.5	3	214	1	314.5	425.5	0	0.0	0.0
41	vr	17	2019-10-29	rat_2	1112	10	00630.png	281.5	415.0	3	214	1	281.5	415.0	0	0.0	0.0
42	vr	17	2019-10-29	rat_2	1130	10	00640.png	287.5	416.0	3	213	1	287.5	416.0	0	0.0	0.0
43	vr	17	2019-10-29	rat_2	1147	10	00650.png	292.0	416.5	3	212	2	291.75	416.5	1	0.25	0.0
44	vr	17	2019-10-29	rat_2	1148	10	00650.png	291.5	416.5	3	212	2	291.75	416.5	1	-0.25	0.0
45	vr	17	2019-10-29	rat_2	1161	10	00660.png	295.0	405.5	3	211	2	295.0	404.75	1	0.0	0.75
46	vr	17	2019-10-29	rat_2	1162	10	00660.png	295.0	404.0	3	211	2	295.0	404.75	1	0.0	-0.75
47	vr	17	2019-10-29	rat_2	1179	10	00670.png	264.5	404.5	3	210	2	264.5	404.5	0	0.0	0.0
48	vr	17	2019-10-29	rat_2	1197	10	00680.png	269.0	405.5	3	208	2	269.0	405.5	0	0.0	0.0
49	vr	17	2019-10-29	rat_2	1214	10	00690.png	282.5	432.0	3	208	1	282.5	432.0	0	0.0	0.0
50	vr	17	2019-10-29	rat_2	1232	10	00700.png	336.0	463.5	3	208	1	336.0	463.5	0	0.0	0.0
51	vr	17	2019-10-29	rat_2	1250	10	00710.png	388.5	404.0	4	208	1	388.5	404.0	0	0.0	0.0
52	vr	17	2019-10-29	rat_2	1267	10	00720.png	391.5	412.5	4	208	1	391.5	412.5	0	0.0	0.0
53	vr	17	2019-10-29	rat_2	1283	10	00730.png	397.0	428.0	4	209	1	397.0	428.25	1	0.0	-0.25
54	vr	17	2019-10-29	rat_2	1284	10	00730.png	397.0	428.5	4	209	1	397.0	428.25	1	0.0	0.25
55	vr	17	2019-10-29	rat_2	1299	10	00740.png	396.5	429.0	4	209	1	396.5	429.0	0	0.0	0.0
56	vr	17	2019-10-29	rat_2	1317	10	00750.png	370.5	427.0	3	209	1	370.5	427.0	0	0.0	0.0
57	vr	17	2019-10-29	rat_2	1333	10	00760.png	480.5	438.0	3	210	1	492.5	439.25	1	-12.0	-1.25
58	vr	17	2019-10-29	rat_2	1334	10	00760.png	504.5	440.5	3	210	1	492.5	439.25	1	12.0	1.25
59	vr	17	2019-10-29	rat_2	1348	10	00770.png	510.5	444.5	3	210	1	510.5	444.5	0	0.0	0.0
60	vr	17	2019-10-29	rat_2	1366	10	00780.png	521.0	447.0	3	212	1	521.0	447.0	0	0.0	0.0
61	vr	17	2019-10-29	rat_2	1384	10	00790.png	516.5	447.5	4	213	1	516.5	447.5	0	0.0	0.0
62	vr	17	2019-10-29	rat_2	1402	10	00800.png	513.0	446.5	4	213	1	513.0	446.5	0	0.0	0.0
63	vr	17	2019-10-29	rat_2	1419	10	00810.png	498.5	445.5	4	213	1	498.5	445.5	0	0.0	0.0
64	vr	17	2019-10-29	rat_2	1437	10	00820.png	498.5	445.5	4	213	1	498.5	445.5	0	0.0	0.0
65	vr	17	2019-10-29	rat_2	1454	10	00830.png	518.0	445.0	4	213	2	518.0	445.0	0	0.0	0.0
66	vr	17	2019-10-29	rat_2	1471	10	00840.png	496.5	444.5	4	213	2	496.25	444.5	1	0.25	0.0
67	vr	17	2019-10-29	rat_2	1472	10	00840.png	496.0	444.5	4	213	2	496.25	444.5	1	-0.25	0.0
68	vr	17	2019-10-29	rat_2	1489	10	00850.png	382.0	430.0	4	213	2	382.0	430.0	0	0.0	0.0
69	vr	17	2019-10-29	rat_2	1506	10	00860.png	356.5	426.5	4	213	2	356.5	426.5	0	0.0	0.0
70	vr	17	2019-10-29	rat_2	1523	10	00870.png	353.0	425.0	4	213	1	353.0	425.0	0	0.0	0.0
71	vr	17	2019-10-29	rat_2	1540	10	00880.png	356.0	426.0	4	213	1	356.0	426.0	0	0.0	0.0
72	vr	17	2019-10-29	rat_2	1541	10	00880.png	356.0	426.0	4	213	1	356.0	426.0	0	0.0	0.0
73	vr	17	2019-10-29	rat_2	1556	10	00890.png	359.5	426.0	4	212	1	359.5	426.0	0	0.0	0.0
74	vr	17	2019-10-29	rat_2	1573	10	00900.png	303.0	413.5	4	210	1	303.0	413.5	0	0.0	0.0
75	vr	17	2019-10-29	rat_2	1591	10	00910.png	264.5	401.5	4	209	1	264.5	401.5	0	0.0	0.0
76	vr	17	2019-10-29	rat_2	1609	10	00920.png	276.5	403.5	4	207	1	276.5	403.5	0	0.0	0.0
77	vr	17	2019-10-29	rat_2	1626	10	00930.png	286.5	405.5	3	204	1	286.5	405.5	0	0.0	0.0
78	vr	17	2019-10-29	rat_2	1644	10	00940.png	323.5	420.0	3	202	1	323.5	420.0	0	0.0	0.0
79	vr	17	2019-10-29	rat_2	1662	10	00950.png	335.0	422.5	3	201	1	335.0	422.5	0	0.0	0.0
80	vr	17	2019-10-29	rat_2	1680	10	00960.png	319.0	421.5	3	199	1	319.0	421.5	0	0.0	0.0
81	vr	17	2019-10-29	rat_2	1696	10	00970.png	303.0	415.0	3	198	1	302.75	414.5	1	0.25	0.5
82	vr	17	2019-10-29	rat_2	1697	10	00970.png	302.5	414.0	3	198	1	302.75	414.5	1	-0.25	-0.5
83	vr	17	2019-10-29	rat_2	1711	10	00980.png	345.5	459.0	3	199	1	345.5	459.0	0	0.0	0.0
84	vr	17	2019-10-29	rat_2	1728	10	00990.png	345.5	457.5	3	199	1	345.5	457.5	0	0.0	0.0
85	vr	17	2019-10-29	rat_2	1746	10	01000.png	264.0	336.5	3	199	1	264.0	336.5	0	0.0	0.0
