subject_id,setting_id,setting_start,trial_n,trial_id,trial_person_n,check,comments
6,rl,rl,NA,valpre,NA,NA,NA
6,rl,rl,1,reg,3,NA,NA
6,rl,rl,2,bac,5,NA,NA
6,rl,rl,3,rat,20,NA,NA
6,rl,rl,4,gas,1,NA,NA
6,rl,rl,5,loc,2,NA,NA
6,rl,rl,NA,valpost,NA,NA,NA
