subject_id,setting_id,setting_start,trial_n,trial_id,trial_person_n,check,comments
4,rl,rl,NA,valpre,NA,NA,NA
4,rl,rl,1,reg,4,NA,NA
4,rl,rl,2,bac,15,NA,NA
4,rl,rl,3,rat,20,NA,NA
4,rl,rl,4,gas,7,NA,NA
4,rl,rl,5,loc,4,NA,NA
4,rl,rl,NA,valpost,NA,NA,NA
