subject_id,setting_id,setting_start,trial_n,trial_id,trial_person_n,check,comments
23,rl,vr,NA,valpre,NA,NA,"Valpre (2) benutzen, da Handy nicht richtig funktioniert hat. Neustart"
23,rl,vr,1,reg,2,NA,Neustart Handy hat nicht richtig funktioniert.
23,rl,vr,2,bac,2,NA,NA
23,rl,vr,3,rat,15,NA,"VP Musste umgestellt werden, da LKW die Sicht blockiert hat"
23,rl,vr,4,gas,10,NA,NA
23,rl,vr,5,loc,3,NA,NA
23,rl,vr,NA,valpost,NA,NA,NA
