subject_id,setting_id,setting_start,trial_n,trial_id,trial_person_n,check,comments
12,rl,rl,NA,valpre,NA,NA,NA
12,rl,rl,1,reg,7,NA,NA
12,rl,rl,2,bac,1,NA,NA
12,rl,rl,3,rat,10,NA,NA
12,rl,rl,4,gas,3,NA,"Gas (2) benutzen, da erster Versuch abgebrochen werden musste, aufgrund eines Autos"
12,rl,rl,5,loc,2,NA,NA
12,rl,rl,NA,valpost,NA,NA,NA
