	setting_id	subject_id	date	trial_id	sample_id	frame_rate	frame_id	fix_pos_x_old	fix_pos_y_old	cam_angle_x	cam_angle_y	cam_angle_z	fix_pos_x	fix_pos_y	fix_pos_avrgd	fix_pos_diff_x	fix_pos_diff_y
0	vr	30	2019-12-09	reg_1	456	10	00260.png	0.0	840.0	1	87	1	0.0	840.0	0	0.0	0.0
1	vr	30	2019-12-09	reg_1	473	10	00270.png	399.0	459.0	1	87	1	399.0	459.0	0	0.0	0.0
2	vr	30	2019-12-09	reg_1	488	10	00280.png	312.5	437.5	1	87	1	312.5	437.5	0	0.0	0.0
3	vr	30	2019-12-09	reg_1	505	10	00290.png	306.0	438.5	1	87	1	306.0	438.5	0	0.0	0.0
4	vr	30	2019-12-09	reg_1	523	10	00300.png	293.5	432.5	2	87	1	293.5	432.5	0	0.0	0.0
5	vr	30	2019-12-09	reg_1	539	10	00310.png	398.0	411.0	2	87	1	398.0	411.0	0	0.0	0.0
6	vr	30	2019-12-09	reg_1	556	10	00320.png	433.0	376.5	1	87	1	433.0	376.5	0	0.0	0.0
7	vr	30	2019-12-09	reg_1	573	10	00330.png	463.0	418.0	1	89	1	463.0	418.0	0	0.0	0.0
8	vr	30	2019-12-09	reg_1	590	10	00340.png	479.5	442.5	1	91	1	479.5	442.5	0	0.0	0.0
9	vr	30	2019-12-09	reg_1	606	10	00350.png	476.0	365.5	1	95	1	476.0	365.5	0	0.0	0.0
10	vr	30	2019-12-09	reg_1	632	10	00370.png	558.5	405.5	358	117	2	558.5	405.5	0	0.0	0.0
11	vr	30	2019-12-09	reg_1	647	10	00380.png	480.0	420.5	357	126	2	480.0	420.5	0	0.0	0.0
12	vr	30	2019-12-09	reg_1	665	10	00390.png	543.0	418.0	357	132	2	543.0	418.0	0	0.0	0.0
13	vr	30	2019-12-09	reg_1	679	10	00400.png	569.5	443.0	358	141	2	569.5	443.0	0	0.0	0.0
14	vr	30	2019-12-09	reg_1	694	10	00410.png	574.0	454.0	358	151	2	574.0	454.0	0	0.0	0.0
15	vr	30	2019-12-09	reg_1	710	10	00420.png	510.0	457.0	358	159	2	510.0	457.0	0	0.0	0.0
16	vr	30	2019-12-09	reg_1	725	10	00430.png	516.0	440.5	358	165	1	516.0	440.5	0	0.0	0.0
17	vr	30	2019-12-09	reg_1	741	10	00440.png	530.5	417.0	356	170	0	530.5	417.0	0	0.0	0.0
18	vr	30	2019-12-09	reg_1	757	10	00450.png	525.5	378.0	356	175	0	525.5	378.0	0	0.0	0.0
19	vr	30	2019-12-09	reg_1	766	10	00460.png	510.5	387.5	355	177	0	510.5	387.5	0	0.0	0.0
20	vr	30	2019-12-09	reg_1	778	10	00470.png	352.5	396.0	355	172	1	353.5	396.0	1	-1.0	0.0
21	vr	30	2019-12-09	reg_1	779	10	00470.png	354.5	396.0	355	171	1	353.5	396.0	1	1.0	0.0
22	vr	30	2019-12-09	reg_1	793	10	00480.png	357.5	411.0	354	166	1	357.5	411.0	0	0.0	0.0
23	vr	30	2019-12-09	reg_1	811	10	00490.png	346.0	424.5	354	158	2	346.0	424.5	0	0.0	0.0
24	vr	30	2019-12-09	reg_1	833	10	00510.png	372.5	425.5	352	143	2	372.5	425.5	0	0.0	0.0
25	vr	30	2019-12-09	reg_1	845	10	00520.png	381.0	422.0	352	143	360	381.0	422.0	0	0.0	0.0
26	vr	30	2019-12-09	reg_1	863	10	00530.png	437.0	422.0	351	143	359	437.0	422.0	0	0.0	0.0
27	vr	30	2019-12-09	reg_1	878	10	00540.png	418.5	430.0	349	147	359	418.5	430.0	0	0.0	0.0
28	vr	30	2019-12-09	reg_1	895	10	00550.png	442.5	423.0	349	150	359	442.5	423.0	0	0.0	0.0
29	vr	30	2019-12-09	reg_1	911	10	00560.png	378.5	434.0	351	154	357	378.5	434.0	0	0.0	0.0
30	vr	30	2019-12-09	reg_1	927	10	00570.png	482.5	456.5	353	159	356	482.5	457.0	1	0.0	-0.5
31	vr	30	2019-12-09	reg_1	928	10	00570.png	482.5	457.5	353	159	356	482.5	457.0	1	0.0	0.5
32	vr	30	2019-12-09	reg_1	937	10	00580.png	524.5	434.0	352	167	357	524.5	434.0	0	0.0	0.0
33	vr	30	2019-12-09	reg_1	954	10	00590.png	509.5	387.0	353	179	359	509.5	387.0	0	0.0	0.0
34	vr	30	2019-12-09	reg_1	970	10	00600.png	517.5	363.0	351	191	1	517.5	363.0	0	0.0	0.0
35	vr	30	2019-12-09	reg_1	994	10	00620.png	506.5	370.0	348	211	2	506.5	370.0	0	0.0	0.0
36	vr	30	2019-12-09	reg_1	1012	10	00630.png	558.5	364.5	348	221	1	558.5	364.5	0	0.0	0.0
37	vr	30	2019-12-09	reg_1	1029	10	00640.png	502.0	370.5	346	229	1	502.0	370.5	0	0.0	0.0
38	vr	30	2019-12-09	reg_1	1046	10	00650.png	495.0	424.5	347	235	359	495.0	424.5	0	0.0	0.0
39	vr	30	2019-12-09	reg_1	1062	10	00660.png	498.5	463.0	349	242	357	495.75	462.75	1	2.75	0.25
40	vr	30	2019-12-09	reg_1	1063	10	00660.png	493.0	462.5	349	242	357	495.75	462.75	1	-2.75	-0.25
41	vr	30	2019-12-09	reg_1	1076	10	00670.png	472.5	481.0	351	248	357	472.5	481.0	0	0.0	0.0
42	vr	30	2019-12-09	reg_1	1092	10	00680.png	413.5	387.5	351	249	357	412.5	387.0	1	1.0	0.5
43	vr	30	2019-12-09	reg_1	1093	10	00680.png	411.5	386.5	351	249	357	412.5	387.0	1	-1.0	-0.5
44	vr	30	2019-12-09	reg_1	1102	10	00690.png	367.5	326.5	351	249	358	367.5	326.5	0	0.0	0.0
45	vr	30	2019-12-09	reg_1	1111	10	00700.png	368.0	312.5	349	247	359	368.0	312.5	0	0.0	0.0
46	vr	30	2019-12-09	reg_1	1127	10	00710.png	405.0	307.0	348	246	359	405.0	307.0	0	0.0	0.0
47	vr	30	2019-12-09	reg_1	1145	10	00720.png	336.5	330.5	348	245	359	336.5	330.5	0	0.0	0.0
48	vr	30	2019-12-09	reg_1	1162	10	00730.png	411.5	355.5	348	243	359	411.5	355.5	0	0.0	0.0
49	vr	30	2019-12-09	reg_1	1176	10	00740.png	422.5	356.5	348	242	359	422.5	356.5	0	0.0	0.0
50	vr	30	2019-12-09	reg_1	1184	10	00750.png	441.0	350.0	348	241	359	441.0	350.0	0	0.0	0.0
51	vr	30	2019-12-09	reg_1	1201	10	00760.png	378.5	410.0	348	239	359	378.5	410.0	0	0.0	0.0
52	vr	30	2019-12-09	reg_1	1219	10	00770.png	407.5	357.0	348	238	359	407.5	357.0	0	0.0	0.0
53	vr	30	2019-12-09	reg_1	1235	10	00780.png	453.5	351.0	348	235	359	453.5	351.0	0	0.0	0.0
54	vr	30	2019-12-09	reg_1	1253	10	00790.png	356.0	382.5	349	231	359	356.0	382.5	0	0.0	0.0
55	vr	30	2019-12-09	reg_1	1261	10	00800.png	348.0	414.5	351	221	359	348.0	414.5	0	0.0	0.0
56	vr	30	2019-12-09	reg_1	1278	10	00810.png	334.5	434.5	352	211	0	334.5	434.5	0	0.0	0.0
57	vr	30	2019-12-09	reg_1	1296	10	00820.png	342.5	455.5	352	200	1	342.5	455.5	0	0.0	0.0
58	vr	30	2019-12-09	reg_1	1310	10	00830.png	352.0	448.0	353	192	1	352.0	448.0	0	0.0	0.0
59	vr	30	2019-12-09	reg_1	1324	10	00840.png	386.0	474.0	353	189	1	386.0	474.0	0	0.0	0.0
60	vr	30	2019-12-09	reg_1	1340	10	00850.png	403.0	475.0	354	187	0	403.0	475.0	0	0.0	0.0
61	vr	30	2019-12-09	reg_1	1357	10	00860.png	474.0	484.0	356	184	360	474.0	484.0	0	0.0	0.0
62	vr	30	2019-12-09	reg_1	1366	10	00870.png	549.5	460.0	356	184	0	549.5	460.0	0	0.0	0.0
63	vr	30	2019-12-09	reg_1	1382	10	00880.png	470.0	403.5	356	183	1	470.0	403.5	0	0.0	0.0
64	vr	30	2019-12-09	reg_1	1393	10	00890.png	324.0	420.0	356	174	1	324.0	420.0	0	0.0	0.0
65	vr	30	2019-12-09	reg_1	1409	10	00900.png	321.5	416.0	355	163	0	321.5	416.0	0	0.0	0.0
66	vr	30	2019-12-09	reg_1	1426	10	00910.png	283.0	435.0	354	155	1	283.0	435.0	0	0.0	0.0
67	vr	30	2019-12-09	reg_1	1444	10	00920.png	268.5	434.5	356	145	2	268.5	434.5	0	0.0	0.0
68	vr	30	2019-12-09	reg_1	1458	10	00930.png	270.5	438.0	358	135	359	270.5	438.0	0	0.0	0.0
69	vr	30	2019-12-09	reg_1	1470	10	00940.png	283.5	439.5	357	127	353	283.5	439.5	0	0.0	0.0
70	vr	30	2019-12-09	reg_1	1486	10	00950.png	312.5	459.5	359	123	355	312.5	459.5	0	0.0	0.0
71	vr	30	2019-12-09	reg_1	1502	10	00960.png	306.0	410.0	358	118	356	306.0	410.0	0	0.0	0.0
72	vr	30	2019-12-09	reg_1	1519	10	00970.png	305.5	397.5	357	110	358	305.5	397.5	0	0.0	0.0
73	vr	30	2019-12-09	reg_1	1536	10	00980.png	307.0	433.0	358	100	360	307.0	433.0	0	0.0	0.0
