	setting_id	subject_id	date	trial_id	sample_id	frame_rate	frame_id	fix_pos_x_old	fix_pos_y_old	cam_angle_x	cam_angle_y	cam_angle_z	fix_pos_x	fix_pos_y	fix_pos_avrgd	fix_pos_diff_x	fix_pos_diff_y
0	vr	41	2019-12-19	bac_2	479	10	00260.png	406.5	457.0	360	129	357	406.5	457.0	0	0.0	0.0
1	vr	41	2019-12-19	bac_2	497	10	00270.png	367.0	412.0	360	128	357	367.0	412.0	0	0.0	0.0
2	vr	41	2019-12-19	bac_2	515	10	00280.png	352.5	408.5	360	127	358	352.5	408.5	0	0.0	0.0
3	vr	41	2019-12-19	bac_2	533	10	00290.png	299.0	400.0	359	120	358	299.0	400.0	0	0.0	0.0
4	vr	41	2019-12-19	bac_2	550	10	00300.png	331.5	404.0	359	114	357	331.5	404.0	0	0.0	0.0
5	vr	41	2019-12-19	bac_2	567	10	00310.png	354.0	398.0	360	108	357	354.0	398.0	0	0.0	0.0
6	vr	41	2019-12-19	bac_2	585	10	00320.png	392.0	395.5	359	101	357	392.0	395.5	0	0.0	0.0
7	vr	41	2019-12-19	bac_2	602	10	00330.png	383.0	386.0	359	94	357	383.0	386.0	0	0.0	0.0
8	vr	41	2019-12-19	bac_2	619	10	00340.png	321.0	362.5	356	81	358	323.5	362.75	1	-2.5	-0.25
9	vr	41	2019-12-19	bac_2	620	10	00340.png	326.0	363.0	356	80	358	323.5	362.75	1	2.5	0.25
10	vr	41	2019-12-19	bac_2	634	10	00350.png	304.5	402.0	357	61	358	304.5	402.0	0	0.0	0.0
11	vr	41	2019-12-19	bac_2	652	10	00360.png	248.0	426.0	360	46	358	248.0	426.0	0	0.0	0.0
12	vr	41	2019-12-19	bac_2	670	10	00370.png	223.5	437.0	2	35	358	223.5	437.0	0	0.0	0.0
13	vr	41	2019-12-19	bac_2	687	10	00380.png	280.5	424.0	4	25	357	280.5	424.0	0	0.0	0.0
14	vr	41	2019-12-19	bac_2	704	10	00390.png	262.0	409.5	5	21	359	262.0	409.5	0	0.0	0.0
15	vr	41	2019-12-19	bac_2	721	10	00400.png	255.0	403.5	5	23	359	254.5	403.25	1	0.5	0.25
16	vr	41	2019-12-19	bac_2	722	10	00400.png	254.0	403.0	5	23	359	254.5	403.25	1	-0.5	-0.25
17	vr	41	2019-12-19	bac_2	738	10	00410.png	238.0	412.0	4	28	359	238.0	412.0	0	0.0	0.0
18	vr	41	2019-12-19	bac_2	755	10	00420.png	0.0	840.0	7	47	355	0.0	840.0	0	0.0	0.0
19	vr	41	2019-12-19	bac_2	771	10	00430.png	404.0	521.0	16	72	352	404.0	521.0	0	0.0	0.0
20	vr	41	2019-12-19	bac_2	788	10	00440.png	375.0	584.0	32	98	351	375.0	584.0	0	0.0	0.0
21	vr	41	2019-12-19	bac_2	805	10	00450.png	403.5	602.5	47	112	351	402.25	608.25	1	1.25	-5.75
22	vr	41	2019-12-19	bac_2	806	10	00450.png	401.0	614.0	47	113	351	402.25	608.25	1	-1.25	5.75
23	vr	41	2019-12-19	bac_2	820	10	00460.png	386.0	579.0	57	121	350	386.0	579.0	0	0.0	0.0
24	vr	41	2019-12-19	bac_2	838	10	00470.png	418.0	638.5	62	126	350	418.0	638.5	0	0.0	0.0
25	vr	41	2019-12-19	bac_2	855	10	00480.png	420.5	619.5	65	127	349	420.5	619.5	0	0.0	0.0
26	vr	41	2019-12-19	bac_2	873	10	00490.png	366.5	584.5	64	128	348	366.5	584.5	0	0.0	0.0
27	vr	41	2019-12-19	bac_2	891	10	00500.png	369.5	602.5	58	132	351	369.5	602.5	0	0.0	0.0
28	vr	41	2019-12-19	bac_2	908	10	00510.png	361.0	587.0	49	141	355	361.0	587.0	0	0.0	0.0
29	vr	41	2019-12-19	bac_2	925	10	00520.png	454.5	482.5	36	151	357	454.5	482.5	0	0.0	0.0
30	vr	41	2019-12-19	bac_2	941	10	00530.png	528.5	393.5	26	157	357	527.25	395.0	1	1.25	-1.5
31	vr	41	2019-12-19	bac_2	942	10	00530.png	526.0	396.5	26	157	357	527.25	395.0	1	-1.25	1.5
32	vr	41	2019-12-19	bac_2	958	10	00540.png	564.5	363.5	13	163	357	585.75	357.0	1	-21.25	6.5
33	vr	41	2019-12-19	bac_2	959	10	00540.png	607.0	350.5	12	163	357	585.75	357.0	1	21.25	-6.5
34	vr	41	2019-12-19	bac_2	977	10	00550.png	526.5	396.5	3	174	358	526.5	396.5	0	0.0	0.0
35	vr	41	2019-12-19	bac_2	994	10	00560.png	446.5	374.0	355	181	358	446.5	374.0	0	0.0	0.0
36	vr	41	2019-12-19	bac_2	1012	10	00570.png	407.5	368.5	349	180	358	407.5	368.5	0	0.0	0.0
37	vr	41	2019-12-19	bac_2	1030	10	00580.png	328.0	323.0	342	176	357	328.0	323.0	0	0.0	0.0
38	vr	41	2019-12-19	bac_2	1048	10	00590.png	336.0	324.5	336	168	357	336.0	324.5	0	0.0	0.0
39	vr	41	2019-12-19	bac_2	1066	10	00600.png	367.5	327.0	333	161	359	367.5	327.0	0	0.0	0.0
40	vr	41	2019-12-19	bac_2	1082	10	00610.png	402.0	332.0	334	163	359	402.0	332.0	0	0.0	0.0
41	vr	41	2019-12-19	bac_2	1098	10	00620.png	556.0	487.5	339	179	358	556.0	487.5	0	0.0	0.0
42	vr	41	2019-12-19	bac_2	1116	10	00630.png	450.5	474.0	344	192	354	450.5	474.0	0	0.0	0.0
43	vr	41	2019-12-19	bac_2	1134	10	00640.png	429.5	474.5	346	197	354	428.75	474.25	1	0.75	0.25
44	vr	41	2019-12-19	bac_2	1135	10	00640.png	428.0	474.0	347	198	354	428.75	474.25	1	-0.75	-0.25
45	vr	41	2019-12-19	bac_2	1150	10	00650.png	404.0	462.0	349	201	353	403.75	461.75	1	0.25	0.25
46	vr	41	2019-12-19	bac_2	1151	10	00650.png	403.5	461.5	349	201	353	403.75	461.75	1	-0.25	-0.25
47	vr	41	2019-12-19	bac_2	1164	10	00660.png	386.0	453.0	351	204	354	385.75	452.75	1	0.25	0.25
48	vr	41	2019-12-19	bac_2	1165	10	00660.png	385.5	452.5	352	204	355	385.75	452.75	1	-0.25	-0.25
49	vr	41	2019-12-19	bac_2	1180	10	00670.png	379.5	430.5	354	207	356	379.5	430.5	0	0.0	0.0
50	vr	41	2019-12-19	bac_2	1197	10	00680.png	368.0	422.0	355	208	357	368.0	422.0	0	0.0	0.0
51	vr	41	2019-12-19	bac_2	1215	10	00690.png	332.5	429.0	356	208	357	332.5	429.0	0	0.0	0.0
52	vr	41	2019-12-19	bac_2	1233	10	00700.png	364.5	427.0	357	207	357	364.5	427.0	0	0.0	0.0
53	vr	41	2019-12-19	bac_2	1251	10	00710.png	364.0	425.0	358	208	357	364.0	425.0	0	0.0	0.0
54	vr	41	2019-12-19	bac_2	1269	10	00720.png	314.0	424.0	359	207	357	314.0	424.0	0	0.0	0.0
55	vr	41	2019-12-19	bac_2	1285	10	00730.png	330.5	420.5	359	202	358	330.5	420.5	0	0.0	0.0
56	vr	41	2019-12-19	bac_2	1303	10	00740.png	361.5	437.5	359	200	358	361.5	437.5	0	0.0	0.0
57	vr	41	2019-12-19	bac_2	1321	10	00750.png	437.5	388.0	358	203	358	437.5	388.0	0	0.0	0.0
58	vr	41	2019-12-19	bac_2	1339	10	00760.png	410.0	393.5	357	209	358	410.0	393.5	0	0.0	0.0
59	vr	41	2019-12-19	bac_2	1356	10	00770.png	420.5	437.0	357	215	358	420.5	437.0	0	0.0	0.0
60	vr	41	2019-12-19	bac_2	1374	10	00780.png	456.0	344.5	356	222	358	456.0	344.5	0	0.0	0.0
61	vr	41	2019-12-19	bac_2	1392	10	00790.png	419.0	355.0	354	230	358	419.0	355.0	0	0.0	0.0
62	vr	41	2019-12-19	bac_2	1409	10	00800.png	402.0	365.0	352	238	357	402.0	365.0	0	0.0	0.0
63	vr	41	2019-12-19	bac_2	1427	10	00810.png	433.5	454.0	352	247	356	433.5	454.0	0	0.0	0.0
64	vr	41	2019-12-19	bac_2	1444	10	00820.png	404.0	452.0	352	251	356	404.0	452.0	0	0.0	0.0
65	vr	41	2019-12-19	bac_2	1461	10	00830.png	338.5	470.0	353	254	357	338.5	470.0	0	0.0	0.0
66	vr	41	2019-12-19	bac_2	1479	10	00840.png	500.0	441.0	352	260	357	500.0	441.0	0	0.0	0.0
67	vr	41	2019-12-19	bac_2	1496	10	00850.png	451.5	441.5	353	269	357	451.5	441.5	0	0.0	0.0
68	vr	41	2019-12-19	bac_2	1514	10	00860.png	483.0	434.5	353	279	357	483.0	434.5	0	0.0	0.0
69	vr	41	2019-12-19	bac_2	1531	10	00870.png	444.0	438.0	354	286	357	444.0	438.0	0	0.0	0.0
70	vr	41	2019-12-19	bac_2	1547	10	00880.png	503.5	454.5	356	297	358	503.5	454.5	0	0.0	0.0
71	vr	41	2019-12-19	bac_2	1564	10	00890.png	448.0	449.5	358	302	357	447.75	449.25	1	0.25	0.25
72	vr	41	2019-12-19	bac_2	1565	10	00890.png	447.5	449.0	358	302	357	447.75	449.25	1	-0.25	-0.25
73	vr	41	2019-12-19	bac_2	1582	10	00900.png	403.0	439.5	360	306	357	403.0	439.5	0	0.0	0.0
74	vr	41	2019-12-19	bac_2	1600	10	00910.png	382.0	434.5	1	308	356	382.0	434.5	0	0.0	0.0
75	vr	41	2019-12-19	bac_2	1617	10	00920.png	360.0	433.0	1	309	355	360.0	433.0	0	0.0	0.0
76	vr	41	2019-12-19	bac_2	1634	10	00930.png	459.5	426.0	1	309	355	459.5	426.0	0	0.0	0.0
77	vr	41	2019-12-19	bac_2	1651	10	00940.png	442.5	425.5	1	311	355	442.5	425.5	0	0.0	0.0
78	vr	41	2019-12-19	bac_2	1669	10	00950.png	423.0	426.5	0	311	355	423.0	426.5	0	0.0	0.0
79	vr	41	2019-12-19	bac_2	1687	10	00960.png	416.5	430.5	359	308	355	416.5	430.5	0	0.0	0.0
80	vr	41	2019-12-19	bac_2	1703	10	00970.png	351.5	434.0	360	303	355	351.75	433.5	1	-0.25	0.5
81	vr	41	2019-12-19	bac_2	1704	10	00970.png	352.0	433.0	360	303	355	351.75	433.5	1	0.25	-0.5
82	vr	41	2019-12-19	bac_2	1718	10	00980.png	356.0	431.0	360	299	356	356.0	431.0	0	0.0	0.0
83	vr	41	2019-12-19	bac_2	1736	10	00990.png	355.0	430.0	0	296	356	355.0	430.0	0	0.0	0.0
84	vr	41	2019-12-19	bac_2	1753	10	01000.png	352.0	430.5	0	294	356	352.0	430.5	0	0.0	0.0
