	subject_location	subject_id	date	daytime	setting_id	trial_id	sample_id	sample_n	sample_rate	sample_time_smi	frame_id	frame_n	frame_rate	frame_time_smi	fix_pos_x	fix_pos_y
0	28_rat	28	08-11-2019	15:00:32:616	rl	rat	1119	1119	60	2431237	00020.png	1.0	25	2431243.0	856	430
1	28_rat	28	08-11-2019	15:00:32:815	rl	rat	1131	1131	60	2431436	00025.png	6.0	25	2431443.0	893	449
2	28_rat	28	08-11-2019	15:00:33:014	rl	rat	1143	1143	60	2431635	00030.png	11.0	25	2431643.0	0	0
3	28_rat	28	08-11-2019	15:00:33:230	rl	rat	1156	1156	60	2431851	00035.png	16.0	25	2431843.0	918	1407
4	28_rat	28	08-11-2019	15:00:33:429	rl	rat	1168	1168	60	2432049	00040.png	21.0	25	2432043.0	657	4223
5	28_rat	28	08-11-2019	15:00:33:628	rl	rat	1180	1180	60	2432249	00045.png	26.0	25	2432243.0	852	579
6	28_rat	28	08-11-2019	15:00:33:827	rl	rat	1192	1192	60	2432448	00050.png	31.0	25	2432443.0	1032	433
7	28_rat	28	08-11-2019	15:00:34:027	rl	rat	1203	1203	60	2432647	00055.png	36.0	25	2432643.0	861	941
8	28_rat	28	08-11-2019	15:00:34:225	rl	rat	1215	1215	60	2432846	00060.png	41.0	25	2432843.0	817	497
9	28_rat	28	08-11-2019	15:00:34:424	rl	rat	1227	1227	60	2433045	00065.png	46.0	25	2433043.0	803	2844
10	28_rat	28	08-11-2019	15:00:34:624	rl	rat	1239	1239	60	2433244	00070.png	51.0	25	2433243.0	744	1163
11	28_rat	28	08-11-2019	15:00:34:823	rl	rat	1251	1251	60	2433443	00075.png	56.0	25	2433443.0	797	1728
12	28_rat	28	08-11-2019	15:00:35:022	rl	rat	1263	1263	60	2433643	00080.png	61.0	25	2433643.0	797	1728
13	28_rat	28	08-11-2019	15:00:35:221	rl	rat	1275	1275	60	2433842	00085.png	66.0	25	2433843.0	0	0
14	28_rat	28	08-11-2019	15:00:35:421	rl	rat	1287	1287	60	2434041	00090.png	71.0	25	2434043.0	1578	-5512
15	28_rat	28	08-11-2019	15:00:35:619	rl	rat	1299	1299	60	2434240	00095.png	76.0	25	2434243.0	2369	-11585
16	28_rat	28	08-11-2019	15:00:35:819	rl	rat	1311	1311	60	2434439	00100.png	81.0	25	2434443.0	118290	316327
17	28_rat	28	08-11-2019	15:00:36:018	rl	rat	1323	1323	60	2434639	00105.png	86.0	25	2434643.0	1585	-5497
18	28_rat	28	08-11-2019	15:00:36:217	rl	rat	1335	1335	60	2434838	00110.png	91.0	25	2434843.0	0	0
19	28_rat	28	08-11-2019	15:00:36:416	rl	rat	1347	1347	60	2435036	00115.png	96.0	25	2435043.0	938	417
20	28_rat	28	08-11-2019	15:00:36:616	rl	rat	1359	1359	60	2435236	00120.png	101.0	25	2435243.0	880	376
21	28_rat	28	08-11-2019	15:00:36:815	rl	rat	1371	1371	60	2435435	00125.png	106.0	25	2435443.0	755	19
22	28_rat	28	08-11-2019	15:00:37:030	rl	rat	1384	1384	60	2435651	00130.png	111.0	25	2435643.0	752	274
23	28_rat	28	08-11-2019	15:00:37:229	rl	rat	1396	1396	60	2435850	00135.png	116.0	25	2435843.0	724	286
24	28_rat	28	08-11-2019	15:00:37:428	rl	rat	1408	1408	60	2436049	00140.png	121.0	25	2436043.0	810	537
25	28_rat	28	08-11-2019	15:00:37:628	rl	rat	1420	1420	60	2436248	00145.png	126.0	25	2436243.0	853	657
26	28_rat	28	08-11-2019	15:00:37:827	rl	rat	1430	1430	60	2436447	00150.png	131.0	25	2436443.0	542	-85
27	28_rat	28	08-11-2019	15:00:38:026	rl	rat	1441	1441	60	2436647	00155.png	136.0	25	2436643.0	609	86
28	28_rat	28	08-11-2019	15:00:38:225	rl	rat	1453	1453	60	2436846	00160.png	141.0	25	2436843.0	614	140
29	28_rat	28	08-11-2019	15:00:38:424	rl	rat	1465	1465	60	2437045	00165.png	146.0	25	2437043.0	619	133
30	28_rat	28	08-11-2019	15:00:38:624	rl	rat	1477	1477	60	2437244	00170.png	151.0	25	2437243.0	665	255
31	28_rat	28	08-11-2019	15:00:38:823	rl	rat	1489	1489	60	2437443	00175.png	156.0	25	2437443.0	631	233
32	28_rat	28	08-11-2019	15:00:39:022	rl	rat	1501	1501	60	2437642	00180.png	161.0	25	2437643.0	541	64
33	28_rat	28	08-11-2019	15:00:39:221	rl	rat	1513	1513	60	2437841	00185.png	166.0	25	2437843.0	467	-37
34	28_rat	28	08-11-2019	15:00:39:420	rl	rat	1525	1525	60	2438041	00190.png	171.0	25	2438043.0	756	353
35	28_rat	28	08-11-2019	15:00:39:619	rl	rat	1537	1537	60	2438240	00195.png	176.0	25	2438243.0	898	401
36	28_rat	28	08-11-2019	15:00:39:818	rl	rat	1549	1549	60	2438439	00200.png	181.0	25	2438443.0	360	-141
37	28_rat	28	08-11-2019	15:00:40:017	rl	rat	1561	1561	60	2438638	00205.png	186.0	25	2438643.0	842	519
38	28_rat	28	08-11-2019	15:00:40:217	rl	rat	1573	1573	60	2438837	00210.png	191.0	25	2438843.0	852	586
39	28_rat	28	08-11-2019	15:00:40:416	rl	rat	1585	1585	60	2439036	00215.png	196.0	25	2439043.0	869	610
40	28_rat	28	08-11-2019	15:00:40:615	rl	rat	1597	1597	60	2439235	00220.png	201.0	25	2439243.0	881	631
41	28_rat	28	08-11-2019	15:00:40:814	rl	rat	1609	1609	60	2439435	00225.png	206.0	25	2439443.0	876	635
42	28_rat	28	08-11-2019	15:00:41:030	rl	rat	1622	1622	60	2439650	00230.png	211.0	25	2439643.0	883	660
43	28_rat	28	08-11-2019	15:00:41:229	rl	rat	1634	1634	60	2439849	00235.png	216.0	25	2439843.0	887	671
44	28_rat	28	08-11-2019	15:00:41:428	rl	rat	1646	1646	60	2440049	00240.png	221.0	25	2440043.0	890	684
45	28_rat	28	08-11-2019	15:00:41:610	rl	rat	1656	1656	60	2440231	00245.png	226.0	25	2440243.0	754	979
46	28_rat	28	08-11-2019	15:00:41:826	rl	rat	1668	1668	60	2440447	00250.png	231.0	25	2440443.0	807	1903
47	28_rat	28	08-11-2019	15:00:42:026	rl	rat	1680	1680	60	2440646	00255.png	236.0	25	2440643.0	808	1902
48	28_rat	28	08-11-2019	15:00:42:224	rl	rat	1692	1692	60	2440845	00260.png	241.0	25	2440843.0	796	1896
49	28_rat	28	08-11-2019	15:00:42:424	rl	rat	1704	1704	60	2441044	00265.png	246.0	25	2441043.0	800	1892
50	28_rat	28	08-11-2019	15:00:42:623	rl	rat	1716	1716	60	2441243	00270.png	251.0	25	2441243.0	798	1894
51	28_rat	28	08-11-2019	15:00:42:822	rl	rat	1728	1728	60	2441442	00275.png	256.0	25	2441443.0	803	1894
52	28_rat	28	08-11-2019	15:00:43:021	rl	rat	1740	1740	60	2441642	00280.png	261.0	25	2441643.0	796	1889
53	28_rat	28	08-11-2019	15:00:43:220	rl	rat	1752	1752	60	2441841	00285.png	266.0	25	2441843.0	830	2165
54	28_rat	28	08-11-2019	15:00:43:420	rl	rat	1764	1764	60	2442040	00290.png	271.0	25	2442043.0	809	2221
55	28_rat	28	08-11-2019	15:00:43:619	rl	rat	1776	1776	60	2442239	00295.png	276.0	25	2442243.0	837	1727
56	28_rat	28	08-11-2019	15:00:43:818	rl	rat	1788	1788	60	2442438	00300.png	281.0	25	2442443.0	828	2192
57	28_rat	28	08-11-2019	15:00:44:017	rl	rat	1800	1800	60	2442637	00305.png	286.0	25	2442643.0	824	2406
58	28_rat	28	08-11-2019	15:00:44:216	rl	rat	1812	1812	60	2442837	00310.png	291.0	25	2442843.0	796	516
59	28_rat	28	08-11-2019	15:00:44:415	rl	rat	1824	1824	60	2443036	00315.png	296.0	25	2443043.0	686	150
60	28_rat	28	08-11-2019	15:00:44:614	rl	rat	1836	1836	60	2443235	00320.png	301.0	25	2443243.0	733	324
61	28_rat	28	08-11-2019	15:00:44:830	rl	rat	1849	1849	60	2443451	00325.png	306.0	25	2443443.0	815	53
62	28_rat	28	08-11-2019	15:00:45:029	rl	rat	1861	1861	60	2443650	00330.png	311.0	25	2443643.0	848	74
63	28_rat	28	08-11-2019	15:00:45:229	rl	rat	1873	1873	60	2443849	00335.png	316.0	25	2443843.0	1010	336
64	28_rat	28	08-11-2019	15:00:45:427	rl	rat	1885	1885	60	2444048	00340.png	321.0	25	2444043.0	972	321
65	28_rat	28	08-11-2019	15:00:45:626	rl	rat	1895	1895	60	2444247	00345.png	326.0	25	2444243.0	964	337
66	28_rat	28	08-11-2019	15:00:45:826	rl	rat	1907	1907	60	2444446	00350.png	331.0	25	2444443.0	1009	657
67	28_rat	28	08-11-2019	15:00:46:025	rl	rat	1919	1919	60	2444645	00355.png	336.0	25	2444643.0	977	2402
68	28_rat	28	08-11-2019	15:00:46:224	rl	rat	1931	1931	60	2444845	00360.png	341.0	25	2444843.0	1048	1802
69	28_rat	28	08-11-2019	15:00:46:423	rl	rat	1943	1943	60	2445043	00365.png	346.0	25	2445043.0	806	312
70	28_rat	28	08-11-2019	15:00:46:623	rl	rat	1955	1955	60	2445243	00370.png	351.0	25	2445243.0	806	312
71	28_rat	28	08-11-2019	15:00:46:821	rl	rat	1967	1967	60	2445442	00375.png	356.0	25	2445443.0	1030	484
72	28_rat	28	08-11-2019	15:00:47:021	rl	rat	1979	1979	60	2445641	00380.png	361.0	25	2445643.0	0	0
73	28_rat	28	08-11-2019	15:00:47:220	rl	rat	1991	1991	60	2445841	00385.png	366.0	25	2445843.0	918	2253
74	28_rat	28	08-11-2019	15:00:47:419	rl	rat	2003	2003	60	2446040	00390.png	371.0	25	2446043.0	775	-803
75	28_rat	28	08-11-2019	15:00:47:618	rl	rat	2015	2015	60	2446239	00395.png	376.0	25	2446243.0	1147	403
76	28_rat	28	08-11-2019	15:00:47:817	rl	rat	2027	2027	60	2446438	00400.png	381.0	25	2446443.0	839	-362
77	28_rat	28	08-11-2019	15:00:48:017	rl	rat	2039	2039	60	2446637	00405.png	386.0	25	2446643.0	840	449
78	28_rat	28	08-11-2019	15:00:48:216	rl	rat	2051	2051	60	2446836	00410.png	391.0	25	2446843.0	874	578
79	28_rat	28	08-11-2019	15:00:48:415	rl	rat	2063	2063	60	2447035	00415.png	396.0	25	2447043.0	947	590
80	28_rat	28	08-11-2019	15:00:48:630	rl	rat	2076	2076	60	2447251	00420.png	401.0	25	2447243.0	626	242
81	28_rat	28	08-11-2019	15:00:48:830	rl	rat	2088	2088	60	2447450	00425.png	406.0	25	2447443.0	607	187
82	28_rat	28	08-11-2019	15:00:49:029	rl	rat	2100	2100	60	2447649	00430.png	411.0	25	2447643.0	601	408
83	28_rat	28	08-11-2019	15:00:49:228	rl	rat	2112	2112	60	2447848	00435.png	416.0	25	2447843.0	992	655
84	28_rat	28	08-11-2019	15:00:49:427	rl	rat	2123	2123	60	2448047	00440.png	421.0	25	2448043.0	694	956
85	28_rat	28	08-11-2019	15:00:49:626	rl	rat	2135	2135	60	2448247	00445.png	426.0	25	2448243.0	767	1257
86	28_rat	28	08-11-2019	15:00:49:826	rl	rat	2147	2147	60	2448446	00450.png	431.0	25	2448443.0	569	1787
87	28_rat	28	08-11-2019	15:00:50:025	rl	rat	2159	2159	60	2448645	00455.png	436.0	25	2448643.0	569	1787
88	28_rat	28	08-11-2019	15:00:50:224	rl	rat	2171	2171	60	2448844	00460.png	441.0	25	2448843.0	571	923
89	28_rat	28	08-11-2019	15:00:50:423	rl	rat	2183	2183	60	2449043	00465.png	446.0	25	2449043.0	-209	530
90	28_rat	28	08-11-2019	15:00:50:622	rl	rat	2195	2195	60	2449242	00470.png	451.0	25	2449243.0	-1455	-331
91	28_rat	28	08-11-2019	15:00:50:821	rl	rat	2207	2207	60	2449442	00475.png	456.0	25	2449443.0	1142	858
92	28_rat	28	08-11-2019	15:00:51:020	rl	rat	2219	2219	60	2449641	00480.png	461.0	25	2449643.0	0	0
93	28_rat	28	08-11-2019	15:00:51:220	rl	rat	2231	2231	60	2449840	00485.png	466.0	25	2449843.0	560	361
94	28_rat	28	08-11-2019	15:00:51:419	rl	rat	2243	2243	60	2450039	00490.png	471.0	25	2450043.0	677	522
95	28_rat	28	08-11-2019	15:00:51:618	rl	rat	2255	2255	60	2450238	00495.png	476.0	25	2450243.0	721	339
96	28_rat	28	08-11-2019	15:00:51:817	rl	rat	2267	2267	60	2450437	00500.png	481.0	25	2450443.0	624	515
97	28_rat	28	08-11-2019	15:00:52:016	rl	rat	2279	2279	60	2450636	00505.png	486.0	25	2450643.0	641	574
98	28_rat	28	08-11-2019	15:00:52:215	rl	rat	2291	2291	60	2450836	00510.png	491.0	25	2450843.0	667	580
99	28_rat	28	08-11-2019	15:00:52:431	rl	rat	2304	2304	60	2451051	00515.png	496.0	25	2451043.0	692	631
100	28_rat	28	08-11-2019	15:00:52:630	rl	rat	2316	2316	60	2451250	00520.png	501.0	25	2451243.0	654	585
101	28_rat	28	08-11-2019	15:00:52:829	rl	rat	2328	2328	60	2451450	00525.png	506.0	25	2451443.0	873	612
102	28_rat	28	08-11-2019	15:00:53:028	rl	rat	2340	2340	60	2451649	00530.png	511.0	25	2451643.0	798	1343
103	28_rat	28	08-11-2019	15:00:53:227	rl	rat	2351	2351	60	2451848	00535.png	516.0	25	2451843.0	746	539
104	28_rat	28	08-11-2019	15:00:53:427	rl	rat	2360	2360	60	2452047	00540.png	521.0	25	2452043.0	692	507
105	28_rat	28	08-11-2019	15:00:53:626	rl	rat	2372	2372	60	2452246	00545.png	526.0	25	2452243.0	746	534
106	28_rat	28	08-11-2019	15:00:53:825	rl	rat	2384	2384	60	2452445	00550.png	531.0	25	2452443.0	734	998
107	28_rat	28	08-11-2019	15:00:54:024	rl	rat	2396	2396	60	2452644	00555.png	536.0	25	2452643.0	886	618
108	28_rat	28	08-11-2019	15:00:54:223	rl	rat	2408	2408	60	2452844	00560.png	541.0	25	2452843.0	735	1039
109	28_rat	28	08-11-2019	15:00:54:422	rl	rat	2420	2420	60	2453043	00565.png	546.0	25	2453043.0	737	1052
110	28_rat	28	08-11-2019	15:00:54:622	rl	rat	2432	2432	60	2453242	00570.png	551.0	25	2453243.0	611	1594
111	28_rat	28	08-11-2019	15:00:54:821	rl	rat	2444	2444	60	2453441	00575.png	556.0	25	2453443.0	758	1161
112	28_rat	28	08-11-2019	15:00:55:020	rl	rat	2456	2456	60	2453640	00580.png	561.0	25	2453643.0	754	1157
113	28_rat	28	08-11-2019	15:00:55:219	rl	rat	2468	2468	60	2453839	00585.png	566.0	25	2453843.0	756	1162
114	28_rat	28	08-11-2019	15:00:55:418	rl	rat	2480	2480	60	2454038	00590.png	571.0	25	2454043.0	764	1248
115	28_rat	28	08-11-2019	15:00:55:617	rl	rat	2492	2492	60	2454237	00595.png	576.0	25	2454243.0	795	895
116	28_rat	28	08-11-2019	15:00:55:816	rl	rat	2504	2504	60	2454437	00600.png	581.0	25	2454443.0	824	1078
117	28_rat	28	08-11-2019	15:00:56:016	rl	rat	2516	2516	60	2454636	00605.png	586.0	25	2454643.0	825	1105
118	28_rat	28	08-11-2019	15:00:56:214	rl	rat	2528	2528	60	2454835	00610.png	591.0	25	2454843.0	996	584
119	28_rat	28	08-11-2019	15:00:56:430	rl	rat	2541	2541	60	2455051	00615.png	596.0	25	2455043.0	637	461
120	28_rat	28	08-11-2019	15:00:56:630	rl	rat	2553	2553	60	2455250	00620.png	601.0	25	2455243.0	554	232
121	28_rat	28	08-11-2019	15:00:56:829	rl	rat	2565	2565	60	2455449	00625.png	606.0	25	2455443.0	552	235
122	28_rat	28	08-11-2019	15:00:57:028	rl	rat	2577	2577	60	2455648	00630.png	611.0	25	2455643.0	587	302
123	28_rat	28	08-11-2019	15:00:57:227	rl	rat	2587	2587	60	2455847	00635.png	616.0	25	2455843.0	576	280
124	28_rat	28	08-11-2019	15:00:57:426	rl	rat	2599	2599	60	2456047	00640.png	621.0	25	2456043.0	567	263
125	28_rat	28	08-11-2019	15:00:57:625	rl	rat	2611	2611	60	2456246	00645.png	626.0	25	2456243.0	562	256
126	28_rat	28	08-11-2019	15:00:57:825	rl	rat	2623	2623	60	2456445	00650.png	631.0	25	2456443.0	568	258
127	28_rat	28	08-11-2019	15:00:58:024	rl	rat	2635	2635	60	2456644	00655.png	636.0	25	2456643.0	569	-147
128	28_rat	28	08-11-2019	15:00:58:223	rl	rat	2647	2647	60	2456843	00660.png	641.0	25	2456843.0	608	-22
129	28_rat	28	08-11-2019	15:00:58:422	rl	rat	2659	2659	60	2457042	00665.png	646.0	25	2457043.0	655	9
130	28_rat	28	08-11-2019	15:00:58:621	rl	rat	2671	2671	60	2457241	00670.png	651.0	25	2457243.0	637	-37
131	28_rat	28	08-11-2019	15:00:58:820	rl	rat	2683	2683	60	2457441	00675.png	656.0	25	2457443.0	678	99
132	28_rat	28	08-11-2019	15:00:59:019	rl	rat	2695	2695	60	2457640	00680.png	661.0	25	2457643.0	690	155
133	28_rat	28	08-11-2019	15:00:59:218	rl	rat	2707	2707	60	2457839	00685.png	666.0	25	2457843.0	745	297
134	28_rat	28	08-11-2019	15:00:59:418	rl	rat	2719	2719	60	2458038	00690.png	671.0	25	2458043.0	705	440
135	28_rat	28	08-11-2019	15:00:59:617	rl	rat	2731	2731	60	2458237	00695.png	676.0	25	2458243.0	742	520
136	28_rat	28	08-11-2019	15:00:59:816	rl	rat	2743	2743	60	2458436	00700.png	681.0	25	2458443.0	733	524
137	28_rat	28	08-11-2019	15:01:00:015	rl	rat	2755	2755	60	2458636	00705.png	686.0	25	2458643.0	760	571
138	28_rat	28	08-11-2019	15:01:00:214	rl	rat	2767	2767	60	2458835	00710.png	691.0	25	2458843.0	749	534
139	28_rat	28	08-11-2019	15:01:00:430	rl	rat	2780	2780	60	2459051	00715.png	696.0	25	2459043.0	754	518
140	28_rat	28	08-11-2019	15:01:00:629	rl	rat	2792	2792	60	2459249	00720.png	701.0	25	2459243.0	742	501
141	28_rat	28	08-11-2019	15:01:00:828	rl	rat	2804	2804	60	2459449	00725.png	706.0	25	2459443.0	637	438
142	28_rat	28	08-11-2019	15:01:01:028	rl	rat	2816	2816	60	2459648	00730.png	711.0	25	2459643.0	660	684
143	28_rat	28	08-11-2019	15:01:01:226	rl	rat	2827	2827	60	2459847	00735.png	716.0	25	2459843.0	674	731
144	28_rat	28	08-11-2019	15:01:01:426	rl	rat	2839	2839	60	2460046	00740.png	721.0	25	2460043.0	676	736
145	28_rat	28	08-11-2019	15:01:01:625	rl	rat	2851	2851	60	2460245	00745.png	726.0	25	2460243.0	687	757
146	28_rat	28	08-11-2019	15:01:01:824	rl	rat	2863	2863	60	2460444	00750.png	731.0	25	2460443.0	691	756
147	28_rat	28	08-11-2019	15:01:02:023	rl	rat	2875	2875	60	2460644	00755.png	736.0	25	2460643.0	708	801
148	28_rat	28	08-11-2019	15:01:02:222	rl	rat	2887	2887	60	2460843	00760.png	741.0	25	2460843.0	713	818
149	28_rat	28	08-11-2019	15:01:02:422	rl	rat	2899	2899	60	2461042	00765.png	746.0	25	2461043.0	720	827
