	setting_id	subject_id	date	trial_id	sample_id	frame_rate	frame_id	fix_pos_x_old	fix_pos_y_old	cam_angle_x	cam_angle_y	cam_angle_z	fix_pos_x	fix_pos_y	fix_pos_avrgd	fix_pos_diff_x	fix_pos_diff_y
0	vr	01	2019-10-22	rat_1	473	10	00260.png	0.0	840.0	1	143	359	0.0	840.0	0	0.0	0.0
1	vr	01	2019-10-22	rat_1	491	10	00270.png	439.5	436.5	0	144	359	439.5	436.5	0	0.0	0.0
2	vr	01	2019-10-22	rat_1	509	10	00280.png	490.5	430.5	0	149	357	490.5	430.5	0	0.0	0.0
3	vr	01	2019-10-22	rat_1	526	10	00290.png	518.0	413.0	360	155	357	518.0	413.0	0	0.0	0.0
4	vr	01	2019-10-22	rat_1	544	10	00300.png	452.5	416.0	0	167	357	452.5	416.0	0	0.0	0.0
5	vr	01	2019-10-22	rat_1	561	10	00310.png	450.0	405.5	359	173	356	450.0	405.5	0	0.0	0.0
6	vr	01	2019-10-22	rat_1	578	10	00320.png	479.5	417.0	359	183	356	481.75	418.25	1	-2.25	-1.25
7	vr	01	2019-10-22	rat_1	579	10	00320.png	484.0	419.5	359	184	356	481.75	418.25	1	2.25	1.25
8	vr	01	2019-10-22	rat_1	593	10	00330.png	465.0	421.0	0	193	356	465.0	421.0	0	0.0	0.0
9	vr	01	2019-10-22	rat_1	609	10	00340.png	479.5	418.5	0	194	356	479.5	418.5	0	0.0	0.0
10	vr	01	2019-10-22	rat_1	610	10	00340.png	479.5	418.5	0	194	356	479.5	418.5	0	0.0	0.0
11	vr	01	2019-10-22	rat_1	627	10	00350.png	584.0	418.0	360	199	356	584.0	418.0	0	0.0	0.0
12	vr	01	2019-10-22	rat_1	645	10	00360.png	456.0	384.0	0	211	357	456.0	384.0	0	0.0	0.0
13	vr	01	2019-10-22	rat_1	663	10	00370.png	542.0	413.5	0	221	355	542.0	413.5	0	0.0	0.0
14	vr	01	2019-10-22	rat_1	681	10	00380.png	468.0	429.0	2	233	355	468.0	429.0	0	0.0	0.0
15	vr	01	2019-10-22	rat_1	698	10	00390.png	462.0	430.5	3	243	355	462.0	430.5	0	0.0	0.0
16	vr	01	2019-10-22	rat_1	715	10	00400.png	465.0	430.5	3	247	356	465.0	430.5	0	0.0	0.0
17	vr	01	2019-10-22	rat_1	732	10	00410.png	397.0	417.0	2	238	356	397.0	417.0	0	0.0	0.0
18	vr	01	2019-10-22	rat_1	750	10	00420.png	0.0	840.0	358	192	355	0.0	840.0	0	0.0	0.0
19	vr	01	2019-10-22	rat_1	765	10	00430.png	100.5	436.5	351	126	358	100.5	436.5	0	0.0	0.0
20	vr	01	2019-10-22	rat_1	782	10	00440.png	272.5	463.0	351	81	3	284.25	461.25	1	-11.75	1.75
21	vr	01	2019-10-22	rat_1	783	10	00440.png	296.0	459.5	351	79	3	284.25	461.25	1	11.75	-1.75
22	vr	01	2019-10-22	rat_1	799	10	00450.png	225.5	425.5	355	58	4	225.5	425.5	0	0.0	0.0
23	vr	01	2019-10-22	rat_1	816	10	00460.png	238.0	401.0	359	38	4	238.0	401.0	0	0.0	0.0
24	vr	01	2019-10-22	rat_1	834	10	00470.png	232.0	419.0	1	21	5	232.0	419.0	0	0.0	0.0
25	vr	01	2019-10-22	rat_1	851	10	00480.png	119.5	410.5	1	3	4	119.5	410.5	0	0.0	0.0
26	vr	01	2019-10-22	rat_1	869	10	00490.png	211.5	411.5	3	334	2	211.5	411.5	0	0.0	0.0
27	vr	01	2019-10-22	rat_1	887	10	00500.png	274.5	424.5	6	317	1	274.5	424.5	0	0.0	0.0
28	vr	01	2019-10-22	rat_1	905	10	00510.png	258.5	422.0	6	317	2	258.5	422.0	0	0.0	0.0
29	vr	01	2019-10-22	rat_1	923	10	00520.png	347.5	366.0	4	327	3	347.5	366.0	0	0.0	0.0
30	vr	01	2019-10-22	rat_1	939	10	00530.png	352.5	375.0	3	341	3	352.5	375.0	0	0.0	0.0
31	vr	01	2019-10-22	rat_1	957	10	00540.png	298.5	374.5	1	351	4	298.5	374.5	0	0.0	0.0
32	vr	01	2019-10-22	rat_1	975	10	00550.png	422.0	275.0	357	0	5	422.0	275.0	0	0.0	0.0
33	vr	01	2019-10-22	rat_1	990	10	00560.png	426.5	275.0	347	14	5	425.75	274.75	1	0.75	0.25
34	vr	01	2019-10-22	rat_1	991	10	00560.png	425.0	274.5	347	15	5	425.75	274.75	1	-0.75	-0.25
35	vr	01	2019-10-22	rat_1	1004	10	00570.png	373.0	316.5	340	26	4	373.0	316.5	0	0.0	0.0
36	vr	01	2019-10-22	rat_1	1022	10	00580.png	336.5	334.5	337	36	3	336.5	334.5	0	0.0	0.0
37	vr	01	2019-10-22	rat_1	1039	10	00590.png	301.5	336.5	335	44	1	301.5	336.5	0	0.0	0.0
38	vr	01	2019-10-22	rat_1	1057	10	00600.png	326.0	334.5	332	54	1	326.0	334.5	0	0.0	0.0
39	vr	01	2019-10-22	rat_1	1075	10	00610.png	366.5	293.0	331	62	1	366.5	293.0	0	0.0	0.0
40	vr	01	2019-10-22	rat_1	1092	10	00620.png	405.0	289.0	328	77	1	405.0	289.0	0	0.0	0.0
41	vr	01	2019-10-22	rat_1	1109	10	00630.png	371.5	275.0	325	104	356	371.5	275.0	0	0.0	0.0
42	vr	01	2019-10-22	rat_1	1126	10	00640.png	399.0	277.5	323	128	350	407.75	276.5	1	-8.75	1.0
43	vr	01	2019-10-22	rat_1	1127	10	00640.png	416.5	275.5	323	129	349	407.75	276.5	1	8.75	-1.0
44	vr	01	2019-10-22	rat_1	1144	10	00650.png	392.5	303.0	326	157	342	392.5	303.0	0	0.0	0.0
45	vr	01	2019-10-22	rat_1	1161	10	00660.png	321.0	231.5	322	171	339	321.0	231.5	0	0.0	0.0
46	vr	01	2019-10-22	rat_1	1178	10	00670.png	304.0	227.0	314	175	340	304.0	227.0	0	0.0	0.0
47	vr	01	2019-10-22	rat_1	1195	10	00680.png	319.0	261.5	311	175	341	319.0	261.5	0	0.0	0.0
48	vr	01	2019-10-22	rat_1	1209	10	00690.png	308.0	219.0	309	179	341	307.25	216.0	1	0.75	3.0
49	vr	01	2019-10-22	rat_1	1210	10	00690.png	306.5	213.0	309	179	341	307.25	216.0	1	-0.75	-3.0
50	vr	01	2019-10-22	rat_1	1227	10	00700.png	315.5	223.5	302	182	342	315.5	223.5	0	0.0	0.0
51	vr	01	2019-10-22	rat_1	1244	10	00710.png	327.0	251.0	300	182	343	327.0	251.0	0	0.0	0.0
52	vr	01	2019-10-22	rat_1	1262	10	00720.png	328.5	250.5	300	184	343	328.5	250.5	0	0.0	0.0
53	vr	01	2019-10-22	rat_1	1280	10	00730.png	0.0	840.0	315	189	343	0.0	840.0	0	0.0	0.0
54	vr	01	2019-10-22	rat_1	1297	10	00740.png	379.0	605.5	332	191	345	379.0	605.5	0	0.0	0.0
55	vr	01	2019-10-22	rat_1	1313	10	00750.png	365.0	481.5	346	192	349	364.0	478.75	1	1.0	2.75
56	vr	01	2019-10-22	rat_1	1314	10	00750.png	363.0	476.0	346	192	349	364.0	478.75	1	-1.0	-2.75
57	vr	01	2019-10-22	rat_1	1330	10	00760.png	409.0	458.0	354	200	350	416.25	456.75	1	-7.25	1.25
58	vr	01	2019-10-22	rat_1	1331	10	00760.png	423.5	455.5	354	201	350	416.25	456.75	1	7.25	-1.25
59	vr	01	2019-10-22	rat_1	1346	10	00770.png	350.5	435.0	359	219	351	350.5	435.0	0	0.0	0.0
60	vr	01	2019-10-22	rat_1	1360	10	00780.png	385.5	428.5	360	225	351	385.0	428.5	1	0.5	0.0
61	vr	01	2019-10-22	rat_1	1361	10	00780.png	384.5	428.5	360	225	351	385.0	428.5	1	-0.5	0.0
62	vr	01	2019-10-22	rat_1	1375	10	00790.png	423.5	422.5	3	239	354	423.5	422.5	0	0.0	0.0
63	vr	01	2019-10-22	rat_1	1393	10	00800.png	373.0	412.5	4	245	355	373.0	412.5	0	0.0	0.0
64	vr	01	2019-10-22	rat_1	1411	10	00810.png	424.0	412.0	5	246	355	424.0	412.0	0	0.0	0.0
65	vr	01	2019-10-22	rat_1	1428	10	00820.png	457.5	410.0	5	247	355	457.5	410.0	0	0.0	0.0
66	vr	01	2019-10-22	rat_1	1445	10	00830.png	448.5	413.5	4	250	355	448.5	413.5	0	0.0	0.0
67	vr	01	2019-10-22	rat_1	1464	10	00840.png	544.5	423.0	4	267	356	544.5	423.0	0	0.0	0.0
68	vr	01	2019-10-22	rat_1	1481	10	00850.png	479.5	419.5	7	274	356	479.5	419.5	0	0.0	0.0
69	vr	01	2019-10-22	rat_1	1499	10	00860.png	476.0	413.0	7	278	356	476.0	413.0	0	0.0	0.0
70	vr	01	2019-10-22	rat_1	1515	10	00870.png	490.0	419.5	7	275	356	490.0	419.25	1	0.0	0.25
71	vr	01	2019-10-22	rat_1	1516	10	00870.png	490.0	419.0	7	275	356	490.0	419.25	1	0.0	-0.25
72	vr	01	2019-10-22	rat_1	1530	10	00880.png	472.0	404.5	7	273	357	472.75	404.75	1	-0.75	-0.25
73	vr	01	2019-10-22	rat_1	1531	10	00880.png	473.5	405.0	7	273	357	472.75	404.75	1	0.75	0.25
74	vr	01	2019-10-22	rat_1	1546	10	00890.png	330.0	399.5	7	265	356	330.0	399.5	0	0.0	0.0
75	vr	01	2019-10-22	rat_1	1564	10	00900.png	310.5	403.0	6	248	355	310.5	403.0	0	0.0	0.0
76	vr	01	2019-10-22	rat_1	1582	10	00910.png	240.5	417.5	4	239	354	240.5	417.5	0	0.0	0.0
77	vr	01	2019-10-22	rat_1	1600	10	00920.png	277.5	417.5	4	235	354	277.5	417.5	0	0.0	0.0
78	vr	01	2019-10-22	rat_1	1618	10	00930.png	437.0	405.5	4	234	353	437.0	405.5	0	0.0	0.0
79	vr	01	2019-10-22	rat_1	1636	10	00940.png	501.5	402.5	4	236	353	501.5	402.5	0	0.0	0.0
80	vr	01	2019-10-22	rat_1	1653	10	00950.png	425.5	404.5	3	236	353	425.5	404.5	0	0.0	0.0
81	vr	01	2019-10-22	rat_1	1670	10	00960.png	319.0	417.0	2	230	353	319.0	417.0	0	0.0	0.0
82	vr	01	2019-10-22	rat_1	1688	10	00970.png	303.5	422.0	2	224	354	303.5	422.0	0	0.0	0.0
83	vr	01	2019-10-22	rat_1	1705	10	00980.png	242.0	419.5	2	218	354	242.75	419.5	1	-0.75	0.0
84	vr	01	2019-10-22	rat_1	1706	10	00980.png	243.5	419.5	2	218	354	242.75	419.5	1	0.75	0.0
85	vr	01	2019-10-22	rat_1	1718	10	00990.png	271.5	415.5	2	214	354	272.75	415.25	1	-1.25	0.25
86	vr	01	2019-10-22	rat_1	1719	10	00990.png	274.0	415.0	2	213	354	272.75	415.25	1	1.25	-0.25
87	vr	01	2019-10-22	rat_1	1732	10	01000.png	293.5	413.5	3	211	354	293.75	413.25	1	-0.25	0.25
88	vr	01	2019-10-22	rat_1	1733	10	01000.png	294.0	413.0	3	211	354	293.75	413.25	1	0.25	-0.25
