	setting_id	subject_id	date	trial_id	sample_id	frame_rate	frame_id	fix_pos_x_old	fix_pos_y_old	cam_angle_x	cam_angle_y	cam_angle_z	fix_pos_x	fix_pos_y	fix_pos_avrgd	fix_pos_diff_x	fix_pos_diff_y
0	vr	26	2019-11-01	valpost	469	10	00260.png	448.0	456.0	5	184	357	448.0	456.0	0	0.0	0.0
1	vr	26	2019-11-01	valpost	487	10	00270.png	461.0	462.5	5	184	357	461.0	462.5	0	0.0	0.0
2	vr	26	2019-11-01	valpost	505	10	00280.png	461.5	463.5	4	184	357	461.5	463.5	0	0.0	0.0
3	vr	26	2019-11-01	valpost	523	10	00290.png	461.0	464.5	4	184	357	461.0	464.5	0	0.0	0.0
4	vr	26	2019-11-01	valpost	540	10	00300.png	460.0	464.5	4	185	357	460.0	464.5	0	0.0	0.0
5	vr	26	2019-11-01	valpost	557	10	00310.png	461.0	464.0	5	185	357	461.0	464.0	0	0.0	0.0
6	vr	26	2019-11-01	valpost	574	10	00320.png	459.5	463.0	5	185	357	459.5	463.0	0	0.0	0.0
7	vr	26	2019-11-01	valpost	592	10	00330.png	455.5	459.5	5	185	357	455.5	459.5	0	0.0	0.0
8	vr	26	2019-11-01	valpost	609	10	00340.png	454.0	458.5	5	186	357	454.0	458.5	0	0.0	0.0
9	vr	26	2019-11-01	valpost	627	10	00350.png	453.0	458.5	5	186	357	453.0	458.5	0	0.0	0.0
10	vr	26	2019-11-01	valpost	645	10	00360.png	454.0	460.5	4	186	357	454.0	460.5	0	0.0	0.0
11	vr	26	2019-11-01	valpost	663	10	00370.png	453.5	462.0	4	186	357	453.5	462.0	0	0.0	0.0
12	vr	26	2019-11-01	valpost	680	10	00380.png	401.5	424.0	4	186	357	401.5	424.0	0	0.0	0.0
13	vr	26	2019-11-01	valpost	698	10	00390.png	353.5	389.0	4	185	357	353.5	389.0	0	0.0	0.0
14	vr	26	2019-11-01	valpost	715	10	00400.png	350.0	377.5	4	185	357	350.25	377.5	1	-0.25	0.0
15	vr	26	2019-11-01	valpost	716	10	00400.png	350.5	377.5	4	185	357	350.25	377.5	1	0.25	0.0
16	vr	26	2019-11-01	valpost	732	10	00410.png	353.0	377.5	3	185	357	353.0	377.5	0	0.0	0.0
17	vr	26	2019-11-01	valpost	750	10	00420.png	350.5	377.0	4	185	357	350.5	377.0	0	0.0	0.0
18	vr	26	2019-11-01	valpost	766	10	00430.png	353.5	375.5	4	185	357	353.5	375.5	0	0.0	0.0
19	vr	26	2019-11-01	valpost	784	10	00440.png	355.5	375.0	4	184	357	355.5	375.0	0	0.0	0.0
20	vr	26	2019-11-01	valpost	801	10	00450.png	356.0	374.0	4	184	357	356.0	374.0	0	0.0	0.0
21	vr	26	2019-11-01	valpost	818	10	00460.png	355.0	374.5	4	184	357	355.0	374.5	0	0.0	0.0
22	vr	26	2019-11-01	valpost	819	10	00460.png	355.0	374.5	4	184	357	355.0	374.5	0	0.0	0.0
23	vr	26	2019-11-01	valpost	836	10	00470.png	353.5	377.5	4	184	357	353.5	377.5	0	0.0	0.0
24	vr	26	2019-11-01	valpost	853	10	00480.png	353.0	374.0	4	185	356	353.0	374.0	0	0.0	0.0
25	vr	26	2019-11-01	valpost	871	10	00490.png	357.0	374.0	3	184	357	357.0	374.0	0	0.0	0.0
26	vr	26	2019-11-01	valpost	889	10	00500.png	357.5	375.5	3	184	357	357.5	375.5	0	0.0	0.0
27	vr	26	2019-11-01	valpost	907	10	00510.png	357.0	374.5	3	184	357	357.0	374.5	0	0.0	0.0
28	vr	26	2019-11-01	valpost	923	10	00520.png	358.0	375.0	4	184	357	358.0	375.0	0	0.0	0.0
29	vr	26	2019-11-01	valpost	941	10	00530.png	356.5	374.5	4	184	357	356.5	374.5	0	0.0	0.0
30	vr	26	2019-11-01	valpost	959	10	00540.png	352.0	378.0	4	184	357	352.0	378.0	0	0.0	0.0
31	vr	26	2019-11-01	valpost	977	10	00550.png	353.0	377.5	4	184	357	353.0	377.5	0	0.0	0.0
32	vr	26	2019-11-01	valpost	994	10	00560.png	350.0	378.0	4	184	357	350.0	378.0	0	0.0	0.0
33	vr	26	2019-11-01	valpost	1011	10	00570.png	235.0	490.0	4	184	357	235.5	490.75	1	-0.5	-0.75
34	vr	26	2019-11-01	valpost	1012	10	00570.png	236.0	491.5	4	184	357	235.5	490.75	1	0.5	0.75
35	vr	26	2019-11-01	valpost	1029	10	00580.png	225.5	507.5	4	184	357	225.5	507.5	0	0.0	0.0
36	vr	26	2019-11-01	valpost	1046	10	00590.png	226.5	509.0	4	184	357	226.5	509.0	0	0.0	0.0
37	vr	26	2019-11-01	valpost	1064	10	00600.png	241.5	476.0	4	184	357	241.5	476.0	0	0.0	0.0
38	vr	26	2019-11-01	valpost	1082	10	00610.png	294.0	462.5	5	184	357	294.0	462.5	0	0.0	0.0
39	vr	26	2019-11-01	valpost	1100	10	00620.png	239.0	491.0	5	184	357	239.0	491.0	0	0.0	0.0
40	vr	26	2019-11-01	valpost	1116	10	00630.png	241.5	490.0	5	184	357	241.5	490.0	0	0.0	0.0
41	vr	26	2019-11-01	valpost	1134	10	00640.png	235.5	505.0	4	184	357	235.5	505.0	0	0.0	0.0
42	vr	26	2019-11-01	valpost	1152	10	00650.png	255.5	501.5	4	184	357	255.5	501.5	0	0.0	0.0
43	vr	26	2019-11-01	valpost	1170	10	00660.png	227.0	494.5	4	184	356	227.0	494.5	0	0.0	0.0
44	vr	26	2019-11-01	valpost	1187	10	00670.png	218.5	515.5	4	184	356	218.5	515.5	0	0.0	0.0
45	vr	26	2019-11-01	valpost	1203	10	00680.png	219.0	510.5	4	184	357	219.0	510.5	0	0.0	0.0
46	vr	26	2019-11-01	valpost	1221	10	00690.png	302.5	447.0	5	184	357	302.5	447.0	0	0.0	0.0
47	vr	26	2019-11-01	valpost	1239	10	00700.png	353.0	426.0	5	184	357	353.0	426.0	0	0.0	0.0
48	vr	26	2019-11-01	valpost	1256	10	00710.png	353.5	427.0	5	184	356	353.5	427.0	0	0.0	0.0
49	vr	26	2019-11-01	valpost	1274	10	00720.png	357.0	427.5	5	184	356	357.0	427.5	0	0.0	0.0
50	vr	26	2019-11-01	valpost	1292	10	00730.png	455.5	460.5	5	184	356	455.5	460.5	0	0.0	0.0
51	vr	26	2019-11-01	valpost	1310	10	00740.png	453.5	459.5	5	184	356	453.5	459.5	0	0.0	0.0
52	vr	26	2019-11-01	valpost	1326	10	00750.png	234.0	486.0	5	184	356	234.0	486.0	0	0.0	0.0
53	vr	26	2019-11-01	valpost	1344	10	00760.png	398.5	447.5	5	184	357	398.5	447.5	0	0.0	0.0
54	vr	26	2019-11-01	valpost	1360	10	00770.png	462.0	459.5	5	184	357	462.0	459.5	0	0.0	0.0
55	vr	26	2019-11-01	valpost	1375	10	00780.png	460.5	462.5	5	185	357	460.5	462.5	0	0.0	0.0
56	vr	26	2019-11-01	valpost	1392	10	00790.png	459.0	463.0	5	185	356	459.0	463.0	0	0.0	0.0
57	vr	26	2019-11-01	valpost	1393	10	00790.png	459.0	463.0	5	185	356	459.0	463.0	0	0.0	0.0
58	vr	26	2019-11-01	valpost	1408	10	00800.png	458.0	462.5	5	185	357	458.0	462.5	0	0.0	0.0
59	vr	26	2019-11-01	valpost	1426	10	00810.png	464.5	504.5	5	185	357	464.5	504.5	0	0.0	0.0
60	vr	26	2019-11-01	valpost	1443	10	00820.png	456.5	504.5	5	185	357	456.5	504.5	0	0.0	0.0
61	vr	26	2019-11-01	valpost	1460	10	00830.png	454.5	501.0	5	185	357	454.5	501.0	0	0.0	0.0
62	vr	26	2019-11-01	valpost	1478	10	00840.png	455.5	500.5	5	185	357	455.5	500.5	0	0.0	0.0
63	vr	26	2019-11-01	valpost	1496	10	00850.png	454.0	500.5	5	185	357	454.0	500.5	0	0.0	0.0
64	vr	26	2019-11-01	valpost	1513	10	00860.png	454.5	480.0	5	185	357	454.5	480.0	0	0.0	0.0
65	vr	26	2019-11-01	valpost	1528	10	00870.png	449.0	463.0	5	185	357	448.75	462.75	1	0.25	0.25
66	vr	26	2019-11-01	valpost	1529	10	00870.png	448.5	462.5	5	185	357	448.75	462.75	1	-0.25	-0.25
67	vr	26	2019-11-01	valpost	1543	10	00880.png	352.0	374.0	5	185	357	352.25	374.0	1	-0.25	0.0
68	vr	26	2019-11-01	valpost	1544	10	00880.png	352.5	374.0	5	185	357	352.25	374.0	1	0.25	0.0
69	vr	26	2019-11-01	valpost	1557	10	00890.png	351.0	368.0	5	185	357	351.25	368.0	1	-0.25	0.0
70	vr	26	2019-11-01	valpost	1558	10	00890.png	351.5	368.0	5	185	357	351.25	368.0	1	0.25	0.0
71	vr	26	2019-11-01	valpost	1573	10	00900.png	356.0	366.5	5	184	357	356.0	366.5	0	0.0	0.0
72	vr	26	2019-11-01	valpost	1590	10	00910.png	359.5	365.0	6	184	358	359.5	365.0	0	0.0	0.0
73	vr	26	2019-11-01	valpost	1608	10	00920.png	362.0	364.0	6	183	358	362.0	364.0	0	0.0	0.0
74	vr	26	2019-11-01	valpost	1626	10	00930.png	365.0	361.5	6	183	357	365.0	361.5	0	0.0	0.0
75	vr	26	2019-11-01	valpost	1643	10	00940.png	366.5	362.0	6	182	357	366.5	362.0	0	0.0	0.0
76	vr	26	2019-11-01	valpost	1660	10	00950.png	367.5	362.5	6	182	357	367.5	362.5	0	0.0	0.0
77	vr	26	2019-11-01	valpost	1678	10	00960.png	362.5	366.5	5	183	358	362.5	366.5	0	0.0	0.0
78	vr	26	2019-11-01	valpost	1696	10	00970.png	365.0	361.5	6	183	358	365.0	361.5	0	0.0	0.0
79	vr	26	2019-11-01	valpost	1714	10	00980.png	365.5	363.0	5	183	357	365.5	363.0	0	0.0	0.0
80	vr	26	2019-11-01	valpost	1730	10	00990.png	263.5	449.5	5	182	357	263.5	449.75	1	0.0	-0.25
81	vr	26	2019-11-01	valpost	1731	10	00990.png	263.5	450.0	5	182	358	263.5	449.75	1	0.0	0.25
82	vr	26	2019-11-01	valpost	1746	10	01000.png	257.5	456.5	5	183	358	257.5	456.5	0	0.0	0.0
