	setting_id	subject_id	date	trial_id	sample_id	frame_rate	frame_id	fix_pos_x_old	fix_pos_y_old	cam_angle_x	cam_angle_y	cam_angle_z	fix_pos_x	fix_pos_y	fix_pos_avrgd	fix_pos_diff_x	fix_pos_diff_y
0	vr	26	2019-11-01	bac_1	478	10	00260.png	384.0	364.5	6	180	355	384.0	364.5	0	0.0	0.0
1	vr	26	2019-11-01	bac_1	495	10	00270.png	443.0	387.0	6	179	356	443.0	387.0	0	0.0	0.0
2	vr	26	2019-11-01	bac_1	511	10	00280.png	481.0	409.5	7	179	356	481.0	409.75	1	0.0	-0.25
3	vr	26	2019-11-01	bac_1	512	10	00280.png	481.0	410.0	7	179	356	481.0	409.75	1	0.0	0.25
4	vr	26	2019-11-01	bac_1	527	10	00290.png	452.0	491.5	7	180	356	452.0	491.5	0	0.0	0.0
5	vr	26	2019-11-01	bac_1	544	10	00300.png	395.0	439.0	9	181	356	395.0	439.0	0	0.0	0.0
6	vr	26	2019-11-01	bac_1	562	10	00310.png	303.0	357.5	9	181	356	303.0	357.5	0	0.0	0.0
7	vr	26	2019-11-01	bac_1	580	10	00320.png	207.0	398.0	9	178	356	207.0	398.0	0	0.0	0.0
8	vr	26	2019-11-01	bac_1	598	10	00330.png	229.0	396.5	9	174	356	229.0	396.5	0	0.0	0.0
9	vr	26	2019-11-01	bac_1	615	10	00340.png	223.0	427.0	9	167	356	223.0	427.0	0	0.0	0.0
10	vr	26	2019-11-01	bac_1	632	10	00350.png	291.5	422.0	10	157	356	291.5	422.0	0	0.0	0.0
11	vr	26	2019-11-01	bac_1	650	10	00360.png	251.0	403.0	10	142	356	251.0	403.0	0	0.0	0.0
12	vr	26	2019-11-01	bac_1	668	10	00370.png	222.0	387.5	9	134	356	222.0	387.5	0	0.0	0.0
13	vr	26	2019-11-01	bac_1	685	10	00380.png	254.0	391.5	8	127	356	254.0	391.5	0	0.0	0.0
14	vr	26	2019-11-01	bac_1	699	10	00390.png	208.0	398.5	7	123	356	208.0	398.5	0	0.0	0.0
15	vr	26	2019-11-01	bac_1	716	10	00400.png	230.5	397.0	6	120	357	230.5	397.0	0	0.0	0.0
16	vr	26	2019-11-01	bac_1	734	10	00410.png	306.5	397.0	6	118	357	306.5	397.0	0	0.0	0.0
17	vr	26	2019-11-01	bac_1	751	10	00420.png	314.0	385.0	6	118	356	314.0	385.0	0	0.0	0.0
18	vr	26	2019-11-01	bac_1	769	10	00430.png	412.0	363.5	6	118	355	412.0	363.5	0	0.0	0.0
19	vr	26	2019-11-01	bac_1	787	10	00440.png	409.0	365.5	6	118	355	409.0	365.5	0	0.0	0.0
20	vr	26	2019-11-01	bac_1	805	10	00450.png	314.0	375.0	7	120	354	314.0	375.0	0	0.0	0.0
21	vr	26	2019-11-01	bac_1	821	10	00460.png	301.5	382.0	7	120	354	301.5	382.0	0	0.0	0.0
22	vr	26	2019-11-01	bac_1	839	10	00470.png	311.5	383.0	7	118	354	311.5	383.0	0	0.0	0.0
23	vr	26	2019-11-01	bac_1	857	10	00480.png	413.0	362.0	6	118	354	413.0	362.0	0	0.0	0.0
24	vr	26	2019-11-01	bac_1	875	10	00490.png	436.0	364.5	6	118	355	436.0	364.5	0	0.0	0.0
25	vr	26	2019-11-01	bac_1	891	10	00500.png	461.5	363.5	5	121	355	460.75	363.5	1	0.75	0.0
26	vr	26	2019-11-01	bac_1	892	10	00500.png	460.0	363.5	5	121	355	460.75	363.5	1	-0.75	0.0
27	vr	26	2019-11-01	bac_1	907	10	00510.png	550.0	391.0	5	129	355	550.0	391.0	0	0.0	0.0
28	vr	26	2019-11-01	bac_1	924	10	00520.png	552.5	393.0	6	141	356	552.5	393.0	0	0.0	0.0
29	vr	26	2019-11-01	bac_1	938	10	00530.png	500.5	400.0	6	158	357	500.5	400.0	0	0.0	0.0
30	vr	26	2019-11-01	bac_1	956	10	00540.png	513.0	402.0	6	173	357	513.0	402.0	0	0.0	0.0
31	vr	26	2019-11-01	bac_1	974	10	00550.png	484.5	390.0	6	183	357	484.5	390.0	0	0.0	0.0
32	vr	26	2019-11-01	bac_1	992	10	00560.png	492.0	387.5	7	188	358	492.0	387.5	0	0.0	0.0
33	vr	26	2019-11-01	bac_1	1008	10	00570.png	487.5	392.0	7	191	358	487.5	392.0	0	0.0	0.0
34	vr	26	2019-11-01	bac_1	1026	10	00580.png	534.5	400.5	8	195	357	534.5	400.5	0	0.0	0.0
35	vr	26	2019-11-01	bac_1	1043	10	00590.png	552.5	381.0	8	204	357	552.5	381.0	0	0.0	0.0
36	vr	26	2019-11-01	bac_1	1061	10	00600.png	518.5	391.5	7	212	357	518.5	391.5	0	0.0	0.0
37	vr	26	2019-11-01	bac_1	1077	10	00610.png	527.0	383.0	7	219	357	521.25	380.0	1	5.75	3.0
38	vr	26	2019-11-01	bac_1	1078	10	00610.png	515.5	377.0	7	219	357	521.25	380.0	1	-5.75	-3.0
39	vr	26	2019-11-01	bac_1	1094	10	00620.png	529.0	374.5	5	225	359	529.0	374.5	0	0.0	0.0
40	vr	26	2019-11-01	bac_1	1112	10	00630.png	611.5	408.5	4	230	359	611.5	408.5	0	0.0	0.0
41	vr	26	2019-11-01	bac_1	1127	10	00640.png	452.0	285.5	360	234	359	452.0	285.5	0	0.0	0.0
42	vr	26	2019-11-01	bac_1	1145	10	00650.png	446.5	305.0	358	235	359	446.5	305.0	0	0.0	0.0
43	vr	26	2019-11-01	bac_1	1161	10	00660.png	401.5	311.5	356	236	359	401.5	311.5	0	0.0	0.0
44	vr	26	2019-11-01	bac_1	1178	10	00670.png	403.5	322.0	355	235	360	403.5	322.0	0	0.0	0.0
45	vr	26	2019-11-01	bac_1	1195	10	00680.png	407.5	311.5	353	236	360	407.5	311.5	0	0.0	0.0
46	vr	26	2019-11-01	bac_1	1211	10	00690.png	501.5	341.5	350	237	0	501.5	341.5	0	0.0	0.0
47	vr	26	2019-11-01	bac_1	1228	10	00700.png	487.0	364.5	351	237	360	486.0	366.25	1	1.0	-1.75
48	vr	26	2019-11-01	bac_1	1229	10	00700.png	485.0	368.0	351	237	360	486.0	366.25	1	-1.0	1.75
49	vr	26	2019-11-01	bac_1	1242	10	00710.png	476.5	436.0	353	238	359	476.5	435.5	1	0.0	0.5
50	vr	26	2019-11-01	bac_1	1243	10	00710.png	476.5	435.0	353	238	359	476.5	435.5	1	0.0	-0.5
51	vr	26	2019-11-01	bac_1	1257	10	00720.png	318.5	447.5	355	237	359	318.5	447.5	0	0.0	0.0
52	vr	26	2019-11-01	bac_1	1273	10	00730.png	255.0	443.0	357	232	360	255.0	443.0	0	0.0	0.0
53	vr	26	2019-11-01	bac_1	1290	10	00740.png	247.0	445.5	359	226	360	247.0	445.5	0	0.0	0.0
54	vr	26	2019-11-01	bac_1	1308	10	00750.png	235.0	439.0	360	222	0	235.0	439.0	0	0.0	0.0
55	vr	26	2019-11-01	bac_1	1326	10	00760.png	256.5	432.0	1	218	0	256.5	432.0	0	0.0	0.0
56	vr	26	2019-11-01	bac_1	1344	10	00770.png	282.5	428.0	2	214	359	282.5	428.0	0	0.0	0.0
57	vr	26	2019-11-01	bac_1	1360	10	00780.png	312.5	428.5	4	209	359	312.5	428.5	0	0.0	0.0
58	vr	26	2019-11-01	bac_1	1377	10	00790.png	335.0	430.5	4	204	359	335.5	430.75	1	-0.5	-0.25
59	vr	26	2019-11-01	bac_1	1378	10	00790.png	336.0	431.0	4	203	359	335.5	430.75	1	0.5	0.25
60	vr	26	2019-11-01	bac_1	1395	10	00800.png	299.0	371.5	4	197	358	299.0	371.5	0	0.0	0.0
61	vr	26	2019-11-01	bac_1	1412	10	00810.png	226.5	316.5	2	188	358	226.5	316.5	0	0.0	0.0
62	vr	26	2019-11-01	bac_1	1429	10	00820.png	216.0	391.0	2	177	358	216.75	392.25	1	-0.75	-1.25
63	vr	26	2019-11-01	bac_1	1430	10	00820.png	217.5	393.5	3	176	358	216.75	392.25	1	0.75	1.25
64	vr	26	2019-11-01	bac_1	1445	10	00830.png	280.0	403.0	3	165	358	280.0	403.0	0	0.0	0.0
65	vr	26	2019-11-01	bac_1	1462	10	00840.png	275.5	414.0	4	150	358	275.5	414.0	0	0.0	0.0
66	vr	26	2019-11-01	bac_1	1480	10	00850.png	245.5	410.0	5	136	358	245.5	410.0	0	0.0	0.0
67	vr	26	2019-11-01	bac_1	1498	10	00860.png	251.0	401.0	5	126	357	251.0	401.0	0	0.0	0.0
68	vr	26	2019-11-01	bac_1	1516	10	00870.png	268.0	360.0	4	119	357	268.0	360.0	0	0.0	0.0
69	vr	26	2019-11-01	bac_1	1532	10	00880.png	253.5	404.0	2	114	357	253.5	404.0	0	0.0	0.0
70	vr	26	2019-11-01	bac_1	1549	10	00890.png	283.5	425.5	2	108	357	283.5	425.5	0	0.0	0.0
71	vr	26	2019-11-01	bac_1	1567	10	00900.png	260.5	393.0	1	107	356	260.5	393.0	0	0.0	0.0
72	vr	26	2019-11-01	bac_1	1585	10	00910.png	264.0	378.5	2	107	355	264.0	378.5	0	0.0	0.0
73	vr	26	2019-11-01	bac_1	1601	10	00920.png	285.5	315.5	360	106	355	285.75	315.75	1	-0.25	-0.25
74	vr	26	2019-11-01	bac_1	1602	10	00920.png	286.0	316.0	360	106	355	285.75	315.75	1	0.25	0.25
75	vr	26	2019-11-01	bac_1	1614	10	00930.png	311.5	359.5	359	107	356	311.5	359.5	0	0.0	0.0
76	vr	26	2019-11-01	bac_1	1627	10	00940.png	312.5	362.5	359	108	355	312.5	362.5	0	0.0	0.0
77	vr	26	2019-11-01	bac_1	1640	10	00950.png	328.0	439.5	359	110	355	328.0	439.5	0	0.0	0.0
78	vr	26	2019-11-01	bac_1	1658	10	00960.png	324.0	439.0	359	111	354	324.0	439.0	0	0.0	0.0
79	vr	26	2019-11-01	bac_1	1676	10	00970.png	320.0	433.5	359	112	354	320.0	433.5	0	0.0	0.0
80	vr	26	2019-11-01	bac_1	1694	10	00980.png	324.5	432.0	359	111	355	324.5	432.0	0	0.0	0.0
81	vr	26	2019-11-01	bac_1	1711	10	00990.png	326.5	429.0	359	112	355	326.5	429.0	0	0.0	0.0
82	vr	26	2019-11-01	bac_1	1728	10	01000.png	340.5	414.0	358	111	356	340.5	414.0	0	0.0	0.0
