	setting_id	subject_id	date	trial_id	sample_id	frame_rate	frame_id	fix_pos_x_old	fix_pos_y_old	cam_angle_x	cam_angle_y	cam_angle_z	fix_pos_x	fix_pos_y	fix_pos_avrgd	fix_pos_diff_x	fix_pos_diff_y
0	vr	15	2019-10-28	loc_1	477	10	00260.png	339.0	393.5	1	186	358	339.0	393.5	0	0.0	0.0
1	vr	15	2019-10-28	loc_1	495	10	00270.png	279.0	429.0	1	186	358	279.0	429.0	0	0.0	0.0
2	vr	15	2019-10-28	loc_1	513	10	00280.png	288.0	432.0	1	180	358	288.0	432.0	0	0.0	0.0
3	vr	15	2019-10-28	loc_1	530	10	00290.png	336.0	427.0	2	170	358	336.0	427.0	0	0.0	0.0
4	vr	15	2019-10-28	loc_1	548	10	00300.png	315.5	441.0	1	162	357	315.5	441.0	0	0.0	0.0
5	vr	15	2019-10-28	loc_1	566	10	00310.png	352.5	436.0	2	154	357	352.5	436.0	0	0.0	0.0
6	vr	15	2019-10-28	loc_1	583	10	00320.png	278.0	448.0	3	145	358	278.0	448.0	0	0.0	0.0
7	vr	15	2019-10-28	loc_1	600	10	00330.png	322.0	442.5	3	137	358	322.0	442.5	0	0.0	0.0
8	vr	15	2019-10-28	loc_1	617	10	00340.png	290.5	442.5	4	126	357	290.5	442.5	0	0.0	0.0
9	vr	15	2019-10-28	loc_1	634	10	00350.png	284.0	415.0	5	114	355	286.25	414.75	1	-2.25	0.25
10	vr	15	2019-10-28	loc_1	635	10	00350.png	288.5	414.5	5	113	355	286.25	414.75	1	2.25	-0.25
11	vr	15	2019-10-28	loc_1	648	10	00360.png	282.0	421.5	3	97	355	273.25	424.25	1	8.75	-2.75
12	vr	15	2019-10-28	loc_1	649	10	00360.png	264.5	427.0	3	96	355	273.25	424.25	1	-8.75	2.75
13	vr	15	2019-10-28	loc_1	663	10	00370.png	295.0	439.5	2	77	353	295.0	439.5	0	0.0	0.0
14	vr	15	2019-10-28	loc_1	681	10	00380.png	275.0	452.0	3	58	353	275.0	452.0	0	0.0	0.0
15	vr	15	2019-10-28	loc_1	699	10	00390.png	207.5	450.5	6	44	356	207.5	450.5	0	0.0	0.0
16	vr	15	2019-10-28	loc_1	717	10	00400.png	274.0	419.0	11	36	352	274.0	419.0	0	0.0	0.0
17	vr	15	2019-10-28	loc_1	734	10	00410.png	234.0	403.0	13	32	352	234.0	403.0	0	0.0	0.0
18	vr	15	2019-10-28	loc_1	751	10	00420.png	226.0	405.5	12	35	352	226.0	405.5	0	0.0	0.0
19	vr	15	2019-10-28	loc_1	766	10	00430.png	325.0	395.5	8	53	356	325.0	395.5	0	0.0	0.0
20	vr	15	2019-10-28	loc_1	782	10	00440.png	0.0	840.0	6	85	360	0.0	840.0	0	0.0	0.0
21	vr	15	2019-10-28	loc_1	799	10	00450.png	379.0	410.5	4	119	359	379.0	410.5	0	0.0	0.0
22	vr	15	2019-10-28	loc_1	817	10	00460.png	491.5	410.5	4	150	358	491.5	410.5	0	0.0	0.0
23	vr	15	2019-10-28	loc_1	834	10	00470.png	349.5	413.5	5	173	358	347.25	413.5	1	2.25	0.0
24	vr	15	2019-10-28	loc_1	835	10	00470.png	345.0	413.5	5	174	358	347.25	413.5	1	-2.25	0.0
25	vr	15	2019-10-28	loc_1	849	10	00480.png	424.5	401.5	4	192	358	424.5	401.5	0	0.0	0.0
26	vr	15	2019-10-28	loc_1	867	10	00490.png	520.0	430.5	359	211	360	520.0	430.5	0	0.0	0.0
27	vr	15	2019-10-28	loc_1	884	10	00500.png	436.5	451.0	357	225	360	436.5	451.0	0	0.0	0.0
28	vr	15	2019-10-28	loc_1	902	10	00510.png	383.5	448.0	358	236	360	383.5	448.0	0	0.0	0.0
29	vr	15	2019-10-28	loc_1	920	10	00520.png	434.5	443.0	358	247	359	434.5	443.0	0	0.0	0.0
30	vr	15	2019-10-28	loc_1	938	10	00530.png	456.5	442.0	359	255	0	456.5	442.0	0	0.0	0.0
31	vr	15	2019-10-28	loc_1	955	10	00540.png	433.0	445.5	357	259	0	433.0	445.5	0	0.0	0.0
32	vr	15	2019-10-28	loc_1	973	10	00550.png	380.0	400.5	353	256	1	380.0	400.5	0	0.0	0.0
33	vr	15	2019-10-28	loc_1	991	10	00560.png	320.0	384.5	350	239	358	320.0	384.5	0	0.0	0.0
34	vr	15	2019-10-28	loc_1	1009	10	00570.png	255.0	401.0	345	214	358	261.25	402.25	1	-6.25	-1.25
35	vr	15	2019-10-28	loc_1	1010	10	00570.png	267.5	403.5	345	213	359	261.25	402.25	1	6.25	1.25
36	vr	15	2019-10-28	loc_1	1025	10	00580.png	304.5	418.5	344	212	359	304.0	418.5	1	0.5	0.0
37	vr	15	2019-10-28	loc_1	1026	10	00580.png	303.5	418.5	344	212	359	304.0	418.5	1	-0.5	0.0
38	vr	15	2019-10-28	loc_1	1038	10	00590.png	0.0	840.0	344	228	359	0.0	840.0	0	0.0	0.0
39	vr	15	2019-10-28	loc_1	1056	10	00600.png	509.5	429.0	347	253	357	509.5	429.0	0	0.0	0.0
40	vr	15	2019-10-28	loc_1	1074	10	00610.png	515.5	453.0	355	272	354	515.5	453.0	0	0.0	0.0
41	vr	15	2019-10-28	loc_1	1092	10	00620.png	478.5	435.5	357	272	354	478.5	435.5	0	0.0	0.0
42	vr	15	2019-10-28	loc_1	1110	10	00630.png	0.0	840.0	357	252	356	0.0	840.0	0	0.0	0.0
43	vr	15	2019-10-28	loc_1	1128	10	00640.png	168.5	418.5	358	213	358	168.5	418.5	0	0.0	0.0
44	vr	15	2019-10-28	loc_1	1145	10	00650.png	304.5	432.5	1	177	3	304.5	432.5	0	0.0	0.0
45	vr	15	2019-10-28	loc_1	1159	10	00660.png	367.0	428.0	2	153	0	367.0	428.0	0	0.0	0.0
46	vr	15	2019-10-28	loc_1	1177	10	00670.png	314.0	440.0	3	133	0	314.0	440.0	0	0.0	0.0
47	vr	15	2019-10-28	loc_1	1194	10	00680.png	253.5	410.5	7	116	0	253.5	410.5	0	0.0	0.0
48	vr	15	2019-10-28	loc_1	1211	10	00690.png	352.0	397.0	10	92	360	355.25	396.5	1	-3.25	0.5
49	vr	15	2019-10-28	loc_1	1212	10	00690.png	358.5	396.0	10	91	360	355.25	396.5	1	3.25	-0.5
50	vr	15	2019-10-28	loc_1	1230	10	00700.png	209.5	402.5	12	73	359	209.5	402.5	0	0.0	0.0
51	vr	15	2019-10-28	loc_1	1248	10	00710.png	272.5	386.0	13	67	0	272.5	386.0	0	0.0	0.0
52	vr	15	2019-10-28	loc_1	1266	10	00720.png	209.5	379.0	12	63	3	209.5	379.0	0	0.0	0.0
53	vr	15	2019-10-28	loc_1	1284	10	00730.png	301.5	360.5	10	61	3	301.5	360.5	0	0.0	0.0
54	vr	15	2019-10-28	loc_1	1302	10	00740.png	362.0	372.0	10	65	2	362.0	372.0	0	0.0	0.0
55	vr	15	2019-10-28	loc_1	1320	10	00750.png	359.0	377.5	10	74	360	359.0	377.5	0	0.0	0.0
56	vr	15	2019-10-28	loc_1	1337	10	00760.png	417.5	381.0	11	86	359	417.5	381.0	0	0.0	0.0
57	vr	15	2019-10-28	loc_1	1354	10	00770.png	500.5	390.0	10	100	358	500.5	390.0	0	0.0	0.0
58	vr	15	2019-10-28	loc_1	1371	10	00780.png	434.5	397.0	9	112	358	430.75	397.5	1	3.75	-0.5
59	vr	15	2019-10-28	loc_1	1372	10	00780.png	427.0	398.0	9	113	358	430.75	397.5	1	-3.75	0.5
60	vr	15	2019-10-28	loc_1	1387	10	00790.png	404.5	356.5	6	124	358	404.5	356.5	0	0.0	0.0
61	vr	15	2019-10-28	loc_1	1405	10	00800.png	419.5	348.0	1	130	359	419.5	348.0	0	0.0	0.0
62	vr	15	2019-10-28	loc_1	1423	10	00810.png	438.0	336.0	355	136	359	438.0	336.0	0	0.0	0.0
63	vr	15	2019-10-28	loc_1	1441	10	00820.png	429.5	360.5	345	144	1	429.5	360.5	0	0.0	0.0
64	vr	15	2019-10-28	loc_1	1458	10	00830.png	484.0	276.5	335	154	1	480.75	281.0	1	3.25	-4.5
65	vr	15	2019-10-28	loc_1	1459	10	00830.png	477.5	285.5	334	154	1	480.75	281.0	1	-3.25	4.5
66	vr	15	2019-10-28	loc_1	1476	10	00840.png	427.0	357.0	326	164	1	425.5	358.0	1	1.5	-1.0
67	vr	15	2019-10-28	loc_1	1477	10	00840.png	424.0	359.0	326	165	1	425.5	358.0	1	-1.5	1.0
68	vr	15	2019-10-28	loc_1	1493	10	00850.png	413.5	467.5	332	177	358	413.5	467.5	0	0.0	0.0
69	vr	15	2019-10-28	loc_1	1510	10	00860.png	413.5	431.0	353	187	356	413.5	431.0	0	0.0	0.0
70	vr	15	2019-10-28	loc_1	1528	10	00870.png	399.5	569.5	10	203	359	399.5	569.5	0	0.0	0.0
71	vr	15	2019-10-28	loc_1	1544	10	00880.png	471.0	601.5	20	208	1	471.0	601.5	0	0.0	0.0
72	vr	15	2019-10-28	loc_1	1562	10	00890.png	412.5	525.5	27	218	3	412.5	525.5	0	0.0	0.0
73	vr	15	2019-10-28	loc_1	1579	10	00900.png	421.5	495.5	31	226	4	420.75	494.75	1	0.75	0.75
74	vr	15	2019-10-28	loc_1	1580	10	00900.png	420.0	494.0	32	226	4	420.75	494.75	1	-0.75	-0.75
75	vr	15	2019-10-28	loc_1	1594	10	00910.png	423.0	456.0	29	222	2	423.0	456.0	0	0.0	0.0
76	vr	15	2019-10-28	loc_1	1612	10	00920.png	443.5	486.0	24	217	1	443.5	486.0	0	0.0	0.0
77	vr	15	2019-10-28	loc_1	1630	10	00930.png	415.0	455.0	19	212	0	415.0	455.0	0	0.0	0.0
78	vr	15	2019-10-28	loc_1	1647	10	00940.png	455.0	475.0	17	201	359	455.0	475.0	0	0.0	0.0
79	vr	15	2019-10-28	loc_1	1665	10	00950.png	292.5	500.5	20	182	357	292.5	500.5	0	0.0	0.0
80	vr	15	2019-10-28	loc_1	1683	10	00960.png	365.0	483.5	22	163	356	365.0	483.5	0	0.0	0.0
81	vr	15	2019-10-28	loc_1	1700	10	00970.png	350.0	489.0	23	148	354	350.0	489.0	0	0.0	0.0
82	vr	15	2019-10-28	loc_1	1718	10	00980.png	298.5	402.5	22	136	352	298.5	402.5	0	0.0	0.0
83	vr	15	2019-10-28	loc_1	1734	10	00990.png	308.0	483.0	21	126	351	308.25	483.75	1	-0.25	-0.75
84	vr	15	2019-10-28	loc_1	1735	10	00990.png	308.5	484.5	21	125	351	308.25	483.75	1	0.25	0.75
85	vr	15	2019-10-28	loc_1	1753	10	01000.png	329.0	475.0	22	123	350	329.0	475.0	0	0.0	0.0
