	setting_id	subject_id	date	trial_id	sample_id	frame_rate	frame_id	fix_pos_x_old	fix_pos_y_old	cam_angle_x	cam_angle_y	cam_angle_z	fix_pos_x	fix_pos_y	fix_pos_avrgd	fix_pos_diff_x	fix_pos_diff_y
0	vr	14	2019-10-28	gas_1	478	10	00260.png	401.5	403.5	6	69	0	401.5	403.5	0	0.0	0.0
1	vr	14	2019-10-28	gas_1	496	10	00270.png	407.0	404.5	6	70	1	407.0	404.5	0	0.0	0.0
2	vr	14	2019-10-28	gas_1	514	10	00280.png	485.0	409.0	6	73	0	485.0	409.0	0	0.0	0.0
3	vr	14	2019-10-28	gas_1	532	10	00290.png	476.0	410.0	7	75	359	476.0	410.0	0	0.0	0.0
4	vr	14	2019-10-28	gas_1	548	10	00300.png	473.0	404.5	7	77	359	473.0	404.5	0	0.0	0.0
5	vr	14	2019-10-28	gas_1	563	10	00310.png	420.5	395.0	7	81	359	420.5	395.0	0	0.0	0.0
6	vr	14	2019-10-28	gas_1	580	10	00320.png	387.0	376.5	7	83	359	387.0	376.5	0	0.0	0.0
7	vr	14	2019-10-28	gas_1	597	10	00330.png	426.0	399.0	8	85	359	426.0	399.0	0	0.0	0.0
8	vr	14	2019-10-28	gas_1	615	10	00340.png	422.5	396.5	7	87	359	422.5	396.5	0	0.0	0.0
9	vr	14	2019-10-28	gas_1	631	10	00350.png	424.0	401.0	7	89	359	422.5	401.25	1	1.5	-0.25
10	vr	14	2019-10-28	gas_1	632	10	00350.png	421.0	401.5	7	89	359	422.5	401.25	1	-1.5	0.25
11	vr	14	2019-10-28	gas_1	646	10	00360.png	409.5	410.0	6	92	359	409.5	411.0	1	0.0	-1.0
12	vr	14	2019-10-28	gas_1	647	10	00360.png	409.5	412.0	6	92	359	409.5	411.0	1	0.0	1.0
13	vr	14	2019-10-28	gas_1	662	10	00370.png	396.5	422.5	5	95	359	396.5	422.5	0	0.0	0.0
14	vr	14	2019-10-28	gas_1	679	10	00380.png	385.0	424.0	5	97	358	385.0	424.0	0	0.0	0.0
15	vr	14	2019-10-28	gas_1	697	10	00390.png	372.5	411.0	6	100	358	372.5	411.0	0	0.0	0.0
16	vr	14	2019-10-28	gas_1	715	10	00400.png	366.5	412.0	5	101	358	366.5	412.0	0	0.0	0.0
17	vr	14	2019-10-28	gas_1	733	10	00410.png	362.0	418.0	5	103	357	362.0	418.0	0	0.0	0.0
18	vr	14	2019-10-28	gas_1	750	10	00420.png	350.5	421.5	6	104	358	350.25	421.0	1	0.25	0.5
19	vr	14	2019-10-28	gas_1	751	10	00420.png	350.0	420.5	6	104	358	350.25	421.0	1	-0.25	-0.5
20	vr	14	2019-10-28	gas_1	766	10	00430.png	344.5	418.5	6	107	360	343.25	418.25	1	1.25	0.25
21	vr	14	2019-10-28	gas_1	767	10	00430.png	342.0	418.0	6	107	360	343.25	418.25	1	-1.25	-0.25
22	vr	14	2019-10-28	gas_1	784	10	00440.png	630.5	438.5	5	127	1	630.5	438.5	0	0.0	0.0
23	vr	14	2019-10-28	gas_1	802	10	00450.png	608.5	432.5	5	153	2	608.5	432.5	0	0.0	0.0
24	vr	14	2019-10-28	gas_1	819	10	00460.png	528.5	429.0	4	171	2	528.5	429.0	0	0.0	0.0
25	vr	14	2019-10-28	gas_1	837	10	00470.png	474.5	422.5	4	179	1	474.5	422.5	0	0.0	0.0
26	vr	14	2019-10-28	gas_1	855	10	00480.png	445.5	422.0	4	186	1	445.5	422.0	0	0.0	0.0
27	vr	14	2019-10-28	gas_1	873	10	00490.png	519.0	428.0	5	194	1	519.0	428.0	0	0.0	0.0
28	vr	14	2019-10-28	gas_1	890	10	00500.png	616.5	427.0	6	202	360	615.25	426.75	1	1.25	0.25
29	vr	14	2019-10-28	gas_1	891	10	00500.png	614.0	426.5	6	202	360	615.25	426.75	1	-1.25	-0.25
30	vr	14	2019-10-28	gas_1	907	10	00510.png	522.0	415.0	5	215	0	522.0	415.0	0	0.0	0.0
31	vr	14	2019-10-28	gas_1	925	10	00520.png	588.5	495.0	6	234	1	588.5	495.0	0	0.0	0.0
32	vr	14	2019-10-28	gas_1	943	10	00530.png	592.0	451.0	7	251	3	592.0	451.0	0	0.0	0.0
33	vr	14	2019-10-28	gas_1	960	10	00540.png	609.5	447.5	6	258	3	609.5	447.5	0	0.0	0.0
34	vr	14	2019-10-28	gas_1	977	10	00550.png	586.0	450.5	6	265	1	586.0	450.5	0	0.0	0.0
35	vr	14	2019-10-28	gas_1	995	10	00560.png	606.5	442.5	7	280	359	606.5	442.5	0	0.0	0.0
36	vr	14	2019-10-28	gas_1	1013	10	00570.png	608.0	448.0	7	294	357	608.0	448.0	0	0.0	0.0
37	vr	14	2019-10-28	gas_1	1030	10	00580.png	549.5	432.0	7	298	359	549.0	432.25	1	0.5	-0.25
38	vr	14	2019-10-28	gas_1	1031	10	00580.png	548.5	432.5	7	298	359	549.0	432.25	1	-0.5	0.25
39	vr	14	2019-10-28	gas_1	1045	10	00590.png	378.5	419.5	7	287	359	378.5	419.5	0	0.0	0.0
40	vr	14	2019-10-28	gas_1	1063	10	00600.png	428.0	434.5	7	252	358	428.0	434.5	0	0.0	0.0
41	vr	14	2019-10-28	gas_1	1081	10	00610.png	0.0	840.0	8	208	354	0.0	840.0	0	0.0	0.0
42	vr	14	2019-10-28	gas_1	1099	10	00620.png	391.5	412.0	7	175	354	391.5	412.0	0	0.0	0.0
43	vr	14	2019-10-28	gas_1	1115	10	00630.png	0.0	840.0	6	140	356	0.0	840.0	0	0.0	0.0
44	vr	14	2019-10-28	gas_1	1134	10	00640.png	295.5	419.5	8	102	357	295.5	419.5	0	0.0	0.0
45	vr	14	2019-10-28	gas_1	1151	10	00650.png	395.0	409.0	7	85	358	395.0	409.0	0	0.0	0.0
46	vr	14	2019-10-28	gas_1	1169	10	00660.png	426.5	412.0	6	85	356	426.5	412.0	0	0.0	0.0
47	vr	14	2019-10-28	gas_1	1186	10	00670.png	414.5	424.0	5	86	356	414.25	424.0	1	0.25	0.0
48	vr	14	2019-10-28	gas_1	1187	10	00670.png	414.0	424.0	6	86	356	414.25	424.0	1	-0.25	0.0
49	vr	14	2019-10-28	gas_1	1200	10	00680.png	415.5	427.5	5	86	354	415.5	427.5	0	0.0	0.0
50	vr	14	2019-10-28	gas_1	1218	10	00690.png	404.0	423.0	9	86	354	404.0	423.0	0	0.0	0.0
51	vr	14	2019-10-28	gas_1	1236	10	00700.png	421.5	428.0	5	81	356	421.5	428.0	0	0.0	0.0
52	vr	14	2019-10-28	gas_1	1253	10	00710.png	399.5	407.5	12	89	356	397.75	406.75	1	1.75	0.75
53	vr	14	2019-10-28	gas_1	1254	10	00710.png	396.0	406.0	12	89	357	397.75	406.75	1	-1.75	-0.75
54	vr	14	2019-10-28	gas_1	1270	10	00720.png	375.0	415.0	9	90	359	375.0	415.0	0	0.0	0.0
55	vr	14	2019-10-28	gas_1	1287	10	00730.png	391.5	410.0	7	89	355	391.5	410.0	0	0.0	0.0
56	vr	14	2019-10-28	gas_1	1304	10	00740.png	390.0	416.5	5	89	355	390.0	416.5	0	0.0	0.0
57	vr	14	2019-10-28	gas_1	1321	10	00750.png	388.0	433.5	5	88	355	388.25	433.5	1	-0.25	0.0
58	vr	14	2019-10-28	gas_1	1322	10	00750.png	388.5	433.5	5	87	355	388.25	433.5	1	0.25	0.0
59	vr	14	2019-10-28	gas_1	1336	10	00760.png	363.0	426.5	4	87	356	363.0	426.5	0	0.0	0.0
60	vr	14	2019-10-28	gas_1	1354	10	00770.png	395.5	437.0	3	86	356	395.5	437.0	0	0.0	0.0
61	vr	14	2019-10-28	gas_1	1372	10	00780.png	394.5	436.0	4	85	356	394.5	436.0	0	0.0	0.0
62	vr	14	2019-10-28	gas_1	1390	10	00790.png	412.0	425.0	4	83	356	412.0	425.0	0	0.0	0.0
63	vr	14	2019-10-28	gas_1	1407	10	00800.png	417.0	426.5	3	82	357	417.0	426.5	0	0.0	0.0
64	vr	14	2019-10-28	gas_1	1425	10	00810.png	417.0	428.0	1	81	356	417.0	428.0	0	0.0	0.0
65	vr	14	2019-10-28	gas_1	1442	10	00820.png	419.5	425.5	2	80	357	419.5	425.5	0	0.0	0.0
66	vr	14	2019-10-28	gas_1	1459	10	00830.png	416.0	431.0	1	78	357	416.0	431.0	0	0.0	0.0
67	vr	14	2019-10-28	gas_1	1477	10	00840.png	416.0	425.5	3	80	357	416.0	425.5	0	0.0	0.0
68	vr	14	2019-10-28	gas_1	1494	10	00850.png	396.0	421.0	5	83	357	395.5	421.0	1	0.5	0.0
69	vr	14	2019-10-28	gas_1	1495	10	00850.png	395.0	421.0	5	83	357	395.5	421.0	1	-0.5	0.0
70	vr	14	2019-10-28	gas_1	1509	10	00860.png	385.5	420.5	5	84	357	385.5	420.75	1	0.0	-0.25
71	vr	14	2019-10-28	gas_1	1510	10	00860.png	385.5	421.0	5	84	357	385.5	420.75	1	0.0	0.25
72	vr	14	2019-10-28	gas_1	1522	10	00870.png	386.5	421.5	5	83	357	386.5	421.75	1	0.0	-0.25
73	vr	14	2019-10-28	gas_1	1523	10	00870.png	386.5	422.0	5	83	357	386.5	421.75	1	0.0	0.25
74	vr	14	2019-10-28	gas_1	1536	10	00880.png	381.0	424.0	5	84	356	380.75	424.0	1	0.25	0.0
75	vr	14	2019-10-28	gas_1	1537	10	00880.png	380.5	424.0	5	84	356	380.75	424.0	1	-0.25	0.0
76	vr	14	2019-10-28	gas_1	1553	10	00890.png	372.0	422.5	5	86	356	371.25	422.75	1	0.75	-0.25
77	vr	14	2019-10-28	gas_1	1554	10	00890.png	370.5	423.0	5	86	356	371.25	422.75	1	-0.75	0.25
78	vr	14	2019-10-28	gas_1	1569	10	00900.png	366.0	422.0	6	87	357	366.0	422.0	0	0.0	0.0
79	vr	14	2019-10-28	gas_1	1586	10	00910.png	392.5	446.0	8	85	358	392.5	446.0	0	0.0	0.0
80	vr	14	2019-10-28	gas_1	1603	10	00920.png	402.5	445.5	7	86	358	402.5	445.5	0	0.0	0.0
81	vr	14	2019-10-28	gas_1	1621	10	00930.png	398.0	441.5	7	87	358	398.0	441.5	0	0.0	0.0
82	vr	14	2019-10-28	gas_1	1638	10	00940.png	389.5	418.5	7	91	357	389.5	418.5	0	0.0	0.0
83	vr	14	2019-10-28	gas_1	1656	10	00950.png	386.0	413.5	8	95	355	386.0	413.5	0	0.0	0.0
84	vr	14	2019-10-28	gas_1	1674	10	00960.png	382.5	409.0	8	100	356	382.5	409.0	0	0.0	0.0
85	vr	14	2019-10-28	gas_1	1692	10	00970.png	391.0	405.5	9	103	357	391.0	405.5	0	0.0	0.0
86	vr	14	2019-10-28	gas_1	1710	10	00980.png	402.5	400.0	10	109	357	402.5	400.0	0	0.0	0.0
87	vr	14	2019-10-28	gas_1	1728	10	00990.png	420.0	399.5	9	110	357	420.0	399.5	0	0.0	0.0
88	vr	14	2019-10-28	gas_1	1745	10	01000.png	443.0	404.5	9	114	357	443.0	404.5	0	0.0	0.0
