	setting_id	subject_id	date	trial_id	sample_id	frame_rate	frame_id	fix_pos_x_old	fix_pos_y_old	cam_angle_x	cam_angle_y	cam_angle_z	fix_pos_x	fix_pos_y	fix_pos_avrgd	fix_pos_diff_x	fix_pos_diff_y
0	vr	14	2019-10-28	valpost	471	10	00260.png	406.0	434.5	7	185	358	406.0	434.5	0	0.0	0.0
1	vr	14	2019-10-28	valpost	489	10	00270.png	463.0	456.5	7	185	358	463.0	456.5	0	0.0	0.0
2	vr	14	2019-10-28	valpost	506	10	00280.png	458.5	457.5	7	186	358	458.5	457.5	0	0.0	0.0
3	vr	14	2019-10-28	valpost	524	10	00290.png	460.0	459.0	7	186	358	460.0	459.0	0	0.0	0.0
4	vr	14	2019-10-28	valpost	542	10	00300.png	458.5	459.0	7	186	358	458.5	459.0	0	0.0	0.0
5	vr	14	2019-10-28	valpost	559	10	00310.png	457.5	463.0	6	185	358	457.5	463.0	0	0.0	0.0
6	vr	14	2019-10-28	valpost	575	10	00320.png	456.5	465.0	6	186	358	456.75	465.0	1	-0.25	0.0
7	vr	14	2019-10-28	valpost	576	10	00320.png	457.0	465.0	6	186	358	456.75	465.0	1	0.25	0.0
8	vr	14	2019-10-28	valpost	590	10	00330.png	455.5	465.0	6	186	358	455.75	465.0	1	-0.25	0.0
9	vr	14	2019-10-28	valpost	591	10	00330.png	456.0	465.0	6	186	358	455.75	465.0	1	0.25	0.0
10	vr	14	2019-10-28	valpost	605	10	00340.png	457.5	467.5	5	186	357	457.5	467.5	0	0.0	0.0
11	vr	14	2019-10-28	valpost	623	10	00350.png	467.0	465.0	6	185	358	467.0	465.0	0	0.0	0.0
12	vr	14	2019-10-28	valpost	641	10	00360.png	468.5	462.0	6	185	358	468.5	462.0	0	0.0	0.0
13	vr	14	2019-10-28	valpost	659	10	00370.png	470.0	463.0	6	184	358	470.0	463.0	0	0.0	0.0
14	vr	14	2019-10-28	valpost	677	10	00380.png	470.0	464.0	5	185	358	470.0	464.0	0	0.0	0.0
15	vr	14	2019-10-28	valpost	694	10	00390.png	470.5	462.5	6	185	358	470.5	462.5	0	0.0	0.0
16	vr	14	2019-10-28	valpost	712	10	00400.png	469.0	461.5	6	185	358	469.0	461.5	0	0.0	0.0
17	vr	14	2019-10-28	valpost	730	10	00410.png	341.0	376.5	6	184	358	341.0	376.5	0	0.0	0.0
18	vr	14	2019-10-28	valpost	747	10	00420.png	339.0	358.0	6	184	358	339.0	357.75	1	0.0	0.25
19	vr	14	2019-10-28	valpost	748	10	00420.png	339.0	357.5	6	184	358	339.0	357.75	1	0.0	-0.25
20	vr	14	2019-10-28	valpost	763	10	00430.png	345.0	355.0	7	184	358	345.0	355.0	0	0.0	0.0
21	vr	14	2019-10-28	valpost	779	10	00440.png	346.0	356.0	7	184	358	346.0	356.0	0	0.0	0.0
22	vr	14	2019-10-28	valpost	780	10	00440.png	346.0	356.0	7	184	358	346.0	356.0	0	0.0	0.0
23	vr	14	2019-10-28	valpost	798	10	00450.png	344.5	356.0	6	184	358	344.5	356.0	0	0.0	0.0
24	vr	14	2019-10-28	valpost	816	10	00460.png	344.0	355.0	6	183	357	344.0	355.0	0	0.0	0.0
25	vr	14	2019-10-28	valpost	834	10	00470.png	353.0	351.0	6	183	357	353.0	351.0	0	0.0	0.0
26	vr	14	2019-10-28	valpost	851	10	00480.png	357.0	354.0	6	182	358	357.0	354.0	0	0.0	0.0
27	vr	14	2019-10-28	valpost	869	10	00490.png	361.5	357.0	6	182	358	361.5	357.0	0	0.0	0.0
28	vr	14	2019-10-28	valpost	886	10	00500.png	365.0	357.0	6	181	358	365.0	357.0	0	0.0	0.0
29	vr	14	2019-10-28	valpost	904	10	00510.png	365.0	357.5	6	181	358	365.0	357.5	0	0.0	0.0
30	vr	14	2019-10-28	valpost	922	10	00520.png	301.0	439.0	6	181	358	301.0	439.0	0	0.0	0.0
31	vr	14	2019-10-28	valpost	940	10	00530.png	346.5	415.0	6	181	358	346.5	415.0	0	0.0	0.0
32	vr	14	2019-10-28	valpost	958	10	00540.png	361.0	394.5	6	181	358	361.0	394.5	0	0.0	0.0
33	vr	14	2019-10-28	valpost	976	10	00550.png	448.5	435.0	6	181	357	448.5	435.0	0	0.0	0.0
34	vr	14	2019-10-28	valpost	994	10	00560.png	284.0	459.0	6	181	358	284.0	459.0	0	0.0	0.0
35	vr	14	2019-10-28	valpost	1012	10	00570.png	275.5	475.0	6	181	358	275.5	475.0	0	0.0	0.0
36	vr	14	2019-10-28	valpost	1030	10	00580.png	275.5	474.5	6	181	357	275.5	474.5	0	0.0	0.0
37	vr	14	2019-10-28	valpost	1048	10	00590.png	279.0	470.5	6	181	357	279.0	470.5	0	0.0	0.0
38	vr	14	2019-10-28	valpost	1066	10	00600.png	280.0	471.0	6	180	357	280.0	471.0	0	0.0	0.0
39	vr	14	2019-10-28	valpost	1083	10	00610.png	285.5	472.5	6	179	357	285.5	472.5	0	0.0	0.0
40	vr	14	2019-10-28	valpost	1100	10	00620.png	292.5	472.5	5	178	357	292.5	472.5	0	0.0	0.0
41	vr	14	2019-10-28	valpost	1118	10	00630.png	295.5	474.0	5	178	357	295.5	474.0	0	0.0	0.0
42	vr	14	2019-10-28	valpost	1135	10	00640.png	295.0	479.0	4	177	356	294.75	479.0	1	0.25	0.0
43	vr	14	2019-10-28	valpost	1136	10	00640.png	294.5	479.0	4	177	356	294.75	479.0	1	-0.25	0.0
44	vr	14	2019-10-28	valpost	1153	10	00650.png	297.0	479.0	5	177	356	296.75	479.0	1	0.25	0.0
45	vr	14	2019-10-28	valpost	1154	10	00650.png	296.5	479.0	5	177	356	296.75	479.0	1	-0.25	0.0
46	vr	14	2019-10-28	valpost	1171	10	00660.png	301.5	474.0	5	176	357	301.5	474.0	0	0.0	0.0
47	vr	14	2019-10-28	valpost	1189	10	00670.png	303.0	474.0	5	176	357	303.0	474.0	0	0.0	0.0
48	vr	14	2019-10-28	valpost	1207	10	00680.png	304.0	469.5	6	176	357	304.0	469.5	0	0.0	0.0
49	vr	14	2019-10-28	valpost	1225	10	00690.png	302.0	466.0	7	176	356	302.0	466.0	0	0.0	0.0
50	vr	14	2019-10-28	valpost	1243	10	00700.png	416.5	465.5	7	176	357	416.5	465.5	0	0.0	0.0
51	vr	14	2019-10-28	valpost	1260	10	00710.png	486.0	469.5	7	176	357	486.0	469.5	0	0.0	0.0
52	vr	14	2019-10-28	valpost	1278	10	00720.png	504.5	468.0	6	178	357	504.5	468.0	0	0.0	0.0
53	vr	14	2019-10-28	valpost	1296	10	00730.png	497.0	467.5	6	179	356	497.0	467.5	0	0.0	0.0
54	vr	14	2019-10-28	valpost	1314	10	00740.png	488.5	467.5	6	180	356	488.5	467.5	0	0.0	0.0
55	vr	14	2019-10-28	valpost	1332	10	00750.png	488.5	468.0	6	180	356	488.5	468.0	0	0.0	0.0
56	vr	14	2019-10-28	valpost	1350	10	00760.png	491.5	467.0	6	179	356	491.5	467.0	0	0.0	0.0
57	vr	14	2019-10-28	valpost	1368	10	00770.png	495.5	461.5	6	179	356	495.5	461.5	0	0.0	0.0
58	vr	14	2019-10-28	valpost	1386	10	00780.png	493.5	459.5	7	179	356	493.5	459.5	0	0.0	0.0
59	vr	14	2019-10-28	valpost	1403	10	00790.png	491.0	458.0	7	179	356	491.0	458.0	0	0.0	0.0
60	vr	14	2019-10-28	valpost	1404	10	00790.png	491.0	458.0	7	179	356	491.0	458.0	0	0.0	0.0
61	vr	14	2019-10-28	valpost	1422	10	00800.png	493.0	457.0	8	179	356	493.0	457.0	0	0.0	0.0
62	vr	14	2019-10-28	valpost	1438	10	00810.png	495.0	457.0	8	179	357	495.0	457.0	0	0.0	0.0
63	vr	14	2019-10-28	valpost	1456	10	00820.png	492.0	457.5	8	179	357	492.0	457.5	0	0.0	0.0
64	vr	14	2019-10-28	valpost	1474	10	00830.png	491.5	457.0	8	179	357	491.5	457.0	0	0.0	0.0
65	vr	14	2019-10-28	valpost	1492	10	00840.png	491.0	456.5	8	179	357	491.0	456.5	0	0.0	0.0
66	vr	14	2019-10-28	valpost	1510	10	00850.png	491.0	457.5	7	180	356	491.0	457.5	0	0.0	0.0
67	vr	14	2019-10-28	valpost	1528	10	00860.png	490.5	457.5	7	179	356	490.5	457.5	0	0.0	0.0
68	vr	14	2019-10-28	valpost	1546	10	00870.png	489.5	458.0	7	179	356	489.5	458.0	0	0.0	0.0
69	vr	14	2019-10-28	valpost	1564	10	00880.png	493.0	456.5	7	180	356	493.0	456.5	0	0.0	0.0
70	vr	14	2019-10-28	valpost	1582	10	00890.png	493.0	457.5	8	180	356	493.0	457.5	0	0.0	0.0
71	vr	14	2019-10-28	valpost	1600	10	00900.png	371.0	362.5	8	180	356	371.0	362.5	0	0.0	0.0
72	vr	14	2019-10-28	valpost	1618	10	00910.png	368.5	366.0	8	180	356	368.5	366.0	0	0.0	0.0
73	vr	14	2019-10-28	valpost	1635	10	00920.png	377.5	355.5	8	179	357	377.5	355.5	0	0.0	0.0
74	vr	14	2019-10-28	valpost	1653	10	00930.png	366.0	352.0	7	179	357	366.0	352.0	0	0.0	0.0
75	vr	14	2019-10-28	valpost	1671	10	00940.png	376.0	351.0	7	179	357	376.0	351.0	0	0.0	0.0
76	vr	14	2019-10-28	valpost	1689	10	00950.png	377.0	355.5	6	178	357	377.0	355.5	0	0.0	0.0
77	vr	14	2019-10-28	valpost	1707	10	00960.png	399.0	360.0	5	177	357	399.0	360.0	0	0.0	0.0
78	vr	14	2019-10-28	valpost	1724	10	00970.png	0.0	840.0	4	177	357	0.0	840.0	0	0.0	0.0
79	vr	14	2019-10-28	valpost	1725	10	00970.png	0.0	840.0	4	177	357	0.0	840.0	0	0.0	0.0
80	vr	14	2019-10-28	valpost	1743	10	00980.png	352.5	356.5	4	175	357	352.5	356.5	0	0.0	0.0
81	vr	14	2019-10-28	valpost	1761	10	00990.png	395.0	366.0	3	175	356	395.0	366.0	0	0.0	0.0
82	vr	14	2019-10-28	valpost	1779	10	01000.png	399.5	369.0	3	174	356	399.5	369.0	0	0.0	0.0
