	subject_location	subject_id	date	daytime	setting_id	trial_id	sample_id	sample_n	sample_rate	sample_time_smi	frame_id	frame_n	frame_rate	frame_time_smi	fix_pos_x	fix_pos_y
0	19_valpre	19	24-10-2019	13:33:17:583	rl	valpre	11	11	60	53423	00005.png	1.0	25	53417.0	767	364
1	19_valpre	19	24-10-2019	13:33:17:782	rl	valpre	22	22	60	53623	00010.png	6.0	25	53617.0	763	351
2	19_valpre	19	24-10-2019	13:33:17:981	rl	valpre	33	33	60	53822	00015.png	11.0	25	53817.0	765	365
3	19_valpre	19	24-10-2019	13:33:18:180	rl	valpre	45	45	60	54021	00020.png	16.0	25	54017.0	766	350
4	19_valpre	19	24-10-2019	13:33:18:379	rl	valpre	57	57	60	54220	00025.png	21.0	25	54217.0	743	374
5	19_valpre	19	24-10-2019	13:33:18:579	rl	valpre	69	69	60	54420	00030.png	26.0	25	54417.0	762	351
6	19_valpre	19	24-10-2019	13:33:18:778	rl	valpre	80	80	60	54619	00035.png	31.0	25	54617.0	2536	633
7	19_valpre	19	24-10-2019	13:33:18:977	rl	valpre	92	92	60	54818	00040.png	36.0	25	54817.0	740	392
8	19_valpre	19	24-10-2019	13:33:19:176	rl	valpre	104	104	60	55017	00045.png	41.0	25	55017.0	755	361
9	19_valpre	19	24-10-2019	13:33:19:375	rl	valpre	116	116	60	55216	00050.png	46.0	25	55217.0	741	382
10	19_valpre	19	24-10-2019	13:33:19:574	rl	valpre	128	128	60	55415	00055.png	51.0	25	55417.0	751	355
11	19_valpre	19	24-10-2019	13:33:19:774	rl	valpre	140	140	60	55614	00060.png	56.0	25	55617.0	756	367
12	19_valpre	19	24-10-2019	13:33:19:973	rl	valpre	152	152	60	55813	00065.png	61.0	25	55817.0	748	358
13	19_valpre	19	24-10-2019	13:33:20:172	rl	valpre	164	164	60	56013	00070.png	66.0	25	56017.0	754	380
14	19_valpre	19	24-10-2019	13:33:20:371	rl	valpre	176	176	60	56212	00075.png	71.0	25	56217.0	756	382
15	19_valpre	19	24-10-2019	13:33:20:571	rl	valpre	188	188	60	56411	00080.png	76.0	25	56417.0	744	387
16	19_valpre	19	24-10-2019	13:33:20:769	rl	valpre	200	200	60	56610	00085.png	81.0	25	56617.0	758	374
17	19_valpre	19	24-10-2019	13:33:20:969	rl	valpre	212	212	60	56809	00090.png	86.0	25	56817.0	746	355
18	19_valpre	19	24-10-2019	13:33:21:184	rl	valpre	225	225	60	57025	00095.png	91.0	25	57017.0	741	382
19	19_valpre	19	24-10-2019	13:33:21:384	rl	valpre	237	237	60	57224	00100.png	96.0	25	57217.0	741	379
20	19_valpre	19	24-10-2019	13:33:21:583	rl	valpre	249	249	60	57423	00105.png	101.0	25	57417.0	755	366
21	19_valpre	19	24-10-2019	13:33:21:765	rl	valpre	258	258	60	57605	00110.png	106.0	25	57617.0	756	368
22	19_valpre	19	24-10-2019	13:33:21:981	rl	valpre	270	270	60	57822	00115.png	111.0	25	57817.0	757	351
23	19_valpre	19	24-10-2019	13:33:22:180	rl	valpre	282	282	60	58021	00120.png	116.0	25	58017.0	746	391
24	19_valpre	19	24-10-2019	13:33:22:379	rl	valpre	294	294	60	58219	00125.png	121.0	25	58217.0	611	447
25	19_valpre	19	24-10-2019	13:33:22:578	rl	valpre	306	306	60	58419	00130.png	126.0	25	58417.0	613	112
26	19_valpre	19	24-10-2019	13:33:22:777	rl	valpre	318	318	60	58618	00135.png	131.0	25	58617.0	627	115
27	19_valpre	19	24-10-2019	13:33:22:977	rl	valpre	330	330	60	58817	00140.png	136.0	25	58817.0	623	100
28	19_valpre	19	24-10-2019	13:33:23:176	rl	valpre	342	342	60	59016	00145.png	141.0	25	59017.0	600	167
29	19_valpre	19	24-10-2019	13:33:23:375	rl	valpre	354	354	60	59215	00150.png	146.0	25	59217.0	601	171
30	19_valpre	19	24-10-2019	13:33:23:574	rl	valpre	366	366	60	59414	00155.png	151.0	25	59417.0	602	178
31	19_valpre	19	24-10-2019	13:33:23:774	rl	valpre	378	378	60	59614	00160.png	156.0	25	59617.0	600	173
32	19_valpre	19	24-10-2019	13:33:23:972	rl	valpre	390	390	60	59813	00165.png	161.0	25	59817.0	602	181
33	19_valpre	19	24-10-2019	13:33:24:171	rl	valpre	402	402	60	60012	00170.png	166.0	25	60017.0	598	181
34	19_valpre	19	24-10-2019	13:33:24:371	rl	valpre	414	414	60	60211	00175.png	171.0	25	60217.0	600	193
35	19_valpre	19	24-10-2019	13:33:24:570	rl	valpre	426	426	60	60410	00180.png	176.0	25	60417.0	600	177
36	19_valpre	19	24-10-2019	13:33:24:785	rl	valpre	438	438	60	60626	00185.png	181.0	25	60617.0	596	182
37	19_valpre	19	24-10-2019	13:33:24:985	rl	valpre	450	450	60	60825	00190.png	186.0	25	60817.0	613	91
38	19_valpre	19	24-10-2019	13:33:25:184	rl	valpre	462	462	60	61024	00195.png	191.0	25	61017.0	597	194
39	19_valpre	19	24-10-2019	13:33:25:383	rl	valpre	474	474	60	61223	00200.png	196.0	25	61217.0	596	180
40	19_valpre	19	24-10-2019	13:33:25:565	rl	valpre	484	484	60	61406	00205.png	201.0	25	61417.0	610	188
41	19_valpre	19	24-10-2019	13:33:25:781	rl	valpre	495	495	60	61622	00210.png	206.0	25	61617.0	601	208
42	19_valpre	19	24-10-2019	13:33:25:980	rl	valpre	507	507	60	61820	00215.png	211.0	25	61817.0	599	201
43	19_valpre	19	24-10-2019	13:33:26:179	rl	valpre	519	519	60	62020	00220.png	216.0	25	62017.0	620	160
44	19_valpre	19	24-10-2019	13:33:26:378	rl	valpre	531	531	60	62219	00225.png	221.0	25	62217.0	611	133
45	19_valpre	19	24-10-2019	13:33:26:578	rl	valpre	543	543	60	62418	00230.png	226.0	25	62417.0	622	194
46	19_valpre	19	24-10-2019	13:33:26:777	rl	valpre	555	555	60	62617	00235.png	231.0	25	62617.0	614	179
47	19_valpre	19	24-10-2019	13:33:26:976	rl	valpre	567	567	60	62816	00240.png	236.0	25	62817.0	600	180
48	19_valpre	19	24-10-2019	13:33:27:175	rl	valpre	579	579	60	63016	00245.png	241.0	25	63017.0	619	150
49	19_valpre	19	24-10-2019	13:33:27:374	rl	valpre	591	591	60	63215	00250.png	246.0	25	63217.0	603	192
50	19_valpre	19	24-10-2019	13:33:27:573	rl	valpre	603	603	60	63414	00255.png	251.0	25	63417.0	552	314
51	19_valpre	19	24-10-2019	13:33:27:773	rl	valpre	615	615	60	63613	00260.png	256.0	25	63617.0	532	366
52	19_valpre	19	24-10-2019	13:33:27:972	rl	valpre	627	627	60	63812	00265.png	261.0	25	63817.0	516	383
53	19_valpre	19	24-10-2019	13:33:28:171	rl	valpre	639	639	60	64011	00270.png	266.0	25	64017.0	512	385
54	19_valpre	19	24-10-2019	13:33:28:370	rl	valpre	651	651	60	64211	00275.png	271.0	25	64217.0	510	377
55	19_valpre	19	24-10-2019	13:33:28:569	rl	valpre	663	663	60	64410	00280.png	276.0	25	64417.0	508	367
56	19_valpre	19	24-10-2019	13:33:28:769	rl	valpre	675	675	60	64609	00285.png	281.0	25	64617.0	507	368
57	19_valpre	19	24-10-2019	13:33:28:984	rl	valpre	688	688	60	64824	00290.png	286.0	25	64817.0	505	370
58	19_valpre	19	24-10-2019	13:33:29:183	rl	valpre	700	700	60	65023	00295.png	291.0	25	65017.0	512	375
59	19_valpre	19	24-10-2019	13:33:29:383	rl	valpre	712	712	60	65223	00300.png	296.0	25	65217.0	512	375
60	19_valpre	19	24-10-2019	13:33:29:582	rl	valpre	722	722	60	65422	00305.png	301.0	25	65417.0	511	380
61	19_valpre	19	24-10-2019	13:33:29:780	rl	valpre	733	733	60	65621	00310.png	306.0	25	65617.0	511	379
62	19_valpre	19	24-10-2019	13:33:29:980	rl	valpre	745	745	60	65820	00315.png	311.0	25	65817.0	507	375
63	19_valpre	19	24-10-2019	13:33:30:179	rl	valpre	757	757	60	66019	00320.png	316.0	25	66017.0	506	369
64	19_valpre	19	24-10-2019	13:33:30:378	rl	valpre	769	769	60	66219	00325.png	321.0	25	66217.0	461	352
65	19_valpre	19	24-10-2019	13:33:30:577	rl	valpre	781	781	60	66418	00330.png	326.0	25	66417.0	511	368
66	19_valpre	19	24-10-2019	13:33:30:777	rl	valpre	793	793	60	66617	00335.png	331.0	25	66617.0	514	378
67	19_valpre	19	24-10-2019	13:33:30:976	rl	valpre	805	805	60	66816	00340.png	336.0	25	66817.0	508	366
68	19_valpre	19	24-10-2019	13:33:31:175	rl	valpre	817	817	60	67015	00345.png	341.0	25	67017.0	510	379
69	19_valpre	19	24-10-2019	13:33:31:374	rl	valpre	829	829	60	67214	00350.png	346.0	25	67217.0	512	381
70	19_valpre	19	24-10-2019	13:33:31:573	rl	valpre	841	841	60	67413	00355.png	351.0	25	67417.0	465	359
71	19_valpre	19	24-10-2019	13:33:31:772	rl	valpre	853	853	60	67613	00360.png	356.0	25	67617.0	506	364
72	19_valpre	19	24-10-2019	13:33:31:971	rl	valpre	865	865	60	67812	00365.png	361.0	25	67817.0	503	372
73	19_valpre	19	24-10-2019	13:33:32:171	rl	valpre	877	877	60	68011	00370.png	366.0	25	68017.0	505	369
74	19_valpre	19	24-10-2019	13:33:32:370	rl	valpre	889	889	60	68210	00375.png	371.0	25	68217.0	501	357
75	19_valpre	19	24-10-2019	13:33:32:569	rl	valpre	901	901	60	68409	00380.png	376.0	25	68417.0	506	366
76	19_valpre	19	24-10-2019	13:33:32:784	rl	valpre	914	914	60	68625	00385.png	381.0	25	68617.0	502	367
77	19_valpre	19	24-10-2019	13:33:32:984	rl	valpre	926	926	60	68824	00390.png	386.0	25	68817.0	503	369
78	19_valpre	19	24-10-2019	13:33:33:183	rl	valpre	938	938	60	69023	00395.png	391.0	25	69017.0	498	351
79	19_valpre	19	24-10-2019	13:33:33:366	rl	valpre	949	949	60	69206	00400.png	396.0	25	69217.0	503	373
80	19_valpre	19	24-10-2019	13:33:33:564	rl	valpre	959	959	60	69405	00405.png	401.0	25	69417.0	503	365
81	19_valpre	19	24-10-2019	13:33:33:780	rl	valpre	971	971	60	69621	00410.png	406.0	25	69617.0	761	371
82	19_valpre	19	24-10-2019	13:33:33:979	rl	valpre	983	983	60	69820	00415.png	411.0	25	69817.0	731	382
83	19_valpre	19	24-10-2019	13:33:34:179	rl	valpre	995	995	60	70019	00420.png	416.0	25	70017.0	748	362
84	19_valpre	19	24-10-2019	13:33:34:378	rl	valpre	1007	1007	60	70218	00425.png	421.0	25	70217.0	748	342
85	19_valpre	19	24-10-2019	13:33:34:577	rl	valpre	1019	1019	60	70417	00430.png	426.0	25	70417.0	731	363
86	19_valpre	19	24-10-2019	13:33:34:776	rl	valpre	1031	1031	60	70616	00435.png	431.0	25	70617.0	750	313
87	19_valpre	19	24-10-2019	13:33:34:975	rl	valpre	1043	1043	60	70815	00440.png	436.0	25	70817.0	755	332
88	19_valpre	19	24-10-2019	13:33:35:174	rl	valpre	1055	1055	60	71015	00445.png	441.0	25	71017.0	752	335
89	19_valpre	19	24-10-2019	13:33:35:373	rl	valpre	1067	1067	60	71214	00450.png	446.0	25	71217.0	753	319
90	19_valpre	19	24-10-2019	13:33:35:572	rl	valpre	1079	1079	60	71413	00455.png	451.0	25	71417.0	756	335
91	19_valpre	19	24-10-2019	13:33:35:772	rl	valpre	1091	1091	60	71612	00460.png	456.0	25	71617.0	733	368
92	19_valpre	19	24-10-2019	13:33:35:971	rl	valpre	1103	1103	60	71811	00465.png	461.0	25	71817.0	730	333
93	19_valpre	19	24-10-2019	13:33:36:170	rl	valpre	1115	1115	60	72011	00470.png	466.0	25	72017.0	749	342
94	19_valpre	19	24-10-2019	13:33:36:369	rl	valpre	1127	1127	60	72209	00475.png	471.0	25	72217.0	757	351
95	19_valpre	19	24-10-2019	13:33:36:568	rl	valpre	1139	1139	60	72409	00480.png	476.0	25	72417.0	750	345
96	19_valpre	19	24-10-2019	13:33:36:784	rl	valpre	1152	1152	60	72624	00485.png	481.0	25	72617.0	746	342
97	19_valpre	19	24-10-2019	13:33:36:983	rl	valpre	1164	1164	60	72824	00490.png	486.0	25	72817.0	757	344
98	19_valpre	19	24-10-2019	13:33:37:183	rl	valpre	1176	1176	60	73023	00495.png	491.0	25	73017.0	755	345
99	19_valpre	19	24-10-2019	13:33:37:365	rl	valpre	1185	1185	60	73205	00500.png	496.0	25	73217.0	749	313
100	19_valpre	19	24-10-2019	13:33:37:581	rl	valpre	1197	1197	60	73421	00505.png	501.0	25	73417.0	751	302
101	19_valpre	19	24-10-2019	13:33:37:780	rl	valpre	1208	1208	60	73620	00510.png	506.0	25	73617.0	751	329
102	19_valpre	19	24-10-2019	13:33:37:979	rl	valpre	1220	1220	60	73819	00515.png	511.0	25	73817.0	749	338
103	19_valpre	19	24-10-2019	13:33:38:178	rl	valpre	1232	1232	60	74018	00520.png	516.0	25	74017.0	736	355
104	19_valpre	19	24-10-2019	13:33:38:377	rl	valpre	1244	1244	60	74217	00525.png	521.0	25	74217.0	754	317
105	19_valpre	19	24-10-2019	13:33:38:576	rl	valpre	1256	1256	60	74417	00530.png	526.0	25	74417.0	751	341
106	19_valpre	19	24-10-2019	13:33:38:776	rl	valpre	1268	1268	60	74616	00535.png	531.0	25	74617.0	749	336
107	19_valpre	19	24-10-2019	13:33:38:975	rl	valpre	1280	1280	60	74815	00540.png	536.0	25	74817.0	746	352
108	19_valpre	19	24-10-2019	13:33:39:174	rl	valpre	1292	1292	60	75014	00545.png	541.0	25	75017.0	749	352
109	19_valpre	19	24-10-2019	13:33:39:373	rl	valpre	1304	1304	60	75214	00550.png	546.0	25	75217.0	747	353
110	19_valpre	19	24-10-2019	13:33:39:572	rl	valpre	1316	1316	60	75412	00555.png	551.0	25	75417.0	753	347
111	19_valpre	19	24-10-2019	13:33:39:771	rl	valpre	1328	1328	60	75612	00560.png	556.0	25	75617.0	752	354
112	19_valpre	19	24-10-2019	13:33:39:970	rl	valpre	1340	1340	60	75811	00565.png	561.0	25	75817.0	600	286
113	19_valpre	19	24-10-2019	13:33:40:170	rl	valpre	1352	1352	60	76010	00570.png	566.0	25	76017.0	616	142
114	19_valpre	19	24-10-2019	13:33:40:368	rl	valpre	1364	1364	60	76209	00575.png	571.0	25	76217.0	601	225
115	19_valpre	19	24-10-2019	13:33:40:584	rl	valpre	1377	1377	60	76425	00580.png	576.0	25	76417.0	632	3
116	19_valpre	19	24-10-2019	13:33:40:783	rl	valpre	1389	1389	60	76624	00585.png	581.0	25	76617.0	615	239
117	19_valpre	19	24-10-2019	13:33:40:982	rl	valpre	1401	1401	60	76823	00590.png	586.0	25	76817.0	658	61
118	19_valpre	19	24-10-2019	13:33:41:165	rl	valpre	1411	1411	60	77006	00595.png	591.0	25	77017.0	592	211
119	19_valpre	19	24-10-2019	13:33:41:381	rl	valpre	1420	1420	60	77222	00600.png	596.0	25	77217.0	612	116
120	19_valpre	19	24-10-2019	13:33:41:580	rl	valpre	1432	1432	60	77421	00605.png	601.0	25	77417.0	603	215
121	19_valpre	19	24-10-2019	13:33:41:779	rl	valpre	1444	1444	60	77620	00610.png	606.0	25	77617.0	591	184
122	19_valpre	19	24-10-2019	13:33:41:978	rl	valpre	1456	1456	60	77819	00615.png	611.0	25	77817.0	589	195
123	19_valpre	19	24-10-2019	13:33:42:178	rl	valpre	1468	1468	60	78018	00620.png	616.0	25	78017.0	590	197
124	19_valpre	19	24-10-2019	13:33:42:377	rl	valpre	1480	1480	60	78217	00625.png	621.0	25	78217.0	591	206
125	19_valpre	19	24-10-2019	13:33:42:576	rl	valpre	1492	1492	60	78416	00630.png	626.0	25	78417.0	591	198
126	19_valpre	19	24-10-2019	13:33:42:775	rl	valpre	1504	1504	60	78615	00635.png	631.0	25	78617.0	612	141
127	19_valpre	19	24-10-2019	13:33:42:974	rl	valpre	1516	1516	60	78814	00640.png	636.0	25	78817.0	591	192
128	19_valpre	19	24-10-2019	13:33:43:173	rl	valpre	1528	1528	60	79014	00645.png	641.0	25	79017.0	613	134
129	19_valpre	19	24-10-2019	13:33:43:372	rl	valpre	1540	1540	60	79213	00650.png	646.0	25	79217.0	610	119
130	19_valpre	19	24-10-2019	13:33:43:571	rl	valpre	1552	1552	60	79412	00655.png	651.0	25	79417.0	615	147
131	19_valpre	19	24-10-2019	13:33:43:771	rl	valpre	1564	1564	60	79611	00660.png	656.0	25	79617.0	614	136
132	19_valpre	19	24-10-2019	13:33:43:970	rl	valpre	1576	1576	60	79810	00665.png	661.0	25	79817.0	614	119
133	19_valpre	19	24-10-2019	13:33:44:169	rl	valpre	1588	1588	60	80009	00670.png	666.0	25	80017.0	616	121
134	19_valpre	19	24-10-2019	13:33:44:385	rl	valpre	1601	1601	60	80225	00675.png	671.0	25	80217.0	611	110
135	19_valpre	19	24-10-2019	13:33:44:584	rl	valpre	1613	1613	60	80424	00680.png	676.0	25	80417.0	612	123
136	19_valpre	19	24-10-2019	13:33:44:783	rl	valpre	1625	1625	60	80623	00685.png	681.0	25	80617.0	611	111
137	19_valpre	19	24-10-2019	13:33:44:982	rl	valpre	1636	1636	60	80822	00690.png	686.0	25	80817.0	598	191
138	19_valpre	19	24-10-2019	13:33:45:165	rl	valpre	1646	1646	60	81005	00695.png	691.0	25	81017.0	600	254
139	19_valpre	19	24-10-2019	13:33:45:380	rl	valpre	1658	1658	60	81221	00700.png	696.0	25	81217.0	598	196
140	19_valpre	19	24-10-2019	13:33:45:579	rl	valpre	1670	1670	60	81420	00705.png	701.0	25	81417.0	597	192
141	19_valpre	19	24-10-2019	13:33:45:779	rl	valpre	1681	1681	60	81619	00710.png	706.0	25	81617.0	610	256
142	19_valpre	19	24-10-2019	13:33:45:978	rl	valpre	1693	1693	60	81818	00715.png	711.0	25	81817.0	627	205
143	19_valpre	19	24-10-2019	13:33:46:177	rl	valpre	1705	1705	60	82017	00720.png	716.0	25	82017.0	614	165
144	19_valpre	19	24-10-2019	13:33:46:376	rl	valpre	1717	1717	60	82217	00725.png	721.0	25	82217.0	514	373
145	19_valpre	19	24-10-2019	13:33:46:575	rl	valpre	1729	1729	60	82416	00730.png	726.0	25	82417.0	510	371
146	19_valpre	19	24-10-2019	13:33:46:774	rl	valpre	1741	1741	60	82615	00735.png	731.0	25	82617.0	507	369
147	19_valpre	19	24-10-2019	13:33:46:974	rl	valpre	1753	1753	60	82814	00740.png	736.0	25	82817.0	508	364
148	19_valpre	19	24-10-2019	13:33:47:173	rl	valpre	1765	1765	60	83013	00745.png	741.0	25	83017.0	505	367
149	19_valpre	19	24-10-2019	13:33:47:372	rl	valpre	1777	1777	60	83212	00750.png	746.0	25	83217.0	508	368
150	19_valpre	19	24-10-2019	13:33:47:571	rl	valpre	1789	1789	60	83411	00755.png	751.0	25	83417.0	504	367
151	19_valpre	19	24-10-2019	13:33:47:771	rl	valpre	1801	1801	60	83611	00760.png	756.0	25	83617.0	504	373
152	19_valpre	19	24-10-2019	13:33:47:970	rl	valpre	1813	1813	60	83810	00765.png	761.0	25	83817.0	500	373
153	19_valpre	19	24-10-2019	13:33:48:169	rl	valpre	1825	1825	60	84009	00770.png	766.0	25	84017.0	501	372
154	19_valpre	19	24-10-2019	13:33:48:384	rl	valpre	1838	1838	60	84225	00775.png	771.0	25	84217.0	504	376
155	19_valpre	19	24-10-2019	13:33:48:583	rl	valpre	1850	1850	60	84424	00780.png	776.0	25	84417.0	506	377
156	19_valpre	19	24-10-2019	13:33:48:783	rl	valpre	1862	1862	60	84623	00785.png	781.0	25	84617.0	509	376
157	19_valpre	19	24-10-2019	13:33:48:982	rl	valpre	1872	1872	60	84822	00790.png	786.0	25	84817.0	514	377
158	19_valpre	19	24-10-2019	13:33:49:181	rl	valpre	1883	1883	60	85021	00795.png	791.0	25	85017.0	512	378
159	19_valpre	19	24-10-2019	13:33:49:380	rl	valpre	1895	1895	60	85220	00800.png	796.0	25	85217.0	516	374
160	19_valpre	19	24-10-2019	13:33:49:579	rl	valpre	1907	1907	60	85419	00805.png	801.0	25	85417.0	515	380
161	19_valpre	19	24-10-2019	13:33:49:778	rl	valpre	1919	1919	60	85618	00810.png	806.0	25	85617.0	510	378
162	19_valpre	19	24-10-2019	13:33:49:977	rl	valpre	1931	1931	60	85818	00815.png	811.0	25	85817.0	511	372
163	19_valpre	19	24-10-2019	13:33:50:177	rl	valpre	1943	1943	60	86017	00820.png	816.0	25	86017.0	515	376
164	19_valpre	19	24-10-2019	13:33:50:376	rl	valpre	1955	1955	60	86216	00825.png	821.0	25	86217.0	515	378
165	19_valpre	19	24-10-2019	13:33:50:575	rl	valpre	1967	1967	60	86416	00830.png	826.0	25	86417.0	516	378
166	19_valpre	19	24-10-2019	13:33:50:774	rl	valpre	1979	1979	60	86615	00835.png	831.0	25	86617.0	518	373
167	19_valpre	19	24-10-2019	13:33:50:973	rl	valpre	1991	1991	60	86814	00840.png	836.0	25	86817.0	520	381
168	19_valpre	19	24-10-2019	13:33:51:173	rl	valpre	2003	2003	60	87013	00845.png	841.0	25	87017.0	521	384
169	19_valpre	19	24-10-2019	13:33:51:371	rl	valpre	2015	2015	60	87212	00850.png	846.0	25	87217.0	519	378
170	19_valpre	19	24-10-2019	13:33:51:570	rl	valpre	2027	2027	60	87411	00855.png	851.0	25	87417.0	521	383
171	19_valpre	19	24-10-2019	13:33:51:770	rl	valpre	2039	2039	60	87610	00860.png	856.0	25	87617.0	524	378
