	subject_location	subject_id	date	daytime	setting_id	trial_id	sample_id	sample_n	sample_rate	sample_time_smi	frame_id	frame_n	frame_rate	frame_time_smi	fix_pos_x	fix_pos_y
0	19_bac	19	24-10-2019	14:05:06:223	rl	bac	1725	1725	60	1962062	00721.png	1.0	25	1962059.0	2828	521
1	19_bac	19	24-10-2019	14:05:06:422	rl	bac	1737	1737	60	1962262	00726.png	6.0	25	1962259.0	1661	518
2	19_bac	19	24-10-2019	14:05:06:621	rl	bac	1749	1749	60	1962461	00731.png	11.0	25	1962459.0	1682	514
3	19_bac	19	24-10-2019	14:05:06:820	rl	bac	1761	1761	60	1962660	00736.png	16.0	25	1962659.0	2176	532
4	19_bac	19	24-10-2019	14:05:07:020	rl	bac	1773	1773	60	1962859	00741.png	21.0	25	1962859.0	2251	533
5	19_bac	19	24-10-2019	14:05:07:219	rl	bac	1785	1785	60	1963058	00746.png	26.0	25	1963059.0	2129	530
6	19_bac	19	24-10-2019	14:05:07:418	rl	bac	1797	1797	60	1963257	00751.png	31.0	25	1963259.0	3675	564
7	19_bac	19	24-10-2019	14:05:07:617	rl	bac	1809	1809	60	1963456	00756.png	36.0	25	1963459.0	3675	564
8	19_bac	19	24-10-2019	14:05:07:816	rl	bac	1820	1820	60	1963655	00761.png	41.0	25	1963659.0	3675	564
9	19_bac	19	24-10-2019	14:05:08:015	rl	bac	1832	1832	60	1963854	00766.png	46.0	25	1963859.0	3675	564
10	19_bac	19	24-10-2019	14:05:08:214	rl	bac	1843	1843	60	1964054	00771.png	51.0	25	1964059.0	2226	498
11	19_bac	19	24-10-2019	14:05:08:414	rl	bac	1855	1855	60	1964253	00776.png	56.0	25	1964259.0	3290	537
12	19_bac	19	24-10-2019	14:05:08:613	rl	bac	1867	1867	60	1964452	00781.png	61.0	25	1964459.0	2243	607
13	19_bac	19	24-10-2019	14:05:08:812	rl	bac	1879	1879	60	1964651	00786.png	66.0	25	1964659.0	1624	591
14	19_bac	19	24-10-2019	14:05:09:027	rl	bac	1892	1892	60	1964867	00791.png	71.0	25	1964859.0	1773	600
15	19_bac	19	24-10-2019	14:05:09:226	rl	bac	1904	1904	60	1965066	00796.png	76.0	25	1965059.0	5306	635
16	19_bac	19	24-10-2019	14:05:09:426	rl	bac	1916	1916	60	1965265	00801.png	81.0	25	1965259.0	4696	613
17	19_bac	19	24-10-2019	14:05:09:625	rl	bac	1928	1928	60	1965464	00806.png	86.0	25	1965459.0	0	0
18	19_bac	19	24-10-2019	14:05:09:824	rl	bac	1940	1940	60	1965664	00811.png	91.0	25	1965659.0	0	0
19	19_bac	19	24-10-2019	14:05:10:023	rl	bac	1952	1952	60	1965863	00816.png	96.0	25	1965859.0	0	0
20	19_bac	19	24-10-2019	14:05:10:222	rl	bac	1964	1964	60	1966062	00821.png	101.0	25	1966059.0	272	562
21	19_bac	19	24-10-2019	14:05:10:422	rl	bac	1976	1976	60	1966261	00826.png	106.0	25	1966259.0	273	562
22	19_bac	19	24-10-2019	14:05:10:621	rl	bac	1988	1988	60	1966460	00831.png	111.0	25	1966459.0	1362	535
23	19_bac	19	24-10-2019	14:05:10:820	rl	bac	2000	2000	60	1966660	00836.png	116.0	25	1966659.0	196	583
24	19_bac	19	24-10-2019	14:05:11:019	rl	bac	2012	2012	60	1966859	00841.png	121.0	25	1966859.0	4185	586
25	19_bac	19	24-10-2019	14:05:11:218	rl	bac	2024	2024	60	1967058	00846.png	126.0	25	1967059.0	5825	718
26	19_bac	19	24-10-2019	14:05:11:418	rl	bac	2036	2036	60	1967257	00851.png	131.0	25	1967259.0	887	459
27	19_bac	19	24-10-2019	14:05:11:633	rl	bac	2048	2048	60	1967472	00856.png	136.0	25	1967459.0	38898	2729
28	19_bac	19	24-10-2019	14:05:11:816	rl	bac	2058	2058	60	1967655	00861.png	141.0	25	1967659.0	842	470
29	19_bac	19	24-10-2019	14:05:12:014	rl	bac	2070	2070	60	1967854	00866.png	146.0	25	1967859.0	2567	569
30	19_bac	19	24-10-2019	14:05:12:214	rl	bac	2082	2082	60	1968053	00871.png	151.0	25	1968059.0	4435	638
31	19_bac	19	24-10-2019	14:05:12:413	rl	bac	2094	2094	60	1968253	00876.png	156.0	25	1968259.0	4435	638
32	19_bac	19	24-10-2019	14:05:12:612	rl	bac	2106	2106	60	1968452	00881.png	161.0	25	1968459.0	4435	638
33	19_bac	19	24-10-2019	14:05:12:811	rl	bac	2118	2118	60	1968651	00886.png	166.0	25	1968659.0	4435	638
34	19_bac	19	24-10-2019	14:05:13:027	rl	bac	2131	2131	60	1968866	00891.png	171.0	25	1968859.0	13292	1308
35	19_bac	19	24-10-2019	14:05:13:226	rl	bac	2143	2143	60	1969065	00896.png	176.0	25	1969059.0	-806	273
36	19_bac	19	24-10-2019	14:05:13:425	rl	bac	2155	2155	60	1969265	00901.png	181.0	25	1969259.0	-772	289
37	19_bac	19	24-10-2019	14:05:13:624	rl	bac	2167	2167	60	1969464	00906.png	186.0	25	1969459.0	-767	320
38	19_bac	19	24-10-2019	14:05:13:824	rl	bac	2179	2179	60	1969663	00911.png	191.0	25	1969659.0	-816	308
39	19_bac	19	24-10-2019	14:05:14:023	rl	bac	2191	2191	60	1969862	00916.png	196.0	25	1969859.0	-751	293
40	19_bac	19	24-10-2019	14:05:14:222	rl	bac	2203	2203	60	1970061	00921.png	201.0	25	1970059.0	-495	298
41	19_bac	19	24-10-2019	14:05:14:421	rl	bac	2215	2215	60	1970260	00926.png	206.0	25	1970259.0	8239	898
42	19_bac	19	24-10-2019	14:05:14:620	rl	bac	2227	2227	60	1970460	00931.png	211.0	25	1970459.0	5036	698
43	19_bac	19	24-10-2019	14:05:14:819	rl	bac	2239	2239	60	1970659	00936.png	216.0	25	1970659.0	-11729	-330
44	19_bac	19	24-10-2019	14:05:15:019	rl	bac	2251	2251	60	1970858	00941.png	221.0	25	1970859.0	-6884	-54
45	19_bac	19	24-10-2019	14:05:15:218	rl	bac	2263	2263	60	1971057	00946.png	226.0	25	1971059.0	0	0
46	19_bac	19	24-10-2019	14:05:15:417	rl	bac	2275	2275	60	1971256	00951.png	231.0	25	1971259.0	0	0
47	19_bac	19	24-10-2019	14:05:15:616	rl	bac	2286	2286	60	1971455	00956.png	236.0	25	1971459.0	-233	331
48	19_bac	19	24-10-2019	14:05:15:815	rl	bac	2297	2297	60	1971654	00961.png	241.0	25	1971659.0	-340	324
49	19_bac	19	24-10-2019	14:05:16:014	rl	bac	2309	2309	60	1971854	00966.png	246.0	25	1971859.0	-937	292
50	19_bac	19	24-10-2019	14:05:16:213	rl	bac	2321	2321	60	1972053	00971.png	251.0	25	1972059.0	14387	972
51	19_bac	19	24-10-2019	14:05:16:412	rl	bac	2333	2333	60	1972252	00976.png	256.0	25	1972259.0	-10338	-108
52	19_bac	19	24-10-2019	14:05:16:612	rl	bac	2345	2345	60	1972451	00981.png	261.0	25	1972459.0	5083	649
53	19_bac	19	24-10-2019	14:05:16:827	rl	bac	2358	2358	60	1972667	00986.png	266.0	25	1972659.0	0	0
54	19_bac	19	24-10-2019	14:05:17:027	rl	bac	2370	2370	60	1972866	00991.png	271.0	25	1972859.0	1036	502
55	19_bac	19	24-10-2019	14:05:17:226	rl	bac	2382	2382	60	1973065	00996.png	276.0	25	1973059.0	862	468
56	19_bac	19	24-10-2019	14:05:17:425	rl	bac	2394	2394	60	1973264	01001.png	281.0	25	1973259.0	2844	542
57	19_bac	19	24-10-2019	14:05:17:624	rl	bac	2406	2406	60	1973463	01006.png	286.0	25	1973459.0	1926	511
58	19_bac	19	24-10-2019	14:05:17:823	rl	bac	2418	2418	60	1973663	01011.png	291.0	25	1973659.0	1712	503
59	19_bac	19	24-10-2019	14:05:18:022	rl	bac	2430	2430	60	1973862	01016.png	296.0	25	1973859.0	3753	602
60	19_bac	19	24-10-2019	14:05:18:222	rl	bac	2442	2442	60	1974061	01021.png	301.0	25	1974059.0	2453	559
61	19_bac	19	24-10-2019	14:05:18:421	rl	bac	2454	2454	60	1974260	01026.png	306.0	25	1974259.0	1444	487
62	19_bac	19	24-10-2019	14:05:18:620	rl	bac	2466	2466	60	1974459	01031.png	311.0	25	1974459.0	1356	502
63	19_bac	19	24-10-2019	14:05:18:819	rl	bac	2478	2478	60	1974658	01036.png	316.0	25	1974659.0	195	524
64	19_bac	19	24-10-2019	14:05:19:018	rl	bac	2490	2490	60	1974857	01041.png	321.0	25	1974859.0	1407	491
65	19_bac	19	24-10-2019	14:05:19:217	rl	bac	2502	2502	60	1975056	01046.png	326.0	25	1975059.0	1808	486
66	19_bac	19	24-10-2019	14:05:19:433	rl	bac	2513	2513	60	1975273	01051.png	331.0	25	1975259.0	1972	503
67	19_bac	19	24-10-2019	14:05:19:615	rl	bac	2522	2522	60	1975455	01056.png	336.0	25	1975459.0	1163	494
68	19_bac	19	24-10-2019	14:05:19:815	rl	bac	2534	2534	60	1975654	01061.png	341.0	25	1975659.0	1392	507
69	19_bac	19	24-10-2019	14:05:20:014	rl	bac	2546	2546	60	1975853	01066.png	346.0	25	1975859.0	1451	504
70	19_bac	19	24-10-2019	14:05:20:213	rl	bac	2558	2558	60	1976053	01071.png	351.0	25	1976059.0	1947	526
71	19_bac	19	24-10-2019	14:05:20:412	rl	bac	2570	2570	60	1976252	01076.png	356.0	25	1976259.0	1408	486
72	19_bac	19	24-10-2019	14:05:20:628	rl	bac	2583	2583	60	1976467	01081.png	361.0	25	1976459.0	1822	496
73	19_bac	19	24-10-2019	14:05:20:827	rl	bac	2595	2595	60	1976666	01086.png	366.0	25	1976659.0	3627	556
74	19_bac	19	24-10-2019	14:05:21:026	rl	bac	2607	2607	60	1976866	01091.png	371.0	25	1976859.0	3190	544
75	19_bac	19	24-10-2019	14:05:21:225	rl	bac	2619	2619	60	1977065	01096.png	376.0	25	1977059.0	1975	534
76	19_bac	19	24-10-2019	14:05:21:425	rl	bac	2631	2631	60	1977264	01101.png	381.0	25	1977259.0	1627	525
77	19_bac	19	24-10-2019	14:05:21:623	rl	bac	2643	2643	60	1977463	01106.png	386.0	25	1977459.0	1601	528
78	19_bac	19	24-10-2019	14:05:21:822	rl	bac	2655	2655	60	1977662	01111.png	391.0	25	1977659.0	1602	525
79	19_bac	19	24-10-2019	14:05:22:022	rl	bac	2667	2667	60	1977861	01116.png	396.0	25	1977859.0	1297	488
80	19_bac	19	24-10-2019	14:05:22:221	rl	bac	2679	2679	60	1978060	01121.png	401.0	25	1978059.0	1252	490
81	19_bac	19	24-10-2019	14:05:22:420	rl	bac	2691	2691	60	1978259	01126.png	406.0	25	1978259.0	375	527
82	19_bac	19	24-10-2019	14:05:22:619	rl	bac	2703	2703	60	1978459	01131.png	411.0	25	1978459.0	761	514
83	19_bac	19	24-10-2019	14:05:22:818	rl	bac	2715	2715	60	1978658	01136.png	416.0	25	1978659.0	760	516
84	19_bac	19	24-10-2019	14:05:23:018	rl	bac	2727	2727	60	1978857	01141.png	421.0	25	1978859.0	762	515
85	19_bac	19	24-10-2019	14:05:23:216	rl	bac	2739	2739	60	1979056	01146.png	426.0	25	1979059.0	913	490
86	19_bac	19	24-10-2019	14:05:23:416	rl	bac	2749	2749	60	1979255	01151.png	431.0	25	1979259.0	877	500
87	19_bac	19	24-10-2019	14:05:23:615	rl	bac	2759	2759	60	1979454	01156.png	436.0	25	1979459.0	911	492
88	19_bac	19	24-10-2019	14:05:23:814	rl	bac	2771	2771	60	1979653	01161.png	441.0	25	1979659.0	934	488
89	19_bac	19	24-10-2019	14:05:24:013	rl	bac	2783	2783	60	1979852	01166.png	446.0	25	1979859.0	2506	540
90	19_bac	19	24-10-2019	14:05:24:212	rl	bac	2795	2795	60	1980052	01171.png	451.0	25	1980059.0	2758	569
91	19_bac	19	24-10-2019	14:05:24:412	rl	bac	2807	2807	60	1980251	01176.png	456.0	25	1980259.0	2518	571
92	19_bac	19	24-10-2019	14:05:24:627	rl	bac	2820	2820	60	1980467	01181.png	461.0	25	1980459.0	1495	515
93	19_bac	19	24-10-2019	14:05:24:826	rl	bac	2832	2832	60	1980666	01186.png	466.0	25	1980659.0	3119	607
94	19_bac	19	24-10-2019	14:05:25:026	rl	bac	2844	2844	60	1980865	01191.png	471.0	25	1980859.0	2101	544
95	19_bac	19	24-10-2019	14:05:25:225	rl	bac	2856	2856	60	1981064	01196.png	476.0	25	1981059.0	2282	532
96	19_bac	19	24-10-2019	14:05:25:424	rl	bac	2868	2868	60	1981263	01201.png	481.0	25	1981259.0	1674	509
97	19_bac	19	24-10-2019	14:05:25:623	rl	bac	2880	2880	60	1981462	01206.png	486.0	25	1981459.0	4977	720
98	19_bac	19	24-10-2019	14:05:25:822	rl	bac	2892	2892	60	1981662	01211.png	491.0	25	1981659.0	6420	803
99	19_bac	19	24-10-2019	14:05:26:022	rl	bac	2904	2904	60	1981861	01216.png	496.0	25	1981859.0	2403	508
100	19_bac	19	24-10-2019	14:05:26:221	rl	bac	2916	2916	60	1982060	01221.png	501.0	25	1982059.0	1692	479
101	19_bac	19	24-10-2019	14:05:26:420	rl	bac	2928	2928	60	1982259	01226.png	506.0	25	1982259.0	1556	480
102	19_bac	19	24-10-2019	14:05:26:618	rl	bac	2940	2940	60	1982458	01231.png	511.0	25	1982459.0	1063	506
103	19_bac	19	24-10-2019	14:05:26:818	rl	bac	2952	2952	60	1982657	01236.png	516.0	25	1982659.0	1202	506
104	19_bac	19	24-10-2019	14:05:27:017	rl	bac	2964	2964	60	1982857	01241.png	521.0	25	1982859.0	894	507
105	19_bac	19	24-10-2019	14:05:27:216	rl	bac	2975	2975	60	1983055	01246.png	526.0	25	1983059.0	-60	571
106	19_bac	19	24-10-2019	14:05:27:415	rl	bac	2987	2987	60	1983255	01251.png	531.0	25	1983259.0	0	0
107	19_bac	19	24-10-2019	14:05:27:615	rl	bac	2999	2999	60	1983454	01256.png	536.0	25	1983459.0	607	528
108	19_bac	19	24-10-2019	14:05:27:814	rl	bac	3011	3011	60	1983653	01261.png	541.0	25	1983659.0	5489	828
109	19_bac	19	24-10-2019	14:05:28:013	rl	bac	3023	3023	60	1983852	01266.png	546.0	25	1983859.0	-784	272
110	19_bac	19	24-10-2019	14:05:28:212	rl	bac	3035	3035	60	1984051	01271.png	551.0	25	1984059.0	-4119	33
111	19_bac	19	24-10-2019	14:05:28:411	rl	bac	3047	3047	60	1984251	01276.png	556.0	25	1984259.0	863	490
112	19_bac	19	24-10-2019	14:05:28:627	rl	bac	3060	3060	60	1984466	01281.png	561.0	25	1984459.0	-1696	228
113	19_bac	19	24-10-2019	14:05:28:826	rl	bac	3072	3072	60	1984665	01286.png	566.0	25	1984659.0	-2698	154
114	19_bac	19	24-10-2019	14:05:29:025	rl	bac	3084	3084	60	1984865	01291.png	571.0	25	1984859.0	-10026	-417
115	19_bac	19	24-10-2019	14:05:29:224	rl	bac	3096	3096	60	1985063	01296.png	576.0	25	1985059.0	-5876	-107
116	19_bac	19	24-10-2019	14:05:29:423	rl	bac	3108	3108	60	1985263	01301.png	581.0	25	1985259.0	-10492	-499
117	19_bac	19	24-10-2019	14:05:29:622	rl	bac	3120	3120	60	1985462	01306.png	586.0	25	1985459.0	-6663	-209
118	19_bac	19	24-10-2019	14:05:29:822	rl	bac	3132	3132	60	1985661	01311.png	591.0	25	1985659.0	0	0
119	19_bac	19	24-10-2019	14:05:30:021	rl	bac	3144	3144	60	1985860	01316.png	596.0	25	1985859.0	97090	42427
120	19_bac	19	24-10-2019	14:05:30:220	rl	bac	3156	3156	60	1986059	01321.png	601.0	25	1986059.0	3032	571
121	19_bac	19	24-10-2019	14:05:30:419	rl	bac	3168	3168	60	1986259	01326.png	606.0	25	1986259.0	2213	526
122	19_bac	19	24-10-2019	14:05:30:618	rl	bac	3180	3180	60	1986458	01331.png	611.0	25	1986459.0	22453	1878
123	19_bac	19	24-10-2019	14:05:30:818	rl	bac	3192	3192	60	1986657	01336.png	616.0	25	1986659.0	0	0
124	19_bac	19	24-10-2019	14:05:31:033	rl	bac	3204	3204	60	1986872	01341.png	621.0	25	1986859.0	2379	513
125	19_bac	19	24-10-2019	14:05:31:216	rl	bac	3213	3213	60	1987055	01346.png	626.0	25	1987059.0	0	0
126	19_bac	19	24-10-2019	14:05:31:415	rl	bac	3225	3225	60	1987254	01351.png	631.0	25	1987259.0	140	569
127	19_bac	19	24-10-2019	14:05:31:614	rl	bac	3237	3237	60	1987453	01356.png	636.0	25	1987459.0	0	0
128	19_bac	19	24-10-2019	14:05:31:813	rl	bac	3249	3249	60	1987653	01361.png	641.0	25	1987659.0	2428	514
129	19_bac	19	24-10-2019	14:05:32:012	rl	bac	3261	3261	60	1987852	01366.png	646.0	25	1987859.0	-126	667
130	19_bac	19	24-10-2019	14:05:32:212	rl	bac	3273	3273	60	1988051	01371.png	651.0	25	1988059.0	2	605
131	19_bac	19	24-10-2019	14:05:32:427	rl	bac	3286	3286	60	1988267	01376.png	656.0	25	1988259.0	0	0
132	19_bac	19	24-10-2019	14:05:32:626	rl	bac	3298	3298	60	1988466	01381.png	661.0	25	1988459.0	0	0
133	19_bac	19	24-10-2019	14:05:32:826	rl	bac	3310	3310	60	1988665	01386.png	666.0	25	1988659.0	-460	716
134	19_bac	19	24-10-2019	14:05:33:024	rl	bac	3322	3322	60	1988864	01391.png	671.0	25	1988859.0	875	529
135	19_bac	19	24-10-2019	14:05:33:224	rl	bac	3334	3334	60	1989063	01396.png	676.0	25	1989059.0	875	529
136	19_bac	19	24-10-2019	14:05:33:423	rl	bac	3346	3346	60	1989262	01401.png	681.0	25	1989259.0	100	589
137	19_bac	19	24-10-2019	14:05:33:622	rl	bac	3358	3358	60	1989462	01406.png	686.0	25	1989459.0	100	589
138	19_bac	19	24-10-2019	14:05:33:821	rl	bac	3370	3370	60	1989661	01411.png	691.0	25	1989659.0	893	518
139	19_bac	19	24-10-2019	14:05:34:020	rl	bac	3382	3382	60	1989860	01416.png	696.0	25	1989859.0	915	516
140	19_bac	19	24-10-2019	14:05:34:219	rl	bac	3394	3394	60	1990059	01421.png	701.0	25	1990059.0	915	516
141	19_bac	19	24-10-2019	14:05:34:419	rl	bac	3406	3406	60	1990258	01426.png	706.0	25	1990259.0	915	516
142	19_bac	19	24-10-2019	14:05:34:618	rl	bac	3418	3418	60	1990457	01431.png	711.0	25	1990459.0	915	516
143	19_bac	19	24-10-2019	14:05:34:816	rl	bac	3430	3430	60	1990656	01436.png	716.0	25	1990659.0	959	509
144	19_bac	19	24-10-2019	14:05:35:016	rl	bac	3440	3440	60	1990855	01441.png	721.0	25	1990859.0	976	507
145	19_bac	19	24-10-2019	14:05:35:215	rl	bac	3452	3452	60	1991055	01446.png	726.0	25	1991059.0	976	507
146	19_bac	19	24-10-2019	14:05:35:414	rl	bac	3464	3464	60	1991254	01451.png	731.0	25	1991259.0	1018	501
147	19_bac	19	24-10-2019	14:05:35:613	rl	bac	3476	3476	60	1991453	01456.png	736.0	25	1991459.0	1022	500
148	19_bac	19	24-10-2019	14:05:35:813	rl	bac	3488	3488	60	1991652	01461.png	741.0	25	1991659.0	1008	493
149	19_bac	19	24-10-2019	14:05:36:012	rl	bac	3500	3500	60	1991851	01466.png	746.0	25	1991859.0	1008	493
