subject_id	setting_id	trial_id	first_frame_n	first_frame_time	first_frame_id
12	rl	bac	512	1921235.0	00512.png
12	rl	gas	732	2681094.0	00732.png
12	rl	loc	421	3071824.0	00421.png
12	rl	rat	515	2200622.0	00515.png
12	rl	reg	629	1270844.0	00629.png
12	rl	valpost	5	55963.0	00005.png
12	rl	valpre	5	73243.0	00005.png
