subject_id	setting_id	trial_id	first_frame_n	first_frame_time	first_frame_id
3	rl	bac	675	1928588.0	00675.png
3	rl	gas	616	2609395.0	00616.png
3	rl	loc	476	3012524.0	00476.png
3	rl	rat	474	2177495.0	00474.png
3	rl	reg	523	1328823.0	00523.png
3	rl	valpost	5	59059.0	00005.png
3	rl	valpre	5	88780.0	00005.png
