	subject_location	subject_id	date	daytime	setting_id	trial_id	sample_id	sample_n	sample_rate	sample_time_smi	frame_id	frame_n	frame_rate	frame_time_smi	fix_pos_x	fix_pos_y
0	29_loc	29	08-11-2019	16:50:08:859	rl	loc	1114	1114	60	930506	00020.png	1.0	25	930509.0	0	0
1	29_loc	29	08-11-2019	16:50:09:058	rl	loc	1126	1126	60	930705	00025.png	6.0	25	930709.0	5669	-1466
2	29_loc	29	08-11-2019	16:50:09:258	rl	loc	1138	1138	60	930905	00030.png	11.0	25	930909.0	5268	5700
3	29_loc	29	08-11-2019	16:50:09:456	rl	loc	1150	1150	60	931104	00035.png	16.0	25	931109.0	0	473
4	29_loc	29	08-11-2019	16:50:09:655	rl	loc	1162	1162	60	931302	00040.png	21.0	25	931309.0	1256	1253
5	29_loc	29	08-11-2019	16:50:09:854	rl	loc	1174	1174	60	931502	00045.png	26.0	25	931509.0	0	0
6	29_loc	29	08-11-2019	16:50:10:070	rl	loc	1185	1185	60	931718	00050.png	31.0	25	931709.0	0	0
7	29_loc	29	08-11-2019	16:50:10:269	rl	loc	1195	1195	60	931917	00055.png	36.0	25	931909.0	1904	-437
8	29_loc	29	08-11-2019	16:50:10:469	rl	loc	1207	1207	60	932116	00060.png	41.0	25	932109.0	5373	3311
9	29_loc	29	08-11-2019	16:50:10:668	rl	loc	1219	1219	60	932315	00065.png	46.0	25	932309.0	0	0
10	29_loc	29	08-11-2019	16:50:10:867	rl	loc	1231	1231	60	932514	00070.png	51.0	25	932509.0	0	0
11	29_loc	29	08-11-2019	16:50:11:066	rl	loc	1243	1243	60	932713	00075.png	56.0	25	932709.0	1012	-324
12	29_loc	29	08-11-2019	16:50:11:265	rl	loc	1255	1255	60	932912	00080.png	61.0	25	932909.0	-317	535
13	29_loc	29	08-11-2019	16:50:11:464	rl	loc	1267	1267	60	933111	00085.png	66.0	25	933109.0	-423	563
14	29_loc	29	08-11-2019	16:50:11:663	rl	loc	1279	1279	60	933311	00090.png	71.0	25	933309.0	50	-1146
15	29_loc	29	08-11-2019	16:50:11:863	rl	loc	1291	1291	60	933510	00095.png	76.0	25	933509.0	0	0
16	29_loc	29	08-11-2019	16:50:12:062	rl	loc	1303	1303	60	933709	00100.png	81.0	25	933709.0	0	0
17	29_loc	29	08-11-2019	16:50:12:261	rl	loc	1315	1315	60	933908	00105.png	86.0	25	933909.0	0	0
18	29_loc	29	08-11-2019	16:50:12:460	rl	loc	1327	1327	60	934107	00110.png	91.0	25	934109.0	0	0
19	29_loc	29	08-11-2019	16:50:12:659	rl	loc	1339	1339	60	934307	00115.png	96.0	25	934309.0	0	0
20	29_loc	29	08-11-2019	16:50:12:858	rl	loc	1351	1351	60	934506	00120.png	101.0	25	934509.0	0	0
21	29_loc	29	08-11-2019	16:50:13:057	rl	loc	1363	1363	60	934705	00125.png	106.0	25	934709.0	0	0
22	29_loc	29	08-11-2019	16:50:13:256	rl	loc	1375	1375	60	934904	00130.png	111.0	25	934909.0	4768	-6068
23	29_loc	29	08-11-2019	16:50:13:456	rl	loc	1387	1387	60	935103	00135.png	116.0	25	935109.0	-17151	3263
24	29_loc	29	08-11-2019	16:50:13:655	rl	loc	1399	1399	60	935302	00140.png	121.0	25	935309.0	0	0
25	29_loc	29	08-11-2019	16:50:13:854	rl	loc	1411	1411	60	935502	00145.png	126.0	25	935509.0	0	0
26	29_loc	29	08-11-2019	16:50:14:070	rl	loc	1421	1421	60	935717	00150.png	131.0	25	935709.0	0	0
27	29_loc	29	08-11-2019	16:50:14:269	rl	loc	1433	1433	60	935916	00155.png	136.0	25	935909.0	0	0
28	29_loc	29	08-11-2019	16:50:14:468	rl	loc	1445	1445	60	936115	00160.png	141.0	25	936109.0	0	0
29	29_loc	29	08-11-2019	16:50:14:667	rl	loc	1457	1457	60	936315	00165.png	146.0	25	936309.0	0	0
30	29_loc	29	08-11-2019	16:50:14:866	rl	loc	1469	1469	60	936514	00170.png	151.0	25	936509.0	0	0
31	29_loc	29	08-11-2019	16:50:15:066	rl	loc	1481	1481	60	936713	00175.png	156.0	25	936709.0	0	0
32	29_loc	29	08-11-2019	16:50:15:265	rl	loc	1493	1493	60	936912	00180.png	161.0	25	936909.0	0	0
33	29_loc	29	08-11-2019	16:50:15:464	rl	loc	1505	1505	60	937111	00185.png	166.0	25	937109.0	0	0
34	29_loc	29	08-11-2019	16:50:15:663	rl	loc	1517	1517	60	937310	00190.png	171.0	25	937309.0	0	0
35	29_loc	29	08-11-2019	16:50:15:862	rl	loc	1529	1529	60	937510	00195.png	176.0	25	937509.0	0	0
36	29_loc	29	08-11-2019	16:50:16:061	rl	loc	1541	1541	60	937709	00200.png	181.0	25	937709.0	0	0
37	29_loc	29	08-11-2019	16:50:16:260	rl	loc	1553	1553	60	937908	00205.png	186.0	25	937909.0	0	0
38	29_loc	29	08-11-2019	16:50:16:460	rl	loc	1565	1565	60	938107	00210.png	191.0	25	938109.0	-365	-1261
39	29_loc	29	08-11-2019	16:50:16:659	rl	loc	1577	1577	60	938306	00215.png	196.0	25	938309.0	0	0
40	29_loc	29	08-11-2019	16:50:16:858	rl	loc	1589	1589	60	938505	00220.png	201.0	25	938509.0	-6969	-5513
41	29_loc	29	08-11-2019	16:50:17:057	rl	loc	1601	1601	60	938704	00225.png	206.0	25	938709.0	0	0
42	29_loc	29	08-11-2019	16:50:17:256	rl	loc	1613	1613	60	938903	00230.png	211.0	25	938909.0	0	0
43	29_loc	29	08-11-2019	16:50:17:455	rl	loc	1625	1625	60	939102	00235.png	216.0	25	939109.0	0	0
44	29_loc	29	08-11-2019	16:50:17:654	rl	loc	1637	1637	60	939302	00240.png	221.0	25	939309.0	0	0
45	29_loc	29	08-11-2019	16:50:17:870	rl	loc	1648	1648	60	939518	00245.png	226.0	25	939509.0	0	0
46	29_loc	29	08-11-2019	16:50:18:069	rl	loc	1659	1659	60	939717	00250.png	231.0	25	939709.0	0	0
47	29_loc	29	08-11-2019	16:50:18:268	rl	loc	1671	1671	60	939915	00255.png	236.0	25	939909.0	0	0
48	29_loc	29	08-11-2019	16:50:18:467	rl	loc	1683	1683	60	940115	00260.png	241.0	25	940109.0	0	0
49	29_loc	29	08-11-2019	16:50:18:667	rl	loc	1695	1695	60	940314	00265.png	246.0	25	940309.0	0	0
50	29_loc	29	08-11-2019	16:50:18:866	rl	loc	1707	1707	60	940513	00270.png	251.0	25	940509.0	0	0
51	29_loc	29	08-11-2019	16:50:19:065	rl	loc	1719	1719	60	940712	00275.png	256.0	25	940709.0	0	0
52	29_loc	29	08-11-2019	16:50:19:264	rl	loc	1731	1731	60	940912	00280.png	261.0	25	940909.0	0	0
53	29_loc	29	08-11-2019	16:50:19:463	rl	loc	1743	1743	60	941111	00285.png	266.0	25	941109.0	0	0
54	29_loc	29	08-11-2019	16:50:19:662	rl	loc	1755	1755	60	941310	00290.png	271.0	25	941309.0	785	85
55	29_loc	29	08-11-2019	16:50:19:862	rl	loc	1767	1767	60	941509	00295.png	276.0	25	941509.0	526	-1176
56	29_loc	29	08-11-2019	16:50:20:061	rl	loc	1779	1779	60	941708	00300.png	281.0	25	941709.0	-10692	3575
57	29_loc	29	08-11-2019	16:50:20:260	rl	loc	1791	1791	60	941907	00305.png	286.0	25	941909.0	0	0
58	29_loc	29	08-11-2019	16:50:20:459	rl	loc	1803	1803	60	942106	00310.png	291.0	25	942109.0	0	0
59	29_loc	29	08-11-2019	16:50:20:658	rl	loc	1815	1815	60	942305	00315.png	296.0	25	942309.0	1252	862
60	29_loc	29	08-11-2019	16:50:20:857	rl	loc	1827	1827	60	942505	00320.png	301.0	25	942509.0	0	0
61	29_loc	29	08-11-2019	16:50:21:057	rl	loc	1839	1839	60	942704	00325.png	306.0	25	942709.0	0	0
62	29_loc	29	08-11-2019	16:50:21:255	rl	loc	1851	1851	60	942903	00330.png	311.0	25	942909.0	0	0
63	29_loc	29	08-11-2019	16:50:21:455	rl	loc	1863	1863	60	943102	00335.png	316.0	25	943109.0	0	0
64	29_loc	29	08-11-2019	16:50:21:670	rl	loc	1875	1875	60	943318	00340.png	321.0	25	943309.0	0	0
65	29_loc	29	08-11-2019	16:50:21:870	rl	loc	1886	1886	60	943517	00345.png	326.0	25	943509.0	0	0
66	29_loc	29	08-11-2019	16:50:22:069	rl	loc	1898	1898	60	943716	00350.png	331.0	25	943709.0	0	0
67	29_loc	29	08-11-2019	16:50:22:268	rl	loc	1910	1910	60	943915	00355.png	336.0	25	943909.0	0	0
68	29_loc	29	08-11-2019	16:50:22:467	rl	loc	1922	1922	60	944114	00360.png	341.0	25	944109.0	0	0
69	29_loc	29	08-11-2019	16:50:22:666	rl	loc	1934	1934	60	944314	00365.png	346.0	25	944309.0	0	0
70	29_loc	29	08-11-2019	16:50:22:865	rl	loc	1946	1946	60	944512	00370.png	351.0	25	944509.0	0	0
71	29_loc	29	08-11-2019	16:50:23:064	rl	loc	1958	1958	60	944711	00375.png	356.0	25	944709.0	0	0
72	29_loc	29	08-11-2019	16:50:23:263	rl	loc	1970	1970	60	944911	00380.png	361.0	25	944909.0	0	0
73	29_loc	29	08-11-2019	16:50:23:463	rl	loc	1982	1982	60	945110	00385.png	366.0	25	945109.0	0	0
74	29_loc	29	08-11-2019	16:50:23:662	rl	loc	1994	1994	60	945309	00390.png	371.0	25	945309.0	0	0
75	29_loc	29	08-11-2019	16:50:23:861	rl	loc	2006	2006	60	945508	00395.png	376.0	25	945509.0	0	0
76	29_loc	29	08-11-2019	16:50:24:060	rl	loc	2018	2018	60	945708	00400.png	381.0	25	945709.0	0	0
77	29_loc	29	08-11-2019	16:50:24:259	rl	loc	2030	2030	60	945907	00405.png	386.0	25	945909.0	0	0
78	29_loc	29	08-11-2019	16:50:24:459	rl	loc	2042	2042	60	946106	00410.png	391.0	25	946109.0	0	0
79	29_loc	29	08-11-2019	16:50:24:658	rl	loc	2054	2054	60	946305	00415.png	396.0	25	946309.0	594	370
80	29_loc	29	08-11-2019	16:50:24:857	rl	loc	2066	2066	60	946504	00420.png	401.0	25	946509.0	0	0
81	29_loc	29	08-11-2019	16:50:25:056	rl	loc	2078	2078	60	946703	00425.png	406.0	25	946709.0	0	0
82	29_loc	29	08-11-2019	16:50:25:255	rl	loc	2090	2090	60	946902	00430.png	411.0	25	946909.0	0	0
83	29_loc	29	08-11-2019	16:50:25:454	rl	loc	2102	2102	60	947102	00435.png	416.0	25	947109.0	0	0
84	29_loc	29	08-11-2019	16:50:25:653	rl	loc	2113	2113	60	947301	00440.png	421.0	25	947309.0	0	0
85	29_loc	29	08-11-2019	16:50:25:869	rl	loc	2126	2126	60	947516	00445.png	426.0	25	947509.0	574	7584
86	29_loc	29	08-11-2019	16:50:26:068	rl	loc	2138	2138	60	947716	00450.png	431.0	25	947709.0	0	0
87	29_loc	29	08-11-2019	16:50:26:267	rl	loc	2150	2150	60	947915	00455.png	436.0	25	947909.0	0	0
88	29_loc	29	08-11-2019	16:50:26:467	rl	loc	2162	2162	60	948114	00460.png	441.0	25	948109.0	0	0
89	29_loc	29	08-11-2019	16:50:26:666	rl	loc	2174	2174	60	948313	00465.png	446.0	25	948309.0	-2025	-1800
90	29_loc	29	08-11-2019	16:50:26:865	rl	loc	2186	2186	60	948512	00470.png	451.0	25	948509.0	0	0
91	29_loc	29	08-11-2019	16:50:27:064	rl	loc	2198	2198	60	948711	00475.png	456.0	25	948709.0	159	-1121
92	29_loc	29	08-11-2019	16:50:27:263	rl	loc	2210	2210	60	948910	00480.png	461.0	25	948909.0	0	0
93	29_loc	29	08-11-2019	16:50:27:462	rl	loc	2222	2222	60	949109	00485.png	466.0	25	949109.0	0	0
94	29_loc	29	08-11-2019	16:50:27:662	rl	loc	2234	2234	60	949309	00490.png	471.0	25	949309.0	3023	-3704
95	29_loc	29	08-11-2019	16:50:27:861	rl	loc	2246	2246	60	949508	00495.png	476.0	25	949509.0	702	1817
96	29_loc	29	08-11-2019	16:50:28:060	rl	loc	2258	2258	60	949707	00500.png	481.0	25	949709.0	-476	2624
97	29_loc	29	08-11-2019	16:50:28:259	rl	loc	2270	2270	60	949906	00505.png	486.0	25	949909.0	0	0
98	29_loc	29	08-11-2019	16:50:28:458	rl	loc	2282	2282	60	950105	00510.png	491.0	25	950109.0	18	1988
99	29_loc	29	08-11-2019	16:50:28:657	rl	loc	2294	2294	60	950305	00515.png	496.0	25	950309.0	-2729	3583
100	29_loc	29	08-11-2019	16:50:28:856	rl	loc	2306	2306	60	950504	00520.png	501.0	25	950509.0	1812	-1043
101	29_loc	29	08-11-2019	16:50:29:056	rl	loc	2318	2318	60	950703	00525.png	506.0	25	950709.0	-1874	873
102	29_loc	29	08-11-2019	16:50:29:254	rl	loc	2330	2330	60	950902	00530.png	511.0	25	950909.0	1680	1681
103	29_loc	29	08-11-2019	16:50:29:454	rl	loc	2342	2342	60	951101	00535.png	516.0	25	951109.0	1016	1481
104	29_loc	29	08-11-2019	16:50:29:669	rl	loc	2353	2353	60	951317	00540.png	521.0	25	951309.0	0	0
105	29_loc	29	08-11-2019	16:50:29:869	rl	loc	2365	2365	60	951516	00545.png	526.0	25	951509.0	0	0
106	29_loc	29	08-11-2019	16:50:30:068	rl	loc	2377	2377	60	951715	00550.png	531.0	25	951709.0	0	0
107	29_loc	29	08-11-2019	16:50:30:267	rl	loc	2389	2389	60	951914	00555.png	536.0	25	951909.0	206	667
108	29_loc	29	08-11-2019	16:50:30:466	rl	loc	2401	2401	60	952113	00560.png	541.0	25	952109.0	0	0
109	29_loc	29	08-11-2019	16:50:30:665	rl	loc	2413	2413	60	952313	00565.png	546.0	25	952309.0	0	0
110	29_loc	29	08-11-2019	16:50:30:865	rl	loc	2425	2425	60	952512	00570.png	551.0	25	952509.0	0	0
111	29_loc	29	08-11-2019	16:50:31:063	rl	loc	2437	2437	60	952710	00575.png	556.0	25	952709.0	0	0
112	29_loc	29	08-11-2019	16:50:31:262	rl	loc	2449	2449	60	952910	00580.png	561.0	25	952909.0	-1802	-917
113	29_loc	29	08-11-2019	16:50:31:462	rl	loc	2461	2461	60	953109	00585.png	566.0	25	953109.0	0	0
114	29_loc	29	08-11-2019	16:50:31:661	rl	loc	2473	2473	60	953308	00590.png	571.0	25	953309.0	0	0
115	29_loc	29	08-11-2019	16:50:31:860	rl	loc	2485	2485	60	953507	00595.png	576.0	25	953509.0	2449	2114
116	29_loc	29	08-11-2019	16:50:32:059	rl	loc	2497	2497	60	953707	00600.png	581.0	25	953709.0	0	0
117	29_loc	29	08-11-2019	16:50:32:258	rl	loc	2509	2509	60	953905	00605.png	586.0	25	953909.0	1031	306
118	29_loc	29	08-11-2019	16:50:32:458	rl	loc	2521	2521	60	954105	00610.png	591.0	25	954109.0	4886	-1236
119	29_loc	29	08-11-2019	16:50:32:657	rl	loc	2533	2533	60	954304	00615.png	596.0	25	954309.0	0	0
120	29_loc	29	08-11-2019	16:50:32:856	rl	loc	2545	2545	60	954503	00620.png	601.0	25	954509.0	0	0
121	29_loc	29	08-11-2019	16:50:33:055	rl	loc	2557	2557	60	954702	00625.png	606.0	25	954709.0	0	0
122	29_loc	29	08-11-2019	16:50:33:254	rl	loc	2569	2569	60	954901	00630.png	611.0	25	954909.0	0	0
123	29_loc	29	08-11-2019	16:50:33:469	rl	loc	2581	2581	60	955117	00635.png	616.0	25	955109.0	0	0
124	29_loc	29	08-11-2019	16:50:33:669	rl	loc	2593	2593	60	955316	00640.png	621.0	25	955309.0	0	0
125	29_loc	29	08-11-2019	16:50:33:868	rl	loc	2605	2605	60	955515	00645.png	626.0	25	955509.0	800	-330
126	29_loc	29	08-11-2019	16:50:34:067	rl	loc	2617	2617	60	955714	00650.png	631.0	25	955709.0	0	0
127	29_loc	29	08-11-2019	16:50:34:267	rl	loc	2629	2629	60	955914	00655.png	636.0	25	955909.0	0	0
128	29_loc	29	08-11-2019	16:50:34:465	rl	loc	2641	2641	60	956113	00660.png	641.0	25	956109.0	0	0
129	29_loc	29	08-11-2019	16:50:34:665	rl	loc	2653	2653	60	956312	00665.png	646.0	25	956309.0	0	0
130	29_loc	29	08-11-2019	16:50:34:864	rl	loc	2665	2665	60	956511	00670.png	651.0	25	956509.0	0	0
131	29_loc	29	08-11-2019	16:50:35:063	rl	loc	2677	2677	60	956710	00675.png	656.0	25	956709.0	509	-294
132	29_loc	29	08-11-2019	16:50:35:262	rl	loc	2689	2689	60	956909	00680.png	661.0	25	956909.0	0	0
133	29_loc	29	08-11-2019	16:50:35:461	rl	loc	2701	2701	60	957109	00685.png	666.0	25	957109.0	1114	808
134	29_loc	29	08-11-2019	16:50:35:661	rl	loc	2713	2713	60	957308	00690.png	671.0	25	957309.0	0	0
135	29_loc	29	08-11-2019	16:50:35:860	rl	loc	2725	2725	60	957507	00695.png	676.0	25	957509.0	333	670
136	29_loc	29	08-11-2019	16:50:36:058	rl	loc	2737	2737	60	957706	00700.png	681.0	25	957709.0	0	0
137	29_loc	29	08-11-2019	16:50:36:257	rl	loc	2749	2749	60	957905	00705.png	686.0	25	957909.0	0	0
138	29_loc	29	08-11-2019	16:50:36:457	rl	loc	2761	2761	60	958104	00710.png	691.0	25	958109.0	0	0
139	29_loc	29	08-11-2019	16:50:36:656	rl	loc	2773	2773	60	958303	00715.png	696.0	25	958309.0	0	0
140	29_loc	29	08-11-2019	16:50:36:855	rl	loc	2785	2785	60	958503	00720.png	701.0	25	958509.0	0	0
141	29_loc	29	08-11-2019	16:50:37:055	rl	loc	2797	2797	60	958702	00725.png	706.0	25	958709.0	0	0
142	29_loc	29	08-11-2019	16:50:37:254	rl	loc	2808	2808	60	958901	00730.png	711.0	25	958909.0	0	0
143	29_loc	29	08-11-2019	16:50:37:469	rl	loc	2821	2821	60	959116	00735.png	716.0	25	959109.0	0	0
144	29_loc	29	08-11-2019	16:50:37:668	rl	loc	2833	2833	60	959316	00740.png	721.0	25	959309.0	0	0
145	29_loc	29	08-11-2019	16:50:37:867	rl	loc	2845	2845	60	959515	00745.png	726.0	25	959509.0	0	0
146	29_loc	29	08-11-2019	16:50:38:067	rl	loc	2857	2857	60	959714	00750.png	731.0	25	959709.0	0	0
147	29_loc	29	08-11-2019	16:50:38:266	rl	loc	2869	2869	60	959913	00755.png	736.0	25	959909.0	-4841	1816
148	29_loc	29	08-11-2019	16:50:38:465	rl	loc	2881	2881	60	960112	00760.png	741.0	25	960109.0	-1433	2441
149	29_loc	29	08-11-2019	16:50:38:664	rl	loc	2893	2893	60	960312	00765.png	746.0	25	960309.0	-5943	2147
