	setting_id	subject_id	date	trial_id	sample_id	frame_rate	frame_id	fix_pos_x_old	fix_pos_y_old	cam_angle_x	cam_angle_y	cam_angle_z	fix_pos_x	fix_pos_y	fix_pos_avrgd	fix_pos_diff_x	fix_pos_diff_y
0	vr	08	2019-10-24	rat_1	479	10	00260.png	345.5	426.0	359	198	358	345.5	426.0	0	0.0	0.0
1	vr	08	2019-10-24	rat_1	497	10	00270.png	346.0	429.0	359	198	358	346.0	429.0	0	0.0	0.0
2	vr	08	2019-10-24	rat_1	514	10	00280.png	355.0	442.5	359	199	358	355.0	442.5	0	0.0	0.0
3	vr	08	2019-10-24	rat_1	532	10	00290.png	288.5	438.5	360	200	357	288.5	438.5	0	0.0	0.0
4	vr	08	2019-10-24	rat_1	549	10	00300.png	461.0	437.0	2	201	357	461.0	437.0	0	0.0	0.0
5	vr	08	2019-10-24	rat_1	566	10	00310.png	437.0	432.5	3	207	356	434.5	432.5	1	2.5	0.0
6	vr	08	2019-10-24	rat_1	567	10	00310.png	432.0	432.5	3	208	356	434.5	432.5	1	-2.5	0.0
7	vr	08	2019-10-24	rat_1	583	10	00320.png	445.5	417.5	3	214	355	445.5	417.5	0	0.0	0.0
8	vr	08	2019-10-24	rat_1	601	10	00330.png	419.5	395.5	2	217	356	419.5	395.5	0	0.0	0.0
9	vr	08	2019-10-24	rat_1	618	10	00340.png	407.5	385.0	3	217	356	407.5	385.0	0	0.0	0.0
10	vr	08	2019-10-24	rat_1	634	10	00350.png	409.0	370.0	2	217	355	409.0	370.25	1	0.0	-0.25
11	vr	08	2019-10-24	rat_1	635	10	00350.png	409.0	370.5	2	217	355	409.0	370.25	1	0.0	0.25
12	vr	08	2019-10-24	rat_1	649	10	00360.png	410.0	370.0	2	217	356	410.25	369.75	1	-0.25	0.25
13	vr	08	2019-10-24	rat_1	650	10	00360.png	410.5	369.5	2	217	356	410.25	369.75	1	0.25	-0.25
14	vr	08	2019-10-24	rat_1	668	10	00370.png	347.5	435.5	2	216	356	347.5	435.5	0	0.0	0.0
15	vr	08	2019-10-24	rat_1	685	10	00380.png	350.0	438.0	2	215	356	350.0	438.0	0	0.0	0.0
16	vr	08	2019-10-24	rat_1	703	10	00390.png	307.5	438.5	2	213	356	307.5	438.5	0	0.0	0.0
17	vr	08	2019-10-24	rat_1	721	10	00400.png	318.5	441.0	2	212	356	318.5	441.0	0	0.0	0.0
18	vr	08	2019-10-24	rat_1	739	10	00410.png	322.0	437.5	2	211	356	322.0	437.5	0	0.0	0.0
19	vr	08	2019-10-24	rat_1	756	10	00420.png	462.0	435.0	2	212	356	462.0	435.0	0	0.0	0.0
20	vr	08	2019-10-24	rat_1	773	10	00430.png	441.0	438.5	2	214	355	441.0	438.5	0	0.0	0.0
21	vr	08	2019-10-24	rat_1	790	10	00440.png	406.5	432.0	2	216	355	406.5	432.0	0	0.0	0.0
22	vr	08	2019-10-24	rat_1	808	10	00450.png	391.5	436.0	1	217	355	391.5	436.0	0	0.0	0.0
23	vr	08	2019-10-24	rat_1	826	10	00460.png	372.0	437.5	1	217	355	372.0	437.5	0	0.0	0.0
24	vr	08	2019-10-24	rat_1	843	10	00470.png	368.5	438.0	1	214	355	368.5	438.0	0	0.0	0.0
25	vr	08	2019-10-24	rat_1	860	10	00480.png	365.0	439.0	1	212	355	365.0	438.75	1	0.0	0.25
26	vr	08	2019-10-24	rat_1	861	10	00480.png	365.0	438.5	1	212	355	365.0	438.75	1	0.0	-0.25
27	vr	08	2019-10-24	rat_1	876	10	00490.png	368.0	439.5	1	208	356	368.0	439.5	0	0.0	0.0
28	vr	08	2019-10-24	rat_1	894	10	00500.png	367.0	441.5	360	206	357	367.0	441.5	0	0.0	0.0
29	vr	08	2019-10-24	rat_1	912	10	00510.png	337.5	448.5	360	203	357	337.5	448.5	0	0.0	0.0
30	vr	08	2019-10-24	rat_1	929	10	00520.png	303.5	458.5	360	202	357	303.5	458.5	0	0.0	0.0
31	vr	08	2019-10-24	rat_1	947	10	00530.png	339.0	448.5	360	201	357	339.0	448.5	0	0.0	0.0
32	vr	08	2019-10-24	rat_1	965	10	00540.png	340.5	444.5	359	200	357	340.5	444.5	0	0.0	0.0
33	vr	08	2019-10-24	rat_1	982	10	00550.png	337.0	444.5	359	199	356	337.0	444.5	0	0.0	0.0
34	vr	08	2019-10-24	rat_1	999	10	00560.png	332.5	444.5	360	199	357	332.5	444.5	0	0.0	0.0
35	vr	08	2019-10-24	rat_1	1016	10	00570.png	323.5	442.5	360	198	356	323.5	442.5	0	0.0	0.0
36	vr	08	2019-10-24	rat_1	1034	10	00580.png	322.5	437.0	360	198	356	322.5	437.0	0	0.0	0.0
37	vr	08	2019-10-24	rat_1	1051	10	00590.png	316.0	436.0	360	197	357	316.0	436.0	0	0.0	0.0
38	vr	08	2019-10-24	rat_1	1069	10	00600.png	317.5	440.5	359	196	357	317.5	440.5	0	0.0	0.0
39	vr	08	2019-10-24	rat_1	1087	10	00610.png	328.0	436.0	360	197	357	328.0	436.0	0	0.0	0.0
40	vr	08	2019-10-24	rat_1	1103	10	00620.png	495.5	435.0	359	201	356	495.5	435.0	0	0.0	0.0
41	vr	08	2019-10-24	rat_1	1120	10	00630.png	450.5	437.5	0	208	354	450.5	437.5	0	0.0	0.0
42	vr	08	2019-10-24	rat_1	1137	10	00640.png	447.0	435.0	1	215	353	447.0	435.0	0	0.0	0.0
43	vr	08	2019-10-24	rat_1	1155	10	00650.png	422.5	430.0	1	217	353	422.5	430.0	0	0.0	0.0
44	vr	08	2019-10-24	rat_1	1171	10	00660.png	421.0	428.5	1	217	353	421.0	428.5	0	0.0	0.0
45	vr	08	2019-10-24	rat_1	1188	10	00670.png	416.5	433.5	1	218	353	413.5	433.5	1	3.0	0.0
46	vr	08	2019-10-24	rat_1	1189	10	00670.png	410.5	433.5	1	218	353	413.5	433.5	1	-3.0	0.0
47	vr	08	2019-10-24	rat_1	1202	10	00680.png	375.5	436.5	1	218	355	375.5	436.5	0	0.0	0.0
48	vr	08	2019-10-24	rat_1	1220	10	00690.png	421.0	432.5	3	220	358	421.0	432.5	0	0.0	0.0
49	vr	08	2019-10-24	rat_1	1238	10	00700.png	413.0	427.0	4	222	359	413.0	427.0	0	0.0	0.0
50	vr	08	2019-10-24	rat_1	1255	10	00710.png	473.0	416.0	4	223	358	473.0	416.0	0	0.0	0.0
51	vr	08	2019-10-24	rat_1	1273	10	00720.png	469.0	414.0	4	224	358	469.0	414.0	0	0.0	0.0
52	vr	08	2019-10-24	rat_1	1291	10	00730.png	408.0	474.5	4	224	358	408.0	474.5	0	0.0	0.0
53	vr	08	2019-10-24	rat_1	1308	10	00740.png	390.5	468.0	4	224	358	390.5	468.0	0	0.0	0.0
54	vr	08	2019-10-24	rat_1	1325	10	00750.png	396.0	382.5	4	224	358	396.0	382.5	0	0.0	0.0
55	vr	08	2019-10-24	rat_1	1342	10	00760.png	392.0	385.5	4	224	357	392.0	385.5	0	0.0	0.0
56	vr	08	2019-10-24	rat_1	1359	10	00770.png	381.5	391.5	3	223	357	381.5	391.5	0	0.0	0.0
57	vr	08	2019-10-24	rat_1	1373	10	00780.png	386.5	376.5	3	222	357	386.5	376.5	0	0.0	0.0
58	vr	08	2019-10-24	rat_1	1390	10	00790.png	389.0	379.5	3	222	357	389.0	379.25	1	0.0	0.25
59	vr	08	2019-10-24	rat_1	1391	10	00790.png	389.0	379.0	3	222	357	389.0	379.25	1	0.0	-0.25
60	vr	08	2019-10-24	rat_1	1408	10	00800.png	387.0	379.5	3	222	357	387.0	379.5	0	0.0	0.0
61	vr	08	2019-10-24	rat_1	1426	10	00810.png	378.0	416.0	3	222	356	378.0	416.0	0	0.0	0.0
62	vr	08	2019-10-24	rat_1	1444	10	00820.png	356.5	426.5	3	223	356	356.5	426.5	0	0.0	0.0
63	vr	08	2019-10-24	rat_1	1462	10	00830.png	352.5	431.0	3	223	356	352.5	431.0	0	0.0	0.0
64	vr	08	2019-10-24	rat_1	1480	10	00840.png	405.0	426.0	3	223	356	405.0	426.0	0	0.0	0.0
65	vr	08	2019-10-24	rat_1	1496	10	00850.png	399.5	427.5	3	223	356	399.5	427.5	0	0.0	0.0
66	vr	08	2019-10-24	rat_1	1513	10	00860.png	394.0	476.5	3	224	356	393.75	476.5	1	0.25	0.0
67	vr	08	2019-10-24	rat_1	1514	10	00860.png	393.5	476.5	3	224	356	393.75	476.5	1	-0.25	0.0
68	vr	08	2019-10-24	rat_1	1530	10	00870.png	392.5	480.5	3	224	356	392.5	480.5	0	0.0	0.0
69	vr	08	2019-10-24	rat_1	1548	10	00880.png	385.0	485.0	3	223	356	385.0	485.0	0	0.0	0.0
70	vr	08	2019-10-24	rat_1	1564	10	00890.png	311.0	450.0	3	221	356	311.8333333333333	449.8333333333333	1	-0.8333333333333144	0.16666666666668561
71	vr	08	2019-10-24	rat_1	1565	10	00890.png	312.0	449.5	3	221	356	311.8333333333333	449.8333333333333	1	0.16666666666668561	-0.3333333333333144
72	vr	08	2019-10-24	rat_1	1566	10	00890.png	312.5	450.0	3	221	356	311.8333333333333	449.8333333333333	1	0.6666666666666856	0.16666666666668561
73	vr	08	2019-10-24	rat_1	1582	10	00900.png	324.5	438.5	3	218	356	325.0	437.0	1	-0.5	1.5
74	vr	08	2019-10-24	rat_1	1583	10	00900.png	325.5	435.5	3	218	356	325.0	437.0	1	0.5	-1.5
75	vr	08	2019-10-24	rat_1	1597	10	00910.png	338.0	427.0	3	215	356	338.0	427.0	0	0.0	0.0
76	vr	08	2019-10-24	rat_1	1615	10	00920.png	349.5	430.5	3	212	356	349.5	430.5	0	0.0	0.0
77	vr	08	2019-10-24	rat_1	1633	10	00930.png	361.5	428.0	3	210	356	361.5	428.0	0	0.0	0.0
78	vr	08	2019-10-24	rat_1	1651	10	00940.png	370.0	429.5	3	207	355	370.0	429.5	0	0.0	0.0
79	vr	08	2019-10-24	rat_1	1669	10	00950.png	378.0	427.5	3	206	355	378.0	427.5	0	0.0	0.0
80	vr	08	2019-10-24	rat_1	1686	10	00960.png	377.0	422.5	3	207	355	377.0	422.5	0	0.0	0.0
81	vr	08	2019-10-24	rat_1	1704	10	00970.png	367.0	425.5	2	208	355	367.0	425.5	0	0.0	0.0
82	vr	08	2019-10-24	rat_1	1721	10	00980.png	383.0	427.0	2	210	355	382.75	427.0	1	0.25	0.0
83	vr	08	2019-10-24	rat_1	1722	10	00980.png	382.5	427.0	2	210	355	382.75	427.0	1	-0.25	0.0
84	vr	08	2019-10-24	rat_1	1739	10	00990.png	369.5	427.5	2	212	355	369.5	427.5	0	0.0	0.0
85	vr	08	2019-10-24	rat_1	1756	10	01000.png	416.5	427.5	2	215	355	416.5	427.5	0	0.0	0.0
