	subject_location	subject_id	date	daytime	setting_id	trial_id	sample_id	sample_n	sample_rate	sample_time_smi	frame_id	frame_n	frame_rate	frame_time_smi	fix_pos_x	fix_pos_y
0	25_reg	25	25-10-2019	18:27:19:165	rl	reg	924	924	60	2509634	00386.png	1.0	25	2509640.0	1492	-184
1	25_reg	25	25-10-2019	18:27:19:381	rl	reg	935	935	60	2509850	00391.png	6.0	25	2509840.0	-536	4207
2	25_reg	25	25-10-2019	18:27:19:563	rl	reg	944	944	60	2510033	00396.png	11.0	25	2510040.0	617	456
3	25_reg	25	25-10-2019	18:27:19:762	rl	reg	956	956	60	2510232	00401.png	16.0	25	2510240.0	933	60
4	25_reg	25	25-10-2019	18:27:19:978	rl	reg	969	969	60	2510448	00406.png	21.0	25	2510440.0	893	344
5	25_reg	25	25-10-2019	18:27:20:177	rl	reg	981	981	60	2510646	00411.png	26.0	25	2510640.0	187	938
6	25_reg	25	25-10-2019	18:27:20:377	rl	reg	993	993	60	2510846	00416.png	31.0	25	2510840.0	640	492
7	25_reg	25	25-10-2019	18:27:20:576	rl	reg	1005	1005	60	2511045	00421.png	36.0	25	2511040.0	0	0
8	25_reg	25	25-10-2019	18:27:20:775	rl	reg	1017	1017	60	2511244	00426.png	41.0	25	2511240.0	1236	-9
9	25_reg	25	25-10-2019	18:27:20:974	rl	reg	1029	1029	60	2511443	00431.png	46.0	25	2511440.0	826	96
10	25_reg	25	25-10-2019	18:27:21:173	rl	reg	1041	1041	60	2511642	00436.png	51.0	25	2511640.0	767	654
11	25_reg	25	25-10-2019	18:27:21:372	rl	reg	1053	1053	60	2511841	00441.png	56.0	25	2511840.0	1402	-790
12	25_reg	25	25-10-2019	18:27:21:571	rl	reg	1065	1065	60	2512040	00446.png	61.0	25	2512040.0	1393	768
13	25_reg	25	25-10-2019	18:27:21:770	rl	reg	1077	1077	60	2512240	00451.png	66.0	25	2512240.0	684	4784
14	25_reg	25	25-10-2019	18:27:21:970	rl	reg	1089	1089	60	2512439	00456.png	71.0	25	2512440.0	534	514
15	25_reg	25	25-10-2019	18:27:22:169	rl	reg	1101	1101	60	2512638	00461.png	76.0	25	2512640.0	846	359
16	25_reg	25	25-10-2019	18:27:22:368	rl	reg	1113	1113	60	2512837	00466.png	81.0	25	2512840.0	2127	203
17	25_reg	25	25-10-2019	18:27:22:567	rl	reg	1125	1125	60	2513036	00471.png	86.0	25	2513040.0	810	2861
18	25_reg	25	25-10-2019	18:27:22:766	rl	reg	1137	1137	60	2513235	00476.png	91.0	25	2513240.0	-14327	93388
19	25_reg	25	25-10-2019	18:27:22:965	rl	reg	1149	1149	60	2513435	00481.png	96.0	25	2513440.0	657	489
20	25_reg	25	25-10-2019	18:27:23:181	rl	reg	1161	1161	60	2513650	00486.png	101.0	25	2513640.0	1036	586
21	25_reg	25	25-10-2019	18:27:23:364	rl	reg	1170	1170	60	2513833	00491.png	106.0	25	2513840.0	0	0
22	25_reg	25	25-10-2019	18:27:23:563	rl	reg	1182	1182	60	2514032	00496.png	111.0	25	2514040.0	1589	482
23	25_reg	25	25-10-2019	18:27:23:778	rl	reg	1195	1195	60	2514247	00501.png	116.0	25	2514240.0	1220	-476
24	25_reg	25	25-10-2019	18:27:23:978	rl	reg	1207	1207	60	2514447	00506.png	121.0	25	2514440.0	0	0
25	25_reg	25	25-10-2019	18:27:24:177	rl	reg	1219	1219	60	2514646	00511.png	126.0	25	2514640.0	0	0
26	25_reg	25	25-10-2019	18:27:24:376	rl	reg	1231	1231	60	2514845	00516.png	131.0	25	2514840.0	1020	6
27	25_reg	25	25-10-2019	18:27:24:575	rl	reg	1243	1243	60	2515044	00521.png	136.0	25	2515040.0	572	7232
28	25_reg	25	25-10-2019	18:27:24:774	rl	reg	1255	1255	60	2515243	00526.png	141.0	25	2515240.0	0	0
29	25_reg	25	25-10-2019	18:27:24:973	rl	reg	1267	1267	60	2515443	00531.png	146.0	25	2515440.0	0	0
30	25_reg	25	25-10-2019	18:27:25:173	rl	reg	1279	1279	60	2515642	00536.png	151.0	25	2515640.0	796	501
31	25_reg	25	25-10-2019	18:27:25:372	rl	reg	1291	1291	60	2515841	00541.png	156.0	25	2515840.0	586	558
32	25_reg	25	25-10-2019	18:27:25:570	rl	reg	1303	1303	60	2516040	00546.png	161.0	25	2516040.0	763	129
33	25_reg	25	25-10-2019	18:27:25:770	rl	reg	1315	1315	60	2516239	00551.png	166.0	25	2516240.0	612	523
34	25_reg	25	25-10-2019	18:27:25:969	rl	reg	1327	1327	60	2516438	00556.png	171.0	25	2516440.0	7056	-10822
35	25_reg	25	25-10-2019	18:27:26:168	rl	reg	1339	1339	60	2516637	00561.png	176.0	25	2516640.0	1222	14
36	25_reg	25	25-10-2019	18:27:26:367	rl	reg	1351	1351	60	2516836	00566.png	181.0	25	2516840.0	853	786
37	25_reg	25	25-10-2019	18:27:26:567	rl	reg	1363	1363	60	2517036	00571.png	186.0	25	2517040.0	1171	-2063
38	25_reg	25	25-10-2019	18:27:26:766	rl	reg	1375	1375	60	2517235	00576.png	191.0	25	2517240.0	834	894
39	25_reg	25	25-10-2019	18:27:26:965	rl	reg	1387	1387	60	2517434	00581.png	196.0	25	2517440.0	707	3275
40	25_reg	25	25-10-2019	18:27:27:164	rl	reg	1396	1396	60	2517633	00586.png	201.0	25	2517640.0	871	1619
41	25_reg	25	25-10-2019	18:27:27:363	rl	reg	1408	1408	60	2517832	00591.png	206.0	25	2517840.0	2633	-18253
42	25_reg	25	25-10-2019	18:27:27:562	rl	reg	1420	1420	60	2518032	00596.png	211.0	25	2518040.0	94	580
43	25_reg	25	25-10-2019	18:27:27:778	rl	reg	1433	1433	60	2518247	00601.png	216.0	25	2518240.0	518	430
44	25_reg	25	25-10-2019	18:27:27:977	rl	reg	1445	1445	60	2518446	00606.png	221.0	25	2518440.0	914	877
45	25_reg	25	25-10-2019	18:27:28:176	rl	reg	1457	1457	60	2518646	00611.png	226.0	25	2518640.0	502	526
46	25_reg	25	25-10-2019	18:27:28:376	rl	reg	1469	1469	60	2518845	00616.png	231.0	25	2518840.0	405	37
47	25_reg	25	25-10-2019	18:27:28:575	rl	reg	1481	1481	60	2519044	00621.png	236.0	25	2519040.0	0	0
48	25_reg	25	25-10-2019	18:27:28:774	rl	reg	1493	1493	60	2519243	00626.png	241.0	25	2519240.0	140	614
49	25_reg	25	25-10-2019	18:27:28:972	rl	reg	1505	1505	60	2519442	00631.png	246.0	25	2519440.0	3048	-2125
50	25_reg	25	25-10-2019	18:27:29:172	rl	reg	1517	1517	60	2519641	00636.png	251.0	25	2519640.0	1336	413
51	25_reg	25	25-10-2019	18:27:29:371	rl	reg	1529	1529	60	2519840	00641.png	256.0	25	2519840.0	619	172
52	25_reg	25	25-10-2019	18:27:29:570	rl	reg	1541	1541	60	2520040	00646.png	261.0	25	2520040.0	116	498
53	25_reg	25	25-10-2019	18:27:29:770	rl	reg	1553	1553	60	2520239	00651.png	266.0	25	2520240.0	74	-140
54	25_reg	25	25-10-2019	18:27:29:968	rl	reg	1565	1565	60	2520438	00656.png	271.0	25	2520440.0	161	-335
55	25_reg	25	25-10-2019	18:27:30:168	rl	reg	1577	1577	60	2520637	00661.png	276.0	25	2520640.0	605	1748
56	25_reg	25	25-10-2019	18:27:30:367	rl	reg	1589	1589	60	2520836	00666.png	281.0	25	2520840.0	325	649
57	25_reg	25	25-10-2019	18:27:30:566	rl	reg	1601	1601	60	2521035	00671.png	286.0	25	2521040.0	0	0
58	25_reg	25	25-10-2019	18:27:30:765	rl	reg	1613	1613	60	2521235	00676.png	291.0	25	2521240.0	868	531
59	25_reg	25	25-10-2019	18:27:30:964	rl	reg	1624	1624	60	2521433	00681.png	296.0	25	2521440.0	0	0
60	25_reg	25	25-10-2019	18:27:31:163	rl	reg	1635	1635	60	2521632	00686.png	301.0	25	2521640.0	9437	14723
61	25_reg	25	25-10-2019	18:27:31:363	rl	reg	1647	1647	60	2521832	00691.png	306.0	25	2521840.0	1248	1261
62	25_reg	25	25-10-2019	18:27:31:578	rl	reg	1660	1660	60	2522048	00696.png	311.0	25	2522040.0	966	472
63	25_reg	25	25-10-2019	18:27:31:778	rl	reg	1672	1672	60	2522247	00701.png	316.0	25	2522240.0	708	19574
64	25_reg	25	25-10-2019	18:27:31:977	rl	reg	1684	1684	60	2522446	00706.png	321.0	25	2522440.0	708	-352
65	25_reg	25	25-10-2019	18:27:32:175	rl	reg	1696	1696	60	2522645	00711.png	326.0	25	2522640.0	2177	-254
66	25_reg	25	25-10-2019	18:27:32:375	rl	reg	1708	1708	60	2522844	00716.png	331.0	25	2522840.0	0	0
67	25_reg	25	25-10-2019	18:27:32:574	rl	reg	1720	1720	60	2523043	00721.png	336.0	25	2523040.0	1112	1710
68	25_reg	25	25-10-2019	18:27:32:773	rl	reg	1732	1732	60	2523243	00726.png	341.0	25	2523240.0	-1456	7686
69	25_reg	25	25-10-2019	18:27:32:972	rl	reg	1744	1744	60	2523441	00731.png	346.0	25	2523440.0	553	579
70	25_reg	25	25-10-2019	18:27:33:172	rl	reg	1756	1756	60	2523641	00736.png	351.0	25	2523640.0	798	908
71	25_reg	25	25-10-2019	18:27:33:371	rl	reg	1768	1768	60	2523840	00741.png	356.0	25	2523840.0	4528	1273
72	25_reg	25	25-10-2019	18:27:33:570	rl	reg	1780	1780	60	2524039	00746.png	361.0	25	2524040.0	1684	3003
73	25_reg	25	25-10-2019	18:27:33:769	rl	reg	1792	1792	60	2524238	00751.png	366.0	25	2524240.0	0	0
74	25_reg	25	25-10-2019	18:27:33:968	rl	reg	1804	1804	60	2524437	00756.png	371.0	25	2524440.0	0	0
75	25_reg	25	25-10-2019	18:27:34:167	rl	reg	1816	1816	60	2524636	00761.png	376.0	25	2524640.0	0	0
76	25_reg	25	25-10-2019	18:27:34:366	rl	reg	1828	1828	60	2524836	00766.png	381.0	25	2524840.0	547	856
77	25_reg	25	25-10-2019	18:27:34:566	rl	reg	1840	1840	60	2525035	00771.png	386.0	25	2525040.0	-82	147
78	25_reg	25	25-10-2019	18:27:34:765	rl	reg	1852	1852	60	2525234	00776.png	391.0	25	2525240.0	707	1950
79	25_reg	25	25-10-2019	18:27:34:964	rl	reg	1862	1862	60	2525433	00781.png	396.0	25	2525440.0	1022	150
80	25_reg	25	25-10-2019	18:27:35:163	rl	reg	1874	1874	60	2525632	00786.png	401.0	25	2525640.0	986	-277
81	25_reg	25	25-10-2019	18:27:35:379	rl	reg	1887	1887	60	2525848	00791.png	406.0	25	2525840.0	623	720
82	25_reg	25	25-10-2019	18:27:35:578	rl	reg	1899	1899	60	2526047	00796.png	411.0	25	2526040.0	858	15436
83	25_reg	25	25-10-2019	18:27:35:777	rl	reg	1911	1911	60	2526246	00801.png	416.0	25	2526240.0	944	-221
84	25_reg	25	25-10-2019	18:27:35:976	rl	reg	1923	1923	60	2526445	00806.png	421.0	25	2526440.0	1003	511
85	25_reg	25	25-10-2019	18:27:36:175	rl	reg	1935	1935	60	2526644	00811.png	426.0	25	2526640.0	1047	542
86	25_reg	25	25-10-2019	18:27:36:375	rl	reg	1947	1947	60	2526844	00816.png	431.0	25	2526840.0	2338	213
87	25_reg	25	25-10-2019	18:27:36:574	rl	reg	1959	1959	60	2527043	00821.png	436.0	25	2527040.0	3441	402
88	25_reg	25	25-10-2019	18:27:36:773	rl	reg	1971	1971	60	2527242	00826.png	441.0	25	2527240.0	2253	499
89	25_reg	25	25-10-2019	18:27:36:972	rl	reg	1983	1983	60	2527441	00831.png	446.0	25	2527440.0	2251	502
90	25_reg	25	25-10-2019	18:27:37:171	rl	reg	1995	1995	60	2527640	00836.png	451.0	25	2527640.0	704	-272
91	25_reg	25	25-10-2019	18:27:37:370	rl	reg	2007	2007	60	2527839	00841.png	456.0	25	2527840.0	1149	271
92	25_reg	25	25-10-2019	18:27:37:569	rl	reg	2019	2019	60	2528039	00846.png	461.0	25	2528040.0	1054	918
93	25_reg	25	25-10-2019	18:27:37:769	rl	reg	2031	2031	60	2528238	00851.png	466.0	25	2528240.0	900	3199
94	25_reg	25	25-10-2019	18:27:37:968	rl	reg	2043	2043	60	2528437	00856.png	471.0	25	2528440.0	0	0
95	25_reg	25	25-10-2019	18:27:38:167	rl	reg	2055	2055	60	2528636	00861.png	476.0	25	2528640.0	750	-86
96	25_reg	25	25-10-2019	18:27:38:366	rl	reg	2067	2067	60	2528835	00866.png	481.0	25	2528840.0	550	74
97	25_reg	25	25-10-2019	18:27:38:565	rl	reg	2079	2079	60	2529034	00871.png	486.0	25	2529040.0	1029	325
98	25_reg	25	25-10-2019	18:27:38:764	rl	reg	2090	2090	60	2529234	00876.png	491.0	25	2529240.0	1552	-1638
99	25_reg	25	25-10-2019	18:27:38:963	rl	reg	2101	2101	60	2529432	00881.png	496.0	25	2529440.0	837	735
100	25_reg	25	25-10-2019	18:27:39:163	rl	reg	2113	2113	60	2529632	00886.png	501.0	25	2529640.0	573	297
101	25_reg	25	25-10-2019	18:27:39:378	rl	reg	2126	2126	60	2529848	00891.png	506.0	25	2529840.0	745	576
102	25_reg	25	25-10-2019	18:27:39:577	rl	reg	2138	2138	60	2530047	00896.png	511.0	25	2530040.0	490	4959
103	25_reg	25	25-10-2019	18:27:39:777	rl	reg	2150	2150	60	2530246	00901.png	516.0	25	2530240.0	567	340
104	25_reg	25	25-10-2019	18:27:39:976	rl	reg	2162	2162	60	2530445	00906.png	521.0	25	2530440.0	4761	-2181
105	25_reg	25	25-10-2019	18:27:40:175	rl	reg	2174	2174	60	2530644	00911.png	526.0	25	2530640.0	445	439
106	25_reg	25	25-10-2019	18:27:40:374	rl	reg	2186	2186	60	2530843	00916.png	531.0	25	2530840.0	575	4553
107	25_reg	25	25-10-2019	18:27:40:573	rl	reg	2198	2198	60	2531042	00921.png	536.0	25	2531040.0	857	1425
108	25_reg	25	25-10-2019	18:27:40:777	rl	reg	2210	2210	60	2531247	00926.png	541.0	25	2531240.0	942	676
109	25_reg	25	25-10-2019	18:27:40:971	rl	reg	2221	2221	60	2531440	00931.png	546.0	25	2531440.0	591	1879
110	25_reg	25	25-10-2019	18:27:41:170	rl	reg	2233	2233	60	2531640	00936.png	551.0	25	2531640.0	609	2094
111	25_reg	25	25-10-2019	18:27:41:369	rl	reg	2245	2245	60	2531839	00941.png	556.0	25	2531840.0	759	-1635
112	25_reg	25	25-10-2019	18:27:41:569	rl	reg	2257	2257	60	2532038	00946.png	561.0	25	2532040.0	1014	495
113	25_reg	25	25-10-2019	18:27:41:768	rl	reg	2269	2269	60	2532237	00951.png	566.0	25	2532240.0	606	444
114	25_reg	25	25-10-2019	18:27:41:967	rl	reg	2281	2281	60	2532436	00956.png	571.0	25	2532440.0	951	-801
115	25_reg	25	25-10-2019	18:27:42:166	rl	reg	2293	2293	60	2532635	00961.png	576.0	25	2532640.0	1319	-101
116	25_reg	25	25-10-2019	18:27:42:365	rl	reg	2305	2305	60	2532835	00966.png	581.0	25	2532840.0	407	-1372
117	25_reg	25	25-10-2019	18:27:42:564	rl	reg	2317	2317	60	2533034	00971.png	586.0	25	2533040.0	1437	-2648
118	25_reg	25	25-10-2019	18:27:42:764	rl	reg	2328	2328	60	2533233	00976.png	591.0	25	2533240.0	555	1840
119	25_reg	25	25-10-2019	18:27:42:963	rl	reg	2340	2340	60	2533432	00981.png	596.0	25	2533440.0	747	417
120	25_reg	25	25-10-2019	18:27:43:179	rl	reg	2353	2353	60	2533648	00986.png	601.0	25	2533640.0	730	-22
121	25_reg	25	25-10-2019	18:27:43:378	rl	reg	2365	2365	60	2533847	00991.png	606.0	25	2533840.0	3178	1437
122	25_reg	25	25-10-2019	18:27:43:577	rl	reg	2377	2377	60	2534046	00996.png	611.0	25	2534040.0	2250	844
123	25_reg	25	25-10-2019	18:27:43:776	rl	reg	2389	2389	60	2534245	01001.png	616.0	25	2534240.0	1994	-18865
124	25_reg	25	25-10-2019	18:27:43:975	rl	reg	2401	2401	60	2534444	01006.png	621.0	25	2534440.0	1305	491
125	25_reg	25	25-10-2019	18:27:44:174	rl	reg	2413	2413	60	2534643	01011.png	626.0	25	2534640.0	878	2223
126	25_reg	25	25-10-2019	18:27:44:374	rl	reg	2425	2425	60	2534843	01016.png	631.0	25	2534840.0	901	1862
127	25_reg	25	25-10-2019	18:27:44:572	rl	reg	2437	2437	60	2535042	01021.png	636.0	25	2535040.0	1046	729
128	25_reg	25	25-10-2019	18:27:44:771	rl	reg	2449	2449	60	2535241	01026.png	641.0	25	2535240.0	1066	587
129	25_reg	25	25-10-2019	18:27:44:971	rl	reg	2461	2461	60	2535440	01031.png	646.0	25	2535440.0	1134	227
130	25_reg	25	25-10-2019	18:27:45:170	rl	reg	2473	2473	60	2535639	01036.png	651.0	25	2535640.0	0	0
131	25_reg	25	25-10-2019	18:27:45:369	rl	reg	2485	2485	60	2535838	01041.png	656.0	25	2535840.0	762	919
132	25_reg	25	25-10-2019	18:27:45:568	rl	reg	2497	2497	60	2536038	01046.png	661.0	25	2536040.0	789	763
133	25_reg	25	25-10-2019	18:27:45:767	rl	reg	2509	2509	60	2536237	01051.png	666.0	25	2536240.0	798	771
134	25_reg	25	25-10-2019	18:27:45:967	rl	reg	2521	2521	60	2536436	01056.png	671.0	25	2536440.0	1847	-1267
135	25_reg	25	25-10-2019	18:27:46:166	rl	reg	2533	2533	60	2536635	01061.png	676.0	25	2536640.0	220	5953
136	25_reg	25	25-10-2019	18:27:46:365	rl	reg	2545	2545	60	2536834	01066.png	681.0	25	2536840.0	1506	858
137	25_reg	25	25-10-2019	18:27:46:564	rl	reg	2556	2556	60	2537033	01071.png	686.0	25	2537040.0	941	2530
138	25_reg	25	25-10-2019	18:27:46:763	rl	reg	2567	2567	60	2537233	01076.png	691.0	25	2537240.0	0	0
139	25_reg	25	25-10-2019	18:27:46:962	rl	reg	2579	2579	60	2537432	01081.png	696.0	25	2537440.0	667	3443
140	25_reg	25	25-10-2019	18:27:47:178	rl	reg	2592	2592	60	2537647	01086.png	701.0	25	2537640.0	584	354
141	25_reg	25	25-10-2019	18:27:47:377	rl	reg	2604	2604	60	2537847	01091.png	706.0	25	2537840.0	3178	-1919
142	25_reg	25	25-10-2019	18:27:47:576	rl	reg	2616	2616	60	2538046	01096.png	711.0	25	2538040.0	1161	-553
143	25_reg	25	25-10-2019	18:27:47:776	rl	reg	2628	2628	60	2538245	01101.png	716.0	25	2538240.0	1073	-135
144	25_reg	25	25-10-2019	18:27:47:975	rl	reg	2640	2640	60	2538444	01106.png	721.0	25	2538440.0	1251	534
145	25_reg	25	25-10-2019	18:27:48:173	rl	reg	2652	2652	60	2538643	01111.png	726.0	25	2538640.0	708	3741
146	25_reg	25	25-10-2019	18:27:48:373	rl	reg	2664	2664	60	2538842	01116.png	731.0	25	2538840.0	1176	313
147	25_reg	25	25-10-2019	18:27:48:572	rl	reg	2676	2676	60	2539041	01121.png	736.0	25	2539040.0	623	145
148	25_reg	25	25-10-2019	18:27:48:771	rl	reg	2688	2688	60	2539241	01126.png	741.0	25	2539240.0	2752	-1177
149	25_reg	25	25-10-2019	18:27:48:970	rl	reg	2700	2700	60	2539439	01131.png	746.0	25	2539440.0	887	8191
