	subject_location	subject_id	date	daytime	setting_id	trial_id	sample_id	sample_n	sample_rate	sample_time_smi	frame_id	frame_n	frame_rate	frame_time_smi	fix_pos_x	fix_pos_y
0	25_gas	25	25-10-2019	18:06:39:861	rl	gas	1036	1036	60	1270353	00433.png	1.0	25	1270346.0	796	527
1	25_gas	25	25-10-2019	18:06:40:060	rl	gas	1048	1048	60	1270552	00438.png	6.0	25	1270546.0	801	513
2	25_gas	25	25-10-2019	18:06:40:259	rl	gas	1060	1060	60	1270751	00443.png	11.0	25	1270746.0	748	508
3	25_gas	25	25-10-2019	18:06:40:458	rl	gas	1071	1071	60	1270950	00448.png	16.0	25	1270946.0	578	464
4	25_gas	25	25-10-2019	18:06:40:657	rl	gas	1083	1083	60	1271149	00453.png	21.0	25	1271146.0	530	457
5	25_gas	25	25-10-2019	18:06:40:857	rl	gas	1095	1095	60	1271348	00458.png	26.0	25	1271346.0	716	492
6	25_gas	25	25-10-2019	18:06:41:056	rl	gas	1107	1107	60	1271547	00463.png	31.0	25	1271546.0	731	494
7	25_gas	25	25-10-2019	18:06:41:255	rl	gas	1119	1119	60	1271746	00468.png	36.0	25	1271746.0	619	471
8	25_gas	25	25-10-2019	18:06:41:454	rl	gas	1131	1131	60	1271946	00473.png	41.0	25	1271946.0	1064	572
9	25_gas	25	25-10-2019	18:06:41:653	rl	gas	1143	1143	60	1272145	00478.png	46.0	25	1272146.0	1015	419
10	25_gas	25	25-10-2019	18:06:41:853	rl	gas	1155	1155	60	1272344	00483.png	51.0	25	1272346.0	1473	466
11	25_gas	25	25-10-2019	18:06:42:051	rl	gas	1167	1167	60	1272543	00488.png	56.0	25	1272546.0	0	0
12	25_gas	25	25-10-2019	18:06:42:251	rl	gas	1179	1179	60	1272742	00493.png	61.0	25	1272746.0	705	306
13	25_gas	25	25-10-2019	18:06:42:450	rl	gas	1191	1191	60	1272941	00498.png	66.0	25	1272946.0	0	0
14	25_gas	25	25-10-2019	18:06:42:649	rl	gas	1203	1203	60	1273140	00503.png	71.0	25	1273146.0	0	0
15	25_gas	25	25-10-2019	18:06:42:848	rl	gas	1215	1215	60	1273340	00508.png	76.0	25	1273346.0	7364	1525
16	25_gas	25	25-10-2019	18:06:43:048	rl	gas	1227	1227	60	1273539	00513.png	81.0	25	1273546.0	3008	703
17	25_gas	25	25-10-2019	18:06:43:246	rl	gas	1239	1239	60	1273738	00518.png	86.0	25	1273746.0	-858	203
18	25_gas	25	25-10-2019	18:06:43:462	rl	gas	1252	1252	60	1273954	00523.png	91.0	25	1273946.0	-167	274
19	25_gas	25	25-10-2019	18:06:43:662	rl	gas	1264	1264	60	1274153	00528.png	96.0	25	1274146.0	-66	335
20	25_gas	25	25-10-2019	18:06:43:861	rl	gas	1276	1276	60	1274352	00533.png	101.0	25	1274346.0	140	215
21	25_gas	25	25-10-2019	18:06:44:059	rl	gas	1288	1288	60	1274551	00538.png	106.0	25	1274546.0	244	278
22	25_gas	25	25-10-2019	18:06:44:259	rl	gas	1299	1299	60	1274750	00543.png	111.0	25	1274746.0	406	335
23	25_gas	25	25-10-2019	18:06:44:458	rl	gas	1310	1310	60	1274949	00548.png	116.0	25	1274946.0	167	252
24	25_gas	25	25-10-2019	18:06:44:657	rl	gas	1322	1322	60	1275148	00553.png	121.0	25	1275146.0	-332	174
25	25_gas	25	25-10-2019	18:06:44:856	rl	gas	1334	1334	60	1275348	00558.png	126.0	25	1275346.0	-268	-21
26	25_gas	25	25-10-2019	18:06:45:055	rl	gas	1346	1346	60	1275547	00563.png	131.0	25	1275546.0	-224	-23
27	25_gas	25	25-10-2019	18:06:45:254	rl	gas	1357	1357	60	1275746	00568.png	136.0	25	1275746.0	449	286
28	25_gas	25	25-10-2019	18:06:45:454	rl	gas	1369	1369	60	1275945	00573.png	141.0	25	1275946.0	509	294
29	25_gas	25	25-10-2019	18:06:45:653	rl	gas	1381	1381	60	1276144	00578.png	146.0	25	1276146.0	322	909
30	25_gas	25	25-10-2019	18:06:45:852	rl	gas	1393	1393	60	1276344	00583.png	151.0	25	1276346.0	0	0
31	25_gas	25	25-10-2019	18:06:46:051	rl	gas	1405	1405	60	1276542	00588.png	156.0	25	1276546.0	961	1123
32	25_gas	25	25-10-2019	18:06:46:250	rl	gas	1417	1417	60	1276742	00593.png	161.0	25	1276746.0	582	632
33	25_gas	25	25-10-2019	18:06:46:450	rl	gas	1429	1429	60	1276941	00598.png	166.0	25	1276946.0	297	799
34	25_gas	25	25-10-2019	18:06:46:648	rl	gas	1441	1441	60	1277140	00603.png	171.0	25	1277146.0	1007	4991
35	25_gas	25	25-10-2019	18:06:46:847	rl	gas	1453	1453	60	1277339	00608.png	176.0	25	1277346.0	866	789
36	25_gas	25	25-10-2019	18:06:47:047	rl	gas	1465	1465	60	1277539	00613.png	181.0	25	1277546.0	722	401
37	25_gas	25	25-10-2019	18:06:47:263	rl	gas	1478	1478	60	1277754	00618.png	186.0	25	1277746.0	1041	753
38	25_gas	25	25-10-2019	18:06:47:462	rl	gas	1490	1490	60	1277953	00623.png	191.0	25	1277946.0	903	555
39	25_gas	25	25-10-2019	18:06:47:660	rl	gas	1502	1502	60	1278152	00628.png	196.0	25	1278146.0	1198	134
40	25_gas	25	25-10-2019	18:06:47:860	rl	gas	1514	1514	60	1278352	00633.png	201.0	25	1278346.0	1296	2452
41	25_gas	25	25-10-2019	18:06:48:059	rl	gas	1526	1526	60	1278551	00638.png	206.0	25	1278546.0	712	920
42	25_gas	25	25-10-2019	18:06:48:258	rl	gas	1537	1537	60	1278750	00643.png	211.0	25	1278746.0	1158	826
43	25_gas	25	25-10-2019	18:06:48:457	rl	gas	1549	1549	60	1278949	00648.png	216.0	25	1278946.0	930	567
44	25_gas	25	25-10-2019	18:06:48:657	rl	gas	1561	1561	60	1279148	00653.png	221.0	25	1279146.0	-127	450
45	25_gas	25	25-10-2019	18:06:48:856	rl	gas	1573	1573	60	1279347	00658.png	226.0	25	1279346.0	11026	521
46	25_gas	25	25-10-2019	18:06:49:055	rl	gas	1585	1585	60	1279546	00663.png	231.0	25	1279546.0	-724	340
47	25_gas	25	25-10-2019	18:06:49:254	rl	gas	1597	1597	60	1279746	00668.png	236.0	25	1279746.0	547	739
48	25_gas	25	25-10-2019	18:06:49:453	rl	gas	1609	1609	60	1279945	00673.png	241.0	25	1279946.0	986	541
49	25_gas	25	25-10-2019	18:06:49:652	rl	gas	1621	1621	60	1280144	00678.png	246.0	25	1280146.0	595	329
50	25_gas	25	25-10-2019	18:06:49:851	rl	gas	1633	1633	60	1280343	00683.png	251.0	25	1280346.0	699	379
51	25_gas	25	25-10-2019	18:06:50:051	rl	gas	1645	1645	60	1280542	00688.png	256.0	25	1280546.0	-1	693
52	25_gas	25	25-10-2019	18:06:50:250	rl	gas	1657	1657	60	1280741	00693.png	261.0	25	1280746.0	-1494	1171
53	25_gas	25	25-10-2019	18:06:50:449	rl	gas	1669	1669	60	1280940	00698.png	266.0	25	1280946.0	222	1290
54	25_gas	25	25-10-2019	18:06:50:648	rl	gas	1681	1681	60	1281139	00703.png	271.0	25	1281146.0	196	792
55	25_gas	25	25-10-2019	18:06:50:847	rl	gas	1693	1693	60	1281339	00708.png	276.0	25	1281346.0	1332	3273
56	25_gas	25	25-10-2019	18:06:51:047	rl	gas	1705	1705	60	1281538	00713.png	281.0	25	1281546.0	1293	1602
57	25_gas	25	25-10-2019	18:06:51:262	rl	gas	1718	1718	60	1281754	00718.png	286.0	25	1281746.0	964	790
58	25_gas	25	25-10-2019	18:06:51:461	rl	gas	1730	1730	60	1281953	00723.png	291.0	25	1281946.0	721	443
59	25_gas	25	25-10-2019	18:06:51:661	rl	gas	1742	1742	60	1282152	00728.png	296.0	25	1282146.0	-264	379
60	25_gas	25	25-10-2019	18:06:51:860	rl	gas	1754	1754	60	1282351	00733.png	301.0	25	1282346.0	1493	1372
61	25_gas	25	25-10-2019	18:06:52:059	rl	gas	1766	1766	60	1282550	00738.png	306.0	25	1282546.0	568	896
62	25_gas	25	25-10-2019	18:06:52:258	rl	gas	1776	1776	60	1282749	00743.png	311.0	25	1282746.0	608	336
63	25_gas	25	25-10-2019	18:06:52:457	rl	gas	1788	1788	60	1282949	00748.png	316.0	25	1282946.0	572	334
64	25_gas	25	25-10-2019	18:06:52:656	rl	gas	1800	1800	60	1283147	00753.png	321.0	25	1283146.0	171	426
65	25_gas	25	25-10-2019	18:06:52:855	rl	gas	1812	1812	60	1283347	00758.png	326.0	25	1283346.0	1554	1512
66	25_gas	25	25-10-2019	18:06:53:054	rl	gas	1824	1824	60	1283546	00763.png	331.0	25	1283546.0	499	729
67	25_gas	25	25-10-2019	18:06:53:254	rl	gas	1836	1836	60	1283745	00768.png	336.0	25	1283746.0	185	516
68	25_gas	25	25-10-2019	18:06:53:453	rl	gas	1848	1848	60	1283944	00773.png	341.0	25	1283946.0	966	2359
69	25_gas	25	25-10-2019	18:06:53:652	rl	gas	1860	1860	60	1284143	00778.png	346.0	25	1284146.0	2105	2459
70	25_gas	25	25-10-2019	18:06:53:851	rl	gas	1872	1872	60	1284342	00783.png	351.0	25	1284346.0	597	547
71	25_gas	25	25-10-2019	18:06:54:050	rl	gas	1884	1884	60	1284542	00788.png	356.0	25	1284546.0	743	425
72	25_gas	25	25-10-2019	18:06:54:249	rl	gas	1896	1896	60	1284740	00793.png	361.0	25	1284746.0	872	1082
73	25_gas	25	25-10-2019	18:06:54:448	rl	gas	1908	1908	60	1284940	00798.png	366.0	25	1284946.0	553	622
74	25_gas	25	25-10-2019	18:06:54:648	rl	gas	1920	1920	60	1285139	00803.png	371.0	25	1285146.0	534	491
75	25_gas	25	25-10-2019	18:06:54:847	rl	gas	1932	1932	60	1285338	00808.png	376.0	25	1285346.0	603	300
76	25_gas	25	25-10-2019	18:06:55:062	rl	gas	1945	1945	60	1285554	00813.png	381.0	25	1285546.0	721	427
77	25_gas	25	25-10-2019	18:06:55:262	rl	gas	1957	1957	60	1285753	00818.png	386.0	25	1285746.0	1253	636
78	25_gas	25	25-10-2019	18:06:55:461	rl	gas	1969	1969	60	1285952	00823.png	391.0	25	1285946.0	1415	712
79	25_gas	25	25-10-2019	18:06:55:660	rl	gas	1981	1981	60	1286151	00828.png	396.0	25	1286146.0	103	383
80	25_gas	25	25-10-2019	18:06:55:859	rl	gas	1993	1993	60	1286350	00833.png	401.0	25	1286346.0	7667	-10177
81	25_gas	25	25-10-2019	18:06:56:058	rl	gas	2004	2004	60	1286550	00838.png	406.0	25	1286546.0	-821	392
82	25_gas	25	25-10-2019	18:06:56:257	rl	gas	2016	2016	60	1286749	00843.png	411.0	25	1286746.0	517	1336
83	25_gas	25	25-10-2019	18:06:56:457	rl	gas	2028	2028	60	1286948	00848.png	416.0	25	1286946.0	1855	2280
84	25_gas	25	25-10-2019	18:06:56:655	rl	gas	2040	2040	60	1287147	00853.png	421.0	25	1287146.0	1003	1057
85	25_gas	25	25-10-2019	18:06:56:854	rl	gas	2052	2052	60	1287346	00858.png	426.0	25	1287346.0	-1134	726
86	25_gas	25	25-10-2019	18:06:57:054	rl	gas	2064	2064	60	1287545	00863.png	431.0	25	1287546.0	-445	743
87	25_gas	25	25-10-2019	18:06:57:253	rl	gas	2076	2076	60	1287744	00868.png	436.0	25	1287746.0	-381	437
88	25_gas	25	25-10-2019	18:06:57:452	rl	gas	2088	2088	60	1287944	00873.png	441.0	25	1287946.0	-337	451
89	25_gas	25	25-10-2019	18:06:57:651	rl	gas	2100	2100	60	1288143	00878.png	446.0	25	1288146.0	908	610
90	25_gas	25	25-10-2019	18:06:57:851	rl	gas	2112	2112	60	1288342	00883.png	451.0	25	1288346.0	830	596
91	25_gas	25	25-10-2019	18:06:58:050	rl	gas	2124	2124	60	1288541	00888.png	456.0	25	1288546.0	-704	716
92	25_gas	25	25-10-2019	18:06:58:248	rl	gas	2136	2136	60	1288740	00893.png	461.0	25	1288746.0	-146	745
93	25_gas	25	25-10-2019	18:06:58:448	rl	gas	2148	2148	60	1288939	00898.png	466.0	25	1288946.0	92	710
94	25_gas	25	25-10-2019	18:06:58:647	rl	gas	2160	2160	60	1289139	00903.png	471.0	25	1289146.0	9	678
95	25_gas	25	25-10-2019	18:06:58:846	rl	gas	2172	2172	60	1289338	00908.png	476.0	25	1289346.0	210	629
96	25_gas	25	25-10-2019	18:06:59:062	rl	gas	2185	2185	60	1289554	00913.png	481.0	25	1289546.0	225	613
97	25_gas	25	25-10-2019	18:06:59:261	rl	gas	2197	2197	60	1289753	00918.png	486.0	25	1289746.0	247	615
98	25_gas	25	25-10-2019	18:06:59:460	rl	gas	2209	2209	60	1289952	00923.png	491.0	25	1289946.0	269	570
99	25_gas	25	25-10-2019	18:06:59:659	rl	gas	2221	2221	60	1290151	00928.png	496.0	25	1290146.0	330	233
100	25_gas	25	25-10-2019	18:06:59:858	rl	gas	2231	2231	60	1290350	00933.png	501.0	25	1290346.0	-184	505
101	25_gas	25	25-10-2019	18:07:00:057	rl	gas	2242	2242	60	1290549	00938.png	506.0	25	1290546.0	81	494
102	25_gas	25	25-10-2019	18:07:00:257	rl	gas	2254	2254	60	1290748	00943.png	511.0	25	1290746.0	-1501	727
103	25_gas	25	25-10-2019	18:07:00:456	rl	gas	2266	2266	60	1290948	00948.png	516.0	25	1290946.0	1097	590
104	25_gas	25	25-10-2019	18:07:00:655	rl	gas	2278	2278	60	1291146	00953.png	521.0	25	1291146.0	1513	564
105	25_gas	25	25-10-2019	18:07:00:854	rl	gas	2290	2290	60	1291346	00958.png	526.0	25	1291346.0	1273	235
106	25_gas	25	25-10-2019	18:07:01:054	rl	gas	2302	2302	60	1291545	00963.png	531.0	25	1291546.0	409	-460
107	25_gas	25	25-10-2019	18:07:01:252	rl	gas	2314	2314	60	1291744	00968.png	536.0	25	1291746.0	579	197
108	25_gas	25	25-10-2019	18:07:01:451	rl	gas	2326	2326	60	1291943	00973.png	541.0	25	1291946.0	388	310
109	25_gas	25	25-10-2019	18:07:01:651	rl	gas	2338	2338	60	1292142	00978.png	546.0	25	1292146.0	1360	595
110	25_gas	25	25-10-2019	18:07:01:850	rl	gas	2350	2350	60	1292342	00983.png	551.0	25	1292346.0	1289	481
111	25_gas	25	25-10-2019	18:07:02:049	rl	gas	2362	2362	60	1292541	00988.png	556.0	25	1292546.0	316	35
112	25_gas	25	25-10-2019	18:07:02:248	rl	gas	2374	2374	60	1292740	00993.png	561.0	25	1292746.0	470	110
113	25_gas	25	25-10-2019	18:07:02:447	rl	gas	2386	2386	60	1292939	00998.png	566.0	25	1292946.0	1316	993
114	25_gas	25	25-10-2019	18:07:02:647	rl	gas	2398	2398	60	1293138	01003.png	571.0	25	1293146.0	932	278
115	25_gas	25	25-10-2019	18:07:02:862	rl	gas	2411	2411	60	1293354	01008.png	576.0	25	1293346.0	5297	1170
116	25_gas	25	25-10-2019	18:07:03:061	rl	gas	2423	2423	60	1293553	01013.png	581.0	25	1293546.0	952	411
117	25_gas	25	25-10-2019	18:07:03:260	rl	gas	2435	2435	60	1293752	01018.png	586.0	25	1293746.0	343	132
118	25_gas	25	25-10-2019	18:07:03:460	rl	gas	2447	2447	60	1293951	01023.png	591.0	25	1293946.0	902	454
119	25_gas	25	25-10-2019	18:07:03:642	rl	gas	2457	2457	60	1294134	01028.png	596.0	25	1294146.0	937	447
120	25_gas	25	25-10-2019	18:07:03:858	rl	gas	2467	2467	60	1294349	01033.png	601.0	25	1294346.0	591	486
121	25_gas	25	25-10-2019	18:07:04:057	rl	gas	2479	2479	60	1294549	01038.png	606.0	25	1294546.0	566	510
122	25_gas	25	25-10-2019	18:07:04:257	rl	gas	2491	2491	60	1294748	01043.png	611.0	25	1294746.0	617	596
123	25_gas	25	25-10-2019	18:07:04:456	rl	gas	2503	2503	60	1294947	01048.png	616.0	25	1294946.0	1110	528
124	25_gas	25	25-10-2019	18:07:04:655	rl	gas	2515	2515	60	1295146	01053.png	621.0	25	1295146.0	547	235
125	25_gas	25	25-10-2019	18:07:04:854	rl	gas	2527	2527	60	1295345	01058.png	626.0	25	1295346.0	666	336
126	25_gas	25	25-10-2019	18:07:05:053	rl	gas	2539	2539	60	1295544	01063.png	631.0	25	1295546.0	837	326
127	25_gas	25	25-10-2019	18:07:05:252	rl	gas	2551	2551	60	1295744	01068.png	636.0	25	1295746.0	949	305
128	25_gas	25	25-10-2019	18:07:05:451	rl	gas	2563	2563	60	1295943	01073.png	641.0	25	1295946.0	562	117
129	25_gas	25	25-10-2019	18:07:05:650	rl	gas	2575	2575	60	1296142	01078.png	646.0	25	1296146.0	638	419
130	25_gas	25	25-10-2019	18:07:05:850	rl	gas	2587	2587	60	1296341	01083.png	651.0	25	1296346.0	642	450
131	25_gas	25	25-10-2019	18:07:06:049	rl	gas	2599	2599	60	1296540	01088.png	656.0	25	1296546.0	387	353
132	25_gas	25	25-10-2019	18:07:06:248	rl	gas	2611	2611	60	1296739	01093.png	661.0	25	1296746.0	570	418
133	25_gas	25	25-10-2019	18:07:06:447	rl	gas	2623	2623	60	1296939	01098.png	666.0	25	1296946.0	570	387
134	25_gas	25	25-10-2019	18:07:06:646	rl	gas	2635	2635	60	1297138	01103.png	671.0	25	1297146.0	660	339
135	25_gas	25	25-10-2019	18:07:06:862	rl	gas	2648	2648	60	1297353	01108.png	676.0	25	1297346.0	695	376
136	25_gas	25	25-10-2019	18:07:07:061	rl	gas	2660	2660	60	1297553	01113.png	681.0	25	1297546.0	246	220
137	25_gas	25	25-10-2019	18:07:07:260	rl	gas	2672	2672	60	1297752	01118.png	686.0	25	1297746.0	577	414
138	25_gas	25	25-10-2019	18:07:07:459	rl	gas	2684	2684	60	1297951	01123.png	691.0	25	1297946.0	1029	688
139	25_gas	25	25-10-2019	18:07:07:658	rl	gas	2694	2694	60	1298150	01128.png	696.0	25	1298146.0	988	636
140	25_gas	25	25-10-2019	18:07:07:858	rl	gas	2706	2706	60	1298349	01133.png	701.0	25	1298346.0	29	581
141	25_gas	25	25-10-2019	18:07:08:056	rl	gas	2718	2718	60	1298548	01138.png	706.0	25	1298546.0	475	557
142	25_gas	25	25-10-2019	18:07:08:256	rl	gas	2730	2730	60	1298747	01143.png	711.0	25	1298746.0	510	512
143	25_gas	25	25-10-2019	18:07:08:455	rl	gas	2742	2742	60	1298946	01148.png	716.0	25	1298946.0	766	541
144	25_gas	25	25-10-2019	18:07:08:654	rl	gas	2754	2754	60	1299146	01153.png	721.0	25	1299146.0	816	549
145	25_gas	25	25-10-2019	18:07:08:853	rl	gas	2766	2766	60	1299345	01158.png	726.0	25	1299346.0	378	494
146	25_gas	25	25-10-2019	18:07:09:052	rl	gas	2778	2778	60	1299544	01163.png	731.0	25	1299546.0	419	533
147	25_gas	25	25-10-2019	18:07:09:251	rl	gas	2790	2790	60	1299743	01168.png	736.0	25	1299746.0	290	654
148	25_gas	25	25-10-2019	18:07:09:451	rl	gas	2802	2802	60	1299942	01173.png	741.0	25	1299946.0	313	433
149	25_gas	25	25-10-2019	18:07:09:650	rl	gas	2814	2814	60	1300142	01178.png	746.0	25	1300146.0	594	499
