	subject_location	subject_id	date	daytime	setting_id	trial_id	sample_id	sample_n	sample_rate	sample_time_smi	frame_id	frame_n	frame_rate	frame_time_smi	fix_pos_x	fix_pos_y
0	01_bac	01	16-10-2019	15:17:25:319	rl	bac	935	935	60	902074	00391.png	1.0	25	902081.0	240	433
1	01_bac	01	16-10-2019	15:17:25:518	rl	bac	947	947	60	902273	00396.png	6.0	25	902281.0	189	435
2	01_bac	01	16-10-2019	15:17:25:734	rl	bac	960	960	60	902489	00401.png	11.0	25	902481.0	198	435
3	01_bac	01	16-10-2019	15:17:25:933	rl	bac	972	972	60	902688	00406.png	16.0	25	902681.0	258	432
4	01_bac	01	16-10-2019	15:17:26:132	rl	bac	984	984	60	902887	00411.png	21.0	25	902881.0	674	419
5	01_bac	01	16-10-2019	15:17:26:331	rl	bac	996	996	60	903086	00416.png	26.0	25	903081.0	780	419
6	01_bac	01	16-10-2019	15:17:26:530	rl	bac	1008	1008	60	903285	00421.png	31.0	25	903281.0	697	419
7	01_bac	01	16-10-2019	15:17:26:729	rl	bac	1020	1020	60	903484	00426.png	36.0	25	903481.0	604	420
8	01_bac	01	16-10-2019	15:17:26:928	rl	bac	1032	1032	60	903683	00431.png	41.0	25	903681.0	840	419
9	01_bac	01	16-10-2019	15:17:27:128	rl	bac	1044	1044	60	903883	00436.png	46.0	25	903881.0	0	0
10	01_bac	01	16-10-2019	15:17:27:327	rl	bac	1056	1056	60	904082	00441.png	51.0	25	904081.0	836	418
11	01_bac	01	16-10-2019	15:17:27:526	rl	bac	1068	1068	60	904281	00446.png	56.0	25	904281.0	653	419
12	01_bac	01	16-10-2019	15:17:27:725	rl	bac	1080	1080	60	904480	00451.png	61.0	25	904481.0	545	421
13	01_bac	01	16-10-2019	15:17:27:924	rl	bac	1092	1092	60	904679	00456.png	66.0	25	904681.0	545	421
14	01_bac	01	16-10-2019	15:17:28:124	rl	bac	1104	1104	60	904879	00461.png	71.0	25	904881.0	531	422
15	01_bac	01	16-10-2019	15:17:28:322	rl	bac	1116	1116	60	905077	00466.png	76.0	25	905081.0	468	423
16	01_bac	01	16-10-2019	15:17:28:521	rl	bac	1128	1128	60	905276	00471.png	81.0	25	905281.0	0	0
17	01_bac	01	16-10-2019	15:17:28:721	rl	bac	1140	1140	60	905476	00476.png	86.0	25	905481.0	1110	424
18	01_bac	01	16-10-2019	15:17:28:920	rl	bac	1150	1150	60	905675	00481.png	91.0	25	905681.0	899	419
19	01_bac	01	16-10-2019	15:17:29:119	rl	bac	1162	1162	60	905874	00486.png	96.0	25	905881.0	863	419
20	01_bac	01	16-10-2019	15:17:29:319	rl	bac	1174	1174	60	906074	00491.png	101.0	25	906081.0	942	420
21	01_bac	01	16-10-2019	15:17:29:534	rl	bac	1187	1187	60	906289	00496.png	106.0	25	906281.0	1026	421
22	01_bac	01	16-10-2019	15:17:29:733	rl	bac	1199	1199	60	906488	00501.png	111.0	25	906481.0	559	422
23	01_bac	01	16-10-2019	15:17:29:932	rl	bac	1211	1211	60	906687	00506.png	116.0	25	906681.0	522	423
24	01_bac	01	16-10-2019	15:17:30:132	rl	bac	1223	1223	60	906887	00511.png	121.0	25	906881.0	82	439
25	01_bac	01	16-10-2019	15:17:30:331	rl	bac	1235	1235	60	907086	00516.png	126.0	25	907081.0	239	431
26	01_bac	01	16-10-2019	15:17:30:530	rl	bac	1247	1247	60	907285	00521.png	131.0	25	907281.0	225	432
27	01_bac	01	16-10-2019	15:17:30:729	rl	bac	1259	1259	60	907484	00526.png	136.0	25	907481.0	273	431
28	01_bac	01	16-10-2019	15:17:30:928	rl	bac	1271	1271	60	907683	00531.png	141.0	25	907681.0	301	430
29	01_bac	01	16-10-2019	15:17:31:127	rl	bac	1283	1283	60	907882	00536.png	146.0	25	907881.0	362	427
30	01_bac	01	16-10-2019	15:17:31:327	rl	bac	1295	1295	60	908082	00541.png	151.0	25	908081.0	352	427
31	01_bac	01	16-10-2019	15:17:31:526	rl	bac	1307	1307	60	908281	00546.png	156.0	25	908281.0	251	432
32	01_bac	01	16-10-2019	15:17:31:725	rl	bac	1319	1319	60	908480	00551.png	161.0	25	908481.0	274	431
33	01_bac	01	16-10-2019	15:17:31:924	rl	bac	1331	1331	60	908679	00556.png	166.0	25	908681.0	211	435
34	01_bac	01	16-10-2019	15:17:32:123	rl	bac	1343	1343	60	908878	00561.png	171.0	25	908881.0	236	433
35	01_bac	01	16-10-2019	15:17:32:322	rl	bac	1355	1355	60	909077	00566.png	176.0	25	909081.0	292	430
36	01_bac	01	16-10-2019	15:17:32:521	rl	bac	1367	1367	60	909276	00571.png	181.0	25	909281.0	273	431
37	01_bac	01	16-10-2019	15:17:32:721	rl	bac	1378	1378	60	909476	00576.png	186.0	25	909481.0	333	430
38	01_bac	01	16-10-2019	15:17:32:920	rl	bac	1390	1390	60	909675	00581.png	191.0	25	909681.0	185	436
39	01_bac	01	16-10-2019	15:17:33:119	rl	bac	1402	1402	60	909874	00586.png	196.0	25	909881.0	289	431
40	01_bac	01	16-10-2019	15:17:33:318	rl	bac	1414	1414	60	910073	00591.png	201.0	25	910081.0	291	431
41	01_bac	01	16-10-2019	15:17:33:533	rl	bac	1427	1427	60	910288	00596.png	206.0	25	910281.0	287	432
42	01_bac	01	16-10-2019	15:17:33:733	rl	bac	1439	1439	60	910488	00601.png	211.0	25	910481.0	322	430
43	01_bac	01	16-10-2019	15:17:33:932	rl	bac	1451	1451	60	910687	00606.png	216.0	25	910681.0	265	433
44	01_bac	01	16-10-2019	15:17:34:131	rl	bac	1463	1463	60	910886	00611.png	221.0	25	910881.0	184	436
45	01_bac	01	16-10-2019	15:17:34:330	rl	bac	1475	1475	60	911085	00616.png	226.0	25	911081.0	307	430
46	01_bac	01	16-10-2019	15:17:34:529	rl	bac	1487	1487	60	911284	00621.png	231.0	25	911281.0	256	431
47	01_bac	01	16-10-2019	15:17:34:729	rl	bac	1499	1499	60	911484	00626.png	236.0	25	911481.0	265	430
48	01_bac	01	16-10-2019	15:17:34:928	rl	bac	1511	1511	60	911683	00631.png	241.0	25	911681.0	271	429
49	01_bac	01	16-10-2019	15:17:35:127	rl	bac	1523	1523	60	911882	00636.png	246.0	25	911881.0	325	427
50	01_bac	01	16-10-2019	15:17:35:326	rl	bac	1535	1535	60	912081	00641.png	251.0	25	912081.0	349	426
51	01_bac	01	16-10-2019	15:17:35:525	rl	bac	1547	1547	60	912280	00646.png	256.0	25	912281.0	0	0
52	01_bac	01	16-10-2019	15:17:35:724	rl	bac	1559	1559	60	912479	00651.png	261.0	25	912481.0	0	0
53	01_bac	01	16-10-2019	15:17:35:923	rl	bac	1571	1571	60	912678	00656.png	266.0	25	912681.0	0	0
54	01_bac	01	16-10-2019	15:17:36:123	rl	bac	1583	1583	60	912878	00661.png	271.0	25	912881.0	295	431
55	01_bac	01	16-10-2019	15:17:36:322	rl	bac	1595	1595	60	913077	00666.png	276.0	25	913081.0	233	432
56	01_bac	01	16-10-2019	15:17:36:537	rl	bac	1607	1607	60	913292	00671.png	281.0	25	913281.0	311	430
57	01_bac	01	16-10-2019	15:17:36:720	rl	bac	1617	1617	60	913475	00676.png	286.0	25	913481.0	191	434
58	01_bac	01	16-10-2019	15:17:36:919	rl	bac	1629	1629	60	913674	00681.png	291.0	25	913681.0	314	429
59	01_bac	01	16-10-2019	15:17:37:118	rl	bac	1641	1641	60	913873	00686.png	296.0	25	913881.0	386	427
60	01_bac	01	16-10-2019	15:17:37:334	rl	bac	1654	1654	60	914089	00691.png	301.0	25	914081.0	252	432
61	01_bac	01	16-10-2019	15:17:37:533	rl	bac	1666	1666	60	914288	00696.png	306.0	25	914281.0	157	438
62	01_bac	01	16-10-2019	15:17:37:732	rl	bac	1678	1678	60	914487	00701.png	311.0	25	914481.0	170	437
63	01_bac	01	16-10-2019	15:17:37:931	rl	bac	1690	1690	60	914686	00706.png	316.0	25	914681.0	179	436
64	01_bac	01	16-10-2019	15:17:38:131	rl	bac	1702	1702	60	914886	00711.png	321.0	25	914881.0	226	434
65	01_bac	01	16-10-2019	15:17:38:329	rl	bac	1714	1714	60	915084	00716.png	326.0	25	915081.0	250	432
66	01_bac	01	16-10-2019	15:17:38:529	rl	bac	1726	1726	60	915284	00721.png	331.0	25	915281.0	382	427
67	01_bac	01	16-10-2019	15:17:38:728	rl	bac	1738	1738	60	915483	00726.png	336.0	25	915481.0	366	428
68	01_bac	01	16-10-2019	15:17:38:927	rl	bac	1750	1750	60	915682	00731.png	341.0	25	915681.0	325	430
69	01_bac	01	16-10-2019	15:17:39:126	rl	bac	1762	1762	60	915881	00736.png	346.0	25	915881.0	425	426
70	01_bac	01	16-10-2019	15:17:39:326	rl	bac	1774	1774	60	916081	00741.png	351.0	25	916081.0	986	421
71	01_bac	01	16-10-2019	15:17:39:525	rl	bac	1786	1786	60	916280	00746.png	356.0	25	916281.0	816	419
72	01_bac	01	16-10-2019	15:17:39:724	rl	bac	1798	1798	60	916479	00751.png	361.0	25	916481.0	395	426
73	01_bac	01	16-10-2019	15:17:39:923	rl	bac	1810	1810	60	916678	00756.png	366.0	25	916681.0	653	420
74	01_bac	01	16-10-2019	15:17:40:122	rl	bac	1822	1822	60	916877	00761.png	371.0	25	916881.0	135	441
75	01_bac	01	16-10-2019	15:17:40:321	rl	bac	1834	1834	60	917076	00766.png	376.0	25	917081.0	-28	453
76	01_bac	01	16-10-2019	15:17:40:520	rl	bac	1843	1843	60	917275	00771.png	381.0	25	917281.0	-67	453
77	01_bac	01	16-10-2019	15:17:40:719	rl	bac	1854	1854	60	917474	00776.png	386.0	25	917481.0	-22	449
78	01_bac	01	16-10-2019	15:17:40:919	rl	bac	1866	1866	60	917674	00781.png	391.0	25	917681.0	0	0
79	01_bac	01	16-10-2019	15:17:41:118	rl	bac	1878	1878	60	917873	00786.png	396.0	25	917881.0	65	444
80	01_bac	01	16-10-2019	15:17:41:334	rl	bac	1891	1891	60	918089	00791.png	401.0	25	918081.0	126	439
81	01_bac	01	16-10-2019	15:17:41:533	rl	bac	1903	1903	60	918288	00796.png	406.0	25	918281.0	124	439
82	01_bac	01	16-10-2019	15:17:41:732	rl	bac	1915	1915	60	918487	00801.png	411.0	25	918481.0	-34	446
83	01_bac	01	16-10-2019	15:17:41:931	rl	bac	1927	1927	60	918686	00806.png	416.0	25	918681.0	-297	469
84	01_bac	01	16-10-2019	15:17:42:130	rl	bac	1939	1939	60	918885	00811.png	421.0	25	918881.0	-551	492
85	01_bac	01	16-10-2019	15:17:42:329	rl	bac	1951	1951	60	919084	00816.png	426.0	25	919081.0	267	430
86	01_bac	01	16-10-2019	15:17:42:528	rl	bac	1963	1963	60	919283	00821.png	431.0	25	919281.0	540	422
87	01_bac	01	16-10-2019	15:17:42:728	rl	bac	1975	1975	60	919483	00826.png	436.0	25	919481.0	376	426
88	01_bac	01	16-10-2019	15:17:42:927	rl	bac	1987	1987	60	919682	00831.png	441.0	25	919681.0	360	427
89	01_bac	01	16-10-2019	15:17:43:126	rl	bac	1999	1999	60	919881	00836.png	446.0	25	919881.0	-47	452
90	01_bac	01	16-10-2019	15:17:43:325	rl	bac	2011	2011	60	920080	00841.png	451.0	25	920081.0	-105	457
91	01_bac	01	16-10-2019	15:17:43:524	rl	bac	2023	2023	60	920279	00846.png	456.0	25	920281.0	-44	453
92	01_bac	01	16-10-2019	15:17:43:723	rl	bac	2035	2035	60	920478	00851.png	461.0	25	920481.0	-184	463
93	01_bac	01	16-10-2019	15:17:43:922	rl	bac	2047	2047	60	920677	00856.png	466.0	25	920681.0	-145	460
94	01_bac	01	16-10-2019	15:17:44:121	rl	bac	2059	2059	60	920876	00861.png	471.0	25	920881.0	-52	453
95	01_bac	01	16-10-2019	15:17:44:321	rl	bac	2070	2070	60	921076	00866.png	476.0	25	921081.0	354	429
96	01_bac	01	16-10-2019	15:17:44:520	rl	bac	2081	2081	60	921275	00871.png	481.0	25	921281.0	1148	425
97	01_bac	01	16-10-2019	15:17:44:719	rl	bac	2093	2093	60	921474	00876.png	486.0	25	921481.0	1076	423
98	01_bac	01	16-10-2019	15:17:44:918	rl	bac	2105	2105	60	921673	00881.png	491.0	25	921681.0	692	420
99	01_bac	01	16-10-2019	15:17:45:134	rl	bac	2118	2118	60	921889	00886.png	496.0	25	921881.0	558	422
100	01_bac	01	16-10-2019	15:17:45:333	rl	bac	2130	2130	60	922088	00891.png	501.0	25	922081.0	485	424
101	01_bac	01	16-10-2019	15:17:45:532	rl	bac	2142	2142	60	922287	00896.png	506.0	25	922281.0	534	422
102	01_bac	01	16-10-2019	15:17:45:731	rl	bac	2154	2154	60	922486	00901.png	511.0	25	922481.0	551	422
103	01_bac	01	16-10-2019	15:17:45:930	rl	bac	2166	2166	60	922685	00906.png	516.0	25	922681.0	816	417
104	01_bac	01	16-10-2019	15:17:46:129	rl	bac	2178	2178	60	922884	00911.png	521.0	25	922881.0	796	417
105	01_bac	01	16-10-2019	15:17:46:329	rl	bac	2190	2190	60	923084	00916.png	526.0	25	923081.0	739	417
106	01_bac	01	16-10-2019	15:17:46:528	rl	bac	2202	2202	60	923283	00921.png	531.0	25	923281.0	773	417
107	01_bac	01	16-10-2019	15:17:46:727	rl	bac	2214	2214	60	923482	00926.png	536.0	25	923481.0	552	421
108	01_bac	01	16-10-2019	15:17:46:926	rl	bac	2226	2226	60	923681	00931.png	541.0	25	923681.0	477	423
109	01_bac	01	16-10-2019	15:17:47:125	rl	bac	2238	2238	60	923880	00936.png	546.0	25	923881.0	856	418
110	01_bac	01	16-10-2019	15:17:47:325	rl	bac	2250	2250	60	924080	00941.png	551.0	25	924081.0	776	417
111	01_bac	01	16-10-2019	15:17:47:524	rl	bac	2262	2262	60	924279	00946.png	556.0	25	924281.0	637	418
112	01_bac	01	16-10-2019	15:17:47:723	rl	bac	2274	2274	60	924478	00951.png	561.0	25	924481.0	503	422
113	01_bac	01	16-10-2019	15:17:47:922	rl	bac	2286	2286	60	924677	00956.png	566.0	25	924681.0	718	418
114	01_bac	01	16-10-2019	15:17:48:121	rl	bac	2298	2298	60	924876	00961.png	571.0	25	924881.0	795	418
115	01_bac	01	16-10-2019	15:17:48:320	rl	bac	2309	2309	60	925075	00966.png	576.0	25	925081.0	819	418
116	01_bac	01	16-10-2019	15:17:48:519	rl	bac	2321	2321	60	925274	00971.png	581.0	25	925281.0	857	418
117	01_bac	01	16-10-2019	15:17:48:718	rl	bac	2333	2333	60	925473	00976.png	586.0	25	925481.0	825	418
118	01_bac	01	16-10-2019	15:17:48:918	rl	bac	2345	2345	60	925673	00981.png	591.0	25	925681.0	863	419
119	01_bac	01	16-10-2019	15:17:49:133	rl	bac	2358	2358	60	925888	00986.png	596.0	25	925881.0	795	418
120	01_bac	01	16-10-2019	15:17:49:333	rl	bac	2370	2370	60	926088	00991.png	601.0	25	926081.0	767	418
121	01_bac	01	16-10-2019	15:17:49:531	rl	bac	2382	2382	60	926286	00996.png	606.0	25	926281.0	860	418
122	01_bac	01	16-10-2019	15:17:49:731	rl	bac	2394	2394	60	926486	01001.png	611.0	25	926481.0	911	420
123	01_bac	01	16-10-2019	15:17:49:930	rl	bac	2406	2406	60	926685	01006.png	616.0	25	926681.0	885	421
124	01_bac	01	16-10-2019	15:17:50:129	rl	bac	2418	2418	60	926884	01011.png	621.0	25	926881.0	911	422
125	01_bac	01	16-10-2019	15:17:50:328	rl	bac	2430	2430	60	927083	01016.png	626.0	25	927081.0	973	422
126	01_bac	01	16-10-2019	15:17:50:527	rl	bac	2442	2442	60	927282	01021.png	631.0	25	927281.0	1054	423
127	01_bac	01	16-10-2019	15:17:50:726	rl	bac	2454	2454	60	927481	01026.png	636.0	25	927481.0	1049	422
128	01_bac	01	16-10-2019	15:17:50:925	rl	bac	2466	2466	60	927680	01031.png	641.0	25	927681.0	896	420
129	01_bac	01	16-10-2019	15:17:51:124	rl	bac	2478	2478	60	927879	01036.png	646.0	25	927881.0	916	420
130	01_bac	01	16-10-2019	15:17:51:324	rl	bac	2490	2490	60	928079	01041.png	651.0	25	928081.0	1295	429
131	01_bac	01	16-10-2019	15:17:51:523	rl	bac	2502	2502	60	928278	01046.png	656.0	25	928281.0	1085	422
132	01_bac	01	16-10-2019	15:17:51:722	rl	bac	2514	2514	60	928477	01051.png	661.0	25	928481.0	950	420
133	01_bac	01	16-10-2019	15:17:51:921	rl	bac	2526	2526	60	928676	01056.png	666.0	25	928681.0	1259	428
134	01_bac	01	16-10-2019	15:17:52:121	rl	bac	2537	2537	60	928876	01061.png	671.0	25	928881.0	1203	426
135	01_bac	01	16-10-2019	15:17:52:320	rl	bac	2549	2549	60	929075	01066.png	676.0	25	929081.0	1232	428
136	01_bac	01	16-10-2019	15:17:52:519	rl	bac	2561	2561	60	929274	01071.png	681.0	25	929281.0	1070	422
137	01_bac	01	16-10-2019	15:17:52:718	rl	bac	2573	2573	60	929473	01076.png	686.0	25	929481.0	1051	421
138	01_bac	01	16-10-2019	15:17:52:933	rl	bac	2586	2586	60	929688	01081.png	691.0	25	929681.0	890	419
139	01_bac	01	16-10-2019	15:17:53:133	rl	bac	2598	2598	60	929888	01086.png	696.0	25	929881.0	51	444
140	01_bac	01	16-10-2019	15:17:53:332	rl	bac	2610	2610	60	930087	01091.png	701.0	25	930081.0	288	431
141	01_bac	01	16-10-2019	15:17:53:531	rl	bac	2622	2622	60	930286	01096.png	706.0	25	930281.0	73	443
142	01_bac	01	16-10-2019	15:17:53:730	rl	bac	2634	2634	60	930485	01101.png	711.0	25	930481.0	-456	486
143	01_bac	01	16-10-2019	15:17:53:929	rl	bac	2646	2646	60	930684	01106.png	716.0	25	930681.0	216	435
144	01_bac	01	16-10-2019	15:17:54:129	rl	bac	2658	2658	60	930884	01111.png	721.0	25	930881.0	451	425
145	01_bac	01	16-10-2019	15:17:54:328	rl	bac	2670	2670	60	931083	01116.png	726.0	25	931081.0	591	421
146	01_bac	01	16-10-2019	15:17:54:527	rl	bac	2682	2682	60	931282	01121.png	731.0	25	931281.0	518	423
147	01_bac	01	16-10-2019	15:17:54:726	rl	bac	2694	2694	60	931481	01126.png	736.0	25	931481.0	68	445
148	01_bac	01	16-10-2019	15:17:54:925	rl	bac	2706	2706	60	931680	01131.png	741.0	25	931681.0	227	435
149	01_bac	01	16-10-2019	15:17:55:124	rl	bac	2718	2718	60	931879	01136.png	746.0	25	931881.0	296	432
