	subject_location	subject_id	date	daytime	setting_id	trial_id	sample_id	sample_n	sample_rate	sample_time_smi	frame_id	frame_n	frame_rate	frame_time_smi	fix_pos_x	fix_pos_y
0	01_loc	01	16-10-2019	14:57:00:865	rl	loc	2792	2792	60	224771	01173.png	1.0	25	224775.0	404	6814
1	01_loc	01	16-10-2019	14:57:01:064	rl	loc	2804	2804	60	224970	01178.png	6.0	25	224975.0	-12115	10166
2	01_loc	01	16-10-2019	14:57:01:263	rl	loc	2816	2816	60	225170	01183.png	11.0	25	225175.0	1223	389
3	01_loc	01	16-10-2019	14:57:01:462	rl	loc	2828	2828	60	225369	01188.png	16.0	25	225375.0	0	0
4	01_loc	01	16-10-2019	14:57:01:661	rl	loc	2840	2840	60	225568	01193.png	21.0	25	225575.0	0	0
5	01_loc	01	16-10-2019	14:57:01:861	rl	loc	2852	2852	60	225767	01198.png	26.0	25	225775.0	-15	1072
6	01_loc	01	16-10-2019	14:57:02:076	rl	loc	2865	2865	60	225983	01203.png	31.0	25	225975.0	0	0
7	01_loc	01	16-10-2019	14:57:02:275	rl	loc	2877	2877	60	226182	01208.png	36.0	25	226175.0	0	0
8	01_loc	01	16-10-2019	14:57:02:474	rl	loc	2889	2889	60	226381	01213.png	41.0	25	226375.0	2431	-2309
9	01_loc	01	16-10-2019	14:57:02:673	rl	loc	2901	2901	60	226580	01218.png	46.0	25	226575.0	0	0
10	01_loc	01	16-10-2019	14:57:02:873	rl	loc	2913	2913	60	226780	01223.png	51.0	25	226775.0	0	0
11	01_loc	01	16-10-2019	14:57:03:072	rl	loc	2925	2925	60	226978	01228.png	56.0	25	226975.0	-1358	-89
12	01_loc	01	16-10-2019	14:57:03:271	rl	loc	2937	2937	60	227178	01233.png	61.0	25	227175.0	-990	4367
13	01_loc	01	16-10-2019	14:57:03:470	rl	loc	2949	2949	60	227377	01238.png	66.0	25	227375.0	-491	689
14	01_loc	01	16-10-2019	14:57:03:669	rl	loc	2961	2961	60	227576	01243.png	71.0	25	227575.0	720	356
15	01_loc	01	16-10-2019	14:57:03:869	rl	loc	2973	2973	60	227775	01248.png	76.0	25	227775.0	2327	673
16	01_loc	01	16-10-2019	14:57:04:068	rl	loc	2985	2985	60	227974	01253.png	81.0	25	227975.0	510	457
17	01_loc	01	16-10-2019	14:57:04:266	rl	loc	2997	2997	60	228173	01258.png	86.0	25	228175.0	4084	10110
18	01_loc	01	16-10-2019	14:57:04:466	rl	loc	3009	3009	60	228373	01263.png	91.0	25	228375.0	993	357
19	01_loc	01	16-10-2019	14:57:04:665	rl	loc	3021	3021	60	228572	01268.png	96.0	25	228575.0	850	546
20	01_loc	01	16-10-2019	14:57:04:864	rl	loc	3032	3032	60	228771	01273.png	101.0	25	228775.0	443	926
21	01_loc	01	16-10-2019	14:57:05:063	rl	loc	3044	3044	60	228970	01278.png	106.0	25	228975.0	0	0
22	01_loc	01	16-10-2019	14:57:05:262	rl	loc	3056	3056	60	229169	01283.png	111.0	25	229175.0	638	478
23	01_loc	01	16-10-2019	14:57:05:462	rl	loc	3068	3068	60	229368	01288.png	116.0	25	229375.0	-809	5857
24	01_loc	01	16-10-2019	14:57:05:661	rl	loc	3080	3080	60	229567	01293.png	121.0	25	229575.0	-809	5857
25	01_loc	01	16-10-2019	14:57:05:860	rl	loc	3092	3092	60	229767	01298.png	126.0	25	229775.0	-809	5857
26	01_loc	01	16-10-2019	14:57:06:076	rl	loc	3105	3105	60	229982	01303.png	131.0	25	229975.0	-809	5857
27	01_loc	01	16-10-2019	14:57:06:275	rl	loc	3117	3117	60	230181	01308.png	136.0	25	230175.0	-56	2267
28	01_loc	01	16-10-2019	14:57:06:474	rl	loc	3129	3129	60	230381	01313.png	141.0	25	230375.0	-70	1804
29	01_loc	01	16-10-2019	14:57:06:673	rl	loc	3141	3141	60	230580	01318.png	146.0	25	230575.0	-125	2119
30	01_loc	01	16-10-2019	14:57:06:872	rl	loc	3153	3153	60	230779	01323.png	151.0	25	230775.0	0	0
31	01_loc	01	16-10-2019	14:57:07:071	rl	loc	3165	3165	60	230978	01328.png	156.0	25	230975.0	-2030	541
32	01_loc	01	16-10-2019	14:57:07:271	rl	loc	3177	3177	60	231177	01333.png	161.0	25	231175.0	-545	4063
33	01_loc	01	16-10-2019	14:57:07:470	rl	loc	3189	3189	60	231376	01338.png	166.0	25	231375.0	227	1145
34	01_loc	01	16-10-2019	14:57:07:669	rl	loc	3201	3201	60	231575	01343.png	171.0	25	231575.0	614	7540
35	01_loc	01	16-10-2019	14:57:07:868	rl	loc	3213	3213	60	231775	01348.png	176.0	25	231775.0	3595	3801
36	01_loc	01	16-10-2019	14:57:08:067	rl	loc	3225	3225	60	231974	01353.png	181.0	25	231975.0	3622	4771
37	01_loc	01	16-10-2019	14:57:08:266	rl	loc	3237	3237	60	232173	01358.png	186.0	25	232175.0	2736	12616
38	01_loc	01	16-10-2019	14:57:08:465	rl	loc	3249	3249	60	232372	01363.png	191.0	25	232375.0	80	3851
39	01_loc	01	16-10-2019	14:57:08:664	rl	loc	3259	3259	60	232571	01368.png	196.0	25	232575.0	153	5557
40	01_loc	01	16-10-2019	14:57:08:864	rl	loc	3271	3271	60	232770	01373.png	201.0	25	232775.0	-16	4887
41	01_loc	01	16-10-2019	14:57:09:063	rl	loc	3283	3283	60	232969	01378.png	206.0	25	232975.0	244	6425
42	01_loc	01	16-10-2019	14:57:09:262	rl	loc	3295	3295	60	233168	01383.png	211.0	25	233175.0	751	7736
43	01_loc	01	16-10-2019	14:57:09:461	rl	loc	3307	3307	60	233367	01388.png	216.0	25	233375.0	-196	3877
44	01_loc	01	16-10-2019	14:57:09:660	rl	loc	3319	3319	60	233567	01393.png	221.0	25	233575.0	-273	3935
45	01_loc	01	16-10-2019	14:57:09:876	rl	loc	3332	3332	60	233782	01398.png	226.0	25	233775.0	4871	3701
46	01_loc	01	16-10-2019	14:57:10:075	rl	loc	3344	3344	60	233982	01403.png	231.0	25	233975.0	352	2035
47	01_loc	01	16-10-2019	14:57:10:274	rl	loc	3356	3356	60	234181	01408.png	236.0	25	234175.0	-9	4364
48	01_loc	01	16-10-2019	14:57:10:473	rl	loc	3368	3368	60	234380	01413.png	241.0	25	234375.0	-139	3276
49	01_loc	01	16-10-2019	14:57:10:672	rl	loc	3380	3380	60	234579	01418.png	246.0	25	234575.0	-139	3276
50	01_loc	01	16-10-2019	14:57:10:872	rl	loc	3392	3392	60	234778	01423.png	251.0	25	234775.0	299	1659
51	01_loc	01	16-10-2019	14:57:11:071	rl	loc	3404	3404	60	234977	01428.png	256.0	25	234975.0	-139	3276
52	01_loc	01	16-10-2019	14:57:11:270	rl	loc	3416	3416	60	235177	01433.png	261.0	25	235175.0	0	0
53	01_loc	01	16-10-2019	14:57:11:469	rl	loc	3428	3428	60	235376	01438.png	266.0	25	235375.0	1426	143
54	01_loc	01	16-10-2019	14:57:11:668	rl	loc	3440	3440	60	235575	01443.png	271.0	25	235575.0	0	0
55	01_loc	01	16-10-2019	14:57:11:867	rl	loc	3452	3452	60	235774	01448.png	276.0	25	235775.0	0	0
56	01_loc	01	16-10-2019	14:57:12:067	rl	loc	3464	3464	60	235973	01453.png	281.0	25	235975.0	-577	-590
57	01_loc	01	16-10-2019	14:57:12:266	rl	loc	3476	3476	60	236173	01458.png	286.0	25	236175.0	3220	7703
58	01_loc	01	16-10-2019	14:57:12:465	rl	loc	3488	3488	60	236372	01463.png	291.0	25	236375.0	0	0
59	01_loc	01	16-10-2019	14:57:12:664	rl	loc	3499	3499	60	236571	01468.png	296.0	25	236575.0	0	0
60	01_loc	01	16-10-2019	14:57:12:863	rl	loc	3511	3511	60	236770	01473.png	301.0	25	236775.0	0	0
61	01_loc	01	16-10-2019	14:57:13:062	rl	loc	3522	3522	60	236969	01478.png	306.0	25	236975.0	0	0
62	01_loc	01	16-10-2019	14:57:13:261	rl	loc	3534	3534	60	237168	01483.png	311.0	25	237175.0	3355	3331
63	01_loc	01	16-10-2019	14:57:13:461	rl	loc	3546	3546	60	237367	01488.png	316.0	25	237375.0	0	0
64	01_loc	01	16-10-2019	14:57:13:676	rl	loc	3559	3559	60	237583	01493.png	321.0	25	237575.0	416	-107715
65	01_loc	01	16-10-2019	14:57:13:875	rl	loc	3571	3571	60	237782	01498.png	326.0	25	237775.0	3116	2436
66	01_loc	01	16-10-2019	14:57:14:075	rl	loc	3583	3583	60	237981	01503.png	331.0	25	237975.0	645	1478
67	01_loc	01	16-10-2019	14:57:14:273	rl	loc	3595	3595	60	238180	01508.png	336.0	25	238175.0	0	0
68	01_loc	01	16-10-2019	14:57:14:473	rl	loc	3607	3607	60	238380	01513.png	341.0	25	238375.0	0	0
69	01_loc	01	16-10-2019	14:57:14:672	rl	loc	3619	3619	60	238579	01518.png	346.0	25	238575.0	0	0
70	01_loc	01	16-10-2019	14:57:14:871	rl	loc	3631	3631	60	238778	01523.png	351.0	25	238775.0	8903	-10375
71	01_loc	01	16-10-2019	14:57:15:070	rl	loc	3643	3643	60	238977	01528.png	356.0	25	238975.0	1599	2596
72	01_loc	01	16-10-2019	14:57:15:270	rl	loc	3655	3655	60	239176	01533.png	361.0	25	239175.0	915	1803
73	01_loc	01	16-10-2019	14:57:15:469	rl	loc	3667	3667	60	239375	01538.png	366.0	25	239375.0	-1573	-1695
74	01_loc	01	16-10-2019	14:57:15:668	rl	loc	3679	3679	60	239574	01543.png	371.0	25	239575.0	1626	4575
75	01_loc	01	16-10-2019	14:57:15:867	rl	loc	3691	3691	60	239774	01548.png	376.0	25	239775.0	821	4389
76	01_loc	01	16-10-2019	14:57:16:066	rl	loc	3703	3703	60	239973	01553.png	381.0	25	239975.0	1704	3914
77	01_loc	01	16-10-2019	14:57:16:265	rl	loc	3715	3715	60	240172	01558.png	386.0	25	240175.0	-822	-1700
78	01_loc	01	16-10-2019	14:57:16:464	rl	loc	3725	3725	60	240371	01563.png	391.0	25	240375.0	4891	184
79	01_loc	01	16-10-2019	14:57:16:664	rl	loc	3737	3737	60	240570	01568.png	396.0	25	240575.0	509	232
80	01_loc	01	16-10-2019	14:57:16:863	rl	loc	3749	3749	60	240769	01573.png	401.0	25	240775.0	0	0
81	01_loc	01	16-10-2019	14:57:17:062	rl	loc	3761	3761	60	240968	01578.png	406.0	25	240975.0	572	-91
82	01_loc	01	16-10-2019	14:57:17:261	rl	loc	3773	3773	60	241168	01583.png	411.0	25	241175.0	1801	-1022
83	01_loc	01	16-10-2019	14:57:17:460	rl	loc	3785	3785	60	241367	01588.png	416.0	25	241375.0	-36803	-131060
84	01_loc	01	16-10-2019	14:57:17:676	rl	loc	3798	3798	60	241582	01593.png	421.0	25	241575.0	-6566	-19464
85	01_loc	01	16-10-2019	14:57:17:875	rl	loc	3810	3810	60	241782	01598.png	426.0	25	241775.0	1656	1297
86	01_loc	01	16-10-2019	14:57:18:074	rl	loc	3822	3822	60	241981	01603.png	431.0	25	241975.0	0	0
87	01_loc	01	16-10-2019	14:57:18:273	rl	loc	3834	3834	60	242180	01608.png	436.0	25	242175.0	-45113	49276
88	01_loc	01	16-10-2019	14:57:18:472	rl	loc	3846	3846	60	242379	01613.png	441.0	25	242375.0	0	0
89	01_loc	01	16-10-2019	14:57:18:671	rl	loc	3858	3858	60	242578	01618.png	446.0	25	242575.0	0	0
90	01_loc	01	16-10-2019	14:57:18:871	rl	loc	3870	3870	60	242777	01623.png	451.0	25	242775.0	1288	767
91	01_loc	01	16-10-2019	14:57:19:070	rl	loc	3882	3882	60	242976	01628.png	456.0	25	242975.0	539	1088
92	01_loc	01	16-10-2019	14:57:19:269	rl	loc	3894	3894	60	243175	01633.png	461.0	25	243175.0	458	6813
93	01_loc	01	16-10-2019	14:57:19:468	rl	loc	3906	3906	60	243375	01638.png	466.0	25	243375.0	468	242
94	01_loc	01	16-10-2019	14:57:19:668	rl	loc	3918	3918	60	243574	01643.png	471.0	25	243575.0	0	0
95	01_loc	01	16-10-2019	14:57:19:866	rl	loc	3930	3930	60	243773	01648.png	476.0	25	243775.0	0	0
96	01_loc	01	16-10-2019	14:57:20:066	rl	loc	3942	3942	60	243972	01653.png	481.0	25	243975.0	365	223
97	01_loc	01	16-10-2019	14:57:20:265	rl	loc	3953	3953	60	244171	01658.png	486.0	25	244175.0	0	0
98	01_loc	01	16-10-2019	14:57:20:464	rl	loc	3965	3965	60	244371	01663.png	491.0	25	244375.0	686	202
99	01_loc	01	16-10-2019	14:57:20:663	rl	loc	3977	3977	60	244570	01668.png	496.0	25	244575.0	579	3533
100	01_loc	01	16-10-2019	14:57:20:862	rl	loc	3989	3989	60	244769	01673.png	501.0	25	244775.0	0	0
101	01_loc	01	16-10-2019	14:57:21:061	rl	loc	4001	4001	60	244968	01678.png	506.0	25	244975.0	1171	-4697
102	01_loc	01	16-10-2019	14:57:21:260	rl	loc	4013	4013	60	245167	01683.png	511.0	25	245175.0	1278	-744
103	01_loc	01	16-10-2019	14:57:21:476	rl	loc	4026	4026	60	245383	01688.png	516.0	25	245375.0	2436	1023
104	01_loc	01	16-10-2019	14:57:21:675	rl	loc	4038	4038	60	245582	01693.png	521.0	25	245575.0	884	4217
105	01_loc	01	16-10-2019	14:57:21:874	rl	loc	4050	4050	60	245781	01698.png	526.0	25	245775.0	950	379
106	01_loc	01	16-10-2019	14:57:22:074	rl	loc	4062	4062	60	245980	01703.png	531.0	25	245975.0	918	457
107	01_loc	01	16-10-2019	14:57:22:273	rl	loc	4074	4074	60	246180	01708.png	536.0	25	246175.0	918	457
108	01_loc	01	16-10-2019	14:57:22:472	rl	loc	4086	4086	60	246379	01713.png	541.0	25	246375.0	950	379
109	01_loc	01	16-10-2019	14:57:22:671	rl	loc	4098	4098	60	246578	01718.png	546.0	25	246575.0	950	379
110	01_loc	01	16-10-2019	14:57:22:870	rl	loc	4110	4110	60	246777	01723.png	551.0	25	246775.0	948	382
111	01_loc	01	16-10-2019	14:57:23:069	rl	loc	4122	4122	60	246976	01728.png	556.0	25	246975.0	947	383
112	01_loc	01	16-10-2019	14:57:23:269	rl	loc	4134	4134	60	247175	01733.png	561.0	25	247175.0	982	301
113	01_loc	01	16-10-2019	14:57:23:468	rl	loc	4146	4146	60	247374	01738.png	566.0	25	247375.0	0	0
114	01_loc	01	16-10-2019	14:57:23:667	rl	loc	4158	4158	60	247573	01743.png	571.0	25	247575.0	4201	8258
115	01_loc	01	16-10-2019	14:57:23:866	rl	loc	4170	4170	60	247773	01748.png	576.0	25	247775.0	982	301
116	01_loc	01	16-10-2019	14:57:24:082	rl	loc	4182	4182	60	247988	01753.png	581.0	25	247975.0	734	219
117	01_loc	01	16-10-2019	14:57:24:264	rl	loc	4192	4192	60	248171	01758.png	586.0	25	248175.0	4201	8258
118	01_loc	01	16-10-2019	14:57:24:463	rl	loc	4204	4204	60	248370	01763.png	591.0	25	248375.0	0	0
119	01_loc	01	16-10-2019	14:57:24:663	rl	loc	4216	4216	60	248569	01768.png	596.0	25	248575.0	7419	16215
120	01_loc	01	16-10-2019	14:57:24:862	rl	loc	4228	4228	60	248768	01773.png	601.0	25	248775.0	4201	8258
121	01_loc	01	16-10-2019	14:57:25:061	rl	loc	4240	4240	60	248967	01778.png	606.0	25	248975.0	0	0
122	01_loc	01	16-10-2019	14:57:25:260	rl	loc	4252	4252	60	249167	01783.png	611.0	25	249175.0	982	301
123	01_loc	01	16-10-2019	14:57:25:476	rl	loc	4265	4265	60	249382	01788.png	616.0	25	249375.0	0	0
124	01_loc	01	16-10-2019	14:57:25:675	rl	loc	4277	4277	60	249581	01793.png	621.0	25	249575.0	0	0
125	01_loc	01	16-10-2019	14:57:25:874	rl	loc	4289	4289	60	249781	01798.png	626.0	25	249775.0	415	127
126	01_loc	01	16-10-2019	14:57:26:073	rl	loc	4301	4301	60	249980	01803.png	631.0	25	249975.0	139	1442
127	01_loc	01	16-10-2019	14:57:26:272	rl	loc	4313	4313	60	250179	01808.png	636.0	25	250175.0	1501	3233
128	01_loc	01	16-10-2019	14:57:26:471	rl	loc	4325	4325	60	250378	01813.png	641.0	25	250375.0	1580	3956
129	01_loc	01	16-10-2019	14:57:26:670	rl	loc	4337	4337	60	250577	01818.png	646.0	25	250575.0	284	1347
130	01_loc	01	16-10-2019	14:57:26:869	rl	loc	4349	4349	60	250776	01823.png	651.0	25	250775.0	654	2559
131	01_loc	01	16-10-2019	14:57:27:069	rl	loc	4361	4361	60	250976	01828.png	656.0	25	250975.0	4214	3508
132	01_loc	01	16-10-2019	14:57:27:268	rl	loc	4373	4373	60	251175	01833.png	661.0	25	251175.0	-1483	8487
133	01_loc	01	16-10-2019	14:57:27:467	rl	loc	4385	4385	60	251374	01838.png	666.0	25	251375.0	493	498
134	01_loc	01	16-10-2019	14:57:27:666	rl	loc	4397	4397	60	251573	01843.png	671.0	25	251575.0	12827	8173
135	01_loc	01	16-10-2019	14:57:27:865	rl	loc	4409	4409	60	251772	01848.png	676.0	25	251775.0	1723	11949
136	01_loc	01	16-10-2019	14:57:28:064	rl	loc	4419	4419	60	251971	01853.png	681.0	25	251975.0	45	1127
137	01_loc	01	16-10-2019	14:57:28:264	rl	loc	4431	4431	60	252170	01858.png	686.0	25	252175.0	4905	5819
138	01_loc	01	16-10-2019	14:57:28:463	rl	loc	4443	4443	60	252370	01863.png	691.0	25	252375.0	-755	-3417
139	01_loc	01	16-10-2019	14:57:28:662	rl	loc	4455	4455	60	252568	01868.png	696.0	25	252575.0	634	-592
140	01_loc	01	16-10-2019	14:57:28:861	rl	loc	4467	4467	60	252768	01873.png	701.0	25	252775.0	1162	1126
141	01_loc	01	16-10-2019	14:57:29:060	rl	loc	4479	4479	60	252967	01878.png	706.0	25	252975.0	0	0
142	01_loc	01	16-10-2019	14:57:29:276	rl	loc	4492	4492	60	253183	01883.png	711.0	25	253175.0	-622	718
143	01_loc	01	16-10-2019	14:57:29:475	rl	loc	4504	4504	60	253381	01888.png	716.0	25	253375.0	-917	2939
144	01_loc	01	16-10-2019	14:57:29:674	rl	loc	4516	4516	60	253581	01893.png	721.0	25	253575.0	344403	109996
145	01_loc	01	16-10-2019	14:57:29:873	rl	loc	4528	4528	60	253780	01898.png	726.0	25	253775.0	-2941	5990
146	01_loc	01	16-10-2019	14:57:30:073	rl	loc	4540	4540	60	253979	01903.png	731.0	25	253975.0	-2024	4095
147	01_loc	01	16-10-2019	14:57:30:272	rl	loc	4552	4552	60	254178	01908.png	736.0	25	254175.0	-869	-4379
148	01_loc	01	16-10-2019	14:57:30:471	rl	loc	4564	4564	60	254378	01913.png	741.0	25	254375.0	23	-341
149	01_loc	01	16-10-2019	14:57:30:670	rl	loc	4576	4576	60	254576	01918.png	746.0	25	254575.0	36	-15
