	subject_location	subject_id	date	daytime	setting_id	trial_id	sample_id	sample_n	sample_rate	sample_time_smi	frame_id	frame_n	frame_rate	frame_time_smi	fix_pos_x	fix_pos_y
0	09_bac	09	18-10-2019	19:33:17:054	rl	bac	757	757	60	99670	00317.png	1.0	25	99671.0	393	356
1	09_bac	09	18-10-2019	19:33:17:253	rl	bac	768	768	60	99870	00322.png	6.0	25	99871.0	403	312
2	09_bac	09	18-10-2019	19:33:17:452	rl	bac	780	780	60	100069	00327.png	11.0	25	100071.0	1352	1179
3	09_bac	09	18-10-2019	19:33:17:651	rl	bac	792	792	60	100268	00332.png	16.0	25	100271.0	1100	757
4	09_bac	09	18-10-2019	19:33:17:850	rl	bac	804	804	60	100467	00337.png	21.0	25	100471.0	710	623
5	09_bac	09	18-10-2019	19:33:18:050	rl	bac	816	816	60	100666	00342.png	26.0	25	100671.0	477	359
6	09_bac	09	18-10-2019	19:33:18:249	rl	bac	828	828	60	100865	00347.png	31.0	25	100871.0	514	350
7	09_bac	09	18-10-2019	19:33:18:448	rl	bac	840	840	60	101065	00352.png	36.0	25	101071.0	371	1445
8	09_bac	09	18-10-2019	19:33:18:647	rl	bac	852	852	60	101264	00357.png	41.0	25	101271.0	477	378
9	09_bac	09	18-10-2019	19:33:18:846	rl	bac	864	864	60	101463	00362.png	46.0	25	101471.0	410	4131
10	09_bac	09	18-10-2019	19:33:19:063	rl	bac	877	877	60	101679	00367.png	51.0	25	101671.0	352	301
11	09_bac	09	18-10-2019	19:33:19:261	rl	bac	889	889	60	101877	00372.png	56.0	25	101871.0	534	417
12	09_bac	09	18-10-2019	19:33:19:460	rl	bac	901	901	60	102077	00377.png	61.0	25	102071.0	582	476
13	09_bac	09	18-10-2019	19:33:19:660	rl	bac	913	913	60	102276	00382.png	66.0	25	102271.0	532	442
14	09_bac	09	18-10-2019	19:33:19:859	rl	bac	925	925	60	102475	00387.png	71.0	25	102471.0	453	3797
15	09_bac	09	18-10-2019	19:33:20:058	rl	bac	937	937	60	102674	00392.png	76.0	25	102671.0	651	3807
16	09_bac	09	18-10-2019	19:33:20:257	rl	bac	949	949	60	102873	00397.png	81.0	25	102871.0	129	352
17	09_bac	09	18-10-2019	19:33:20:456	rl	bac	961	961	60	103072	00402.png	86.0	25	103071.0	791	3226
18	09_bac	09	18-10-2019	19:33:20:655	rl	bac	973	973	60	103272	00407.png	91.0	25	103271.0	292	520
19	09_bac	09	18-10-2019	19:33:20:854	rl	bac	985	985	60	103471	00412.png	96.0	25	103471.0	32	446
20	09_bac	09	18-10-2019	19:33:21:070	rl	bac	997	997	60	103686	00417.png	101.0	25	103671.0	490	398
21	09_bac	09	18-10-2019	19:33:21:253	rl	bac	1006	1006	60	103869	00422.png	106.0	25	103871.0	593	500
22	09_bac	09	18-10-2019	19:33:21:452	rl	bac	1018	1018	60	104068	00427.png	111.0	25	104071.0	1541	1509
23	09_bac	09	18-10-2019	19:33:21:651	rl	bac	1030	1030	60	104268	00432.png	116.0	25	104271.0	866	690
24	09_bac	09	18-10-2019	19:33:21:850	rl	bac	1042	1042	60	104466	00437.png	121.0	25	104471.0	714	603
25	09_bac	09	18-10-2019	19:33:22:049	rl	bac	1054	1054	60	104666	00442.png	126.0	25	104671.0	688	607
26	09_bac	09	18-10-2019	19:33:22:248	rl	bac	1066	1066	60	104865	00447.png	131.0	25	104871.0	762	719
27	09_bac	09	18-10-2019	19:33:22:447	rl	bac	1078	1078	60	105064	00452.png	136.0	25	105071.0	721	739
28	09_bac	09	18-10-2019	19:33:22:647	rl	bac	1090	1090	60	105263	00457.png	141.0	25	105271.0	637	675
29	09_bac	09	18-10-2019	19:33:22:862	rl	bac	1103	1103	60	105479	00462.png	146.0	25	105471.0	543	605
30	09_bac	09	18-10-2019	19:33:23:061	rl	bac	1115	1115	60	105678	00467.png	151.0	25	105671.0	448	501
31	09_bac	09	18-10-2019	19:33:23:261	rl	bac	1127	1127	60	105877	00472.png	156.0	25	105871.0	534	546
32	09_bac	09	18-10-2019	19:33:23:460	rl	bac	1139	1139	60	106076	00477.png	161.0	25	106071.0	0	0
33	09_bac	09	18-10-2019	19:33:23:659	rl	bac	1151	1151	60	106276	00482.png	166.0	25	106271.0	5676	11479
34	09_bac	09	18-10-2019	19:33:23:859	rl	bac	1163	1163	60	106475	00487.png	171.0	25	106471.0	766	3504
35	09_bac	09	18-10-2019	19:33:24:057	rl	bac	1175	1175	60	106674	00492.png	176.0	25	106671.0	493	1871
36	09_bac	09	18-10-2019	19:33:24:256	rl	bac	1187	1187	60	106873	00497.png	181.0	25	106871.0	754	243
37	09_bac	09	18-10-2019	19:33:24:456	rl	bac	1199	1199	60	107072	00502.png	186.0	25	107071.0	519	1353
38	09_bac	09	18-10-2019	19:33:24:655	rl	bac	1211	1211	60	107271	00507.png	191.0	25	107271.0	550	952
39	09_bac	09	18-10-2019	19:33:24:854	rl	bac	1223	1223	60	107470	00512.png	196.0	25	107471.0	722	486
40	09_bac	09	18-10-2019	19:33:25:053	rl	bac	1234	1234	60	107669	00517.png	201.0	25	107671.0	653	627
41	09_bac	09	18-10-2019	19:33:25:252	rl	bac	1246	1246	60	107869	00522.png	206.0	25	107871.0	707	568
42	09_bac	09	18-10-2019	19:33:25:451	rl	bac	1258	1258	60	108068	00527.png	211.0	25	108071.0	1196	4984
43	09_bac	09	18-10-2019	19:33:25:651	rl	bac	1270	1270	60	108267	00532.png	216.0	25	108271.0	670	589
44	09_bac	09	18-10-2019	19:33:25:849	rl	bac	1282	1282	60	108466	00537.png	221.0	25	108471.0	633	768
45	09_bac	09	18-10-2019	19:33:26:049	rl	bac	1294	1294	60	108665	00542.png	226.0	25	108671.0	3299	4135
46	09_bac	09	18-10-2019	19:33:26:248	rl	bac	1306	1306	60	108864	00547.png	231.0	25	108871.0	1304	3316
47	09_bac	09	18-10-2019	19:33:26:447	rl	bac	1318	1318	60	109063	00552.png	236.0	25	109071.0	897	915
48	09_bac	09	18-10-2019	19:33:26:646	rl	bac	1330	1330	60	109263	00557.png	241.0	25	109271.0	347	385
49	09_bac	09	18-10-2019	19:33:26:862	rl	bac	1343	1343	60	109479	00562.png	246.0	25	109471.0	1039	905
50	09_bac	09	18-10-2019	19:33:27:061	rl	bac	1355	1355	60	109678	00567.png	251.0	25	109671.0	1772	2503
51	09_bac	09	18-10-2019	19:33:27:261	rl	bac	1367	1367	60	109877	00572.png	256.0	25	109871.0	570	805
52	09_bac	09	18-10-2019	19:33:27:459	rl	bac	1379	1379	60	110076	00577.png	261.0	25	110071.0	1018	852
53	09_bac	09	18-10-2019	19:33:27:658	rl	bac	1391	1391	60	110275	00582.png	266.0	25	110271.0	1406	1659
54	09_bac	09	18-10-2019	19:33:27:858	rl	bac	1403	1403	60	110474	00587.png	271.0	25	110471.0	764	719
55	09_bac	09	18-10-2019	19:33:28:057	rl	bac	1415	1415	60	110673	00592.png	276.0	25	110671.0	867	803
56	09_bac	09	18-10-2019	19:33:28:256	rl	bac	1427	1427	60	110872	00597.png	281.0	25	110871.0	821	816
57	09_bac	09	18-10-2019	19:33:28:455	rl	bac	1439	1439	60	111072	00602.png	286.0	25	111071.0	766	772
58	09_bac	09	18-10-2019	19:33:28:654	rl	bac	1451	1451	60	111271	00607.png	291.0	25	111271.0	750	733
59	09_bac	09	18-10-2019	19:33:28:853	rl	bac	1462	1462	60	111470	00612.png	296.0	25	111471.0	772	749
60	09_bac	09	18-10-2019	19:33:29:053	rl	bac	1472	1472	60	111669	00617.png	301.0	25	111671.0	2105	2541
61	09_bac	09	18-10-2019	19:33:29:252	rl	bac	1484	1484	60	111868	00622.png	306.0	25	111871.0	1817	2823
62	09_bac	09	18-10-2019	19:33:29:451	rl	bac	1496	1496	60	112067	00627.png	311.0	25	112071.0	1500	1590
63	09_bac	09	18-10-2019	19:33:29:650	rl	bac	1508	1508	60	112267	00632.png	316.0	25	112271.0	611	598
64	09_bac	09	18-10-2019	19:33:29:849	rl	bac	1520	1520	60	112466	00637.png	321.0	25	112471.0	297	969
65	09_bac	09	18-10-2019	19:33:30:048	rl	bac	1532	1532	60	112665	00642.png	326.0	25	112671.0	874	711
66	09_bac	09	18-10-2019	19:33:30:248	rl	bac	1544	1544	60	112864	00647.png	331.0	25	112871.0	0	0
67	09_bac	09	18-10-2019	19:33:30:447	rl	bac	1556	1556	60	113063	00652.png	336.0	25	113071.0	107	8426
68	09_bac	09	18-10-2019	19:33:30:662	rl	bac	1569	1569	60	113279	00657.png	341.0	25	113271.0	1233	2223
69	09_bac	09	18-10-2019	19:33:30:861	rl	bac	1581	1581	60	113478	00662.png	346.0	25	113471.0	1223	4910
70	09_bac	09	18-10-2019	19:33:31:061	rl	bac	1593	1593	60	113677	00667.png	351.0	25	113671.0	3215	6030
71	09_bac	09	18-10-2019	19:33:31:260	rl	bac	1605	1605	60	113876	00672.png	356.0	25	113871.0	0	0
72	09_bac	09	18-10-2019	19:33:31:459	rl	bac	1617	1617	60	114075	00677.png	361.0	25	114071.0	0	0
73	09_bac	09	18-10-2019	19:33:31:658	rl	bac	1629	1629	60	114275	00682.png	366.0	25	114271.0	667	735
74	09_bac	09	18-10-2019	19:33:31:857	rl	bac	1641	1641	60	114474	00687.png	371.0	25	114471.0	0	0
75	09_bac	09	18-10-2019	19:33:32:056	rl	bac	1653	1653	60	114673	00692.png	376.0	25	114671.0	1183	716
76	09_bac	09	18-10-2019	19:33:32:256	rl	bac	1665	1665	60	114872	00697.png	381.0	25	114871.0	822	485
77	09_bac	09	18-10-2019	19:33:32:455	rl	bac	1677	1677	60	115071	00702.png	386.0	25	115071.0	759	514
78	09_bac	09	18-10-2019	19:33:32:654	rl	bac	1689	1689	60	115270	00707.png	391.0	25	115271.0	943	619
79	09_bac	09	18-10-2019	19:33:32:870	rl	bac	1698	1698	60	115486	00712.png	396.0	25	115471.0	675	542
80	09_bac	09	18-10-2019	19:33:33:052	rl	bac	1709	1709	60	115668	00717.png	401.0	25	115671.0	695	638
81	09_bac	09	18-10-2019	19:33:33:251	rl	bac	1721	1721	60	115868	00722.png	406.0	25	115871.0	678	623
82	09_bac	09	18-10-2019	19:33:33:450	rl	bac	1733	1733	60	116067	00727.png	411.0	25	116071.0	807	692
83	09_bac	09	18-10-2019	19:33:33:650	rl	bac	1745	1745	60	116266	00732.png	416.0	25	116271.0	893	845
84	09_bac	09	18-10-2019	19:33:33:849	rl	bac	1757	1757	60	116465	00737.png	421.0	25	116471.0	977	1004
85	09_bac	09	18-10-2019	19:33:34:048	rl	bac	1769	1769	60	116664	00742.png	426.0	25	116671.0	1089	1258
86	09_bac	09	18-10-2019	19:33:34:247	rl	bac	1781	1781	60	116863	00747.png	431.0	25	116871.0	929	1189
87	09_bac	09	18-10-2019	19:33:34:463	rl	bac	1794	1794	60	117079	00752.png	436.0	25	117071.0	870	1007
88	09_bac	09	18-10-2019	19:33:34:661	rl	bac	1806	1806	60	117278	00757.png	441.0	25	117271.0	985	1270
89	09_bac	09	18-10-2019	19:33:34:861	rl	bac	1818	1818	60	117477	00762.png	446.0	25	117471.0	842	952
90	09_bac	09	18-10-2019	19:33:35:060	rl	bac	1830	1830	60	117677	00767.png	451.0	25	117671.0	943	1184
91	09_bac	09	18-10-2019	19:33:35:259	rl	bac	1842	1842	60	117876	00772.png	456.0	25	117871.0	979	1299
92	09_bac	09	18-10-2019	19:33:35:459	rl	bac	1854	1854	60	118075	00777.png	461.0	25	118071.0	940	1163
93	09_bac	09	18-10-2019	19:33:35:658	rl	bac	1866	1866	60	118274	00782.png	466.0	25	118271.0	1348	3708
94	09_bac	09	18-10-2019	19:33:35:857	rl	bac	1878	1878	60	118473	00787.png	471.0	25	118471.0	1052	4062
95	09_bac	09	18-10-2019	19:33:36:056	rl	bac	1890	1890	60	118672	00792.png	476.0	25	118671.0	1059	3980
96	09_bac	09	18-10-2019	19:33:36:255	rl	bac	1902	1902	60	118872	00797.png	481.0	25	118871.0	1265	3739
97	09_bac	09	18-10-2019	19:33:36:454	rl	bac	1914	1914	60	119071	00802.png	486.0	25	119071.0	948	3997
98	09_bac	09	18-10-2019	19:33:36:653	rl	bac	1925	1925	60	119270	00807.png	491.0	25	119271.0	995	1687
99	09_bac	09	18-10-2019	19:33:36:852	rl	bac	1936	1936	60	119469	00812.png	496.0	25	119471.0	1133	2491
100	09_bac	09	18-10-2019	19:33:37:051	rl	bac	1948	1948	60	119668	00817.png	501.0	25	119671.0	905	1502
101	09_bac	09	18-10-2019	19:33:37:251	rl	bac	1960	1960	60	119867	00822.png	506.0	25	119871.0	824	1215
102	09_bac	09	18-10-2019	19:33:37:450	rl	bac	1972	1972	60	120066	00827.png	511.0	25	120071.0	826	1195
103	09_bac	09	18-10-2019	19:33:37:649	rl	bac	1984	1984	60	120265	00832.png	516.0	25	120271.0	1177	2550
104	09_bac	09	18-10-2019	19:33:37:848	rl	bac	1996	1996	60	120465	00837.png	521.0	25	120471.0	401	-386
105	09_bac	09	18-10-2019	19:33:38:047	rl	bac	2008	2008	60	120664	00842.png	526.0	25	120671.0	3396	3522
106	09_bac	09	18-10-2019	19:33:38:246	rl	bac	2020	2020	60	120863	00847.png	531.0	25	120871.0	0	0
107	09_bac	09	18-10-2019	19:33:38:462	rl	bac	2033	2033	60	121079	00852.png	536.0	25	121071.0	0	0
108	09_bac	09	18-10-2019	19:33:38:661	rl	bac	2045	2045	60	121278	00857.png	541.0	25	121271.0	211	-146
109	09_bac	09	18-10-2019	19:33:38:860	rl	bac	2057	2057	60	121477	00862.png	546.0	25	121471.0	13978	24828
110	09_bac	09	18-10-2019	19:33:39:060	rl	bac	2069	2069	60	121676	00867.png	551.0	25	121671.0	1049	608
111	09_bac	09	18-10-2019	19:33:39:259	rl	bac	2081	2081	60	121875	00872.png	556.0	25	121871.0	0	0
112	09_bac	09	18-10-2019	19:33:39:458	rl	bac	2093	2093	60	122074	00877.png	561.0	25	122071.0	282	486
113	09_bac	09	18-10-2019	19:33:39:657	rl	bac	2105	2105	60	122273	00882.png	566.0	25	122271.0	189	798
114	09_bac	09	18-10-2019	19:33:39:856	rl	bac	2117	2117	60	122473	00887.png	571.0	25	122471.0	90	1419
115	09_bac	09	18-10-2019	19:33:40:055	rl	bac	2129	2129	60	122672	00892.png	576.0	25	122671.0	1914	2850
116	09_bac	09	18-10-2019	19:33:40:255	rl	bac	2141	2141	60	122871	00897.png	581.0	25	122871.0	371	437
117	09_bac	09	18-10-2019	19:33:40:453	rl	bac	2153	2153	60	123070	00902.png	586.0	25	123071.0	1207	705
118	09_bac	09	18-10-2019	19:33:40:653	rl	bac	2164	2164	60	123269	00907.png	591.0	25	123271.0	945	398
119	09_bac	09	18-10-2019	19:33:40:852	rl	bac	2176	2176	60	123468	00912.png	596.0	25	123471.0	1144	598
120	09_bac	09	18-10-2019	19:33:41:051	rl	bac	2188	2188	60	123668	00917.png	601.0	25	123671.0	1215	314
121	09_bac	09	18-10-2019	19:33:41:250	rl	bac	2200	2200	60	123867	00922.png	606.0	25	123871.0	1750	1718
122	09_bac	09	18-10-2019	19:33:41:449	rl	bac	2212	2212	60	124066	00927.png	611.0	25	124071.0	1784	1976
123	09_bac	09	18-10-2019	19:33:41:649	rl	bac	2224	2224	60	124265	00932.png	616.0	25	124271.0	2352	3004
124	09_bac	09	18-10-2019	19:33:41:848	rl	bac	2236	2236	60	124464	00937.png	621.0	25	124471.0	189	1309
125	09_bac	09	18-10-2019	19:33:42:047	rl	bac	2248	2248	60	124663	00942.png	626.0	25	124671.0	199	2772
126	09_bac	09	18-10-2019	19:33:42:263	rl	bac	2261	2261	60	124879	00947.png	631.0	25	124871.0	1113	3839
127	09_bac	09	18-10-2019	19:33:42:462	rl	bac	2273	2273	60	125078	00952.png	636.0	25	125071.0	749	3850
128	09_bac	09	18-10-2019	19:33:42:661	rl	bac	2285	2285	60	125277	00957.png	641.0	25	125271.0	444	1072
129	09_bac	09	18-10-2019	19:33:42:860	rl	bac	2297	2297	60	125476	00962.png	646.0	25	125471.0	590	903
130	09_bac	09	18-10-2019	19:33:43:059	rl	bac	2309	2309	60	125676	00967.png	651.0	25	125671.0	571	1354
131	09_bac	09	18-10-2019	19:33:43:258	rl	bac	2321	2321	60	125875	00972.png	656.0	25	125871.0	610	1816
132	09_bac	09	18-10-2019	19:33:43:457	rl	bac	2333	2333	60	126074	00977.png	661.0	25	126071.0	1007	848
133	09_bac	09	18-10-2019	19:33:43:657	rl	bac	2345	2345	60	126273	00982.png	666.0	25	126271.0	1421	1651
134	09_bac	09	18-10-2019	19:33:43:856	rl	bac	2357	2357	60	126472	00987.png	671.0	25	126471.0	836	715
135	09_bac	09	18-10-2019	19:33:44:055	rl	bac	2369	2369	60	126671	00992.png	676.0	25	126671.0	0	0
136	09_bac	09	18-10-2019	19:33:44:254	rl	bac	2381	2381	60	126871	00997.png	681.0	25	126871.0	-400	315
137	09_bac	09	18-10-2019	19:33:44:453	rl	bac	2392	2392	60	127070	01002.png	686.0	25	127071.0	603	508
138	09_bac	09	18-10-2019	19:33:44:652	rl	bac	2402	2402	60	127268	01007.png	691.0	25	127271.0	1077	823
139	09_bac	09	18-10-2019	19:33:44:851	rl	bac	2414	2414	60	127468	01012.png	696.0	25	127471.0	1519	1711
140	09_bac	09	18-10-2019	19:33:45:051	rl	bac	2426	2426	60	127667	01017.png	701.0	25	127671.0	1799	3126
141	09_bac	09	18-10-2019	19:33:45:249	rl	bac	2438	2438	60	127866	01022.png	706.0	25	127871.0	1555	1383
142	09_bac	09	18-10-2019	19:33:45:449	rl	bac	2450	2450	60	128065	01027.png	711.0	25	128071.0	0	0
143	09_bac	09	18-10-2019	19:33:45:648	rl	bac	2462	2462	60	128265	01032.png	716.0	25	128271.0	251	414
144	09_bac	09	18-10-2019	19:33:45:847	rl	bac	2474	2474	60	128464	01037.png	721.0	25	128471.0	1184	2128
145	09_bac	09	18-10-2019	19:33:46:046	rl	bac	2486	2486	60	128663	01042.png	726.0	25	128671.0	1614	-4051
146	09_bac	09	18-10-2019	19:33:46:262	rl	bac	2499	2499	60	128879	01047.png	731.0	25	128871.0	885	-505
147	09_bac	09	18-10-2019	19:33:46:461	rl	bac	2511	2511	60	129077	01052.png	736.0	25	129071.0	711	-502
148	09_bac	09	18-10-2019	19:33:46:660	rl	bac	2523	2523	60	129277	01057.png	741.0	25	129271.0	-107	-458
149	09_bac	09	18-10-2019	19:33:46:860	rl	bac	2535	2535	60	129476	01062.png	746.0	25	129471.0	918	858
