	subject_location	subject_id	date	daytime	setting_id	trial_id	sample_id	sample_n	sample_rate	sample_time_smi	frame_id	frame_n	frame_rate	frame_time_smi	fix_pos_x	fix_pos_y
0	41_valpre	41	13-12-2019	16:26:31:150	rl	valpre	11	11	60	53854	00005.png	1.0	25	53847.0	643	182
1	41_valpre	41	13-12-2019	16:26:31:349	rl	valpre	23	23	60	54053	00010.png	6.0	25	54047.0	643	180
2	41_valpre	41	13-12-2019	16:26:31:549	rl	valpre	35	35	60	54252	00015.png	11.0	25	54247.0	644	180
3	41_valpre	41	13-12-2019	16:26:31:747	rl	valpre	47	47	60	54451	00020.png	16.0	25	54447.0	641	192
4	41_valpre	41	13-12-2019	16:26:31:947	rl	valpre	59	59	60	54650	00025.png	21.0	25	54647.0	637	198
5	41_valpre	41	13-12-2019	16:26:32:146	rl	valpre	71	71	60	54849	00030.png	26.0	25	54847.0	642	183
6	41_valpre	41	13-12-2019	16:26:32:345	rl	valpre	83	83	60	55048	00035.png	31.0	25	55047.0	641	187
7	41_valpre	41	13-12-2019	16:26:32:544	rl	valpre	95	95	60	55248	00040.png	36.0	25	55247.0	641	186
8	41_valpre	41	13-12-2019	16:26:32:744	rl	valpre	107	107	60	55447	00045.png	41.0	25	55447.0	638	190
9	41_valpre	41	13-12-2019	16:26:32:943	rl	valpre	119	119	60	55646	00050.png	46.0	25	55647.0	639	189
10	41_valpre	41	13-12-2019	16:26:33:142	rl	valpre	131	131	60	55845	00055.png	51.0	25	55847.0	639	192
11	41_valpre	41	13-12-2019	16:26:33:341	rl	valpre	143	143	60	56044	00060.png	56.0	25	56047.0	641	188
12	41_valpre	41	13-12-2019	16:26:33:541	rl	valpre	155	155	60	56244	00065.png	61.0	25	56247.0	645	174
13	41_valpre	41	13-12-2019	16:26:33:739	rl	valpre	167	167	60	56443	00070.png	66.0	25	56447.0	645	179
14	41_valpre	41	13-12-2019	16:26:33:938	rl	valpre	179	179	60	56642	00075.png	71.0	25	56647.0	646	180
15	41_valpre	41	13-12-2019	16:26:34:137	rl	valpre	191	191	60	56841	00080.png	76.0	25	56847.0	646	186
16	41_valpre	41	13-12-2019	16:26:34:336	rl	valpre	202	202	60	57040	00085.png	81.0	25	57047.0	641	198
17	41_valpre	41	13-12-2019	16:26:34:536	rl	valpre	211	211	60	57240	00090.png	86.0	25	57247.0	644	194
18	41_valpre	41	13-12-2019	16:26:34:751	rl	valpre	224	224	60	57455	00095.png	91.0	25	57447.0	645	195
19	41_valpre	41	13-12-2019	16:26:34:951	rl	valpre	236	236	60	57655	00100.png	96.0	25	57647.0	644	196
20	41_valpre	41	13-12-2019	16:26:35:150	rl	valpre	248	248	60	57853	00105.png	101.0	25	57847.0	643	200
21	41_valpre	41	13-12-2019	16:26:35:349	rl	valpre	260	260	60	58052	00110.png	106.0	25	58047.0	643	198
22	41_valpre	41	13-12-2019	16:26:35:548	rl	valpre	272	272	60	58252	00115.png	111.0	25	58247.0	638	206
23	41_valpre	41	13-12-2019	16:26:35:747	rl	valpre	284	284	60	58451	00120.png	116.0	25	58447.0	635	211
24	41_valpre	41	13-12-2019	16:26:35:946	rl	valpre	296	296	60	58650	00125.png	121.0	25	58647.0	636	211
25	41_valpre	41	13-12-2019	16:26:36:145	rl	valpre	308	308	60	58849	00130.png	126.0	25	58847.0	638	208
26	41_valpre	41	13-12-2019	16:26:36:345	rl	valpre	320	320	60	59048	00135.png	131.0	25	59047.0	636	208
27	41_valpre	41	13-12-2019	16:26:36:544	rl	valpre	332	332	60	59247	00140.png	136.0	25	59247.0	635	205
28	41_valpre	41	13-12-2019	16:26:36:743	rl	valpre	344	344	60	59447	00145.png	141.0	25	59447.0	632	212
29	41_valpre	41	13-12-2019	16:26:36:942	rl	valpre	356	356	60	59646	00150.png	146.0	25	59647.0	632	219
30	41_valpre	41	13-12-2019	16:26:37:141	rl	valpre	368	368	60	59845	00155.png	151.0	25	59847.0	636	216
31	41_valpre	41	13-12-2019	16:26:37:340	rl	valpre	380	380	60	60044	00160.png	156.0	25	60047.0	0	0
32	41_valpre	41	13-12-2019	16:26:37:539	rl	valpre	392	392	60	60243	00165.png	161.0	25	60247.0	569	382
33	41_valpre	41	13-12-2019	16:26:37:739	rl	valpre	404	404	60	60442	00170.png	166.0	25	60447.0	596	314
34	41_valpre	41	13-12-2019	16:26:37:938	rl	valpre	416	416	60	60641	00175.png	171.0	25	60647.0	625	250
35	41_valpre	41	13-12-2019	16:26:38:137	rl	valpre	428	428	60	60840	00180.png	176.0	25	60847.0	636	232
36	41_valpre	41	13-12-2019	16:26:38:336	rl	valpre	438	438	60	61040	00185.png	181.0	25	61047.0	633	238
37	41_valpre	41	13-12-2019	16:26:38:535	rl	valpre	449	449	60	61239	00190.png	186.0	25	61247.0	627	250
38	41_valpre	41	13-12-2019	16:26:38:751	rl	valpre	462	462	60	61455	00195.png	191.0	25	61447.0	629	249
39	41_valpre	41	13-12-2019	16:26:38:950	rl	valpre	474	474	60	61654	00200.png	196.0	25	61647.0	631	246
40	41_valpre	41	13-12-2019	16:26:39:149	rl	valpre	486	486	60	61853	00205.png	201.0	25	61847.0	633	246
41	41_valpre	41	13-12-2019	16:26:39:348	rl	valpre	498	498	60	62052	00210.png	206.0	25	62047.0	631	249
42	41_valpre	41	13-12-2019	16:26:39:548	rl	valpre	510	510	60	62251	00215.png	211.0	25	62247.0	629	248
43	41_valpre	41	13-12-2019	16:26:39:746	rl	valpre	522	522	60	62450	00220.png	216.0	25	62447.0	634	241
44	41_valpre	41	13-12-2019	16:26:39:946	rl	valpre	534	534	60	62650	00225.png	221.0	25	62647.0	632	242
45	41_valpre	41	13-12-2019	16:26:40:145	rl	valpre	546	546	60	62849	00230.png	226.0	25	62847.0	627	250
46	41_valpre	41	13-12-2019	16:26:40:344	rl	valpre	558	558	60	63048	00235.png	231.0	25	63047.0	624	256
47	41_valpre	41	13-12-2019	16:26:40:544	rl	valpre	570	570	60	63247	00240.png	236.0	25	63247.0	626	255
48	41_valpre	41	13-12-2019	16:26:40:742	rl	valpre	582	582	60	63446	00245.png	241.0	25	63447.0	626	250
49	41_valpre	41	13-12-2019	16:26:40:941	rl	valpre	594	594	60	63645	00250.png	246.0	25	63647.0	625	256
50	41_valpre	41	13-12-2019	16:26:41:140	rl	valpre	606	606	60	63844	00255.png	251.0	25	63847.0	622	263
51	41_valpre	41	13-12-2019	16:26:41:340	rl	valpre	618	618	60	64044	00260.png	256.0	25	64047.0	623	262
52	41_valpre	41	13-12-2019	16:26:41:539	rl	valpre	630	630	60	64242	00265.png	261.0	25	64247.0	616	271
53	41_valpre	41	13-12-2019	16:26:41:738	rl	valpre	642	642	60	64442	00270.png	266.0	25	64447.0	617	271
54	41_valpre	41	13-12-2019	16:26:41:937	rl	valpre	654	654	60	64641	00275.png	271.0	25	64647.0	619	268
55	41_valpre	41	13-12-2019	16:26:42:153	rl	valpre	666	666	60	64857	00280.png	276.0	25	64847.0	528	507
56	41_valpre	41	13-12-2019	16:26:42:335	rl	valpre	677	677	60	65039	00285.png	281.0	25	65047.0	514	499
57	41_valpre	41	13-12-2019	16:26:42:551	rl	valpre	690	690	60	65255	00290.png	286.0	25	65247.0	529	464
58	41_valpre	41	13-12-2019	16:26:42:750	rl	valpre	702	702	60	65454	00295.png	291.0	25	65447.0	551	412
59	41_valpre	41	13-12-2019	16:26:42:950	rl	valpre	714	714	60	65653	00300.png	296.0	25	65647.0	570	368
60	41_valpre	41	13-12-2019	16:26:43:149	rl	valpre	726	726	60	65852	00305.png	301.0	25	65847.0	568	373
61	41_valpre	41	13-12-2019	16:26:43:348	rl	valpre	738	738	60	66052	00310.png	306.0	25	66047.0	570	374
62	41_valpre	41	13-12-2019	16:26:43:547	rl	valpre	750	750	60	66251	00315.png	311.0	25	66247.0	574	367
63	41_valpre	41	13-12-2019	16:26:43:746	rl	valpre	762	762	60	66450	00320.png	316.0	25	66447.0	571	376
64	41_valpre	41	13-12-2019	16:26:43:945	rl	valpre	774	774	60	66649	00325.png	321.0	25	66647.0	567	384
65	41_valpre	41	13-12-2019	16:26:44:144	rl	valpre	786	786	60	66848	00330.png	326.0	25	66847.0	565	386
66	41_valpre	41	13-12-2019	16:26:44:344	rl	valpre	798	798	60	67047	00335.png	331.0	25	67047.0	560	397
67	41_valpre	41	13-12-2019	16:26:44:543	rl	valpre	810	810	60	67246	00340.png	336.0	25	67247.0	557	406
68	41_valpre	41	13-12-2019	16:26:44:742	rl	valpre	822	822	60	67445	00345.png	341.0	25	67447.0	554	411
69	41_valpre	41	13-12-2019	16:26:44:941	rl	valpre	834	834	60	67645	00350.png	346.0	25	67647.0	555	404
70	41_valpre	41	13-12-2019	16:26:45:140	rl	valpre	846	846	60	67844	00355.png	351.0	25	67847.0	552	408
71	41_valpre	41	13-12-2019	16:26:45:339	rl	valpre	858	858	60	68043	00360.png	356.0	25	68047.0	549	413
72	41_valpre	41	13-12-2019	16:26:45:538	rl	valpre	870	870	60	68242	00365.png	361.0	25	68247.0	550	412
73	41_valpre	41	13-12-2019	16:26:45:737	rl	valpre	882	882	60	68441	00370.png	366.0	25	68447.0	550	413
74	41_valpre	41	13-12-2019	16:26:45:937	rl	valpre	894	894	60	68640	00375.png	371.0	25	68647.0	550	409
75	41_valpre	41	13-12-2019	16:26:46:136	rl	valpre	905	905	60	68839	00380.png	376.0	25	68847.0	549	415
76	41_valpre	41	13-12-2019	16:26:46:335	rl	valpre	916	916	60	69039	00385.png	381.0	25	69047.0	549	416
77	41_valpre	41	13-12-2019	16:26:46:551	rl	valpre	929	929	60	69254	00390.png	386.0	25	69247.0	551	412
78	41_valpre	41	13-12-2019	16:26:46:750	rl	valpre	941	941	60	69454	00395.png	391.0	25	69447.0	554	409
79	41_valpre	41	13-12-2019	16:26:46:949	rl	valpre	953	953	60	69653	00400.png	396.0	25	69647.0	552	411
80	41_valpre	41	13-12-2019	16:26:47:148	rl	valpre	965	965	60	69852	00405.png	401.0	25	69847.0	551	408
81	41_valpre	41	13-12-2019	16:26:47:347	rl	valpre	977	977	60	70051	00410.png	406.0	25	70047.0	552	415
82	41_valpre	41	13-12-2019	16:26:47:547	rl	valpre	989	989	60	70250	00415.png	411.0	25	70247.0	559	398
83	41_valpre	41	13-12-2019	16:26:47:746	rl	valpre	1001	1001	60	70450	00420.png	416.0	25	70447.0	556	406
84	41_valpre	41	13-12-2019	16:26:47:945	rl	valpre	1013	1013	60	70648	00425.png	421.0	25	70647.0	550	423
85	41_valpre	41	13-12-2019	16:26:48:144	rl	valpre	1025	1025	60	70847	00430.png	426.0	25	70847.0	554	414
86	41_valpre	41	13-12-2019	16:26:48:343	rl	valpre	1037	1037	60	71047	00435.png	431.0	25	71047.0	553	412
87	41_valpre	41	13-12-2019	16:26:48:542	rl	valpre	1049	1049	60	71246	00440.png	436.0	25	71247.0	551	417
88	41_valpre	41	13-12-2019	16:26:48:742	rl	valpre	1061	1061	60	71445	00445.png	441.0	25	71447.0	548	432
89	41_valpre	41	13-12-2019	16:26:48:940	rl	valpre	1073	1073	60	71644	00450.png	446.0	25	71647.0	559	406
90	41_valpre	41	13-12-2019	16:26:49:140	rl	valpre	1085	1085	60	71843	00455.png	451.0	25	71847.0	711	62
91	41_valpre	41	13-12-2019	16:26:49:339	rl	valpre	1097	1097	60	72043	00460.png	456.0	25	72047.0	672	148
92	41_valpre	41	13-12-2019	16:26:49:539	rl	valpre	1109	1109	60	72242	00465.png	461.0	25	72247.0	635	237
93	41_valpre	41	13-12-2019	16:26:49:737	rl	valpre	1121	1121	60	72441	00470.png	466.0	25	72447.0	622	260
94	41_valpre	41	13-12-2019	16:26:49:936	rl	valpre	1131	1131	60	72640	00475.png	471.0	25	72647.0	626	252
95	41_valpre	41	13-12-2019	16:26:50:135	rl	valpre	1141	1141	60	72839	00480.png	476.0	25	72847.0	626	246
96	41_valpre	41	13-12-2019	16:26:50:351	rl	valpre	1154	1154	60	73055	00485.png	481.0	25	73047.0	633	230
97	41_valpre	41	13-12-2019	16:26:50:550	rl	valpre	1166	1166	60	73254	00490.png	486.0	25	73247.0	631	233
98	41_valpre	41	13-12-2019	16:26:50:749	rl	valpre	1178	1178	60	73453	00495.png	491.0	25	73447.0	631	234
99	41_valpre	41	13-12-2019	16:26:50:949	rl	valpre	1190	1190	60	73652	00500.png	496.0	25	73647.0	641	214
100	41_valpre	41	13-12-2019	16:26:51:148	rl	valpre	1202	1202	60	73851	00505.png	501.0	25	73847.0	642	210
101	41_valpre	41	13-12-2019	16:26:51:347	rl	valpre	1214	1214	60	74051	00510.png	506.0	25	74047.0	640	217
102	41_valpre	41	13-12-2019	16:26:51:546	rl	valpre	1226	1226	60	74250	00515.png	511.0	25	74247.0	642	215
103	41_valpre	41	13-12-2019	16:26:51:745	rl	valpre	1238	1238	60	74449	00520.png	516.0	25	74447.0	638	217
104	41_valpre	41	13-12-2019	16:26:51:944	rl	valpre	1250	1250	60	74648	00525.png	521.0	25	74647.0	638	222
105	41_valpre	41	13-12-2019	16:26:52:143	rl	valpre	1262	1262	60	74847	00530.png	526.0	25	74847.0	640	220
106	41_valpre	41	13-12-2019	16:26:52:343	rl	valpre	1274	1274	60	75046	00535.png	531.0	25	75047.0	638	223
107	41_valpre	41	13-12-2019	16:26:52:542	rl	valpre	1286	1286	60	75245	00540.png	536.0	25	75247.0	637	224
108	41_valpre	41	13-12-2019	16:26:52:741	rl	valpre	1298	1298	60	75444	00545.png	541.0	25	75447.0	636	229
109	41_valpre	41	13-12-2019	16:26:52:940	rl	valpre	1310	1310	60	75644	00550.png	546.0	25	75647.0	637	224
110	41_valpre	41	13-12-2019	16:26:53:139	rl	valpre	1322	1322	60	75843	00555.png	551.0	25	75847.0	637	216
111	41_valpre	41	13-12-2019	16:26:53:338	rl	valpre	1334	1334	60	76042	00560.png	556.0	25	76047.0	637	220
112	41_valpre	41	13-12-2019	16:26:53:537	rl	valpre	1345	1345	60	76241	00565.png	561.0	25	76247.0	634	223
113	41_valpre	41	13-12-2019	16:26:53:753	rl	valpre	1357	1357	60	76457	00570.png	566.0	25	76447.0	636	226
114	41_valpre	41	13-12-2019	16:26:53:936	rl	valpre	1366	1366	60	76639	00575.png	571.0	25	76647.0	635	227
115	41_valpre	41	13-12-2019	16:26:54:151	rl	valpre	1379	1379	60	76855	00580.png	576.0	25	76847.0	635	231
116	41_valpre	41	13-12-2019	16:26:54:351	rl	valpre	1391	1391	60	77054	00585.png	581.0	25	77047.0	638	214
117	41_valpre	41	13-12-2019	16:26:54:550	rl	valpre	1403	1403	60	77253	00590.png	586.0	25	77247.0	635	226
118	41_valpre	41	13-12-2019	16:26:54:749	rl	valpre	1415	1415	60	77453	00595.png	591.0	25	77447.0	633	230
119	41_valpre	41	13-12-2019	16:26:54:948	rl	valpre	1427	1427	60	77652	00600.png	596.0	25	77647.0	630	231
120	41_valpre	41	13-12-2019	16:26:55:147	rl	valpre	1439	1439	60	77851	00605.png	601.0	25	77847.0	631	235
121	41_valpre	41	13-12-2019	16:26:55:346	rl	valpre	1451	1451	60	78050	00610.png	606.0	25	78047.0	640	214
122	41_valpre	41	13-12-2019	16:26:55:545	rl	valpre	1463	1463	60	78249	00615.png	611.0	25	78247.0	609	296
123	41_valpre	41	13-12-2019	16:26:55:745	rl	valpre	1475	1475	60	78448	00620.png	616.0	25	78447.0	621	274
124	41_valpre	41	13-12-2019	16:26:55:944	rl	valpre	1487	1487	60	78648	00625.png	621.0	25	78647.0	641	224
125	41_valpre	41	13-12-2019	16:26:56:143	rl	valpre	1499	1499	60	78846	00630.png	626.0	25	78847.0	648	210
126	41_valpre	41	13-12-2019	16:26:56:342	rl	valpre	1511	1511	60	79046	00635.png	631.0	25	79047.0	639	229
127	41_valpre	41	13-12-2019	16:26:56:541	rl	valpre	1523	1523	60	79245	00640.png	636.0	25	79247.0	632	248
128	41_valpre	41	13-12-2019	16:26:56:740	rl	valpre	1535	1535	60	79444	00645.png	641.0	25	79447.0	632	250
129	41_valpre	41	13-12-2019	16:26:56:939	rl	valpre	1547	1547	60	79643	00650.png	646.0	25	79647.0	632	254
130	41_valpre	41	13-12-2019	16:26:57:139	rl	valpre	1559	1559	60	79842	00655.png	651.0	25	79847.0	628	260
131	41_valpre	41	13-12-2019	16:26:57:338	rl	valpre	1571	1571	60	80042	00660.png	656.0	25	80047.0	629	261
132	41_valpre	41	13-12-2019	16:26:57:537	rl	valpre	1583	1583	60	80240	00665.png	661.0	25	80247.0	630	263
133	41_valpre	41	13-12-2019	16:26:57:736	rl	valpre	1592	1592	60	80440	00670.png	666.0	25	80447.0	627	267
134	41_valpre	41	13-12-2019	16:26:57:936	rl	valpre	1604	1604	60	80639	00675.png	671.0	25	80647.0	625	267
135	41_valpre	41	13-12-2019	16:26:58:151	rl	valpre	1617	1617	60	80855	00680.png	676.0	25	80847.0	626	266
136	41_valpre	41	13-12-2019	16:26:58:350	rl	valpre	1629	1629	60	81054	00685.png	681.0	25	81047.0	625	268
137	41_valpre	41	13-12-2019	16:26:58:549	rl	valpre	1641	1641	60	81253	00690.png	686.0	25	81247.0	628	265
138	41_valpre	41	13-12-2019	16:26:58:748	rl	valpre	1653	1653	60	81452	00695.png	691.0	25	81447.0	627	268
139	41_valpre	41	13-12-2019	16:26:58:947	rl	valpre	1665	1665	60	81651	00700.png	696.0	25	81647.0	629	265
140	41_valpre	41	13-12-2019	16:26:59:146	rl	valpre	1677	1677	60	81850	00705.png	701.0	25	81847.0	627	264
141	41_valpre	41	13-12-2019	16:26:59:346	rl	valpre	1689	1689	60	82050	00710.png	706.0	25	82047.0	626	263
142	41_valpre	41	13-12-2019	16:26:59:545	rl	valpre	1701	1701	60	82248	00715.png	711.0	25	82247.0	626	261
143	41_valpre	41	13-12-2019	16:26:59:744	rl	valpre	1713	1713	60	82448	00720.png	716.0	25	82447.0	626	258
144	41_valpre	41	13-12-2019	16:26:59:944	rl	valpre	1725	1725	60	82647	00725.png	721.0	25	82647.0	624	268
145	41_valpre	41	13-12-2019	16:27:00:142	rl	valpre	1737	1737	60	82846	00730.png	726.0	25	82847.0	622	271
146	41_valpre	41	13-12-2019	16:27:00:342	rl	valpre	1749	1749	60	83045	00735.png	731.0	25	83047.0	621	270
147	41_valpre	41	13-12-2019	16:27:00:541	rl	valpre	1761	1761	60	83244	00740.png	736.0	25	83247.0	622	267
148	41_valpre	41	13-12-2019	16:27:00:740	rl	valpre	1773	1773	60	83443	00745.png	741.0	25	83447.0	626	262
149	41_valpre	41	13-12-2019	16:27:00:939	rl	valpre	1785	1785	60	83643	00750.png	746.0	25	83647.0	553	453
150	41_valpre	41	13-12-2019	16:27:01:138	rl	valpre	1797	1797	60	83842	00755.png	751.0	25	83847.0	569	386
151	41_valpre	41	13-12-2019	16:27:01:337	rl	valpre	1809	1809	60	84041	00760.png	756.0	25	84047.0	599	319
152	41_valpre	41	13-12-2019	16:27:01:536	rl	valpre	1819	1819	60	84240	00765.png	761.0	25	84247.0	617	285
153	41_valpre	41	13-12-2019	16:27:01:736	rl	valpre	1831	1831	60	84439	00770.png	766.0	25	84447.0	607	305
154	41_valpre	41	13-12-2019	16:27:01:951	rl	valpre	1844	1844	60	84655	00775.png	771.0	25	84647.0	597	320
155	41_valpre	41	13-12-2019	16:27:02:150	rl	valpre	1856	1856	60	84854	00780.png	776.0	25	84847.0	589	341
156	41_valpre	41	13-12-2019	16:27:02:349	rl	valpre	1868	1868	60	85053	00785.png	781.0	25	85047.0	578	364
157	41_valpre	41	13-12-2019	16:27:02:549	rl	valpre	1880	1880	60	85252	00790.png	786.0	25	85247.0	575	367
158	41_valpre	41	13-12-2019	16:27:02:748	rl	valpre	1892	1892	60	85452	00795.png	791.0	25	85447.0	574	372
159	41_valpre	41	13-12-2019	16:27:02:947	rl	valpre	1904	1904	60	85650	00800.png	796.0	25	85647.0	572	375
160	41_valpre	41	13-12-2019	16:27:03:146	rl	valpre	1916	1916	60	85850	00805.png	801.0	25	85847.0	574	365
161	41_valpre	41	13-12-2019	16:27:03:346	rl	valpre	1928	1928	60	86049	00810.png	806.0	25	86047.0	576	370
162	41_valpre	41	13-12-2019	16:27:03:544	rl	valpre	1940	1940	60	86248	00815.png	811.0	25	86247.0	580	364
163	41_valpre	41	13-12-2019	16:27:03:744	rl	valpre	1952	1952	60	86447	00820.png	816.0	25	86447.0	581	365
164	41_valpre	41	13-12-2019	16:27:03:943	rl	valpre	1964	1964	60	86647	00825.png	821.0	25	86647.0	586	348
165	41_valpre	41	13-12-2019	16:27:04:142	rl	valpre	1976	1976	60	86845	00830.png	826.0	25	86847.0	592	340
166	41_valpre	41	13-12-2019	16:27:04:341	rl	valpre	1988	1988	60	87045	00835.png	831.0	25	87047.0	590	348
167	41_valpre	41	13-12-2019	16:27:04:540	rl	valpre	2000	2000	60	87244	00840.png	836.0	25	87247.0	589	349
168	41_valpre	41	13-12-2019	16:27:04:740	rl	valpre	2012	2012	60	87443	00845.png	841.0	25	87447.0	587	353
169	41_valpre	41	13-12-2019	16:27:04:938	rl	valpre	2024	2024	60	87642	00850.png	846.0	25	87647.0	589	346
170	41_valpre	41	13-12-2019	16:27:05:137	rl	valpre	2036	2036	60	87841	00855.png	851.0	25	87847.0	590	346
171	41_valpre	41	13-12-2019	16:27:05:337	rl	valpre	2047	2047	60	88040	00860.png	856.0	25	88047.0	583	363
172	41_valpre	41	13-12-2019	16:27:05:553	rl	valpre	2057	2057	60	88256	00865.png	861.0	25	88247.0	582	365
173	41_valpre	41	13-12-2019	16:27:05:752	rl	valpre	2069	2069	60	88455	00870.png	866.0	25	88447.0	583	365
174	41_valpre	41	13-12-2019	16:27:05:951	rl	valpre	2081	2081	60	88654	00875.png	871.0	25	88647.0	584	363
175	41_valpre	41	13-12-2019	16:27:06:150	rl	valpre	2093	2093	60	88853	00880.png	876.0	25	88847.0	578	375
176	41_valpre	41	13-12-2019	16:27:06:349	rl	valpre	2105	2105	60	89053	00885.png	881.0	25	89047.0	562	411
177	41_valpre	41	13-12-2019	16:27:06:548	rl	valpre	2117	2117	60	89252	00890.png	886.0	25	89247.0	720	47
178	41_valpre	41	13-12-2019	16:27:06:747	rl	valpre	2129	2129	60	89451	00895.png	891.0	25	89447.0	671	164
179	41_valpre	41	13-12-2019	16:27:06:946	rl	valpre	2141	2141	60	89650	00900.png	896.0	25	89647.0	637	240
180	41_valpre	41	13-12-2019	16:27:07:146	rl	valpre	2153	2153	60	89849	00905.png	901.0	25	89847.0	633	252
181	41_valpre	41	13-12-2019	16:27:07:345	rl	valpre	2165	2165	60	90048	00910.png	906.0	25	90047.0	644	221
182	41_valpre	41	13-12-2019	16:27:07:544	rl	valpre	2177	2177	60	90248	00915.png	911.0	25	90247.0	642	219
