	subject_location	subject_id	date	daytime	setting_id	trial_id	sample_id	sample_n	sample_rate	sample_time_smi	frame_id	frame_n	frame_rate	frame_time_smi	fix_pos_x	fix_pos_y
0	41_gas	41	13-12-2019	16:48:26:832	rl	gas	1381	1381	60	1369523	00022.png	1.0	25	1369530.0	818	411
1	41_gas	41	13-12-2019	16:48:27:031	rl	gas	1391	1391	60	1369722	00027.png	6.0	25	1369730.0	853	426
2	41_gas	41	13-12-2019	16:48:27:230	rl	gas	1403	1403	60	1369922	00032.png	11.0	25	1369930.0	894	411
3	41_gas	41	13-12-2019	16:48:27:446	rl	gas	1416	1416	60	1370138	00037.png	16.0	25	1370130.0	829	286
4	41_gas	41	13-12-2019	16:48:27:645	rl	gas	1428	1428	60	1370337	00042.png	21.0	25	1370330.0	759	283
5	41_gas	41	13-12-2019	16:48:27:844	rl	gas	1440	1440	60	1370535	00047.png	26.0	25	1370530.0	691	301
6	41_gas	41	13-12-2019	16:48:28:043	rl	gas	1452	1452	60	1370735	00052.png	31.0	25	1370730.0	807	284
7	41_gas	41	13-12-2019	16:48:28:242	rl	gas	1464	1464	60	1370934	00057.png	36.0	25	1370930.0	1148	455
8	41_gas	41	13-12-2019	16:48:28:442	rl	gas	1476	1476	60	1371133	00062.png	41.0	25	1371130.0	922	417
9	41_gas	41	13-12-2019	16:48:28:640	rl	gas	1488	1488	60	1371332	00067.png	46.0	25	1371330.0	922	453
10	41_gas	41	13-12-2019	16:48:28:840	rl	gas	1500	1500	60	1371531	00072.png	51.0	25	1371530.0	1624	680
11	41_gas	41	13-12-2019	16:48:29:039	rl	gas	1512	1512	60	1371730	00077.png	56.0	25	1371730.0	963	444
12	41_gas	41	13-12-2019	16:48:29:238	rl	gas	1524	1524	60	1371929	00082.png	61.0	25	1371930.0	1035	468
13	41_gas	41	13-12-2019	16:48:29:437	rl	gas	1536	1536	60	1372129	00087.png	66.0	25	1372130.0	959	447
14	41_gas	41	13-12-2019	16:48:29:636	rl	gas	1548	1548	60	1372328	00092.png	71.0	25	1372330.0	960	440
15	41_gas	41	13-12-2019	16:48:29:835	rl	gas	1560	1560	60	1372527	00097.png	76.0	25	1372530.0	813	428
16	41_gas	41	13-12-2019	16:48:30:034	rl	gas	1572	1572	60	1372726	00102.png	81.0	25	1372730.0	717	404
17	41_gas	41	13-12-2019	16:48:30:234	rl	gas	1584	1584	60	1372925	00107.png	86.0	25	1372930.0	725	381
18	41_gas	41	13-12-2019	16:48:30:433	rl	gas	1596	1596	60	1373125	00112.png	91.0	25	1373130.0	864	376
19	41_gas	41	13-12-2019	16:48:30:632	rl	gas	1608	1608	60	1373324	00117.png	96.0	25	1373330.0	1085	440
20	41_gas	41	13-12-2019	16:48:30:831	rl	gas	1619	1619	60	1373523	00122.png	101.0	25	1373530.0	1105	413
21	41_gas	41	13-12-2019	16:48:31:030	rl	gas	1631	1631	60	1373722	00127.png	106.0	25	1373730.0	747	333
22	41_gas	41	13-12-2019	16:48:31:246	rl	gas	1644	1644	60	1373938	00132.png	111.0	25	1373930.0	781	306
23	41_gas	41	13-12-2019	16:48:31:445	rl	gas	1656	1656	60	1374137	00137.png	116.0	25	1374130.0	508	354
24	41_gas	41	13-12-2019	16:48:31:645	rl	gas	1668	1668	60	1374336	00142.png	121.0	25	1374330.0	566	328
25	41_gas	41	13-12-2019	16:48:31:843	rl	gas	1680	1680	60	1374535	00147.png	126.0	25	1374530.0	495	297
26	41_gas	41	13-12-2019	16:48:32:043	rl	gas	1692	1692	60	1374734	00152.png	131.0	25	1374730.0	510	275
27	41_gas	41	13-12-2019	16:48:32:242	rl	gas	1704	1704	60	1374934	00157.png	136.0	25	1374930.0	569	303
28	41_gas	41	13-12-2019	16:48:32:441	rl	gas	1716	1716	60	1375133	00162.png	141.0	25	1375130.0	631	314
29	41_gas	41	13-12-2019	16:48:32:640	rl	gas	1728	1728	60	1375332	00167.png	146.0	25	1375330.0	0	0
30	41_gas	41	13-12-2019	16:48:32:839	rl	gas	1740	1740	60	1375531	00172.png	151.0	25	1375530.0	849	391
31	41_gas	41	13-12-2019	16:48:33:038	rl	gas	1752	1752	60	1375730	00177.png	156.0	25	1375730.0	902	407
32	41_gas	41	13-12-2019	16:48:33:238	rl	gas	1764	1764	60	1375929	00182.png	161.0	25	1375930.0	891	416
33	41_gas	41	13-12-2019	16:48:33:437	rl	gas	1776	1776	60	1376128	00187.png	166.0	25	1376130.0	953	424
34	41_gas	41	13-12-2019	16:48:33:636	rl	gas	1788	1788	60	1376327	00192.png	171.0	25	1376330.0	1085	448
35	41_gas	41	13-12-2019	16:48:33:835	rl	gas	1800	1800	60	1376527	00197.png	176.0	25	1376530.0	1014	413
36	41_gas	41	13-12-2019	16:48:34:034	rl	gas	1812	1812	60	1376726	00202.png	181.0	25	1376730.0	981	395
37	41_gas	41	13-12-2019	16:48:34:233	rl	gas	1824	1824	60	1376925	00207.png	186.0	25	1376930.0	761	290
38	41_gas	41	13-12-2019	16:48:34:432	rl	gas	1836	1836	60	1377124	00212.png	191.0	25	1377130.0	630	291
39	41_gas	41	13-12-2019	16:48:34:631	rl	gas	1847	1847	60	1377323	00217.png	196.0	25	1377330.0	810	461
40	41_gas	41	13-12-2019	16:48:34:831	rl	gas	1859	1859	60	1377522	00222.png	201.0	25	1377530.0	788	444
41	41_gas	41	13-12-2019	16:48:35:030	rl	gas	1871	1871	60	1377722	00227.png	206.0	25	1377730.0	550	549
42	41_gas	41	13-12-2019	16:48:35:245	rl	gas	1884	1884	60	1377937	00232.png	211.0	25	1377930.0	856	425
43	41_gas	41	13-12-2019	16:48:35:445	rl	gas	1896	1896	60	1378137	00237.png	216.0	25	1378130.0	592	279
44	41_gas	41	13-12-2019	16:48:35:644	rl	gas	1908	1908	60	1378335	00242.png	221.0	25	1378330.0	644	223
45	41_gas	41	13-12-2019	16:48:35:843	rl	gas	1920	1920	60	1378535	00247.png	226.0	25	1378530.0	698	241
46	41_gas	41	13-12-2019	16:48:36:042	rl	gas	1932	1932	60	1378734	00252.png	231.0	25	1378730.0	634	244
47	41_gas	41	13-12-2019	16:48:36:242	rl	gas	1944	1944	60	1378933	00257.png	236.0	25	1378930.0	534	269
48	41_gas	41	13-12-2019	16:48:36:441	rl	gas	1956	1956	60	1379132	00262.png	241.0	25	1379130.0	1073	400
49	41_gas	41	13-12-2019	16:48:36:640	rl	gas	1968	1968	60	1379331	00267.png	246.0	25	1379330.0	1252	403
50	41_gas	41	13-12-2019	16:48:36:839	rl	gas	1980	1980	60	1379531	00272.png	251.0	25	1379530.0	1277	440
51	41_gas	41	13-12-2019	16:48:37:038	rl	gas	1992	1992	60	1379730	00277.png	256.0	25	1379730.0	1197	475
52	41_gas	41	13-12-2019	16:48:37:237	rl	gas	2004	2004	60	1379929	00282.png	261.0	25	1379930.0	1063	434
53	41_gas	41	13-12-2019	16:48:37:436	rl	gas	2016	2016	60	1380128	00287.png	266.0	25	1380130.0	1553	534
54	41_gas	41	13-12-2019	16:48:37:636	rl	gas	2028	2028	60	1380327	00292.png	271.0	25	1380330.0	1587	498
55	41_gas	41	13-12-2019	16:48:37:835	rl	gas	2040	2040	60	1380526	00297.png	276.0	25	1380530.0	509	341
56	41_gas	41	13-12-2019	16:48:38:034	rl	gas	2052	2052	60	1380726	00302.png	281.0	25	1380730.0	493	316
57	41_gas	41	13-12-2019	16:48:38:233	rl	gas	2064	2064	60	1380924	00307.png	286.0	25	1380930.0	654	466
58	41_gas	41	13-12-2019	16:48:38:432	rl	gas	2076	2076	60	1381124	00312.png	291.0	25	1381130.0	825	475
59	41_gas	41	13-12-2019	16:48:38:631	rl	gas	2086	2086	60	1381323	00317.png	296.0	25	1381330.0	950	459
60	41_gas	41	13-12-2019	16:48:38:830	rl	gas	2098	2098	60	1381522	00322.png	301.0	25	1381530.0	969	443
61	41_gas	41	13-12-2019	16:48:39:046	rl	gas	2111	2111	60	1381738	00327.png	306.0	25	1381730.0	1006	422
62	41_gas	41	13-12-2019	16:48:39:245	rl	gas	2123	2123	60	1381937	00332.png	311.0	25	1381930.0	1070	410
63	41_gas	41	13-12-2019	16:48:39:444	rl	gas	2135	2135	60	1382136	00337.png	316.0	25	1382130.0	1078	404
64	41_gas	41	13-12-2019	16:48:39:644	rl	gas	2147	2147	60	1382335	00342.png	321.0	25	1382330.0	1001	404
65	41_gas	41	13-12-2019	16:48:39:843	rl	gas	2159	2159	60	1382534	00347.png	326.0	25	1382530.0	916	407
66	41_gas	41	13-12-2019	16:48:40:042	rl	gas	2171	2171	60	1382733	00352.png	331.0	25	1382730.0	871	421
67	41_gas	41	13-12-2019	16:48:40:241	rl	gas	2183	2183	60	1382932	00357.png	336.0	25	1382930.0	903	417
68	41_gas	41	13-12-2019	16:48:40:440	rl	gas	2195	2195	60	1383132	00362.png	341.0	25	1383130.0	939	391
69	41_gas	41	13-12-2019	16:48:40:639	rl	gas	2207	2207	60	1383331	00367.png	346.0	25	1383330.0	995	364
70	41_gas	41	13-12-2019	16:48:40:838	rl	gas	2219	2219	60	1383530	00372.png	351.0	25	1383530.0	957	419
71	41_gas	41	13-12-2019	16:48:41:037	rl	gas	2231	2231	60	1383729	00377.png	356.0	25	1383730.0	672	365
72	41_gas	41	13-12-2019	16:48:41:237	rl	gas	2243	2243	60	1383928	00382.png	361.0	25	1383930.0	752	401
73	41_gas	41	13-12-2019	16:48:41:436	rl	gas	2255	2255	60	1384127	00387.png	366.0	25	1384130.0	638	440
74	41_gas	41	13-12-2019	16:48:41:635	rl	gas	2267	2267	60	1384327	00392.png	371.0	25	1384330.0	710	422
75	41_gas	41	13-12-2019	16:48:41:834	rl	gas	2279	2279	60	1384526	00397.png	376.0	25	1384530.0	495	451
76	41_gas	41	13-12-2019	16:48:42:034	rl	gas	2291	2291	60	1384725	00402.png	381.0	25	1384730.0	580	393
77	41_gas	41	13-12-2019	16:48:42:232	rl	gas	2303	2303	60	1384924	00407.png	386.0	25	1384930.0	652	409
78	41_gas	41	13-12-2019	16:48:42:432	rl	gas	2313	2313	60	1385123	00412.png	391.0	25	1385130.0	554	426
79	41_gas	41	13-12-2019	16:48:42:631	rl	gas	2325	2325	60	1385322	00417.png	396.0	25	1385330.0	339	464
80	41_gas	41	13-12-2019	16:48:42:846	rl	gas	2338	2338	60	1385538	00422.png	401.0	25	1385530.0	424	413
81	41_gas	41	13-12-2019	16:48:43:046	rl	gas	2350	2350	60	1385737	00427.png	406.0	25	1385730.0	498	390
82	41_gas	41	13-12-2019	16:48:43:245	rl	gas	2362	2362	60	1385936	00432.png	411.0	25	1385930.0	667	410
83	41_gas	41	13-12-2019	16:48:43:444	rl	gas	2374	2374	60	1386136	00437.png	416.0	25	1386130.0	622	408
84	41_gas	41	13-12-2019	16:48:43:643	rl	gas	2386	2386	60	1386335	00442.png	421.0	25	1386330.0	0	0
85	41_gas	41	13-12-2019	16:48:43:842	rl	gas	2398	2398	60	1386534	00447.png	426.0	25	1386530.0	817	355
86	41_gas	41	13-12-2019	16:48:44:041	rl	gas	2410	2410	60	1386733	00452.png	431.0	25	1386730.0	753	360
87	41_gas	41	13-12-2019	16:48:44:241	rl	gas	2422	2422	60	1386932	00457.png	436.0	25	1386930.0	583	365
88	41_gas	41	13-12-2019	16:48:44:440	rl	gas	2434	2434	60	1387131	00462.png	441.0	25	1387130.0	556	375
89	41_gas	41	13-12-2019	16:48:44:639	rl	gas	2446	2446	60	1387330	00467.png	446.0	25	1387330.0	396	338
90	41_gas	41	13-12-2019	16:48:44:838	rl	gas	2458	2458	60	1387530	00472.png	451.0	25	1387530.0	431	361
91	41_gas	41	13-12-2019	16:48:45:037	rl	gas	2470	2470	60	1387729	00477.png	456.0	25	1387730.0	427	353
92	41_gas	41	13-12-2019	16:48:45:236	rl	gas	2482	2482	60	1387928	00482.png	461.0	25	1387930.0	1023	365
93	41_gas	41	13-12-2019	16:48:45:435	rl	gas	2494	2494	60	1388127	00487.png	466.0	25	1388130.0	1257	364
94	41_gas	41	13-12-2019	16:48:45:634	rl	gas	2506	2506	60	1388326	00492.png	471.0	25	1388330.0	1135	386
95	41_gas	41	13-12-2019	16:48:45:834	rl	gas	2518	2518	60	1388525	00497.png	476.0	25	1388530.0	989	403
96	41_gas	41	13-12-2019	16:48:46:032	rl	gas	2530	2530	60	1388724	00502.png	481.0	25	1388730.0	926	339
97	41_gas	41	13-12-2019	16:48:46:232	rl	gas	2541	2541	60	1388923	00507.png	486.0	25	1388930.0	941	349
98	41_gas	41	13-12-2019	16:48:46:431	rl	gas	2551	2551	60	1389123	00512.png	491.0	25	1389130.0	834	322
99	41_gas	41	13-12-2019	16:48:46:630	rl	gas	2563	2563	60	1389322	00517.png	496.0	25	1389330.0	932	424
100	41_gas	41	13-12-2019	16:48:46:846	rl	gas	2576	2576	60	1389537	00522.png	501.0	25	1389530.0	1101	448
101	41_gas	41	13-12-2019	16:48:47:045	rl	gas	2588	2588	60	1389736	00527.png	506.0	25	1389730.0	745	330
102	41_gas	41	13-12-2019	16:48:47:244	rl	gas	2600	2600	60	1389935	00532.png	511.0	25	1389930.0	894	367
103	41_gas	41	13-12-2019	16:48:47:443	rl	gas	2612	2612	60	1390135	00537.png	516.0	25	1390130.0	781	398
104	41_gas	41	13-12-2019	16:48:47:643	rl	gas	2624	2624	60	1390334	00542.png	521.0	25	1390330.0	1167	377
105	41_gas	41	13-12-2019	16:48:47:842	rl	gas	2636	2636	60	1390533	00547.png	526.0	25	1390530.0	1794	489
106	41_gas	41	13-12-2019	16:48:48:041	rl	gas	2648	2648	60	1390732	00552.png	531.0	25	1390730.0	646	298
107	41_gas	41	13-12-2019	16:48:48:240	rl	gas	2660	2660	60	1390931	00557.png	536.0	25	1390930.0	622	314
108	41_gas	41	13-12-2019	16:48:48:439	rl	gas	2672	2672	60	1391131	00562.png	541.0	25	1391130.0	465	236
109	41_gas	41	13-12-2019	16:48:48:638	rl	gas	2684	2684	60	1391330	00567.png	546.0	25	1391330.0	377	206
110	41_gas	41	13-12-2019	16:48:48:837	rl	gas	2696	2696	60	1391529	00572.png	551.0	25	1391530.0	1148	393
111	41_gas	41	13-12-2019	16:48:49:036	rl	gas	2708	2708	60	1391728	00577.png	556.0	25	1391730.0	1114	502
112	41_gas	41	13-12-2019	16:48:49:236	rl	gas	2720	2720	60	1391927	00582.png	561.0	25	1391930.0	877	427
113	41_gas	41	13-12-2019	16:48:49:435	rl	gas	2732	2732	60	1392127	00587.png	566.0	25	1392130.0	1003	407
114	41_gas	41	13-12-2019	16:48:49:634	rl	gas	2744	2744	60	1392325	00592.png	571.0	25	1392330.0	976	383
115	41_gas	41	13-12-2019	16:48:49:833	rl	gas	2756	2756	60	1392525	00597.png	576.0	25	1392530.0	987	379
116	41_gas	41	13-12-2019	16:48:50:032	rl	gas	2768	2768	60	1392724	00602.png	581.0	25	1392730.0	981	374
117	41_gas	41	13-12-2019	16:48:50:232	rl	gas	2779	2779	60	1392923	00607.png	586.0	25	1392930.0	948	363
118	41_gas	41	13-12-2019	16:48:50:430	rl	gas	2791	2791	60	1393122	00612.png	591.0	25	1393130.0	938	379
119	41_gas	41	13-12-2019	16:48:50:646	rl	gas	2804	2804	60	1393338	00617.png	596.0	25	1393330.0	940	383
120	41_gas	41	13-12-2019	16:48:50:845	rl	gas	2816	2816	60	1393537	00622.png	601.0	25	1393530.0	873	362
121	41_gas	41	13-12-2019	16:48:51:044	rl	gas	2828	2828	60	1393736	00627.png	606.0	25	1393730.0	798	334
122	41_gas	41	13-12-2019	16:48:51:244	rl	gas	2840	2840	60	1393935	00632.png	611.0	25	1393930.0	764	320
123	41_gas	41	13-12-2019	16:48:51:443	rl	gas	2852	2852	60	1394135	00637.png	616.0	25	1394130.0	711	275
124	41_gas	41	13-12-2019	16:48:51:642	rl	gas	2864	2864	60	1394334	00642.png	621.0	25	1394330.0	720	276
125	41_gas	41	13-12-2019	16:48:51:841	rl	gas	2876	2876	60	1394533	00647.png	626.0	25	1394530.0	767	299
126	41_gas	41	13-12-2019	16:48:52:040	rl	gas	2888	2888	60	1394731	00652.png	631.0	25	1394730.0	887	333
127	41_gas	41	13-12-2019	16:48:52:239	rl	gas	2900	2900	60	1394931	00657.png	636.0	25	1394930.0	1181	328
128	41_gas	41	13-12-2019	16:48:52:438	rl	gas	2912	2912	60	1395130	00662.png	641.0	25	1395130.0	1177	343
129	41_gas	41	13-12-2019	16:48:52:638	rl	gas	2924	2924	60	1395329	00667.png	646.0	25	1395330.0	930	344
130	41_gas	41	13-12-2019	16:48:52:837	rl	gas	2936	2936	60	1395528	00672.png	651.0	25	1395530.0	899	322
131	41_gas	41	13-12-2019	16:48:53:036	rl	gas	2948	2948	60	1395728	00677.png	656.0	25	1395730.0	867	301
132	41_gas	41	13-12-2019	16:48:53:235	rl	gas	2960	2960	60	1395927	00682.png	661.0	25	1395930.0	868	277
133	41_gas	41	13-12-2019	16:48:53:435	rl	gas	2972	2972	60	1396126	00687.png	666.0	25	1396130.0	801	263
134	41_gas	41	13-12-2019	16:48:53:634	rl	gas	2984	2984	60	1396325	00692.png	671.0	25	1396330.0	766	252
135	41_gas	41	13-12-2019	16:48:53:833	rl	gas	2996	2996	60	1396524	00697.png	676.0	25	1396530.0	761	245
136	41_gas	41	13-12-2019	16:48:54:048	rl	gas	3007	3007	60	1396740	00702.png	681.0	25	1396730.0	891	306
137	41_gas	41	13-12-2019	16:48:54:231	rl	gas	3016	3016	60	1396922	00707.png	686.0	25	1396930.0	918	352
138	41_gas	41	13-12-2019	16:48:54:430	rl	gas	3028	3028	60	1397122	00712.png	691.0	25	1397130.0	911	390
139	41_gas	41	13-12-2019	16:48:54:646	rl	gas	3041	3041	60	1397338	00717.png	696.0	25	1397330.0	926	432
140	41_gas	41	13-12-2019	16:48:54:845	rl	gas	3053	3053	60	1397537	00722.png	701.0	25	1397530.0	960	449
141	41_gas	41	13-12-2019	16:48:55:044	rl	gas	3065	3065	60	1397735	00727.png	706.0	25	1397730.0	930	446
142	41_gas	41	13-12-2019	16:48:55:243	rl	gas	3077	3077	60	1397935	00732.png	711.0	25	1397930.0	853	420
143	41_gas	41	13-12-2019	16:48:55:443	rl	gas	3089	3089	60	1398134	00737.png	716.0	25	1398130.0	805	396
144	41_gas	41	13-12-2019	16:48:55:642	rl	gas	3101	3101	60	1398333	00742.png	721.0	25	1398330.0	836	430
145	41_gas	41	13-12-2019	16:48:55:841	rl	gas	3113	3113	60	1398532	00747.png	726.0	25	1398530.0	809	389
146	41_gas	41	13-12-2019	16:48:56:040	rl	gas	3125	3125	60	1398732	00752.png	731.0	25	1398730.0	823	398
147	41_gas	41	13-12-2019	16:48:56:239	rl	gas	3137	3137	60	1398931	00757.png	736.0	25	1398930.0	787	386
148	41_gas	41	13-12-2019	16:48:56:438	rl	gas	3149	3149	60	1399130	00762.png	741.0	25	1399130.0	709	361
149	41_gas	41	13-12-2019	16:48:56:637	rl	gas	3161	3161	60	1399329	00767.png	746.0	25	1399330.0	885	392
