	subject_location	subject_id	date	daytime	setting_id	trial_id	sample_id	sample_n	sample_rate	sample_time_smi	frame_id	frame_n	frame_rate	frame_time_smi	fix_pos_x	fix_pos_y
0	34_reg	34	04-12-2019	17:57:25:434	rl	reg	1056	1056	60	2518240	00018.png	1.0	25	2518241.0	183	539
1	34_reg	34	04-12-2019	17:57:25:634	rl	reg	1068	1068	60	2518439	00023.png	6.0	25	2518441.0	-2251	617
2	34_reg	34	04-12-2019	17:57:25:833	rl	reg	1080	1080	60	2518638	00028.png	11.0	25	2518641.0	-7715	824
3	34_reg	34	04-12-2019	17:57:26:032	rl	reg	1092	1092	60	2518837	00033.png	16.0	25	2518841.0	2423	478
4	34_reg	34	04-12-2019	17:57:26:231	rl	reg	1104	1104	60	2519036	00038.png	21.0	25	2519041.0	3421	454
5	34_reg	34	04-12-2019	17:57:26:430	rl	reg	1116	1116	60	2519236	00043.png	26.0	25	2519241.0	1635	485
6	34_reg	34	04-12-2019	17:57:26:629	rl	reg	1127	1127	60	2519435	00048.png	31.0	25	2519441.0	641	553
7	34_reg	34	04-12-2019	17:57:26:828	rl	reg	1139	1139	60	2519634	00053.png	36.0	25	2519641.0	0	0
8	34_reg	34	04-12-2019	17:57:27:027	rl	reg	1151	1151	60	2519833	00058.png	41.0	25	2519841.0	641	553
9	34_reg	34	04-12-2019	17:57:27:243	rl	reg	1164	1164	60	2520049	00063.png	46.0	25	2520041.0	1937	6082
10	34_reg	34	04-12-2019	17:57:27:442	rl	reg	1176	1176	60	2520248	00068.png	51.0	25	2520241.0	3881	378
11	34_reg	34	04-12-2019	17:57:27:642	rl	reg	1188	1188	60	2520447	00073.png	56.0	25	2520441.0	0	0
12	34_reg	34	04-12-2019	17:57:27:840	rl	reg	1200	1200	60	2520646	00078.png	61.0	25	2520641.0	0	0
13	34_reg	34	04-12-2019	17:57:28:040	rl	reg	1212	1212	60	2520845	00083.png	66.0	25	2520841.0	-613	532
14	34_reg	34	04-12-2019	17:57:28:239	rl	reg	1224	1224	60	2521044	00088.png	71.0	25	2521041.0	1151	662
15	34_reg	34	04-12-2019	17:57:28:438	rl	reg	1236	1236	60	2521244	00093.png	76.0	25	2521241.0	-710	-380
16	34_reg	34	04-12-2019	17:57:28:637	rl	reg	1248	1248	60	2521443	00098.png	81.0	25	2521441.0	0	0
17	34_reg	34	04-12-2019	17:57:28:836	rl	reg	1260	1260	60	2521642	00103.png	86.0	25	2521641.0	-4852	-2183
18	34_reg	34	04-12-2019	17:57:29:035	rl	reg	1272	1272	60	2521841	00108.png	91.0	25	2521841.0	1158	610
19	34_reg	34	04-12-2019	17:57:29:235	rl	reg	1284	1284	60	2522040	00113.png	96.0	25	2522041.0	1213	623
20	34_reg	34	04-12-2019	17:57:29:434	rl	reg	1296	1296	60	2522239	00118.png	101.0	25	2522241.0	-348	567
21	34_reg	34	04-12-2019	17:57:29:633	rl	reg	1308	1308	60	2522439	00123.png	106.0	25	2522441.0	-663	601
22	34_reg	34	04-12-2019	17:57:29:832	rl	reg	1320	1320	60	2522638	00128.png	111.0	25	2522641.0	-432	589
23	34_reg	34	04-12-2019	17:57:30:031	rl	reg	1332	1332	60	2522837	00133.png	116.0	25	2522841.0	139	554
24	34_reg	34	04-12-2019	17:57:30:230	rl	reg	1344	1344	60	2523036	00138.png	121.0	25	2523041.0	274	547
25	34_reg	34	04-12-2019	17:57:30:429	rl	reg	1354	1354	60	2523235	00143.png	126.0	25	2523241.0	78	537
26	34_reg	34	04-12-2019	17:57:30:629	rl	reg	1366	1366	60	2523434	00148.png	131.0	25	2523441.0	337	544
27	34_reg	34	04-12-2019	17:57:30:828	rl	reg	1378	1378	60	2523633	00153.png	136.0	25	2523641.0	250	542
28	34_reg	34	04-12-2019	17:57:31:044	rl	reg	1391	1391	60	2523849	00158.png	141.0	25	2523841.0	94	518
29	34_reg	34	04-12-2019	17:57:31:243	rl	reg	1403	1403	60	2524048	00163.png	146.0	25	2524041.0	375	538
30	34_reg	34	04-12-2019	17:57:31:442	rl	reg	1415	1415	60	2524248	00168.png	151.0	25	2524241.0	404	539
31	34_reg	34	04-12-2019	17:57:31:641	rl	reg	1427	1427	60	2524447	00173.png	156.0	25	2524441.0	403	540
32	34_reg	34	04-12-2019	17:57:31:840	rl	reg	1439	1439	60	2524645	00178.png	161.0	25	2524641.0	358	539
33	34_reg	34	04-12-2019	17:57:32:039	rl	reg	1451	1451	60	2524845	00183.png	166.0	25	2524841.0	207	536
34	34_reg	34	04-12-2019	17:57:32:238	rl	reg	1463	1463	60	2525044	00188.png	171.0	25	2525041.0	149	534
35	34_reg	34	04-12-2019	17:57:32:438	rl	reg	1475	1475	60	2525243	00193.png	176.0	25	2525241.0	204	538
36	34_reg	34	04-12-2019	17:57:32:637	rl	reg	1487	1487	60	2525442	00198.png	181.0	25	2525441.0	236	540
37	34_reg	34	04-12-2019	17:57:32:835	rl	reg	1499	1499	60	2525641	00203.png	186.0	25	2525641.0	749	582
38	34_reg	34	04-12-2019	17:57:33:035	rl	reg	1511	1511	60	2525840	00208.png	191.0	25	2525841.0	1053	667
39	34_reg	34	04-12-2019	17:57:33:234	rl	reg	1523	1523	60	2526040	00213.png	196.0	25	2526041.0	436	570
40	34_reg	34	04-12-2019	17:57:33:433	rl	reg	1535	1535	60	2526239	00218.png	201.0	25	2526241.0	-360	572
41	34_reg	34	04-12-2019	17:57:33:632	rl	reg	1547	1547	60	2526438	00223.png	206.0	25	2526441.0	441	557
42	34_reg	34	04-12-2019	17:57:33:832	rl	reg	1559	1559	60	2526637	00228.png	211.0	25	2526641.0	612	556
43	34_reg	34	04-12-2019	17:57:34:031	rl	reg	1571	1571	60	2526836	00233.png	216.0	25	2526841.0	-1995	533
44	34_reg	34	04-12-2019	17:57:34:230	rl	reg	1582	1582	60	2527035	00238.png	221.0	25	2527041.0	0	0
45	34_reg	34	04-12-2019	17:57:34:429	rl	reg	1594	1594	60	2527234	00243.png	226.0	25	2527241.0	0	0
46	34_reg	34	04-12-2019	17:57:34:628	rl	reg	1606	1606	60	2527434	00248.png	231.0	25	2527441.0	0	0
47	34_reg	34	04-12-2019	17:57:34:827	rl	reg	1618	1618	60	2527633	00253.png	236.0	25	2527641.0	-280	585
48	34_reg	34	04-12-2019	17:57:35:043	rl	reg	1631	1631	60	2527849	00258.png	241.0	25	2527841.0	-165	573
49	34_reg	34	04-12-2019	17:57:35:242	rl	reg	1643	1643	60	2528048	00263.png	246.0	25	2528041.0	94	564
50	34_reg	34	04-12-2019	17:57:35:441	rl	reg	1655	1655	60	2528247	00268.png	251.0	25	2528241.0	1275	-377
51	34_reg	34	04-12-2019	17:57:35:640	rl	reg	1667	1667	60	2528446	00273.png	256.0	25	2528441.0	704	567
52	34_reg	34	04-12-2019	17:57:35:839	rl	reg	1679	1679	60	2528645	00278.png	261.0	25	2528641.0	608	556
53	34_reg	34	04-12-2019	17:57:36:039	rl	reg	1691	1691	60	2528844	00283.png	266.0	25	2528841.0	406	540
54	34_reg	34	04-12-2019	17:57:36:238	rl	reg	1703	1703	60	2529044	00288.png	271.0	25	2529041.0	40	533
55	34_reg	34	04-12-2019	17:57:36:437	rl	reg	1715	1715	60	2529243	00293.png	276.0	25	2529241.0	-65	536
56	34_reg	34	04-12-2019	17:57:36:636	rl	reg	1727	1727	60	2529442	00298.png	281.0	25	2529441.0	-91	537
57	34_reg	34	04-12-2019	17:57:36:835	rl	reg	1739	1739	60	2529641	00303.png	286.0	25	2529641.0	168	540
58	34_reg	34	04-12-2019	17:57:37:034	rl	reg	1751	1751	60	2529840	00308.png	291.0	25	2529841.0	186	540
59	34_reg	34	04-12-2019	17:57:37:233	rl	reg	1763	1763	60	2530039	00313.png	296.0	25	2530041.0	209	543
60	34_reg	34	04-12-2019	17:57:37:433	rl	reg	1775	1775	60	2530238	00318.png	301.0	25	2530241.0	36	540
61	34_reg	34	04-12-2019	17:57:37:632	rl	reg	1787	1787	60	2530438	00323.png	306.0	25	2530441.0	-257	552
62	34_reg	34	04-12-2019	17:57:37:831	rl	reg	1799	1799	60	2530636	00328.png	311.0	25	2530641.0	-780	540
63	34_reg	34	04-12-2019	17:57:38:030	rl	reg	1810	1810	60	2530836	00333.png	316.0	25	2530841.0	6159	2903
64	34_reg	34	04-12-2019	17:57:38:229	rl	reg	1821	1821	60	2531035	00338.png	321.0	25	2531041.0	50	569
65	34_reg	34	04-12-2019	17:57:38:428	rl	reg	1833	1833	60	2531234	00343.png	326.0	25	2531241.0	-647	563
66	34_reg	34	04-12-2019	17:57:38:627	rl	reg	1845	1845	60	2531433	00348.png	331.0	25	2531441.0	513	586
67	34_reg	34	04-12-2019	17:57:38:843	rl	reg	1858	1858	60	2531649	00353.png	336.0	25	2531641.0	462	580
68	34_reg	34	04-12-2019	17:57:39:043	rl	reg	1870	1870	60	2531848	00358.png	341.0	25	2531841.0	489	593
69	34_reg	34	04-12-2019	17:57:39:242	rl	reg	1882	1882	60	2532047	00363.png	346.0	25	2532041.0	-377	538
70	34_reg	34	04-12-2019	17:57:39:441	rl	reg	1894	1894	60	2532247	00368.png	351.0	25	2532241.0	245	553
71	34_reg	34	04-12-2019	17:57:39:640	rl	reg	1906	1906	60	2532445	00373.png	356.0	25	2532441.0	295	561
72	34_reg	34	04-12-2019	17:57:39:839	rl	reg	1918	1918	60	2532645	00378.png	361.0	25	2532641.0	-137	499
73	34_reg	34	04-12-2019	17:57:40:038	rl	reg	1930	1930	60	2532844	00383.png	366.0	25	2532841.0	725	562
74	34_reg	34	04-12-2019	17:57:40:237	rl	reg	1942	1942	60	2533043	00388.png	371.0	25	2533041.0	32	530
75	34_reg	34	04-12-2019	17:57:40:437	rl	reg	1954	1954	60	2533242	00393.png	376.0	25	2533241.0	1063	619
76	34_reg	34	04-12-2019	17:57:40:636	rl	reg	1966	1966	60	2533441	00398.png	381.0	25	2533441.0	1205	663
77	34_reg	34	04-12-2019	17:57:40:835	rl	reg	1978	1978	60	2533640	00403.png	386.0	25	2533641.0	-1476	-735
78	34_reg	34	04-12-2019	17:57:41:034	rl	reg	1990	1990	60	2533839	00408.png	391.0	25	2533841.0	2177	988
79	34_reg	34	04-12-2019	17:57:41:233	rl	reg	2002	2002	60	2534039	00413.png	396.0	25	2534041.0	1569	761
80	34_reg	34	04-12-2019	17:57:41:432	rl	reg	2014	2014	60	2534238	00418.png	401.0	25	2534241.0	547	-2
81	34_reg	34	04-12-2019	17:57:41:631	rl	reg	2026	2026	60	2534437	00423.png	406.0	25	2534441.0	407	-41
82	34_reg	34	04-12-2019	17:57:41:831	rl	reg	2038	2038	60	2534636	00428.png	411.0	25	2534641.0	-802	-494
83	34_reg	34	04-12-2019	17:57:42:030	rl	reg	2049	2049	60	2534835	00433.png	416.0	25	2534841.0	33	-156
84	34_reg	34	04-12-2019	17:57:42:229	rl	reg	2060	2060	60	2535034	00438.png	421.0	25	2535041.0	515	-20
85	34_reg	34	04-12-2019	17:57:42:428	rl	reg	2072	2072	60	2535234	00443.png	426.0	25	2535241.0	2030	996
86	34_reg	34	04-12-2019	17:57:42:627	rl	reg	2084	2084	60	2535433	00448.png	431.0	25	2535441.0	701	569
87	34_reg	34	04-12-2019	17:57:42:843	rl	reg	2097	2097	60	2535648	00453.png	436.0	25	2535641.0	865	449
88	34_reg	34	04-12-2019	17:57:43:042	rl	reg	2109	2109	60	2535848	00458.png	441.0	25	2535841.0	0	0
89	34_reg	34	04-12-2019	17:57:43:241	rl	reg	2121	2121	60	2536047	00463.png	446.0	25	2536041.0	2459	383
90	34_reg	34	04-12-2019	17:57:43:440	rl	reg	2133	2133	60	2536246	00468.png	451.0	25	2536241.0	-1743	627
91	34_reg	34	04-12-2019	17:57:43:639	rl	reg	2145	2145	60	2536445	00473.png	456.0	25	2536441.0	661	560
92	34_reg	34	04-12-2019	17:57:43:838	rl	reg	2157	2157	60	2536644	00478.png	461.0	25	2536641.0	450	544
93	34_reg	34	04-12-2019	17:57:44:038	rl	reg	2169	2169	60	2536844	00483.png	466.0	25	2536841.0	621	558
94	34_reg	34	04-12-2019	17:57:44:237	rl	reg	2181	2181	60	2537042	00488.png	471.0	25	2537041.0	411	548
95	34_reg	34	04-12-2019	17:57:44:436	rl	reg	2193	2193	60	2537242	00493.png	476.0	25	2537241.0	0	0
96	34_reg	34	04-12-2019	17:57:44:635	rl	reg	2205	2205	60	2537441	00498.png	481.0	25	2537441.0	-77	567
97	34_reg	34	04-12-2019	17:57:44:834	rl	reg	2217	2217	60	2537640	00503.png	486.0	25	2537641.0	370	571
98	34_reg	34	04-12-2019	17:57:45:033	rl	reg	2229	2229	60	2537839	00508.png	491.0	25	2537841.0	299	573
99	34_reg	34	04-12-2019	17:57:45:233	rl	reg	2241	2241	60	2538038	00513.png	496.0	25	2538041.0	649	581
100	34_reg	34	04-12-2019	17:57:45:432	rl	reg	2253	2253	60	2538237	00518.png	501.0	25	2538241.0	-1439	572
101	34_reg	34	04-12-2019	17:57:45:631	rl	reg	2265	2265	60	2538436	00523.png	506.0	25	2538441.0	-708	546
102	34_reg	34	04-12-2019	17:57:45:847	rl	reg	2277	2277	60	2538652	00528.png	511.0	25	2538641.0	-564	552
103	34_reg	34	04-12-2019	17:57:46:029	rl	reg	2287	2287	60	2538835	00533.png	516.0	25	2538841.0	1025	641
104	34_reg	34	04-12-2019	17:57:46:228	rl	reg	2298	2298	60	2539034	00538.png	521.0	25	2539041.0	617	564
105	34_reg	34	04-12-2019	17:57:46:427	rl	reg	2310	2310	60	2539233	00543.png	526.0	25	2539241.0	-568	569
106	34_reg	34	04-12-2019	17:57:46:643	rl	reg	2323	2323	60	2539449	00548.png	531.0	25	2539441.0	-1844	630
107	34_reg	34	04-12-2019	17:57:46:842	rl	reg	2335	2335	60	2539648	00553.png	536.0	25	2539641.0	-489	534
108	34_reg	34	04-12-2019	17:57:47:042	rl	reg	2347	2347	60	2539847	00558.png	541.0	25	2539841.0	-1489	515
109	34_reg	34	04-12-2019	17:57:47:241	rl	reg	2359	2359	60	2540046	00563.png	546.0	25	2540041.0	0	0
110	34_reg	34	04-12-2019	17:57:47:440	rl	reg	2371	2371	60	2540246	00568.png	551.0	25	2540241.0	-4828	768
111	34_reg	34	04-12-2019	17:57:47:639	rl	reg	2383	2383	60	2540444	00573.png	556.0	25	2540441.0	-8373	875
112	34_reg	34	04-12-2019	17:57:47:838	rl	reg	2395	2395	60	2540644	00578.png	561.0	25	2540641.0	-5097	709
113	34_reg	34	04-12-2019	17:57:48:037	rl	reg	2407	2407	60	2540843	00583.png	566.0	25	2540841.0	-2095	643
114	34_reg	34	04-12-2019	17:57:48:237	rl	reg	2419	2419	60	2541042	00588.png	571.0	25	2541041.0	-5097	709
115	34_reg	34	04-12-2019	17:57:48:436	rl	reg	2431	2431	60	2541241	00593.png	576.0	25	2541241.0	-5097	709
116	34_reg	34	04-12-2019	17:57:48:635	rl	reg	2443	2443	60	2541440	00598.png	581.0	25	2541441.0	0	0
117	34_reg	34	04-12-2019	17:57:48:834	rl	reg	2455	2455	60	2541639	00603.png	586.0	25	2541641.0	-5097	709
118	34_reg	34	04-12-2019	17:57:49:033	rl	reg	2467	2467	60	2541839	00608.png	591.0	25	2541841.0	-5097	709
119	34_reg	34	04-12-2019	17:57:49:232	rl	reg	2479	2479	60	2542038	00613.png	596.0	25	2542041.0	-5097	709
120	34_reg	34	04-12-2019	17:57:49:431	rl	reg	2491	2491	60	2542237	00618.png	601.0	25	2542241.0	3658	169
121	34_reg	34	04-12-2019	17:57:49:630	rl	reg	2503	2503	60	2542436	00623.png	606.0	25	2542441.0	8807	-312
122	34_reg	34	04-12-2019	17:57:49:830	rl	reg	2513	2513	60	2542635	00628.png	611.0	25	2542641.0	2012	369
123	34_reg	34	04-12-2019	17:57:50:029	rl	reg	2525	2525	60	2542834	00633.png	616.0	25	2542841.0	-177	561
124	34_reg	34	04-12-2019	17:57:50:228	rl	reg	2537	2537	60	2543033	00638.png	621.0	25	2543041.0	-753	608
125	34_reg	34	04-12-2019	17:57:50:427	rl	reg	2548	2548	60	2543233	00643.png	626.0	25	2543241.0	-875	615
126	34_reg	34	04-12-2019	17:57:50:643	rl	reg	2561	2561	60	2543448	00648.png	631.0	25	2543441.0	-940	606
127	34_reg	34	04-12-2019	17:57:50:842	rl	reg	2573	2573	60	2543647	00653.png	636.0	25	2543641.0	-940	606
128	34_reg	34	04-12-2019	17:57:51:041	rl	reg	2585	2585	60	2543847	00658.png	641.0	25	2543841.0	2027	329
129	34_reg	34	04-12-2019	17:57:51:240	rl	reg	2597	2597	60	2544046	00663.png	646.0	25	2544041.0	1081	410
130	34_reg	34	04-12-2019	17:57:51:439	rl	reg	2609	2609	60	2544245	00668.png	651.0	25	2544241.0	4971	309
131	34_reg	34	04-12-2019	17:57:51:638	rl	reg	2621	2621	60	2544444	00673.png	656.0	25	2544441.0	199	557
132	34_reg	34	04-12-2019	17:57:51:838	rl	reg	2633	2633	60	2544643	00678.png	661.0	25	2544641.0	158	554
133	34_reg	34	04-12-2019	17:57:52:037	rl	reg	2645	2645	60	2544842	00683.png	666.0	25	2544841.0	139	554
134	34_reg	34	04-12-2019	17:57:52:236	rl	reg	2657	2657	60	2545042	00688.png	671.0	25	2545041.0	-577	548
135	34_reg	34	04-12-2019	17:57:52:435	rl	reg	2669	2669	60	2545240	00693.png	676.0	25	2545241.0	106	533
136	34_reg	34	04-12-2019	17:57:52:634	rl	reg	2681	2681	60	2545440	00698.png	681.0	25	2545441.0	389	548
137	34_reg	34	04-12-2019	17:57:52:834	rl	reg	2693	2693	60	2545639	00703.png	686.0	25	2545641.0	409	551
138	34_reg	34	04-12-2019	17:57:53:032	rl	reg	2705	2705	60	2545838	00708.png	691.0	25	2545841.0	1045	486
139	34_reg	34	04-12-2019	17:57:53:232	rl	reg	2717	2717	60	2546037	00713.png	696.0	25	2546041.0	1049	487
140	34_reg	34	04-12-2019	17:57:53:431	rl	reg	2729	2729	60	2546237	00718.png	701.0	25	2546241.0	417	552
141	34_reg	34	04-12-2019	17:57:53:630	rl	reg	2741	2741	60	2546436	00723.png	706.0	25	2546441.0	-214	542
142	34_reg	34	04-12-2019	17:57:53:829	rl	reg	2751	2751	60	2546635	00728.png	711.0	25	2546641.0	-787	531
143	34_reg	34	04-12-2019	17:57:54:028	rl	reg	2763	2763	60	2546834	00733.png	716.0	25	2546841.0	-452	566
144	34_reg	34	04-12-2019	17:57:54:227	rl	reg	2775	2775	60	2547033	00738.png	721.0	25	2547041.0	-407	559
145	34_reg	34	04-12-2019	17:57:54:443	rl	reg	2788	2788	60	2547249	00743.png	726.0	25	2547241.0	-449	548
146	34_reg	34	04-12-2019	17:57:54:642	rl	reg	2800	2800	60	2547448	00748.png	731.0	25	2547441.0	1168	775
147	34_reg	34	04-12-2019	17:57:54:842	rl	reg	2812	2812	60	2547647	00753.png	736.0	25	2547641.0	916	671
148	34_reg	34	04-12-2019	17:57:55:041	rl	reg	2824	2824	60	2547846	00758.png	741.0	25	2547841.0	1142	692
149	34_reg	34	04-12-2019	17:57:55:240	rl	reg	2836	2836	60	2548045	00763.png	746.0	25	2548041.0	2199	1029
