	setting_id	subject_id	date	trial_id	sample_id	frame_rate	frame_id	fix_pos_x_old	fix_pos_y_old	cam_angle_x	cam_angle_y	cam_angle_z	fix_pos_x	fix_pos_y	fix_pos_avrgd	fix_pos_diff_x	fix_pos_diff_y
0	vr	24	2019-10-31	rat_1	475	10	00260.png	350.5	421.5	1	183	357	350.5	421.5	0	0.0	0.0
1	vr	24	2019-10-31	rat_1	492	10	00270.png	431.0	417.0	1	183	357	430.75	416.25	1	0.25	0.75
2	vr	24	2019-10-31	rat_1	493	10	00270.png	430.5	415.5	1	183	357	430.75	416.25	1	-0.25	-0.75
3	vr	24	2019-10-31	rat_1	507	10	00280.png	354.0	416.5	1	184	356	354.0	416.5	0	0.0	0.0
4	vr	24	2019-10-31	rat_1	524	10	00290.png	349.5	418.0	1	186	356	349.5	418.0	0	0.0	0.0
5	vr	24	2019-10-31	rat_1	542	10	00300.png	416.0	418.5	1	190	356	416.0	418.5	0	0.0	0.0
6	vr	24	2019-10-31	rat_1	560	10	00310.png	487.5	420.0	1	195	356	487.5	420.0	0	0.0	0.0
7	vr	24	2019-10-31	rat_1	578	10	00320.png	530.5	418.5	1	202	356	530.5	418.5	0	0.0	0.0
8	vr	24	2019-10-31	rat_1	596	10	00330.png	484.0	422.5	2	209	356	484.0	422.5	0	0.0	0.0
9	vr	24	2019-10-31	rat_1	614	10	00340.png	538.0	427.0	3	216	356	538.0	427.0	0	0.0	0.0
10	vr	24	2019-10-31	rat_1	631	10	00350.png	499.0	425.0	3	221	356	499.0	425.0	0	0.0	0.0
11	vr	24	2019-10-31	rat_1	649	10	00360.png	480.0	424.5	3	222	356	480.0	424.5	0	0.0	0.0
12	vr	24	2019-10-31	rat_1	667	10	00370.png	478.0	423.5	3	221	356	478.0	423.5	0	0.0	0.0
13	vr	24	2019-10-31	rat_1	684	10	00380.png	469.5	417.0	3	220	357	469.5	417.0	0	0.0	0.0
14	vr	24	2019-10-31	rat_1	702	10	00390.png	467.5	418.5	3	218	357	467.5	418.5	0	0.0	0.0
15	vr	24	2019-10-31	rat_1	720	10	00400.png	473.5	415.5	3	214	357	473.5	415.5	0	0.0	0.0
16	vr	24	2019-10-31	rat_1	738	10	00410.png	303.0	418.5	3	212	357	303.0	418.5	0	0.0	0.0
17	vr	24	2019-10-31	rat_1	755	10	00420.png	311.5	419.5	3	210	357	311.75	419.75	1	-0.25	-0.25
18	vr	24	2019-10-31	rat_1	756	10	00420.png	312.0	420.0	3	210	357	311.75	419.75	1	0.25	0.25
19	vr	24	2019-10-31	rat_1	772	10	00430.png	320.5	418.0	3	208	357	320.5	418.0	0	0.0	0.0
20	vr	24	2019-10-31	rat_1	789	10	00440.png	443.0	422.0	3	207	357	443.0	422.0	0	0.0	0.0
21	vr	24	2019-10-31	rat_1	807	10	00450.png	438.5	416.0	3	207	357	438.5	416.0	0	0.0	0.0
22	vr	24	2019-10-31	rat_1	824	10	00460.png	426.0	415.0	3	208	357	426.0	415.0	0	0.0	0.0
23	vr	24	2019-10-31	rat_1	842	10	00470.png	412.0	414.5	3	208	357	412.0	414.5	0	0.0	0.0
24	vr	24	2019-10-31	rat_1	858	10	00480.png	382.0	413.0	3	209	357	382.0	413.0	0	0.0	0.0
25	vr	24	2019-10-31	rat_1	876	10	00490.png	361.0	415.0	3	210	357	361.0	415.0	0	0.0	0.0
26	vr	24	2019-10-31	rat_1	894	10	00500.png	439.0	417.0	3	210	356	439.0	417.0	0	0.0	0.0
27	vr	24	2019-10-31	rat_1	912	10	00510.png	437.0	416.5	3	211	357	437.0	416.5	0	0.0	0.0
28	vr	24	2019-10-31	rat_1	930	10	00520.png	543.5	416.0	3	213	356	543.5	416.0	0	0.0	0.0
29	vr	24	2019-10-31	rat_1	947	10	00530.png	529.5	416.0	3	214	356	529.5	416.0	0	0.0	0.0
30	vr	24	2019-10-31	rat_1	965	10	00540.png	528.5	416.0	3	214	356	528.5	416.0	0	0.0	0.0
31	vr	24	2019-10-31	rat_1	983	10	00550.png	530.5	416.0	3	213	357	530.5	416.0	0	0.0	0.0
32	vr	24	2019-10-31	rat_1	1001	10	00560.png	599.0	411.5	3	213	357	599.0	411.5	0	0.0	0.0
33	vr	24	2019-10-31	rat_1	1018	10	00570.png	587.5	413.5	3	213	357	587.5	413.5	0	0.0	0.0
34	vr	24	2019-10-31	rat_1	1036	10	00580.png	546.5	415.5	3	214	357	546.5	415.5	0	0.0	0.0
35	vr	24	2019-10-31	rat_1	1053	10	00590.png	541.5	413.0	3	214	357	541.5	413.0	0	0.0	0.0
36	vr	24	2019-10-31	rat_1	1071	10	00600.png	523.0	413.0	4	213	357	523.0	413.0	0	0.0	0.0
37	vr	24	2019-10-31	rat_1	1088	10	00610.png	510.5	414.0	3	213	357	510.0	413.75	1	0.5	0.25
38	vr	24	2019-10-31	rat_1	1089	10	00610.png	509.5	413.5	3	213	357	510.0	413.75	1	-0.5	-0.25
39	vr	24	2019-10-31	rat_1	1105	10	00620.png	282.0	419.0	3	210	357	282.0	419.0	0	0.0	0.0
40	vr	24	2019-10-31	rat_1	1106	10	00620.png	282.0	419.0	3	210	357	282.0	419.0	0	0.0	0.0
41	vr	24	2019-10-31	rat_1	1121	10	00630.png	264.0	418.0	3	206	357	264.0	418.0	0	0.0	0.0
42	vr	24	2019-10-31	rat_1	1139	10	00640.png	267.5	418.0	3	205	356	267.5	418.0	0	0.0	0.0
43	vr	24	2019-10-31	rat_1	1157	10	00650.png	274.5	418.5	3	205	356	274.5	418.5	0	0.0	0.0
44	vr	24	2019-10-31	rat_1	1175	10	00660.png	343.0	422.5	3	205	357	343.0	422.5	0	0.0	0.0
45	vr	24	2019-10-31	rat_1	1192	10	00670.png	464.0	419.5	3	205	356	464.0	419.5	0	0.0	0.0
46	vr	24	2019-10-31	rat_1	1209	10	00680.png	458.0	414.5	3	205	357	458.0	414.5	0	0.0	0.0
47	vr	24	2019-10-31	rat_1	1227	10	00690.png	460.5	416.5	3	205	357	460.5	416.5	0	0.0	0.0
48	vr	24	2019-10-31	rat_1	1245	10	00700.png	489.5	414.5	3	206	357	489.5	414.5	0	0.0	0.0
49	vr	24	2019-10-31	rat_1	1263	10	00710.png	475.0	415.5	3	207	357	474.5	415.25	1	0.5	0.25
50	vr	24	2019-10-31	rat_1	1264	10	00710.png	474.0	415.0	3	207	357	474.5	415.25	1	-0.5	-0.25
51	vr	24	2019-10-31	rat_1	1281	10	00720.png	296.5	421.5	3	205	357	296.5	421.5	0	0.0	0.0
52	vr	24	2019-10-31	rat_1	1299	10	00730.png	312.5	419.5	3	204	357	312.5	419.5	0	0.0	0.0
53	vr	24	2019-10-31	rat_1	1317	10	00740.png	287.5	414.0	3	202	357	287.5	414.0	0	0.0	0.0
54	vr	24	2019-10-31	rat_1	1334	10	00750.png	295.5	415.5	3	202	356	295.5	415.5	0	0.0	0.0
55	vr	24	2019-10-31	rat_1	1352	10	00760.png	334.5	416.0	3	204	356	334.5	416.0	0	0.0	0.0
56	vr	24	2019-10-31	rat_1	1369	10	00770.png	470.5	417.0	3	204	356	469.75	416.75	1	0.75	0.25
57	vr	24	2019-10-31	rat_1	1370	10	00770.png	469.0	416.5	3	204	356	469.75	416.75	1	-0.75	-0.25
58	vr	24	2019-10-31	rat_1	1386	10	00780.png	459.5	415.5	3	206	356	459.5	415.5	0	0.0	0.0
59	vr	24	2019-10-31	rat_1	1403	10	00790.png	445.0	415.0	3	208	356	445.0	415.0	0	0.0	0.0
60	vr	24	2019-10-31	rat_1	1421	10	00800.png	550.5	412.0	3	213	356	550.5	412.0	0	0.0	0.0
61	vr	24	2019-10-31	rat_1	1439	10	00810.png	521.5	415.0	3	216	357	520.25	415.0	1	1.25	0.0
62	vr	24	2019-10-31	rat_1	1440	10	00810.png	519.0	415.0	3	217	357	520.25	415.0	1	-1.25	0.0
63	vr	24	2019-10-31	rat_1	1456	10	00820.png	448.5	420.0	2	219	357	448.5	420.0	0	0.0	0.0
64	vr	24	2019-10-31	rat_1	1472	10	00830.png	564.5	420.5	2	221	357	564.5	420.5	0	0.0	0.0
65	vr	24	2019-10-31	rat_1	1490	10	00840.png	528.0	422.0	2	227	357	528.0	422.0	0	0.0	0.0
66	vr	24	2019-10-31	rat_1	1508	10	00850.png	539.0	422.5	3	235	357	539.0	422.5	0	0.0	0.0
67	vr	24	2019-10-31	rat_1	1525	10	00860.png	489.5	421.0	3	241	357	489.5	421.0	0	0.0	0.0
68	vr	24	2019-10-31	rat_1	1541	10	00870.png	541.5	423.0	3	242	357	541.5	423.0	0	0.0	0.0
69	vr	24	2019-10-31	rat_1	1558	10	00880.png	537.0	422.0	3	243	357	537.0	422.0	0	0.0	0.0
70	vr	24	2019-10-31	rat_1	1574	10	00890.png	589.0	423.5	3	245	357	612.8333333333334	426.3333333333333	1	-23.83333333333337	-2.8333333333333144
71	vr	24	2019-10-31	rat_1	1575	10	00890.png	607.5	424.5	3	246	357	612.8333333333334	426.3333333333333	1	-5.333333333333371	-1.8333333333333144
72	vr	24	2019-10-31	rat_1	1576	10	00890.png	642.0	431.0	3	246	357	612.8333333333334	426.3333333333333	1	29.16666666666663	4.666666666666686
73	vr	24	2019-10-31	rat_1	1592	10	00900.png	635.0	439.0	3	260	358	635.5	438.75	1	-0.5	0.25
74	vr	24	2019-10-31	rat_1	1593	10	00900.png	636.0	438.5	3	261	358	635.5	438.75	1	0.5	-0.25
75	vr	24	2019-10-31	rat_1	1607	10	00910.png	534.5	431.0	3	269	359	532.5	431.0	1	2.0	0.0
76	vr	24	2019-10-31	rat_1	1608	10	00910.png	530.5	431.0	3	270	359	532.5	431.0	1	-2.0	0.0
77	vr	24	2019-10-31	rat_1	1625	10	00920.png	568.0	422.5	3	272	358	568.0	422.5	0	0.0	0.0
78	vr	24	2019-10-31	rat_1	1643	10	00930.png	570.0	423.5	3	271	358	570.0	423.5	0	0.0	0.0
79	vr	24	2019-10-31	rat_1	1660	10	00940.png	488.0	436.5	3	269	359	488.0	436.5	0	0.0	0.0
80	vr	24	2019-10-31	rat_1	1678	10	00950.png	382.5	432.5	3	261	359	382.5	432.5	0	0.0	0.0
81	vr	24	2019-10-31	rat_1	1696	10	00960.png	351.0	432.0	3	250	358	351.0	432.0	0	0.0	0.0
82	vr	24	2019-10-31	rat_1	1713	10	00970.png	303.0	426.5	3	237	358	303.0	426.5	0	0.0	0.0
83	vr	24	2019-10-31	rat_1	1730	10	00980.png	296.5	428.0	2	226	358	296.5	428.0	0	0.0	0.0
84	vr	24	2019-10-31	rat_1	1748	10	00990.png	337.5	422.5	3	218	358	337.5	422.5	0	0.0	0.0
85	vr	24	2019-10-31	rat_1	1766	10	01000.png	303.5	416.5	3	210	358	303.5	416.5	0	0.0	0.0
