	setting_id	subject_id	date	trial_id	sample_id	frame_rate	frame_id	fix_pos_x_old	fix_pos_y_old	cam_angle_x	cam_angle_y	cam_angle_z	fix_pos_x	fix_pos_y	fix_pos_avrgd	fix_pos_diff_x	fix_pos_diff_y
0	vr	24	2019-10-31	bac_1	465	10	00260.png	358.5	403.0	4	178	359	358.5	403.0	0	0.0	0.0
1	vr	24	2019-10-31	bac_1	482	10	00270.png	479.5	398.5	4	178	358	479.5	398.75	1	0.0	-0.25
2	vr	24	2019-10-31	bac_1	483	10	00270.png	479.5	399.0	4	178	358	479.5	398.75	1	0.0	0.25
3	vr	24	2019-10-31	bac_1	496	10	00280.png	473.5	399.5	4	179	358	473.5	399.5	0	0.0	0.0
4	vr	24	2019-10-31	bac_1	513	10	00290.png	464.0	401.0	4	182	358	464.0	401.0	0	0.0	0.0
5	vr	24	2019-10-31	bac_1	531	10	00300.png	491.0	408.0	3	195	357	491.0	408.0	0	0.0	0.0
6	vr	24	2019-10-31	bac_1	549	10	00310.png	471.5	409.5	2	209	357	471.5	409.5	0	0.0	0.0
7	vr	24	2019-10-31	bac_1	567	10	00320.png	501.0	418.0	2	222	357	501.0	418.0	0	0.0	0.0
8	vr	24	2019-10-31	bac_1	584	10	00330.png	451.5	422.0	2	227	356	451.5	422.0	0	0.0	0.0
9	vr	24	2019-10-31	bac_1	601	10	00340.png	282.5	416.0	2	222	356	282.5	416.0	0	0.0	0.0
10	vr	24	2019-10-31	bac_1	619	10	00350.png	342.5	412.0	2	210	357	342.5	412.0	0	0.0	0.0
11	vr	24	2019-10-31	bac_1	637	10	00360.png	321.0	423.5	2	191	358	321.0	423.5	0	0.0	0.0
12	vr	24	2019-10-31	bac_1	655	10	00370.png	225.5	421.5	3	168	358	225.5	421.5	0	0.0	0.0
13	vr	24	2019-10-31	bac_1	673	10	00380.png	217.5	417.0	2	146	359	217.5	417.0	0	0.0	0.0
14	vr	24	2019-10-31	bac_1	690	10	00390.png	303.5	415.5	1	128	0	303.5	415.5	0	0.0	0.0
15	vr	24	2019-10-31	bac_1	708	10	00400.png	272.5	411.5	1	117	1	272.5	411.5	0	0.0	0.0
16	vr	24	2019-10-31	bac_1	725	10	00410.png	247.0	404.5	1	115	1	247.0	404.5	0	0.0	0.0
17	vr	24	2019-10-31	bac_1	742	10	00420.png	250.5	404.5	2	115	1	250.5	404.5	0	0.0	0.0
18	vr	24	2019-10-31	bac_1	760	10	00430.png	262.5	424.5	3	116	1	262.5	424.5	0	0.0	0.0
19	vr	24	2019-10-31	bac_1	776	10	00440.png	256.0	419.5	3	118	1	256.1666666666667	419.8333333333333	1	-0.16666666666668561	-0.3333333333333144
20	vr	24	2019-10-31	bac_1	777	10	00440.png	256.0	420.0	3	118	1	256.1666666666667	419.8333333333333	1	-0.16666666666668561	0.16666666666668561
21	vr	24	2019-10-31	bac_1	778	10	00440.png	256.5	420.0	3	118	1	256.1666666666667	419.8333333333333	1	0.3333333333333144	0.16666666666668561
22	vr	24	2019-10-31	bac_1	795	10	00450.png	257.5	417.5	3	118	1	257.5	417.5	0	0.0	0.0
23	vr	24	2019-10-31	bac_1	812	10	00460.png	257.0	398.0	3	118	1	257.0	398.0	0	0.0	0.0
24	vr	24	2019-10-31	bac_1	828	10	00470.png	253.5	389.0	3	116	1	253.5	389.0	0	0.0	0.0
25	vr	24	2019-10-31	bac_1	846	10	00480.png	261.5	392.0	3	117	0	261.5	392.0	0	0.0	0.0
26	vr	24	2019-10-31	bac_1	864	10	00490.png	249.5	392.5	3	118	0	249.5	392.5	0	0.0	0.0
27	vr	24	2019-10-31	bac_1	881	10	00500.png	246.0	391.0	3	118	360	246.0	391.0	0	0.0	0.0
28	vr	24	2019-10-31	bac_1	899	10	00510.png	247.5	388.5	3	118	360	247.5	388.5	0	0.0	0.0
29	vr	24	2019-10-31	bac_1	916	10	00520.png	239.0	321.0	360	114	359	239.0	321.0	0	0.0	0.0
30	vr	24	2019-10-31	bac_1	933	10	00530.png	265.0	220.5	354	106	359	265.0	220.5	0	0.0	0.0
31	vr	24	2019-10-31	bac_1	952	10	00540.png	317.0	278.5	351	100	359	317.0	278.5	0	0.0	0.0
32	vr	24	2019-10-31	bac_1	969	10	00550.png	345.0	258.5	350	99	1	345.0	258.5	0	0.0	0.0
33	vr	24	2019-10-31	bac_1	987	10	00560.png	341.5	255.5	348	99	1	341.5	255.5	0	0.0	0.0
34	vr	24	2019-10-31	bac_1	1003	10	00570.png	297.5	145.0	347	99	0	297.25	146.0	1	0.25	-1.0
35	vr	24	2019-10-31	bac_1	1004	10	00570.png	297.0	147.0	348	99	0	297.25	146.0	1	-0.25	1.0
36	vr	24	2019-10-31	bac_1	1018	10	00580.png	331.0	458.0	349	101	1	330.25	458.5	1	0.75	-0.5
37	vr	24	2019-10-31	bac_1	1019	10	00580.png	329.5	459.0	349	101	0	330.25	458.5	1	-0.75	0.5
38	vr	24	2019-10-31	bac_1	1037	10	00590.png	327.0	455.0	349	102	0	327.0	455.0	0	0.0	0.0
39	vr	24	2019-10-31	bac_1	1054	10	00600.png	331.0	472.0	350	102	360	331.0	472.0	0	0.0	0.0
40	vr	24	2019-10-31	bac_1	1072	10	00610.png	329.0	464.0	351	103	359	329.0	464.0	0	0.0	0.0
41	vr	24	2019-10-31	bac_1	1090	10	00620.png	326.5	461.5	351	104	359	326.5	461.5	0	0.0	0.0
42	vr	24	2019-10-31	bac_1	1107	10	00630.png	324.0	462.0	351	104	360	324.0	462.0	0	0.0	0.0
43	vr	24	2019-10-31	bac_1	1124	10	00640.png	309.0	439.5	352	104	360	309.0	439.5	0	0.0	0.0
44	vr	24	2019-10-31	bac_1	1140	10	00650.png	313.0	429.0	351	102	0	313.5	427.75	1	-0.5	1.25
45	vr	24	2019-10-31	bac_1	1141	10	00650.png	314.0	426.5	351	102	0	313.5	427.75	1	0.5	-1.25
46	vr	24	2019-10-31	bac_1	1155	10	00660.png	317.5	425.5	351	102	0	317.5	425.5	0	0.0	0.0
47	vr	24	2019-10-31	bac_1	1172	10	00670.png	306.5	379.5	349	103	1	306.5	379.5	0	0.0	0.0
48	vr	24	2019-10-31	bac_1	1188	10	00680.png	309.5	436.5	349	104	0	309.5	436.5	0	0.0	0.0
49	vr	24	2019-10-31	bac_1	1204	10	00690.png	306.0	432.0	349	104	360	306.0	432.0	0	0.0	0.0
50	vr	24	2019-10-31	bac_1	1222	10	00700.png	300.5	425.0	350	105	360	300.5	425.0	0	0.0	0.0
51	vr	24	2019-10-31	bac_1	1240	10	00710.png	300.0	422.5	350	105	360	300.0	422.5	0	0.0	0.0
52	vr	24	2019-10-31	bac_1	1258	10	00720.png	300.5	423.0	350	105	360	300.5	423.0	0	0.0	0.0
53	vr	24	2019-10-31	bac_1	1275	10	00730.png	302.0	426.5	351	104	360	302.0	426.5	0	0.0	0.0
54	vr	24	2019-10-31	bac_1	1293	10	00740.png	306.5	442.0	351	104	359	306.5	442.0	0	0.0	0.0
55	vr	24	2019-10-31	bac_1	1310	10	00750.png	311.0	446.0	351	104	359	311.0	446.0	0	0.0	0.0
56	vr	24	2019-10-31	bac_1	1327	10	00760.png	297.0	409.5	352	103	359	297.0	409.5	0	0.0	0.0
57	vr	24	2019-10-31	bac_1	1344	10	00770.png	298.5	407.5	352	103	359	298.0	407.25	1	0.5	0.25
58	vr	24	2019-10-31	bac_1	1345	10	00770.png	297.5	407.0	352	103	359	298.0	407.25	1	-0.5	-0.25
59	vr	24	2019-10-31	bac_1	1358	10	00780.png	340.0	441.5	352	104	359	340.0	441.5	0	0.0	0.0
60	vr	24	2019-10-31	bac_1	1376	10	00790.png	335.5	440.5	352	104	359	335.5	440.5	0	0.0	0.0
61	vr	24	2019-10-31	bac_1	1394	10	00800.png	361.5	447.5	353	104	359	361.5	447.5	0	0.0	0.0
62	vr	24	2019-10-31	bac_1	1411	10	00810.png	296.0	416.0	353	105	359	296.0	416.0	0	0.0	0.0
63	vr	24	2019-10-31	bac_1	1428	10	00820.png	298.0	408.0	353	104	359	298.0	408.0	0	0.0	0.0
64	vr	24	2019-10-31	bac_1	1445	10	00830.png	285.0	402.0	353	104	359	285.0	402.0	0	0.0	0.0
65	vr	24	2019-10-31	bac_1	1463	10	00840.png	489.0	441.5	354	108	358	489.0	441.5	0	0.0	0.0
66	vr	24	2019-10-31	bac_1	1481	10	00850.png	565.0	451.5	354	118	358	565.0	451.5	0	0.0	0.0
67	vr	24	2019-10-31	bac_1	1497	10	00860.png	471.5	459.5	354	134	358	492.0	463.0	1	-20.5	-3.5
68	vr	24	2019-10-31	bac_1	1498	10	00860.png	512.5	466.5	354	135	358	492.0	463.0	1	20.5	3.5
69	vr	24	2019-10-31	bac_1	1511	10	00870.png	538.0	464.0	355	154	356	538.0	464.0	0	0.0	0.0
70	vr	24	2019-10-31	bac_1	1529	10	00880.png	518.5	442.5	356	178	356	518.5	442.5	0	0.0	0.0
71	vr	24	2019-10-31	bac_1	1547	10	00890.png	436.0	440.0	357	189	355	436.0	440.0	0	0.0	0.0
72	vr	24	2019-10-31	bac_1	1565	10	00900.png	397.5	441.0	357	191	355	397.5	441.0	0	0.0	0.0
73	vr	24	2019-10-31	bac_1	1583	10	00910.png	546.5	433.0	357	186	356	546.5	433.0	0	0.0	0.0
74	vr	24	2019-10-31	bac_1	1599	10	00920.png	366.0	432.5	356	168	357	366.0	432.5	0	0.0	0.0
75	vr	24	2019-10-31	bac_1	1617	10	00930.png	314.5	440.5	355	144	357	319.5	439.5	1	-5.0	1.0
76	vr	24	2019-10-31	bac_1	1618	10	00930.png	324.5	438.5	355	143	357	319.5	439.5	1	5.0	-1.0
77	vr	24	2019-10-31	bac_1	1634	10	00940.png	127.5	419.0	354	125	358	127.5	419.0	0	0.0	0.0
78	vr	24	2019-10-31	bac_1	1652	10	00950.png	265.0	433.5	355	113	360	265.0	433.5	0	0.0	0.0
79	vr	24	2019-10-31	bac_1	1669	10	00960.png	308.5	429.0	355	107	1	308.5	429.0	0	0.0	0.0
80	vr	24	2019-10-31	bac_1	1687	10	00970.png	278.5	356.5	353	106	1	278.5	356.5	0	0.0	0.0
81	vr	24	2019-10-31	bac_1	1705	10	00980.png	289.5	361.0	353	105	2	289.5	361.0	0	0.0	0.0
82	vr	24	2019-10-31	bac_1	1723	10	00990.png	293.5	367.0	352	105	1	293.5	367.0	0	0.0	0.0
83	vr	24	2019-10-31	bac_1	1740	10	01000.png	353.5	444.5	352	105	2	353.5	444.5	0	0.0	0.0
