	setting_id	subject_id	date	trial_id	sample_id	frame_rate	frame_id	fix_pos_x_old	fix_pos_y_old	cam_angle_x	cam_angle_y	cam_angle_z	fix_pos_x	fix_pos_y	fix_pos_avrgd	fix_pos_diff_x	fix_pos_diff_y
0	vr	24	2019-10-31	reg_2	472	10	00260.png	360.0	410.5	2	181	358	360.0	410.5	0	0.0	0.0
1	vr	24	2019-10-31	reg_2	490	10	00270.png	390.0	399.0	2	181	358	390.0	399.0	0	0.0	0.0
2	vr	24	2019-10-31	reg_2	507	10	00280.png	407.0	401.5	2	181	358	407.0	401.5	0	0.0	0.0
3	vr	24	2019-10-31	reg_2	525	10	00290.png	287.0	403.5	2	181	358	287.0	403.5	0	0.0	0.0
4	vr	24	2019-10-31	reg_2	542	10	00300.png	290.5	403.0	3	181	358	290.5	403.0	0	0.0	0.0
5	vr	24	2019-10-31	reg_2	559	10	00310.png	387.5	398.0	3	180	358	387.5	398.0	0	0.0	0.0
6	vr	24	2019-10-31	reg_2	577	10	00320.png	412.0	404.0	2	181	358	412.0	404.0	0	0.0	0.0
7	vr	24	2019-10-31	reg_2	595	10	00330.png	532.0	406.0	2	186	358	532.0	406.0	0	0.0	0.0
8	vr	24	2019-10-31	reg_2	613	10	00340.png	512.5	407.5	1	198	357	512.5	407.5	0	0.0	0.0
9	vr	24	2019-10-31	reg_2	629	10	00350.png	540.0	422.5	0	210	357	538.25	422.25	1	1.75	0.25
10	vr	24	2019-10-31	reg_2	630	10	00350.png	536.5	422.0	0	211	357	538.25	422.25	1	-1.75	-0.25
11	vr	24	2019-10-31	reg_2	647	10	00360.png	605.0	417.5	360	222	358	609.0	419.25	1	-4.0	-1.75
12	vr	24	2019-10-31	reg_2	648	10	00360.png	613.0	421.0	360	223	358	609.0	419.25	1	4.0	1.75
13	vr	24	2019-10-31	reg_2	662	10	00370.png	523.0	416.5	360	234	359	523.0	416.5	0	0.0	0.0
14	vr	24	2019-10-31	reg_2	679	10	00380.png	567.5	413.0	359	241	359	567.5	413.0	0	0.0	0.0
15	vr	24	2019-10-31	reg_2	697	10	00390.png	550.0	418.0	359	241	359	550.0	418.0	0	0.0	0.0
16	vr	24	2019-10-31	reg_2	715	10	00400.png	459.0	426.0	359	238	359	459.0	426.0	0	0.0	0.0
17	vr	24	2019-10-31	reg_2	733	10	00410.png	265.0	428.0	359	221	358	265.0	428.0	0	0.0	0.0
18	vr	24	2019-10-31	reg_2	750	10	00420.png	338.0	421.0	360	198	358	338.0	421.0	0	0.0	0.0
19	vr	24	2019-10-31	reg_2	767	10	00430.png	339.5	416.0	0	179	358	339.5	416.0	0	0.0	0.0
20	vr	24	2019-10-31	reg_2	784	10	00440.png	260.0	429.0	360	163	359	260.0	429.0	0	0.0	0.0
21	vr	24	2019-10-31	reg_2	801	10	00450.png	205.5	423.5	360	149	358	180.75	421.0	1	24.75	2.5
22	vr	24	2019-10-31	reg_2	802	10	00450.png	156.0	418.5	360	148	358	180.75	421.0	1	-24.75	-2.5
23	vr	24	2019-10-31	reg_2	818	10	00460.png	293.5	425.5	359	132	359	293.5	425.5	0	0.0	0.0
24	vr	24	2019-10-31	reg_2	836	10	00470.png	263.0	422.5	359	116	0	263.0	422.5	0	0.0	0.0
25	vr	24	2019-10-31	reg_2	854	10	00480.png	229.0	414.0	359	103	1	229.0	414.0	0	0.0	0.0
26	vr	24	2019-10-31	reg_2	872	10	00490.png	229.5	413.0	359	96	2	229.5	413.0	0	0.0	0.0
27	vr	24	2019-10-31	reg_2	890	10	00500.png	248.5	414.0	359	94	2	248.5	414.0	0	0.0	0.0
28	vr	24	2019-10-31	reg_2	908	10	00510.png	167.0	397.5	359	95	2	167.0	397.5	0	0.0	0.0
29	vr	24	2019-10-31	reg_2	924	10	00520.png	253.0	409.5	360	95	2	253.0	409.5	0	0.0	0.0
30	vr	24	2019-10-31	reg_2	941	10	00530.png	260.5	408.0	0	94	1	260.5	408.0	0	0.0	0.0
31	vr	24	2019-10-31	reg_2	959	10	00540.png	177.5	391.5	1	91	1	177.5	391.5	0	0.0	0.0
32	vr	24	2019-10-31	reg_2	977	10	00550.png	186.5	393.0	1	91	1	186.5	393.0	0	0.0	0.0
33	vr	24	2019-10-31	reg_2	993	10	00560.png	299.5	409.0	1	92	1	299.5	408.75	1	0.0	0.25
34	vr	24	2019-10-31	reg_2	994	10	00560.png	299.5	408.5	1	92	1	299.5	408.75	1	0.0	-0.25
35	vr	24	2019-10-31	reg_2	1011	10	00570.png	289.5	405.0	1	94	1	289.5	405.0	0	0.0	0.0
36	vr	24	2019-10-31	reg_2	1029	10	00580.png	269.0	399.0	1	95	1	269.0	399.0	0	0.0	0.0
37	vr	24	2019-10-31	reg_2	1046	10	00590.png	259.5	397.0	1	96	1	259.75	396.75	1	-0.25	0.25
38	vr	24	2019-10-31	reg_2	1047	10	00590.png	260.0	396.5	1	96	1	259.75	396.75	1	0.25	-0.25
39	vr	24	2019-10-31	reg_2	1063	10	00600.png	160.0	389.5	1	96	1	160.0	389.5	0	0.0	0.0
40	vr	24	2019-10-31	reg_2	1081	10	00610.png	163.5	386.5	1	95	1	163.5	386.5	0	0.0	0.0
41	vr	24	2019-10-31	reg_2	1099	10	00620.png	267.5	404.5	1	98	1	267.5	404.5	0	0.0	0.0
42	vr	24	2019-10-31	reg_2	1115	10	00630.png	203.5	394.0	1	103	0	203.5	394.0	0	0.0	0.0
43	vr	24	2019-10-31	reg_2	1130	10	00640.png	145.5	391.0	2	105	360	145.5	391.0	0	0.0	0.0
44	vr	24	2019-10-31	reg_2	1147	10	00650.png	148.0	389.5	2	104	360	148.0	389.5	0	0.0	0.0
45	vr	24	2019-10-31	reg_2	1162	10	00660.png	259.5	402.0	2	106	0	259.5	402.0	0	0.0	0.0
46	vr	24	2019-10-31	reg_2	1179	10	00670.png	127.0	387.0	2	107	0	127.5	385.25	1	-0.5	1.75
47	vr	24	2019-10-31	reg_2	1180	10	00670.png	128.0	383.5	2	106	0	127.5	385.25	1	0.5	-1.75
48	vr	24	2019-10-31	reg_2	1194	10	00680.png	140.0	382.5	2	105	0	140.0	382.5	0	0.0	0.0
49	vr	24	2019-10-31	reg_2	1212	10	00690.png	120.0	377.0	2	101	0	120.0	377.0	0	0.0	0.0
50	vr	24	2019-10-31	reg_2	1229	10	00700.png	142.5	387.5	2	99	1	142.5	387.5	0	0.0	0.0
51	vr	24	2019-10-31	reg_2	1247	10	00710.png	230.0	399.5	2	100	1	230.0	399.5	0	0.0	0.0
52	vr	24	2019-10-31	reg_2	1265	10	00720.png	188.0	393.0	1	103	360	188.0	393.0	0	0.0	0.0
53	vr	24	2019-10-31	reg_2	1283	10	00730.png	418.5	418.0	2	112	359	418.5	418.0	0	0.0	0.0
54	vr	24	2019-10-31	reg_2	1299	10	00740.png	520.5	416.0	0	128	359	520.5	416.0	0	0.0	0.0
55	vr	24	2019-10-31	reg_2	1317	10	00750.png	595.5	410.5	360	144	360	595.5	410.5	0	0.0	0.0
56	vr	24	2019-10-31	reg_2	1335	10	00760.png	541.0	419.0	0	157	0	541.0	419.0	0	0.0	0.0
57	vr	24	2019-10-31	reg_2	1352	10	00770.png	470.5	416.0	1	166	0	469.25	416.25	1	1.25	-0.25
58	vr	24	2019-10-31	reg_2	1353	10	00770.png	468.0	416.5	1	166	0	469.25	416.25	1	-1.25	0.25
59	vr	24	2019-10-31	reg_2	1367	10	00780.png	449.0	416.0	1	168	1	449.0	416.0	0	0.0	0.0
60	vr	24	2019-10-31	reg_2	1384	10	00790.png	0.0	840.0	1	168	0	252.75	673.75	1	-252.75	166.25
61	vr	24	2019-10-31	reg_2	1385	10	00790.png	505.5	507.5	1	168	0	252.75	673.75	1	252.75	-166.25
62	vr	24	2019-10-31	reg_2	1403	10	00800.png	439.0	418.0	2	170	1	439.0	418.0	0	0.0	0.0
63	vr	24	2019-10-31	reg_2	1421	10	00810.png	422.5	416.5	2	173	1	422.5	416.5	0	0.0	0.0
64	vr	24	2019-10-31	reg_2	1438	10	00820.png	407.5	408.5	2	175	0	407.5	408.5	0	0.0	0.0
65	vr	24	2019-10-31	reg_2	1456	10	00830.png	404.0	406.0	3	175	0	404.0	406.0	0	0.0	0.0
66	vr	24	2019-10-31	reg_2	1474	10	00840.png	407.0	403.5	3	175	0	407.0	403.5	0	0.0	0.0
67	vr	24	2019-10-31	reg_2	1491	10	00850.png	406.5	404.0	3	174	360	406.5	404.0	0	0.0	0.0
68	vr	24	2019-10-31	reg_2	1508	10	00860.png	414.0	404.5	2	173	360	414.0	404.5	0	0.0	0.0
69	vr	24	2019-10-31	reg_2	1525	10	00870.png	411.0	411.5	2	172	360	411.0	411.5	0	0.0	0.0
70	vr	24	2019-10-31	reg_2	1541	10	00880.png	413.5	411.0	3	172	359	413.75	410.75	1	-0.25	0.25
71	vr	24	2019-10-31	reg_2	1542	10	00880.png	414.0	410.5	3	172	359	413.75	410.75	1	0.25	-0.25
72	vr	24	2019-10-31	reg_2	1558	10	00890.png	414.5	407.0	3	172	359	415.5	406.5	1	-1.0	0.5
73	vr	24	2019-10-31	reg_2	1559	10	00890.png	416.5	406.0	3	172	359	415.5	406.5	1	1.0	-0.5
74	vr	24	2019-10-31	reg_2	1576	10	00900.png	420.5	404.0	3	170	359	420.5	404.0	0	0.0	0.0
75	vr	24	2019-10-31	reg_2	1594	10	00910.png	424.5	404.5	3	167	359	424.5	404.5	0	0.0	0.0
76	vr	24	2019-10-31	reg_2	1612	10	00920.png	452.5	406.5	3	162	359	452.5	406.5	0	0.0	0.0
77	vr	24	2019-10-31	reg_2	1630	10	00930.png	497.5	408.5	3	153	360	497.5	408.5	0	0.0	0.0
78	vr	24	2019-10-31	reg_2	1647	10	00940.png	224.5	435.5	3	138	0	224.5	435.5	0	0.0	0.0
79	vr	24	2019-10-31	reg_2	1664	10	00950.png	245.0	431.5	3	127	1	245.0	431.5	0	0.0	0.0
80	vr	24	2019-10-31	reg_2	1682	10	00960.png	272.5	421.5	3	129	2	272.5	421.5	0	0.0	0.0
81	vr	24	2019-10-31	reg_2	1700	10	00970.png	267.0	421.5	2	133	1	267.0	421.5	0	0.0	0.0
82	vr	24	2019-10-31	reg_2	1718	10	00980.png	351.0	429.0	3	138	1	351.0	429.0	0	0.0	0.0
83	vr	24	2019-10-31	reg_2	1735	10	00990.png	410.5	440.5	2	144	1	410.5	440.5	0	0.0	0.0
84	vr	24	2019-10-31	reg_2	1752	10	01000.png	241.0	407.5	3	146	360	241.0	407.5	0	0.0	0.0
