	setting_id	subject_id	date	trial_id	sample_id	frame_rate	frame_id	fix_pos_x_old	fix_pos_y_old	cam_angle_x	cam_angle_y	cam_angle_z	fix_pos_x	fix_pos_y	fix_pos_avrgd	fix_pos_diff_x	fix_pos_diff_y
0	vr	33	2019-12-10	bac_2	472	10	00260.png	377.5	459.0	352	173	358	377.5	459.0	0	0.0	0.0
1	vr	33	2019-12-10	bac_2	489	10	00270.png	455.0	463.5	353	173	358	455.0	463.5	0	0.0	0.0
2	vr	33	2019-12-10	bac_2	506	10	00280.png	524.5	487.0	353	174	358	524.5	487.0	0	0.0	0.0
3	vr	33	2019-12-10	bac_2	523	10	00290.png	479.5	368.0	352	181	358	479.5	368.0	0	0.0	0.0
4	vr	33	2019-12-10	bac_2	541	10	00300.png	380.5	348.5	350	182	358	380.5	348.5	0	0.0	0.0
5	vr	33	2019-12-10	bac_2	557	10	00310.png	195.5	499.5	350	175	358	195.5	499.5	0	0.0	0.0
6	vr	33	2019-12-10	bac_2	574	10	00320.png	314.5	393.0	352	162	359	314.5	393.0	0	0.0	0.0
7	vr	33	2019-12-10	bac_2	591	10	00330.png	395.5	292.5	350	151	0	395.5	292.5	0	0.0	0.0
8	vr	33	2019-12-10	bac_2	608	10	00340.png	120.0	483.5	351	137	1	120.0	483.5	0	0.0	0.0
9	vr	33	2019-12-10	bac_2	625	10	00350.png	245.0	471.5	353	122	1	248.75	471.5	1	-3.75	0.0
10	vr	33	2019-12-10	bac_2	626	10	00350.png	252.5	471.5	353	121	1	248.75	471.5	1	3.75	0.0
11	vr	33	2019-12-10	bac_2	639	10	00360.png	300.0	455.5	353	113	0	300.0	455.5	0	0.0	0.0
12	vr	33	2019-12-10	bac_2	657	10	00370.png	321.0	453.0	354	110	360	321.0	453.0	0	0.0	0.0
13	vr	33	2019-12-10	bac_2	674	10	00380.png	334.5	454.0	353	107	0	334.5	454.0	0	0.0	0.0
14	vr	33	2019-12-10	bac_2	688	10	00390.png	335.0	452.0	354	102	0	335.0	452.0	0	0.0	0.0
15	vr	33	2019-12-10	bac_2	706	10	00400.png	319.0	456.5	354	95	0	319.0	456.5	0	0.0	0.0
16	vr	33	2019-12-10	bac_2	723	10	00410.png	451.5	420.5	354	90	1	451.5	420.5	0	0.0	0.0
17	vr	33	2019-12-10	bac_2	739	10	00420.png	404.0	347.0	353	89	1	404.0	347.0	0	0.0	0.0
18	vr	33	2019-12-10	bac_2	756	10	00430.png	447.5	342.5	351	86	0	447.5	342.5	0	0.0	0.0
19	vr	33	2019-12-10	bac_2	771	10	00440.png	278.5	420.5	350	82	1	278.5	420.5	0	0.0	0.0
20	vr	33	2019-12-10	bac_2	788	10	00450.png	364.0	441.5	351	80	1	376.75	448.75	1	-12.75	-7.25
21	vr	33	2019-12-10	bac_2	789	10	00450.png	389.5	456.0	351	80	1	376.75	448.75	1	12.75	7.25
22	vr	33	2019-12-10	bac_2	800	10	00460.png	453.5	484.5	351	80	1	453.5	484.5	0	0.0	0.0
23	vr	33	2019-12-10	bac_2	817	10	00470.png	483.0	477.5	351	81	1	483.0	477.5	0	0.0	0.0
24	vr	33	2019-12-10	bac_2	834	10	00480.png	480.5	470.5	351	82	1	480.5	470.5	0	0.0	0.0
25	vr	33	2019-12-10	bac_2	850	10	00490.png	474.0	469.0	351	84	0	474.0	469.0	0	0.0	0.0
26	vr	33	2019-12-10	bac_2	868	10	00500.png	502.5	442.5	351	87	359	502.5	442.5	0	0.0	0.0
27	vr	33	2019-12-10	bac_2	884	10	00510.png	476.5	427.0	349	91	360	476.5	427.0	0	0.0	0.0
28	vr	33	2019-12-10	bac_2	901	10	00520.png	455.0	453.5	348	95	360	455.0	453.5	0	0.0	0.0
29	vr	33	2019-12-10	bac_2	918	10	00530.png	429.0	452.0	347	99	359	429.0	452.0	0	0.0	0.0
30	vr	33	2019-12-10	bac_2	934	10	00540.png	408.5	459.0	348	104	359	408.5	459.0	0	0.0	0.0
31	vr	33	2019-12-10	bac_2	952	10	00550.png	497.0	434.5	348	110	359	497.0	434.5	0	0.0	0.0
32	vr	33	2019-12-10	bac_2	968	10	00560.png	447.5	434.0	347	118	358	447.5	434.0	0	0.0	0.0
33	vr	33	2019-12-10	bac_2	984	10	00570.png	392.0	450.0	347	127	357	392.0	450.0	0	0.0	0.0
34	vr	33	2019-12-10	bac_2	1001	10	00580.png	476.0	481.5	346	139	356	476.0	481.5	0	0.0	0.0
35	vr	33	2019-12-10	bac_2	1019	10	00590.png	444.0	362.5	344	150	356	444.0	362.5	0	0.0	0.0
36	vr	33	2019-12-10	bac_2	1032	10	00600.png	426.0	367.0	343	157	356	426.0	367.0	0	0.0	0.0
37	vr	33	2019-12-10	bac_2	1048	10	00610.png	616.5	526.0	346	170	357	616.5	526.0	0	0.0	0.0
38	vr	33	2019-12-10	bac_2	1064	10	00620.png	500.5	484.0	351	184	357	500.5	484.0	0	0.0	0.0
39	vr	33	2019-12-10	bac_2	1081	10	00630.png	529.5	436.5	352	192	357	529.5	436.5	0	0.0	0.0
40	vr	33	2019-12-10	bac_2	1114	10	00650.png	379.0	442.5	353	206	356	379.0	442.5	0	0.0	0.0
41	vr	33	2019-12-10	bac_2	1131	10	00660.png	402.0	455.5	354	211	355	402.0	455.5	0	0.0	0.0
42	vr	33	2019-12-10	bac_2	1149	10	00670.png	375.0	458.5	354	215	355	375.0	458.5	0	0.0	0.0
43	vr	33	2019-12-10	bac_2	1167	10	00680.png	300.0	440.5	354	220	356	300.0	440.5	0	0.0	0.0
44	vr	33	2019-12-10	bac_2	1185	10	00690.png	297.0	447.0	354	226	356	297.0	447.0	0	0.0	0.0
45	vr	33	2019-12-10	bac_2	1203	10	00700.png	539.5	442.0	353	236	357	539.5	442.0	0	0.0	0.0
46	vr	33	2019-12-10	bac_2	1217	10	00710.png	490.5	441.0	353	243	356	490.5	441.0	0	0.0	0.0
47	vr	33	2019-12-10	bac_2	1234	10	00720.png	573.5	427.5	354	250	356	569.75	427.25	1	3.75	0.25
48	vr	33	2019-12-10	bac_2	1235	10	00720.png	566.0	427.0	354	251	356	569.75	427.25	1	-3.75	-0.25
49	vr	33	2019-12-10	bac_2	1248	10	00730.png	522.0	426.5	354	257	356	522.0	426.5	0	0.0	0.0
50	vr	33	2019-12-10	bac_2	1265	10	00740.png	507.0	492.5	355	261	356	507.0	492.5	0	0.0	0.0
51	vr	33	2019-12-10	bac_2	1282	10	00750.png	462.5	505.5	356	267	356	462.5	505.5	0	0.0	0.0
52	vr	33	2019-12-10	bac_2	1297	10	00760.png	530.5	437.0	356	272	357	530.5	437.0	0	0.0	0.0
53	vr	33	2019-12-10	bac_2	1313	10	00770.png	495.5	437.0	356	277	356	494.25	436.75	1	1.25	0.25
54	vr	33	2019-12-10	bac_2	1314	10	00770.png	493.0	436.5	356	277	356	494.25	436.75	1	-1.25	-0.25
55	vr	33	2019-12-10	bac_2	1327	10	00780.png	506.5	416.0	356	282	356	505.25	416.0	1	1.25	0.0
56	vr	33	2019-12-10	bac_2	1328	10	00780.png	504.0	416.0	356	282	356	505.25	416.0	1	-1.25	0.0
57	vr	33	2019-12-10	bac_2	1337	10	00790.png	595.5	442.5	356	287	356	595.5	442.5	0	0.0	0.0
58	vr	33	2019-12-10	bac_2	1353	10	00800.png	620.5	448.5	357	294	356	620.5	448.5	0	0.0	0.0
59	vr	33	2019-12-10	bac_2	1370	10	00810.png	539.0	445.5	357	300	355	539.0	445.5	0	0.0	0.0
60	vr	33	2019-12-10	bac_2	1388	10	00820.png	551.5	427.0	357	306	356	551.5	427.0	0	0.0	0.0
61	vr	33	2019-12-10	bac_2	1405	10	00830.png	517.0	438.0	357	309	357	517.0	438.0	0	0.0	0.0
62	vr	33	2019-12-10	bac_2	1418	10	00840.png	575.0	438.0	357	310	357	575.0	438.0	0	0.0	0.0
63	vr	33	2019-12-10	bac_2	1432	10	00850.png	556.0	440.0	357	312	357	556.0	440.0	0	0.0	0.0
64	vr	33	2019-12-10	bac_2	1450	10	00860.png	531.5	436.0	357	313	357	531.5	436.0	0	0.0	0.0
65	vr	33	2019-12-10	bac_2	1468	10	00870.png	0.0	840.0	356	312	357	0.0	840.0	0	0.0	0.0
66	vr	33	2019-12-10	bac_2	1485	10	00880.png	398.5	454.0	355	313	356	398.0	454.0	1	0.5	0.0
67	vr	33	2019-12-10	bac_2	1486	10	00880.png	397.5	454.0	355	313	356	398.0	454.0	1	-0.5	0.0
68	vr	33	2019-12-10	bac_2	1497	10	00890.png	373.0	458.0	355	316	355	373.0	458.0	0	0.0	0.0
69	vr	33	2019-12-10	bac_2	1514	10	00900.png	605.0	447.0	355	321	355	605.0	447.0	0	0.0	0.0
70	vr	33	2019-12-10	bac_2	1532	10	00910.png	567.0	454.5	355	324	355	567.0	454.5	0	0.0	0.0
71	vr	33	2019-12-10	bac_2	1550	10	00920.png	317.5	466.0	355	320	355	317.5	466.0	0	0.0	0.0
72	vr	33	2019-12-10	bac_2	1567	10	00930.png	325.0	471.5	354	316	355	325.0	471.5	0	0.0	0.0
73	vr	33	2019-12-10	bac_2	1584	10	00940.png	314.5	476.0	354	312	355	314.5	476.0	0	0.0	0.0
74	vr	33	2019-12-10	bac_2	1601	10	00950.png	351.0	467.5	354	309	354	351.0	467.5	0	0.0	0.0
75	vr	33	2019-12-10	bac_2	1619	10	00960.png	368.0	461.0	353	304	354	368.0	461.0	0	0.0	0.0
76	vr	33	2019-12-10	bac_2	1635	10	00970.png	382.0	465.0	353	299	354	382.0	465.0	0	0.0	0.0
77	vr	33	2019-12-10	bac_2	1652	10	00980.png	380.0	463.5	353	296	355	380.0	463.5	0	0.0	0.0
78	vr	33	2019-12-10	bac_2	1668	10	00990.png	375.0	467.0	352	294	355	375.0	467.0	0	0.0	0.0
79	vr	33	2019-12-10	bac_2	1669	10	00990.png	375.0	467.0	352	294	355	375.0	467.0	0	0.0	0.0
80	vr	33	2019-12-10	bac_2	1683	10	01000.png	366.5	467.5	352	293	355	366.0	467.25	1	0.5	0.25
81	vr	33	2019-12-10	bac_2	1684	10	01000.png	365.5	467.0	352	293	355	366.0	467.25	1	-0.5	-0.25
