subject_id	setting_id	trial_id	first_frame_n	first_frame_time	first_frame_id
27	rl	bac	475	1780747.0	00475.png
27	rl	gas	516	2486830.0	00516.png
27	rl	loc	353	2944152.0	00353.png
27	rl	rat	471	2054843.0	00471.png
27	rl	reg	530	1254133.0	00530.png
27	rl	valpost	5	3727902.0	00005.png
27	rl	valpre	5	55216.0	00005.png
