	subject_location	subject_id	date	daytime	setting_id	trial_id	sample_id	sample_n	sample_rate	sample_time_smi	frame_id	frame_n	frame_rate	frame_time_smi	fix_pos_x	fix_pos_y
0	05_rat	05	17-10-2019	21:17:04:429	rl	rat	933	933	60	1650984	00390.png	1.0	25	1650984.0	980	562
1	05_rat	05	17-10-2019	21:17:04:628	rl	rat	945	945	60	1651183	00395.png	6.0	25	1651184.0	1074	579
2	05_rat	05	17-10-2019	21:17:04:827	rl	rat	957	957	60	1651383	00400.png	11.0	25	1651384.0	407	321
3	05_rat	05	17-10-2019	21:17:05:026	rl	rat	969	969	60	1651582	00405.png	16.0	25	1651584.0	460	317
4	05_rat	05	17-10-2019	21:17:05:226	rl	rat	981	981	60	1651781	00410.png	21.0	25	1651784.0	496	311
5	05_rat	05	17-10-2019	21:17:05:425	rl	rat	993	993	60	1651980	00415.png	26.0	25	1651984.0	527	251
6	05_rat	05	17-10-2019	21:17:05:624	rl	rat	1004	1004	60	1652179	00420.png	31.0	25	1652184.0	578	247
7	05_rat	05	17-10-2019	21:17:05:823	rl	rat	1015	1015	60	1652378	00425.png	36.0	25	1652384.0	709	244
8	05_rat	05	17-10-2019	21:17:06:022	rl	rat	1027	1027	60	1652577	00430.png	41.0	25	1652584.0	544	310
9	05_rat	05	17-10-2019	21:17:06:221	rl	rat	1039	1039	60	1652776	00435.png	46.0	25	1652784.0	485	333
10	05_rat	05	17-10-2019	21:17:06:421	rl	rat	1051	1051	60	1652976	00440.png	51.0	25	1652984.0	419	371
11	05_rat	05	17-10-2019	21:17:06:636	rl	rat	1064	1064	60	1653192	00445.png	56.0	25	1653184.0	348	446
12	05_rat	05	17-10-2019	21:17:06:836	rl	rat	1076	1076	60	1653391	00450.png	61.0	25	1653384.0	780	-427
13	05_rat	05	17-10-2019	21:17:07:035	rl	rat	1088	1088	60	1653590	00455.png	66.0	25	1653584.0	783	-16
14	05_rat	05	17-10-2019	21:17:07:234	rl	rat	1100	1100	60	1653789	00460.png	71.0	25	1653784.0	907	-28
15	05_rat	05	17-10-2019	21:17:07:433	rl	rat	1112	1112	60	1653988	00465.png	76.0	25	1653984.0	1300	1330
16	05_rat	05	17-10-2019	21:17:07:632	rl	rat	1124	1124	60	1654187	00470.png	81.0	25	1654184.0	1279	1029
17	05_rat	05	17-10-2019	21:17:07:831	rl	rat	1136	1136	60	1654387	00475.png	86.0	25	1654384.0	1008	831
18	05_rat	05	17-10-2019	21:17:08:030	rl	rat	1148	1148	60	1654586	00480.png	91.0	25	1654584.0	1092	802
19	05_rat	05	17-10-2019	21:17:08:229	rl	rat	1160	1160	60	1654785	00485.png	96.0	25	1654784.0	1132	728
20	05_rat	05	17-10-2019	21:17:08:429	rl	rat	1172	1172	60	1654984	00490.png	101.0	25	1654984.0	2284	510
21	05_rat	05	17-10-2019	21:17:08:627	rl	rat	1184	1184	60	1655183	00495.png	106.0	25	1655184.0	1539	698
22	05_rat	05	17-10-2019	21:17:08:827	rl	rat	1196	1196	60	1655382	00500.png	111.0	25	1655384.0	1638	635
23	05_rat	05	17-10-2019	21:17:09:026	rl	rat	1208	1208	60	1655581	00505.png	116.0	25	1655584.0	1411	610
24	05_rat	05	17-10-2019	21:17:09:225	rl	rat	1220	1220	60	1655780	00510.png	121.0	25	1655784.0	1295	596
25	05_rat	05	17-10-2019	21:17:09:424	rl	rat	1232	1232	60	1655980	00515.png	126.0	25	1655984.0	1470	636
26	05_rat	05	17-10-2019	21:17:09:623	rl	rat	1241	1241	60	1656179	00520.png	131.0	25	1656184.0	1253	366
27	05_rat	05	17-10-2019	21:17:09:822	rl	rat	1253	1253	60	1656377	00525.png	136.0	25	1656384.0	1174	391
28	05_rat	05	17-10-2019	21:17:10:021	rl	rat	1265	1265	60	1656577	00530.png	141.0	25	1656584.0	0	0
29	05_rat	05	17-10-2019	21:17:10:221	rl	rat	1277	1277	60	1656776	00535.png	146.0	25	1656784.0	627	559
30	05_rat	05	17-10-2019	21:17:10:436	rl	rat	1290	1290	60	1656992	00540.png	151.0	25	1656984.0	779	419
31	05_rat	05	17-10-2019	21:17:10:635	rl	rat	1302	1302	60	1657191	00545.png	156.0	25	1657184.0	916	475
32	05_rat	05	17-10-2019	21:17:10:835	rl	rat	1314	1314	60	1657390	00550.png	161.0	25	1657384.0	352	491
33	05_rat	05	17-10-2019	21:17:11:034	rl	rat	1326	1326	60	1657589	00555.png	166.0	25	1657584.0	488	347
34	05_rat	05	17-10-2019	21:17:11:233	rl	rat	1338	1338	60	1657788	00560.png	171.0	25	1657784.0	558	330
35	05_rat	05	17-10-2019	21:17:11:432	rl	rat	1350	1350	60	1657987	00565.png	176.0	25	1657984.0	622	355
36	05_rat	05	17-10-2019	21:17:11:631	rl	rat	1362	1362	60	1658187	00570.png	181.0	25	1658184.0	435	418
37	05_rat	05	17-10-2019	21:17:11:830	rl	rat	1374	1374	60	1658386	00575.png	186.0	25	1658384.0	443	365
38	05_rat	05	17-10-2019	21:17:12:030	rl	rat	1386	1386	60	1658585	00580.png	191.0	25	1658584.0	661	372
39	05_rat	05	17-10-2019	21:17:12:229	rl	rat	1398	1398	60	1658784	00585.png	196.0	25	1658784.0	667	484
40	05_rat	05	17-10-2019	21:17:12:428	rl	rat	1410	1410	60	1658983	00590.png	201.0	25	1658984.0	688	519
41	05_rat	05	17-10-2019	21:17:12:627	rl	rat	1422	1422	60	1659182	00595.png	206.0	25	1659184.0	548	463
42	05_rat	05	17-10-2019	21:17:12:826	rl	rat	1434	1434	60	1659382	00600.png	211.0	25	1659384.0	488	406
43	05_rat	05	17-10-2019	21:17:13:026	rl	rat	1446	1446	60	1659581	00605.png	216.0	25	1659584.0	489	357
44	05_rat	05	17-10-2019	21:17:13:224	rl	rat	1458	1458	60	1659780	00610.png	221.0	25	1659784.0	35	371
45	05_rat	05	17-10-2019	21:17:13:440	rl	rat	1470	1470	60	1659996	00615.png	226.0	25	1659984.0	-18	441
46	05_rat	05	17-10-2019	21:17:13:623	rl	rat	1480	1480	60	1660178	00620.png	231.0	25	1660184.0	87	469
47	05_rat	05	17-10-2019	21:17:13:822	rl	rat	1492	1492	60	1660377	00625.png	236.0	25	1660384.0	5	379
48	05_rat	05	17-10-2019	21:17:14:021	rl	rat	1504	1504	60	1660577	00630.png	241.0	25	1660584.0	-8	313
49	05_rat	05	17-10-2019	21:17:14:220	rl	rat	1516	1516	60	1660776	00635.png	246.0	25	1660784.0	682	1636
50	05_rat	05	17-10-2019	21:17:14:436	rl	rat	1529	1529	60	1660991	00640.png	251.0	25	1660984.0	748	-1961
51	05_rat	05	17-10-2019	21:17:14:635	rl	rat	1541	1541	60	1661191	00645.png	256.0	25	1661184.0	132	-10
52	05_rat	05	17-10-2019	21:17:14:834	rl	rat	1553	1553	60	1661390	00650.png	261.0	25	1661384.0	154	-38
53	05_rat	05	17-10-2019	21:17:15:034	rl	rat	1565	1565	60	1661589	00655.png	266.0	25	1661584.0	187	-12
54	05_rat	05	17-10-2019	21:17:15:233	rl	rat	1577	1577	60	1661788	00660.png	271.0	25	1661784.0	265	19
55	05_rat	05	17-10-2019	21:17:15:431	rl	rat	1589	1589	60	1661987	00665.png	276.0	25	1661984.0	272	30
56	05_rat	05	17-10-2019	21:17:15:631	rl	rat	1601	1601	60	1662186	00670.png	281.0	25	1662184.0	260	52
57	05_rat	05	17-10-2019	21:17:15:830	rl	rat	1613	1613	60	1662385	00675.png	286.0	25	1662384.0	290	83
58	05_rat	05	17-10-2019	21:17:16:029	rl	rat	1625	1625	60	1662584	00680.png	291.0	25	1662584.0	283	74
59	05_rat	05	17-10-2019	21:17:16:228	rl	rat	1637	1637	60	1662784	00685.png	296.0	25	1662784.0	281	66
60	05_rat	05	17-10-2019	21:17:16:428	rl	rat	1649	1649	60	1662983	00690.png	301.0	25	1662984.0	262	88
61	05_rat	05	17-10-2019	21:17:16:627	rl	rat	1661	1661	60	1663182	00695.png	306.0	25	1663184.0	252	111
62	05_rat	05	17-10-2019	21:17:16:825	rl	rat	1673	1673	60	1663381	00700.png	311.0	25	1663384.0	182	-655
63	05_rat	05	17-10-2019	21:17:17:025	rl	rat	1685	1685	60	1663580	00705.png	316.0	25	1663584.0	639	15
64	05_rat	05	17-10-2019	21:17:17:224	rl	rat	1697	1697	60	1663779	00710.png	321.0	25	1663784.0	635	-12
65	05_rat	05	17-10-2019	21:17:17:423	rl	rat	1707	1707	60	1663979	00715.png	326.0	25	1663984.0	628	2
66	05_rat	05	17-10-2019	21:17:17:622	rl	rat	1719	1719	60	1664178	00720.png	331.0	25	1664184.0	591	239
67	05_rat	05	17-10-2019	21:17:17:821	rl	rat	1731	1731	60	1664377	00725.png	336.0	25	1664384.0	548	506
68	05_rat	05	17-10-2019	21:17:18:021	rl	rat	1743	1743	60	1664576	00730.png	341.0	25	1664584.0	494	399
69	05_rat	05	17-10-2019	21:17:18:236	rl	rat	1756	1756	60	1664791	00735.png	346.0	25	1664784.0	501	358
70	05_rat	05	17-10-2019	21:17:18:436	rl	rat	1768	1768	60	1664991	00740.png	351.0	25	1664984.0	487	331
71	05_rat	05	17-10-2019	21:17:18:635	rl	rat	1780	1780	60	1665190	00745.png	356.0	25	1665184.0	459	326
72	05_rat	05	17-10-2019	21:17:18:834	rl	rat	1792	1792	60	1665389	00750.png	361.0	25	1665384.0	450	328
73	05_rat	05	17-10-2019	21:17:19:033	rl	rat	1804	1804	60	1665588	00755.png	366.0	25	1665584.0	585	315
74	05_rat	05	17-10-2019	21:17:19:232	rl	rat	1816	1816	60	1665787	00760.png	371.0	25	1665784.0	1251	285
75	05_rat	05	17-10-2019	21:17:19:431	rl	rat	1828	1828	60	1665987	00765.png	376.0	25	1665984.0	1158	449
76	05_rat	05	17-10-2019	21:17:19:630	rl	rat	1840	1840	60	1666186	00770.png	381.0	25	1666184.0	1114	696
77	05_rat	05	17-10-2019	21:17:19:830	rl	rat	1852	1852	60	1666385	00775.png	386.0	25	1666384.0	963	623
78	05_rat	05	17-10-2019	21:17:20:029	rl	rat	1864	1864	60	1666584	00780.png	391.0	25	1666584.0	0	0
79	05_rat	05	17-10-2019	21:17:20:228	rl	rat	1876	1876	60	1666783	00785.png	396.0	25	1666784.0	1347	773
80	05_rat	05	17-10-2019	21:17:20:427	rl	rat	1888	1888	60	1666982	00790.png	401.0	25	1666984.0	0	402
81	05_rat	05	17-10-2019	21:17:20:626	rl	rat	1900	1900	60	1667181	00795.png	406.0	25	1667184.0	33	373
82	05_rat	05	17-10-2019	21:17:20:825	rl	rat	1912	1912	60	1667381	00800.png	411.0	25	1667384.0	-12	470
83	05_rat	05	17-10-2019	21:17:21:025	rl	rat	1924	1924	60	1667580	00805.png	416.0	25	1667584.0	14	404
84	05_rat	05	17-10-2019	21:17:21:224	rl	rat	1935	1935	60	1667779	00810.png	421.0	25	1667784.0	28	405
85	05_rat	05	17-10-2019	21:17:21:423	rl	rat	1946	1946	60	1667978	00815.png	426.0	25	1667984.0	8	383
86	05_rat	05	17-10-2019	21:17:21:622	rl	rat	1958	1958	60	1668177	00820.png	431.0	25	1668184.0	-284	1465
87	05_rat	05	17-10-2019	21:17:21:821	rl	rat	1970	1970	60	1668376	00825.png	436.0	25	1668384.0	-357	1731
88	05_rat	05	17-10-2019	21:17:22:037	rl	rat	1983	1983	60	1668592	00830.png	441.0	25	1668584.0	-82	1042
89	05_rat	05	17-10-2019	21:17:22:236	rl	rat	1995	1995	60	1668791	00835.png	446.0	25	1668784.0	-279	1018
90	05_rat	05	17-10-2019	21:17:22:435	rl	rat	2007	2007	60	1668990	00840.png	451.0	25	1668984.0	1564	973
91	05_rat	05	17-10-2019	21:17:22:634	rl	rat	2019	2019	60	1669190	00845.png	456.0	25	1669184.0	163	645
92	05_rat	05	17-10-2019	21:17:22:833	rl	rat	2031	2031	60	1669389	00850.png	461.0	25	1669384.0	393	1034
93	05_rat	05	17-10-2019	21:17:23:033	rl	rat	2043	2043	60	1669588	00855.png	466.0	25	1669584.0	413	653
94	05_rat	05	17-10-2019	21:17:23:232	rl	rat	2055	2055	60	1669787	00860.png	471.0	25	1669784.0	364	620
95	05_rat	05	17-10-2019	21:17:23:431	rl	rat	2067	2067	60	1669986	00865.png	476.0	25	1669984.0	264	32
96	05_rat	05	17-10-2019	21:17:23:630	rl	rat	2079	2079	60	1670185	00870.png	481.0	25	1670184.0	305	9
97	05_rat	05	17-10-2019	21:17:23:829	rl	rat	2091	2091	60	1670384	00875.png	486.0	25	1670384.0	467	34
98	05_rat	05	17-10-2019	21:17:24:028	rl	rat	2103	2103	60	1670584	00880.png	491.0	25	1670584.0	413	60
99	05_rat	05	17-10-2019	21:17:24:227	rl	rat	2115	2115	60	1670783	00885.png	496.0	25	1670784.0	386	80
100	05_rat	05	17-10-2019	21:17:24:427	rl	rat	2127	2127	60	1670982	00890.png	501.0	25	1670984.0	349	152
101	05_rat	05	17-10-2019	21:17:24:626	rl	rat	2139	2139	60	1671181	00895.png	506.0	25	1671184.0	295	249
102	05_rat	05	17-10-2019	21:17:24:825	rl	rat	2151	2151	60	1671380	00900.png	511.0	25	1671384.0	267	250
103	05_rat	05	17-10-2019	21:17:25:024	rl	rat	2162	2162	60	1671579	00905.png	516.0	25	1671584.0	765	289
104	05_rat	05	17-10-2019	21:17:25:223	rl	rat	2172	2172	60	1671778	00910.png	521.0	25	1671784.0	736	251
105	05_rat	05	17-10-2019	21:17:25:422	rl	rat	2184	2184	60	1671978	00915.png	526.0	25	1671984.0	683	258
106	05_rat	05	17-10-2019	21:17:25:622	rl	rat	2196	2196	60	1672177	00920.png	531.0	25	1672184.0	669	260
107	05_rat	05	17-10-2019	21:17:25:820	rl	rat	2208	2208	60	1672376	00925.png	536.0	25	1672384.0	667	262
108	05_rat	05	17-10-2019	21:17:26:036	rl	rat	2221	2221	60	1672591	00930.png	541.0	25	1672584.0	685	297
109	05_rat	05	17-10-2019	21:17:26:235	rl	rat	2233	2233	60	1672791	00935.png	546.0	25	1672784.0	695	321
110	05_rat	05	17-10-2019	21:17:26:434	rl	rat	2245	2245	60	1672990	00940.png	551.0	25	1672984.0	680	322
111	05_rat	05	17-10-2019	21:17:26:634	rl	rat	2257	2257	60	1673189	00945.png	556.0	25	1673184.0	685	333
112	05_rat	05	17-10-2019	21:17:26:833	rl	rat	2269	2269	60	1673388	00950.png	561.0	25	1673384.0	142	288
113	05_rat	05	17-10-2019	21:17:27:032	rl	rat	2281	2281	60	1673587	00955.png	566.0	25	1673584.0	120	271
114	05_rat	05	17-10-2019	21:17:27:231	rl	rat	2293	2293	60	1673786	00960.png	571.0	25	1673784.0	228	292
115	05_rat	05	17-10-2019	21:17:27:430	rl	rat	2305	2305	60	1673986	00965.png	576.0	25	1673984.0	260	271
116	05_rat	05	17-10-2019	21:17:27:630	rl	rat	2317	2317	60	1674185	00970.png	581.0	25	1674184.0	275	294
117	05_rat	05	17-10-2019	21:17:27:829	rl	rat	2329	2329	60	1674384	00975.png	586.0	25	1674384.0	323	282
118	05_rat	05	17-10-2019	21:17:28:028	rl	rat	2341	2341	60	1674583	00980.png	591.0	25	1674584.0	360	308
119	05_rat	05	17-10-2019	21:17:28:227	rl	rat	2353	2353	60	1674782	00985.png	596.0	25	1674784.0	62	360
120	05_rat	05	17-10-2019	21:17:28:426	rl	rat	2365	2365	60	1674981	00990.png	601.0	25	1674984.0	152	332
121	05_rat	05	17-10-2019	21:17:28:625	rl	rat	2377	2377	60	1675180	00995.png	606.0	25	1675184.0	114	321
122	05_rat	05	17-10-2019	21:17:28:824	rl	rat	2389	2389	60	1675380	01000.png	611.0	25	1675384.0	369	498
123	05_rat	05	17-10-2019	21:17:29:024	rl	rat	2401	2401	60	1675579	01005.png	616.0	25	1675584.0	321	456
124	05_rat	05	17-10-2019	21:17:29:223	rl	rat	2412	2412	60	1675778	01010.png	621.0	25	1675784.0	157	260
125	05_rat	05	17-10-2019	21:17:29:422	rl	rat	2424	2424	60	1675977	01015.png	626.0	25	1675984.0	174	271
126	05_rat	05	17-10-2019	21:17:29:621	rl	rat	2436	2436	60	1676176	01020.png	631.0	25	1676184.0	606	368
127	05_rat	05	17-10-2019	21:17:29:837	rl	rat	2449	2449	60	1676392	01025.png	636.0	25	1676384.0	652	305
128	05_rat	05	17-10-2019	21:17:30:036	rl	rat	2461	2461	60	1676591	01030.png	641.0	25	1676584.0	627	287
129	05_rat	05	17-10-2019	21:17:30:235	rl	rat	2473	2473	60	1676790	01035.png	646.0	25	1676784.0	490	266
130	05_rat	05	17-10-2019	21:17:30:434	rl	rat	2485	2485	60	1676989	01040.png	651.0	25	1676984.0	479	258
131	05_rat	05	17-10-2019	21:17:30:633	rl	rat	2497	2497	60	1677188	01045.png	656.0	25	1677184.0	385	85
132	05_rat	05	17-10-2019	21:17:30:833	rl	rat	2509	2509	60	1677388	01050.png	661.0	25	1677384.0	597	329
133	05_rat	05	17-10-2019	21:17:31:031	rl	rat	2521	2521	60	1677587	01055.png	666.0	25	1677584.0	567	272
134	05_rat	05	17-10-2019	21:17:31:231	rl	rat	2533	2533	60	1677786	01060.png	671.0	25	1677784.0	562	294
135	05_rat	05	17-10-2019	21:17:31:430	rl	rat	2545	2545	60	1677985	01065.png	676.0	25	1677984.0	540	320
136	05_rat	05	17-10-2019	21:17:31:629	rl	rat	2557	2557	60	1678184	01070.png	681.0	25	1678184.0	542	322
137	05_rat	05	17-10-2019	21:17:31:828	rl	rat	2569	2569	60	1678383	01075.png	686.0	25	1678384.0	543	331
138	05_rat	05	17-10-2019	21:17:32:027	rl	rat	2581	2581	60	1678583	01080.png	691.0	25	1678584.0	6	340
139	05_rat	05	17-10-2019	21:17:32:226	rl	rat	2593	2593	60	1678781	01085.png	696.0	25	1678784.0	42	334
140	05_rat	05	17-10-2019	21:17:32:425	rl	rat	2605	2605	60	1678980	01090.png	701.0	25	1678984.0	72	331
141	05_rat	05	17-10-2019	21:17:32:625	rl	rat	2617	2617	60	1679180	01095.png	706.0	25	1679184.0	90	349
142	05_rat	05	17-10-2019	21:17:32:824	rl	rat	2629	2629	60	1679379	01100.png	711.0	25	1679384.0	-74	367
143	05_rat	05	17-10-2019	21:17:33:023	rl	rat	2638	2638	60	1679578	01105.png	716.0	25	1679584.0	400	507
144	05_rat	05	17-10-2019	21:17:33:222	rl	rat	2650	2650	60	1679777	01110.png	721.0	25	1679784.0	1077	386
145	05_rat	05	17-10-2019	21:17:33:421	rl	rat	2662	2662	60	1679976	01115.png	726.0	25	1679984.0	0	0
146	05_rat	05	17-10-2019	21:17:33:621	rl	rat	2674	2674	60	1680176	01120.png	731.0	25	1680184.0	44	327
147	05_rat	05	17-10-2019	21:17:33:836	rl	rat	2687	2687	60	1680392	01125.png	736.0	25	1680384.0	103	325
148	05_rat	05	17-10-2019	21:17:34:035	rl	rat	2699	2699	60	1680591	01130.png	741.0	25	1680584.0	135	325
149	05_rat	05	17-10-2019	21:17:34:234	rl	rat	2711	2711	60	1680790	01135.png	746.0	25	1680784.0	186	318
