	subject_location	subject_id	date	daytime	setting_id	trial_id	sample_id	sample_n	sample_rate	sample_time_smi	frame_id	frame_n	frame_rate	frame_time_smi	fix_pos_x	fix_pos_y
0	05_valpre	05	17-10-2019	20:50:32:514	rl	valpre	11	11	60	59067	00005.png	1.0	25	59060.0	833	223
1	05_valpre	05	17-10-2019	20:50:32:713	rl	valpre	23	23	60	59266	00010.png	6.0	25	59260.0	841	218
2	05_valpre	05	17-10-2019	20:50:32:913	rl	valpre	35	35	60	59466	00015.png	11.0	25	59460.0	838	218
3	05_valpre	05	17-10-2019	20:50:33:111	rl	valpre	47	47	60	59664	00020.png	16.0	25	59660.0	844	214
4	05_valpre	05	17-10-2019	20:50:33:311	rl	valpre	59	59	60	59864	00025.png	21.0	25	59860.0	846	214
5	05_valpre	05	17-10-2019	20:50:33:510	rl	valpre	71	71	60	60063	00030.png	26.0	25	60060.0	749	200
6	05_valpre	05	17-10-2019	20:50:33:709	rl	valpre	81	81	60	60262	00035.png	31.0	25	60260.0	691	110
7	05_valpre	05	17-10-2019	20:50:33:908	rl	valpre	93	93	60	60461	00040.png	36.0	25	60460.0	648	106
8	05_valpre	05	17-10-2019	20:50:34:107	rl	valpre	105	105	60	60660	00045.png	41.0	25	60660.0	670	114
9	05_valpre	05	17-10-2019	20:50:34:306	rl	valpre	117	117	60	60859	00050.png	46.0	25	60860.0	833	250
10	05_valpre	05	17-10-2019	20:50:34:505	rl	valpre	128	128	60	61058	00055.png	51.0	25	61060.0	822	250
11	05_valpre	05	17-10-2019	20:50:34:705	rl	valpre	140	140	60	61258	00060.png	56.0	25	61260.0	820	248
12	05_valpre	05	17-10-2019	20:50:34:904	rl	valpre	152	152	60	61457	00065.png	61.0	25	61460.0	830	264
13	05_valpre	05	17-10-2019	20:50:35:103	rl	valpre	164	164	60	61656	00070.png	66.0	25	61660.0	876	247
14	05_valpre	05	17-10-2019	20:50:35:302	rl	valpre	176	176	60	61855	00075.png	71.0	25	61860.0	878	229
15	05_valpre	05	17-10-2019	20:50:35:501	rl	valpre	188	188	60	62054	00080.png	76.0	25	62060.0	1015	1520
16	05_valpre	05	17-10-2019	20:50:35:701	rl	valpre	200	200	60	62253	00085.png	81.0	25	62260.0	866	218
17	05_valpre	05	17-10-2019	20:50:35:900	rl	valpre	212	212	60	62453	00090.png	86.0	25	62460.0	869	214
18	05_valpre	05	17-10-2019	20:50:36:099	rl	valpre	224	224	60	62652	00095.png	91.0	25	62660.0	898	191
19	05_valpre	05	17-10-2019	20:50:36:314	rl	valpre	237	237	60	62867	00100.png	96.0	25	62860.0	900	188
20	05_valpre	05	17-10-2019	20:50:36:514	rl	valpre	249	249	60	63066	00105.png	101.0	25	63060.0	890	190
21	05_valpre	05	17-10-2019	20:50:36:713	rl	valpre	261	261	60	63266	00110.png	106.0	25	63260.0	830	253
22	05_valpre	05	17-10-2019	20:50:36:912	rl	valpre	273	273	60	63465	00115.png	111.0	25	63460.0	854	194
23	05_valpre	05	17-10-2019	20:50:37:111	rl	valpre	285	285	60	63664	00120.png	116.0	25	63660.0	850	204
24	05_valpre	05	17-10-2019	20:50:37:310	rl	valpre	297	297	60	63863	00125.png	121.0	25	63860.0	852	208
25	05_valpre	05	17-10-2019	20:50:37:510	rl	valpre	307	307	60	64063	00130.png	126.0	25	64060.0	855	217
26	05_valpre	05	17-10-2019	20:50:37:709	rl	valpre	319	319	60	64261	00135.png	131.0	25	64260.0	862	217
27	05_valpre	05	17-10-2019	20:50:37:907	rl	valpre	331	331	60	64460	00140.png	136.0	25	64460.0	871	211
28	05_valpre	05	17-10-2019	20:50:38:107	rl	valpre	343	343	60	64660	00145.png	141.0	25	64660.0	872	207
29	05_valpre	05	17-10-2019	20:50:38:306	rl	valpre	355	355	60	64859	00150.png	146.0	25	64860.0	873	202
30	05_valpre	05	17-10-2019	20:50:38:505	rl	valpre	367	367	60	65058	00155.png	151.0	25	65060.0	858	222
31	05_valpre	05	17-10-2019	20:50:38:704	rl	valpre	379	379	60	65257	00160.png	156.0	25	65260.0	857	219
32	05_valpre	05	17-10-2019	20:50:38:903	rl	valpre	391	391	60	65456	00165.png	161.0	25	65460.0	860	213
33	05_valpre	05	17-10-2019	20:50:39:103	rl	valpre	403	403	60	65655	00170.png	166.0	25	65660.0	861	209
34	05_valpre	05	17-10-2019	20:50:39:302	rl	valpre	415	415	60	65854	00175.png	171.0	25	65860.0	859	207
35	05_valpre	05	17-10-2019	20:50:39:501	rl	valpre	427	427	60	66053	00180.png	176.0	25	66060.0	859	208
36	05_valpre	05	17-10-2019	20:50:39:700	rl	valpre	439	439	60	66253	00185.png	181.0	25	66260.0	862	206
37	05_valpre	05	17-10-2019	20:50:39:899	rl	valpre	451	451	60	66452	00190.png	186.0	25	66460.0	714	97
38	05_valpre	05	17-10-2019	20:50:40:115	rl	valpre	464	464	60	66668	00195.png	191.0	25	66660.0	667	86
39	05_valpre	05	17-10-2019	20:50:40:314	rl	valpre	476	476	60	66867	00200.png	196.0	25	66860.0	659	73
40	05_valpre	05	17-10-2019	20:50:40:514	rl	valpre	488	488	60	67066	00205.png	201.0	25	67060.0	663	66
41	05_valpre	05	17-10-2019	20:50:40:712	rl	valpre	500	500	60	67265	00210.png	206.0	25	67260.0	667	58
42	05_valpre	05	17-10-2019	20:50:40:911	rl	valpre	512	512	60	67464	00215.png	211.0	25	67460.0	665	53
43	05_valpre	05	17-10-2019	20:50:41:111	rl	valpre	524	524	60	67663	00220.png	216.0	25	67660.0	701	34
44	05_valpre	05	17-10-2019	20:50:41:310	rl	valpre	536	536	60	67863	00225.png	221.0	25	67860.0	696	39
45	05_valpre	05	17-10-2019	20:50:41:509	rl	valpre	545	545	60	68062	00230.png	226.0	25	68060.0	698	43
46	05_valpre	05	17-10-2019	20:50:41:708	rl	valpre	557	557	60	68261	00235.png	231.0	25	68260.0	696	37
47	05_valpre	05	17-10-2019	20:50:41:908	rl	valpre	569	569	60	68460	00240.png	236.0	25	68460.0	696	28
48	05_valpre	05	17-10-2019	20:50:42:106	rl	valpre	581	581	60	68659	00245.png	241.0	25	68660.0	696	37
49	05_valpre	05	17-10-2019	20:50:42:306	rl	valpre	593	593	60	68858	00250.png	246.0	25	68860.0	696	44
50	05_valpre	05	17-10-2019	20:50:42:505	rl	valpre	605	605	60	69058	00255.png	251.0	25	69060.0	694	51
51	05_valpre	05	17-10-2019	20:50:42:704	rl	valpre	617	617	60	69256	00260.png	256.0	25	69260.0	688	68
52	05_valpre	05	17-10-2019	20:50:42:903	rl	valpre	629	629	60	69456	00265.png	261.0	25	69460.0	694	64
53	05_valpre	05	17-10-2019	20:50:43:102	rl	valpre	641	641	60	69655	00270.png	266.0	25	69660.0	696	62
54	05_valpre	05	17-10-2019	20:50:43:301	rl	valpre	653	653	60	69854	00275.png	271.0	25	69860.0	695	68
55	05_valpre	05	17-10-2019	20:50:43:500	rl	valpre	665	665	60	70053	00280.png	276.0	25	70060.0	691	72
56	05_valpre	05	17-10-2019	20:50:43:700	rl	valpre	677	677	60	70253	00285.png	281.0	25	70260.0	694	74
57	05_valpre	05	17-10-2019	20:50:43:915	rl	valpre	690	690	60	70468	00290.png	286.0	25	70460.0	694	76
58	05_valpre	05	17-10-2019	20:50:44:114	rl	valpre	702	702	60	70667	00295.png	291.0	25	70660.0	696	71
59	05_valpre	05	17-10-2019	20:50:44:314	rl	valpre	714	714	60	70866	00300.png	296.0	25	70860.0	694	73
60	05_valpre	05	17-10-2019	20:50:44:513	rl	valpre	726	726	60	71066	00305.png	301.0	25	71060.0	695	70
61	05_valpre	05	17-10-2019	20:50:44:712	rl	valpre	738	738	60	71264	00310.png	306.0	25	71260.0	699	72
62	05_valpre	05	17-10-2019	20:50:44:911	rl	valpre	750	750	60	71464	00315.png	311.0	25	71460.0	698	79
63	05_valpre	05	17-10-2019	20:50:45:110	rl	valpre	762	762	60	71663	00320.png	316.0	25	71660.0	702	85
64	05_valpre	05	17-10-2019	20:50:45:293	rl	valpre	773	773	60	71845	00325.png	321.0	25	71860.0	700	83
65	05_valpre	05	17-10-2019	20:50:45:508	rl	valpre	785	785	60	72061	00330.png	326.0	25	72060.0	699	82
66	05_valpre	05	17-10-2019	20:50:45:708	rl	valpre	797	797	60	72261	00335.png	331.0	25	72260.0	701	90
67	05_valpre	05	17-10-2019	20:50:45:907	rl	valpre	809	809	60	72459	00340.png	336.0	25	72460.0	701	94
68	05_valpre	05	17-10-2019	20:50:46:106	rl	valpre	821	821	60	72659	00345.png	341.0	25	72660.0	700	94
69	05_valpre	05	17-10-2019	20:50:46:305	rl	valpre	833	833	60	72858	00350.png	346.0	25	72860.0	699	93
70	05_valpre	05	17-10-2019	20:50:46:504	rl	valpre	845	845	60	73057	00355.png	351.0	25	73060.0	696	101
71	05_valpre	05	17-10-2019	20:50:46:703	rl	valpre	857	857	60	73256	00360.png	356.0	25	73260.0	0	0
72	05_valpre	05	17-10-2019	20:50:46:902	rl	valpre	869	869	60	73455	00365.png	361.0	25	73460.0	681	117
73	05_valpre	05	17-10-2019	20:50:47:102	rl	valpre	881	881	60	73654	00370.png	366.0	25	73660.0	524	368
74	05_valpre	05	17-10-2019	20:50:47:301	rl	valpre	893	893	60	73853	00375.png	371.0	25	73860.0	529	341
75	05_valpre	05	17-10-2019	20:50:47:500	rl	valpre	905	905	60	74053	00380.png	376.0	25	74060.0	545	316
76	05_valpre	05	17-10-2019	20:50:47:699	rl	valpre	917	917	60	74252	00385.png	381.0	25	74260.0	547	308
77	05_valpre	05	17-10-2019	20:50:47:915	rl	valpre	930	930	60	74468	00390.png	386.0	25	74460.0	0	0
78	05_valpre	05	17-10-2019	20:50:48:114	rl	valpre	942	942	60	74667	00395.png	391.0	25	74660.0	524	295
79	05_valpre	05	17-10-2019	20:50:48:313	rl	valpre	954	954	60	74866	00400.png	396.0	25	74860.0	521	301
80	05_valpre	05	17-10-2019	20:50:48:512	rl	valpre	966	966	60	75065	00405.png	401.0	25	75060.0	523	303
81	05_valpre	05	17-10-2019	20:50:48:711	rl	valpre	978	978	60	75264	00410.png	406.0	25	75260.0	553	289
82	05_valpre	05	17-10-2019	20:50:48:910	rl	valpre	990	990	60	75463	00415.png	411.0	25	75460.0	551	288
83	05_valpre	05	17-10-2019	20:50:49:109	rl	valpre	1002	1002	60	75662	00420.png	416.0	25	75660.0	551	290
84	05_valpre	05	17-10-2019	20:50:49:309	rl	valpre	1012	1012	60	75862	00425.png	421.0	25	75860.0	550	296
85	05_valpre	05	17-10-2019	20:50:49:508	rl	valpre	1023	1023	60	76061	00430.png	426.0	25	76060.0	502	324
86	05_valpre	05	17-10-2019	20:50:49:707	rl	valpre	1035	1035	60	76260	00435.png	431.0	25	76260.0	504	319
87	05_valpre	05	17-10-2019	20:50:49:906	rl	valpre	1047	1047	60	76459	00440.png	436.0	25	76460.0	506	320
88	05_valpre	05	17-10-2019	20:50:50:105	rl	valpre	1059	1059	60	76658	00445.png	441.0	25	76660.0	502	320
89	05_valpre	05	17-10-2019	20:50:50:304	rl	valpre	1071	1071	60	76857	00450.png	446.0	25	76860.0	503	322
90	05_valpre	05	17-10-2019	20:50:50:504	rl	valpre	1083	1083	60	77056	00455.png	451.0	25	77060.0	502	317
91	05_valpre	05	17-10-2019	20:50:50:703	rl	valpre	1095	1095	60	77255	00460.png	456.0	25	77260.0	505	318
92	05_valpre	05	17-10-2019	20:50:50:902	rl	valpre	1107	1107	60	77455	00465.png	461.0	25	77460.0	506	314
93	05_valpre	05	17-10-2019	20:50:51:101	rl	valpre	1119	1119	60	77654	00470.png	466.0	25	77660.0	505	307
94	05_valpre	05	17-10-2019	20:50:51:301	rl	valpre	1131	1131	60	77853	00475.png	471.0	25	77860.0	506	298
95	05_valpre	05	17-10-2019	20:50:51:499	rl	valpre	1143	1143	60	78052	00480.png	476.0	25	78060.0	503	301
96	05_valpre	05	17-10-2019	20:50:51:715	rl	valpre	1156	1156	60	78268	00485.png	481.0	25	78260.0	505	305
97	05_valpre	05	17-10-2019	20:50:51:914	rl	valpre	1168	1168	60	78467	00490.png	486.0	25	78460.0	510	300
98	05_valpre	05	17-10-2019	20:50:52:113	rl	valpre	1180	1180	60	78666	00495.png	491.0	25	78660.0	506	292
99	05_valpre	05	17-10-2019	20:50:52:312	rl	valpre	1192	1192	60	78865	00500.png	496.0	25	78860.0	508	293
100	05_valpre	05	17-10-2019	20:50:52:512	rl	valpre	1204	1204	60	79064	00505.png	501.0	25	79060.0	510	298
101	05_valpre	05	17-10-2019	20:50:52:711	rl	valpre	1216	1216	60	79264	00510.png	506.0	25	79260.0	509	301
102	05_valpre	05	17-10-2019	20:50:52:910	rl	valpre	1228	1228	60	79463	00515.png	511.0	25	79460.0	507	306
103	05_valpre	05	17-10-2019	20:50:53:109	rl	valpre	1239	1239	60	79662	00520.png	516.0	25	79660.0	521	282
104	05_valpre	05	17-10-2019	20:50:53:308	rl	valpre	1251	1251	60	79861	00525.png	521.0	25	79860.0	513	300
105	05_valpre	05	17-10-2019	20:50:53:507	rl	valpre	1263	1263	60	80060	00530.png	526.0	25	80060.0	856	199
106	05_valpre	05	17-10-2019	20:50:53:707	rl	valpre	1275	1275	60	80260	00535.png	531.0	25	80260.0	847	191
107	05_valpre	05	17-10-2019	20:50:53:906	rl	valpre	1287	1287	60	80458	00540.png	536.0	25	80460.0	764	199
108	05_valpre	05	17-10-2019	20:50:54:105	rl	valpre	1299	1299	60	80657	00545.png	541.0	25	80660.0	872	152
109	05_valpre	05	17-10-2019	20:50:54:304	rl	valpre	1311	1311	60	80857	00550.png	546.0	25	80860.0	871	162
110	05_valpre	05	17-10-2019	20:50:54:503	rl	valpre	1323	1323	60	81056	00555.png	551.0	25	81060.0	873	165
111	05_valpre	05	17-10-2019	20:50:54:703	rl	valpre	1335	1335	60	81255	00560.png	556.0	25	81260.0	783	208
112	05_valpre	05	17-10-2019	20:50:54:902	rl	valpre	1347	1347	60	81455	00565.png	561.0	25	81460.0	893	169
113	05_valpre	05	17-10-2019	20:50:55:100	rl	valpre	1359	1359	60	81653	00570.png	566.0	25	81660.0	895	176
114	05_valpre	05	17-10-2019	20:50:55:300	rl	valpre	1371	1371	60	81853	00575.png	571.0	25	81860.0	922	162
115	05_valpre	05	17-10-2019	20:50:55:499	rl	valpre	1383	1383	60	82052	00580.png	576.0	25	82060.0	885	173
116	05_valpre	05	17-10-2019	20:50:55:714	rl	valpre	1396	1396	60	82267	00585.png	581.0	25	82260.0	888	173
117	05_valpre	05	17-10-2019	20:50:55:914	rl	valpre	1408	1408	60	82467	00590.png	586.0	25	82460.0	886	180
118	05_valpre	05	17-10-2019	20:50:56:113	rl	valpre	1420	1420	60	82666	00595.png	591.0	25	82660.0	880	183
119	05_valpre	05	17-10-2019	20:50:56:312	rl	valpre	1432	1432	60	82865	00600.png	596.0	25	82860.0	882	187
120	05_valpre	05	17-10-2019	20:50:56:511	rl	valpre	1444	1444	60	83064	00605.png	601.0	25	83060.0	883	189
121	05_valpre	05	17-10-2019	20:50:56:710	rl	valpre	1456	1456	60	83263	00610.png	606.0	25	83260.0	885	185
122	05_valpre	05	17-10-2019	20:50:56:910	rl	valpre	1467	1467	60	83462	00615.png	611.0	25	83460.0	880	190
123	05_valpre	05	17-10-2019	20:50:57:109	rl	valpre	1476	1476	60	83661	00620.png	616.0	25	83660.0	884	184
124	05_valpre	05	17-10-2019	20:50:57:308	rl	valpre	1488	1488	60	83860	00625.png	621.0	25	83860.0	883	181
125	05_valpre	05	17-10-2019	20:50:57:507	rl	valpre	1500	1500	60	84060	00630.png	626.0	25	84060.0	879	190
126	05_valpre	05	17-10-2019	20:50:57:706	rl	valpre	1512	1512	60	84259	00635.png	631.0	25	84260.0	890	176
127	05_valpre	05	17-10-2019	20:50:57:905	rl	valpre	1524	1524	60	84458	00640.png	636.0	25	84460.0	874	189
128	05_valpre	05	17-10-2019	20:50:58:104	rl	valpre	1536	1536	60	84657	00645.png	641.0	25	84660.0	876	186
129	05_valpre	05	17-10-2019	20:50:58:304	rl	valpre	1548	1548	60	84857	00650.png	646.0	25	84860.0	886	183
130	05_valpre	05	17-10-2019	20:50:58:503	rl	valpre	1560	1560	60	85056	00655.png	651.0	25	85060.0	887	177
131	05_valpre	05	17-10-2019	20:50:58:702	rl	valpre	1572	1572	60	85255	00660.png	656.0	25	85260.0	892	174
132	05_valpre	05	17-10-2019	20:50:58:901	rl	valpre	1584	1584	60	85454	00665.png	661.0	25	85460.0	886	183
133	05_valpre	05	17-10-2019	20:50:59:100	rl	valpre	1596	1596	60	85653	00670.png	666.0	25	85660.0	885	184
134	05_valpre	05	17-10-2019	20:50:59:300	rl	valpre	1608	1608	60	85852	00675.png	671.0	25	85860.0	887	185
135	05_valpre	05	17-10-2019	20:50:59:515	rl	valpre	1621	1621	60	86068	00680.png	676.0	25	86060.0	889	185
136	05_valpre	05	17-10-2019	20:50:59:714	rl	valpre	1633	1633	60	86267	00685.png	681.0	25	86260.0	881	195
137	05_valpre	05	17-10-2019	20:50:59:913	rl	valpre	1645	1645	60	86466	00690.png	686.0	25	86460.0	718	92
138	05_valpre	05	17-10-2019	20:51:00:112	rl	valpre	1657	1657	60	86665	00695.png	691.0	25	86660.0	690	63
139	05_valpre	05	17-10-2019	20:51:00:312	rl	valpre	1669	1669	60	86864	00700.png	696.0	25	86860.0	693	62
140	05_valpre	05	17-10-2019	20:51:00:511	rl	valpre	1681	1681	60	87064	00705.png	701.0	25	87060.0	696	51
141	05_valpre	05	17-10-2019	20:51:00:710	rl	valpre	1693	1693	60	87263	00710.png	706.0	25	87260.0	700	51
142	05_valpre	05	17-10-2019	20:51:00:909	rl	valpre	1701	1701	60	87462	00715.png	711.0	25	87460.0	702	49
143	05_valpre	05	17-10-2019	20:51:01:108	rl	valpre	1713	1713	60	87661	00720.png	716.0	25	87660.0	705	45
144	05_valpre	05	17-10-2019	20:51:01:307	rl	valpre	1725	1725	60	87860	00725.png	721.0	25	87860.0	701	50
145	05_valpre	05	17-10-2019	20:51:01:507	rl	valpre	1737	1737	60	88059	00730.png	726.0	25	88060.0	703	46
146	05_valpre	05	17-10-2019	20:51:01:706	rl	valpre	1749	1749	60	88258	00735.png	731.0	25	88260.0	708	39
147	05_valpre	05	17-10-2019	20:51:01:905	rl	valpre	1761	1761	60	88458	00740.png	736.0	25	88460.0	739	21
148	05_valpre	05	17-10-2019	20:51:02:104	rl	valpre	1773	1773	60	88656	00745.png	741.0	25	88660.0	737	20
149	05_valpre	05	17-10-2019	20:51:02:303	rl	valpre	1785	1785	60	88856	00750.png	746.0	25	88860.0	689	11
150	05_valpre	05	17-10-2019	20:51:02:502	rl	valpre	1797	1797	60	89055	00755.png	751.0	25	89060.0	714	58
151	05_valpre	05	17-10-2019	20:51:02:701	rl	valpre	1809	1809	60	89254	00760.png	756.0	25	89260.0	718	46
152	05_valpre	05	17-10-2019	20:51:02:900	rl	valpre	1821	1821	60	89453	00765.png	761.0	25	89460.0	721	36
153	05_valpre	05	17-10-2019	20:51:03:100	rl	valpre	1833	1833	60	89653	00770.png	766.0	25	89660.0	719	30
154	05_valpre	05	17-10-2019	20:51:03:299	rl	valpre	1845	1845	60	89852	00775.png	771.0	25	89860.0	734	18
155	05_valpre	05	17-10-2019	20:51:03:515	rl	valpre	1858	1858	60	90067	00780.png	776.0	25	90060.0	733	17
156	05_valpre	05	17-10-2019	20:51:03:714	rl	valpre	1870	1870	60	90267	00785.png	781.0	25	90260.0	730	23
157	05_valpre	05	17-10-2019	20:51:03:913	rl	valpre	1882	1882	60	90466	00790.png	786.0	25	90460.0	730	35
158	05_valpre	05	17-10-2019	20:51:04:112	rl	valpre	1894	1894	60	90664	00795.png	791.0	25	90660.0	732	36
159	05_valpre	05	17-10-2019	20:51:04:311	rl	valpre	1906	1906	60	90864	00800.png	796.0	25	90860.0	509	364
160	05_valpre	05	17-10-2019	20:51:04:510	rl	valpre	1918	1918	60	91063	00805.png	801.0	25	91060.0	529	309
161	05_valpre	05	17-10-2019	20:51:04:710	rl	valpre	1928	1928	60	91262	00810.png	806.0	25	91260.0	527	307
162	05_valpre	05	17-10-2019	20:51:04:908	rl	valpre	1938	1938	60	91461	00815.png	811.0	25	91460.0	527	308
163	05_valpre	05	17-10-2019	20:51:05:107	rl	valpre	1950	1950	60	91660	00820.png	816.0	25	91660.0	529	306
164	05_valpre	05	17-10-2019	20:51:05:307	rl	valpre	1962	1962	60	91860	00825.png	821.0	25	91860.0	527	301
165	05_valpre	05	17-10-2019	20:51:05:506	rl	valpre	1974	1974	60	92059	00830.png	826.0	25	92060.0	521	306
166	05_valpre	05	17-10-2019	20:51:05:705	rl	valpre	1986	1986	60	92258	00835.png	831.0	25	92260.0	522	306
167	05_valpre	05	17-10-2019	20:51:05:904	rl	valpre	1998	1998	60	92457	00840.png	836.0	25	92460.0	522	306
168	05_valpre	05	17-10-2019	20:51:06:103	rl	valpre	2010	2010	60	92656	00845.png	841.0	25	92660.0	520	302
169	05_valpre	05	17-10-2019	20:51:06:302	rl	valpre	2022	2022	60	92855	00850.png	846.0	25	92860.0	542	260
170	05_valpre	05	17-10-2019	20:51:06:502	rl	valpre	2034	2034	60	93054	00855.png	851.0	25	93060.0	542	274
171	05_valpre	05	17-10-2019	20:51:06:701	rl	valpre	2046	2046	60	93254	00860.png	856.0	25	93260.0	541	273
172	05_valpre	05	17-10-2019	20:51:06:900	rl	valpre	2058	2058	60	93453	00865.png	861.0	25	93460.0	538	268
173	05_valpre	05	17-10-2019	20:51:07:099	rl	valpre	2070	2070	60	93652	00870.png	866.0	25	93660.0	537	264
174	05_valpre	05	17-10-2019	20:51:07:315	rl	valpre	2083	2083	60	93868	00875.png	871.0	25	93860.0	536	271
175	05_valpre	05	17-10-2019	20:51:07:514	rl	valpre	2095	2095	60	94067	00880.png	876.0	25	94060.0	535	275
176	05_valpre	05	17-10-2019	20:51:07:713	rl	valpre	2107	2107	60	94266	00885.png	881.0	25	94260.0	537	282
177	05_valpre	05	17-10-2019	20:51:07:912	rl	valpre	2119	2119	60	94465	00890.png	886.0	25	94460.0	537	290
178	05_valpre	05	17-10-2019	20:51:08:112	rl	valpre	2131	2131	60	94664	00895.png	891.0	25	94660.0	533	302
179	05_valpre	05	17-10-2019	20:51:08:310	rl	valpre	2143	2143	60	94863	00900.png	896.0	25	94860.0	533	306
180	05_valpre	05	17-10-2019	20:51:08:510	rl	valpre	2155	2155	60	95062	00905.png	901.0	25	95060.0	531	305
181	05_valpre	05	17-10-2019	20:51:08:692	rl	valpre	2164	2164	60	95245	00910.png	906.0	25	95260.0	868	229
