	setting_id	subject_id	date	trial_id	sample_id	frame_rate	frame_id	fix_pos_x_old	fix_pos_y_old	cam_angle_x	cam_angle_y	cam_angle_z	fix_pos_x	fix_pos_y	fix_pos_avrgd	fix_pos_diff_x	fix_pos_diff_y
0	vr	13	2019-10-28	rat_1	477	10	00260.png	400.5	398.5	4	173	358	400.5	398.5	0	0.0	0.0
1	vr	13	2019-10-28	rat_1	495	10	00270.png	401.0	401.5	4	174	357	401.0	401.5	0	0.0	0.0
2	vr	13	2019-10-28	rat_1	513	10	00280.png	444.0	426.5	5	177	357	444.0	426.5	0	0.0	0.0
3	vr	13	2019-10-28	rat_1	531	10	00290.png	476.0	414.5	6	183	358	476.0	414.5	0	0.0	0.0
4	vr	13	2019-10-28	rat_1	548	10	00300.png	479.5	399.5	6	196	359	479.5	399.5	0	0.0	0.0
5	vr	13	2019-10-28	rat_1	566	10	00310.png	513.5	413.5	4	207	360	513.5	413.5	0	0.0	0.0
6	vr	13	2019-10-28	rat_1	583	10	00320.png	451.0	420.5	4	218	0	451.0	420.5	0	0.0	0.0
7	vr	13	2019-10-28	rat_1	601	10	00330.png	476.5	430.5	1	229	1	476.5	430.5	0	0.0	0.0
8	vr	13	2019-10-28	rat_1	618	10	00340.png	482.0	453.5	1	239	0	482.0	453.5	0	0.0	0.0
9	vr	13	2019-10-28	rat_1	634	10	00350.png	504.5	392.0	0	249	359	504.5	392.0	0	0.0	0.0
10	vr	13	2019-10-28	rat_1	651	10	00360.png	457.5	399.5	358	255	357	457.5	399.5	0	0.0	0.0
11	vr	13	2019-10-28	rat_1	669	10	00370.png	543.0	419.5	357	263	356	543.0	419.5	0	0.0	0.0
12	vr	13	2019-10-28	rat_1	685	10	00380.png	492.5	447.0	360	276	355	492.5	447.0	0	0.0	0.0
13	vr	13	2019-10-28	rat_1	703	10	00390.png	443.0	434.0	5	284	353	443.0	434.0	0	0.0	0.0
14	vr	13	2019-10-28	rat_1	721	10	00400.png	439.0	358.5	6	284	353	439.0	358.5	0	0.0	0.0
15	vr	13	2019-10-28	rat_1	739	10	00410.png	456.5	337.5	0	282	353	456.5	337.5	0	0.0	0.0
16	vr	13	2019-10-28	rat_1	757	10	00420.png	454.5	329.0	349	280	353	454.5	329.0	0	0.0	0.0
17	vr	13	2019-10-28	rat_1	775	10	00430.png	430.0	299.0	340	278	353	430.0	299.0	0	0.0	0.0
18	vr	13	2019-10-28	rat_1	793	10	00440.png	421.0	320.0	337	284	352	421.0	320.0	0	0.0	0.0
19	vr	13	2019-10-28	rat_1	809	10	00450.png	569.0	408.5	342	297	348	569.0	408.5	0	0.0	0.0
20	vr	13	2019-10-28	rat_1	827	10	00460.png	506.0	411.0	351	309	347	506.0	411.0	0	0.0	0.0
21	vr	13	2019-10-28	rat_1	844	10	00470.png	504.5	409.0	356	316	349	525.5	410.75	1	-21.0	-1.75
22	vr	13	2019-10-28	rat_1	845	10	00470.png	546.5	412.5	356	316	349	525.5	410.75	1	21.0	1.75
23	vr	13	2019-10-28	rat_1	858	10	00480.png	515.0	421.0	359	323	350	515.0	421.0	0	0.0	0.0
24	vr	13	2019-10-28	rat_1	874	10	00490.png	504.5	447.0	2	325	351	504.5	447.0	0	0.0	0.0
25	vr	13	2019-10-28	rat_1	892	10	00500.png	383.5	442.5	2	312	351	383.5	442.5	0	0.0	0.0
26	vr	13	2019-10-28	rat_1	910	10	00510.png	299.5	437.5	1	278	353	299.5	437.5	0	0.0	0.0
27	vr	13	2019-10-28	rat_1	928	10	00520.png	325.5	440.0	4	251	356	325.5	440.0	0	0.0	0.0
28	vr	13	2019-10-28	rat_1	945	10	00530.png	366.0	427.0	9	236	357	366.0	427.0	0	0.0	0.0
29	vr	13	2019-10-28	rat_1	963	10	00540.png	376.5	392.0	15	230	357	376.5	392.0	0	0.0	0.0
30	vr	13	2019-10-28	rat_1	980	10	00550.png	357.0	375.0	16	223	357	357.0	375.0	0	0.0	0.0
31	vr	13	2019-10-28	rat_1	997	10	00560.png	394.0	330.0	18	218	357	394.0	330.0	0	0.0	0.0
32	vr	13	2019-10-28	rat_1	1015	10	00570.png	423.0	329.5	15	215	358	423.0	329.5	0	0.0	0.0
33	vr	13	2019-10-28	rat_1	1031	10	00580.png	423.5	341.5	10	215	358	423.5	341.5	0	0.0	0.0
34	vr	13	2019-10-28	rat_1	1047	10	00590.png	428.0	364.0	6	213	359	426.0	365.0	1	2.0	-1.0
35	vr	13	2019-10-28	rat_1	1048	10	00590.png	424.0	366.0	6	213	359	426.0	365.0	1	-2.0	1.0
36	vr	13	2019-10-28	rat_1	1066	10	00600.png	313.0	410.5	5	200	358	313.0	410.5	0	0.0	0.0
37	vr	13	2019-10-28	rat_1	1084	10	00610.png	346.0	417.5	5	183	358	346.0	417.5	0	0.0	0.0
38	vr	13	2019-10-28	rat_1	1102	10	00620.png	390.5	408.0	7	175	358	390.5	408.0	0	0.0	0.0
39	vr	13	2019-10-28	rat_1	1119	10	00630.png	430.0	383.5	6	171	358	430.0	383.5	0	0.0	0.0
40	vr	13	2019-10-28	rat_1	1137	10	00640.png	328.5	423.5	3	146	356	328.5	423.5	0	0.0	0.0
41	vr	13	2019-10-28	rat_1	1155	10	00650.png	273.5	422.5	3	112	359	273.5	422.5	0	0.0	0.0
42	vr	13	2019-10-28	rat_1	1172	10	00660.png	257.0	416.5	6	86	360	257.0	416.5	0	0.0	0.0
43	vr	13	2019-10-28	rat_1	1189	10	00670.png	259.0	406.0	6	68	0	259.0	406.0	0	0.0	0.0
44	vr	13	2019-10-28	rat_1	1206	10	00680.png	288.5	393.5	6	51	1	288.5	393.5	0	0.0	0.0
45	vr	13	2019-10-28	rat_1	1223	10	00690.png	326.0	384.0	5	41	3	326.0	384.0	0	0.0	0.0
46	vr	13	2019-10-28	rat_1	1240	10	00700.png	351.5	345.5	358	37	9	352.25	347.0	1	-0.75	-1.5
47	vr	13	2019-10-28	rat_1	1241	10	00700.png	353.0	348.5	357	36	9	352.25	347.0	1	0.75	1.5
48	vr	13	2019-10-28	rat_1	1258	10	00710.png	370.5	346.0	348	34	13	370.5	346.0	0	0.0	0.0
49	vr	13	2019-10-28	rat_1	1275	10	00720.png	364.0	317.0	342	33	14	364.0	317.0	0	0.0	0.0
50	vr	13	2019-10-28	rat_1	1293	10	00730.png	360.5	331.0	340	33	14	360.5	331.0	0	0.0	0.0
51	vr	13	2019-10-28	rat_1	1311	10	00740.png	467.0	338.0	338	36	15	467.0	338.0	0	0.0	0.0
52	vr	13	2019-10-28	rat_1	1328	10	00750.png	475.0	350.5	330	48	15	475.0	350.5	0	0.0	0.0
53	vr	13	2019-10-28	rat_1	1346	10	00760.png	435.5	373.5	322	66	12	435.5	373.5	0	0.0	0.0
54	vr	13	2019-10-28	rat_1	1362	10	00770.png	393.5	356.5	317	80	9	393.5	356.5	0	0.0	0.0
55	vr	13	2019-10-28	rat_1	1377	10	00780.png	401.5	327.0	312	90	8	400.75	327.5	1	0.75	-0.5
56	vr	13	2019-10-28	rat_1	1378	10	00780.png	400.0	328.0	312	90	8	400.75	327.5	1	-0.75	0.5
57	vr	13	2019-10-28	rat_1	1391	10	00790.png	399.0	326.0	307	99	6	399.0	326.0	0	0.0	0.0
58	vr	13	2019-10-28	rat_1	1409	10	00800.png	406.5	320.0	303	109	4	406.5	320.0	0	0.0	0.0
59	vr	13	2019-10-28	rat_1	1425	10	00810.png	440.0	395.5	303	117	2	441.25	399.5	1	-1.25	-4.0
60	vr	13	2019-10-28	rat_1	1426	10	00810.png	442.5	403.5	303	117	2	441.25	399.5	1	1.25	4.0
61	vr	13	2019-10-28	rat_1	1439	10	00820.png	465.0	498.0	306	126	358	465.0	498.0	0	0.0	0.0
62	vr	13	2019-10-28	rat_1	1457	10	00830.png	452.0	474.0	313	135	354	452.0	474.0	0	0.0	0.0
63	vr	13	2019-10-28	rat_1	1474	10	00840.png	433.0	434.5	321	143	353	433.0	434.5	0	0.0	0.0
64	vr	13	2019-10-28	rat_1	1491	10	00850.png	0.0	840.0	339	153	353	0.0	840.0	0	0.0	0.0
65	vr	13	2019-10-28	rat_1	1509	10	00860.png	455.0	462.5	356	162	354	455.0	462.5	0	0.0	0.0
66	vr	13	2019-10-28	rat_1	1527	10	00870.png	417.0	416.0	6	167	353	417.0	416.0	0	0.0	0.0
67	vr	13	2019-10-28	rat_1	1544	10	00880.png	477.0	383.0	15	181	356	477.0	383.0	0	0.0	0.0
68	vr	13	2019-10-28	rat_1	1561	10	00890.png	466.0	367.0	16	194	356	466.0	367.0	0	0.0	0.0
69	vr	13	2019-10-28	rat_1	1578	10	00900.png	405.0	372.5	16	204	357	405.0	372.5	0	0.0	0.0
70	vr	13	2019-10-28	rat_1	1594	10	00910.png	381.0	389.0	12	207	357	380.75	390.0	1	0.25	-1.0
71	vr	13	2019-10-28	rat_1	1595	10	00910.png	380.5	391.0	12	207	357	380.75	390.0	1	-0.25	1.0
72	vr	13	2019-10-28	rat_1	1609	10	00920.png	337.5	411.0	7	206	356	334.0	411.75	1	3.5	-0.75
73	vr	13	2019-10-28	rat_1	1610	10	00920.png	330.5	412.5	7	206	356	334.0	411.75	1	-3.5	0.75
74	vr	13	2019-10-28	rat_1	1624	10	00930.png	394.0	431.5	4	206	356	394.0	431.5	0	0.0	0.0
75	vr	13	2019-10-28	rat_1	1642	10	00940.png	463.5	430.5	5	224	359	463.5	430.5	0	0.0	0.0
76	vr	13	2019-10-28	rat_1	1660	10	00950.png	460.0	431.0	6	229	359	460.0	431.0	0	0.0	0.0
77	vr	13	2019-10-28	rat_1	1678	10	00960.png	436.0	422.0	9	236	358	436.0	422.0	0	0.0	0.0
78	vr	13	2019-10-28	rat_1	1696	10	00970.png	469.0	421.0	11	243	358	469.0	421.0	0	0.0	0.0
79	vr	13	2019-10-28	rat_1	1713	10	00980.png	478.0	438.5	11	249	359	478.0	438.5	0	0.0	0.0
80	vr	13	2019-10-28	rat_1	1730	10	00990.png	400.5	405.5	7	251	358	400.25	406.0	1	0.25	-0.5
81	vr	13	2019-10-28	rat_1	1731	10	00990.png	400.0	406.5	7	251	358	400.25	406.0	1	-0.25	0.5
82	vr	13	2019-10-28	rat_1	1747	10	01000.png	402.0	419.0	6	252	357	402.0	419.0	0	0.0	0.0
