	setting_id	subject_id	date	trial_id	sample_id	frame_rate	frame_id	fix_pos_x_old	fix_pos_y_old	cam_angle_x	cam_angle_y	cam_angle_z	fix_pos_x	fix_pos_y	fix_pos_avrgd	fix_pos_diff_x	fix_pos_diff_y
0	vr	37	2019-12-17	rat_2	477	10	00260.png	423.5	420.0	357	273	353	423.5	420.25	1	0.0	-0.25
1	vr	37	2019-12-17	rat_2	478	10	00260.png	423.5	420.5	357	273	353	423.5	420.25	1	0.0	0.25
2	vr	37	2019-12-17	rat_2	492	10	00270.png	501.5	435.5	357	273	352	501.5	435.5	0	0.0	0.0
3	vr	37	2019-12-17	rat_2	510	10	00280.png	495.0	436.0	358	275	353	495.0	436.0	0	0.0	0.0
4	vr	37	2019-12-17	rat_2	528	10	00290.png	506.0	432.5	359	278	354	506.0	432.5	0	0.0	0.0
5	vr	37	2019-12-17	rat_2	542	10	00300.png	484.0	427.5	0	283	354	484.0	427.5	0	0.0	0.0
6	vr	37	2019-12-17	rat_2	560	10	00310.png	501.0	447.0	1	290	355	501.0	447.0	0	0.0	0.0
7	vr	37	2019-12-17	rat_2	577	10	00320.png	477.5	437.0	3	293	353	477.5	437.0	0	0.0	0.0
8	vr	37	2019-12-17	rat_2	594	10	00330.png	433.5	396.0	8	293	353	433.5	396.0	0	0.0	0.0
9	vr	37	2019-12-17	rat_2	611	10	00340.png	588.0	345.5	7	293	353	588.0	345.5	0	0.0	0.0
10	vr	37	2019-12-17	rat_2	629	10	00350.png	551.0	357.0	4	301	354	551.0	357.0	0	0.0	0.0
11	vr	37	2019-12-17	rat_2	647	10	00360.png	512.0	369.0	2	310	356	512.0	369.0	0	0.0	0.0
12	vr	37	2019-12-17	rat_2	665	10	00370.png	552.5	409.5	359	320	357	552.5	409.5	0	0.0	0.0
13	vr	37	2019-12-17	rat_2	683	10	00380.png	496.0	415.5	359	328	356	496.0	415.5	0	0.0	0.0
14	vr	37	2019-12-17	rat_2	700	10	00390.png	421.0	344.5	356	336	354	421.0	344.5	0	0.0	0.0
15	vr	37	2019-12-17	rat_2	717	10	00400.png	387.0	350.5	352	338	354	387.0	350.5	0	0.0	0.0
16	vr	37	2019-12-17	rat_2	734	10	00410.png	422.5	421.0	349	337	355	422.5	421.0	0	0.0	0.0
17	vr	37	2019-12-17	rat_2	751	10	00420.png	423.0	433.5	349	338	356	423.0	433.5	0	0.0	0.0
18	vr	37	2019-12-17	rat_2	769	10	00430.png	434.0	306.5	341	339	357	434.0	306.5	0	0.0	0.0
19	vr	37	2019-12-17	rat_2	785	10	00440.png	365.0	283.5	331	339	356	365.0	283.5	0	0.0	0.0
20	vr	37	2019-12-17	rat_2	803	10	00450.png	339.5	323.5	322	335	356	339.5	323.5	0	0.0	0.0
21	vr	37	2019-12-17	rat_2	821	10	00460.png	400.0	334.0	322	333	357	400.0	334.0	0	0.0	0.0
22	vr	37	2019-12-17	rat_2	839	10	00470.png	526.5	331.0	324	337	356	526.5	331.0	0	0.0	0.0
23	vr	37	2019-12-17	rat_2	856	10	00480.png	507.0	387.5	325	352	354	507.0	387.5	0	0.0	0.0
24	vr	37	2019-12-17	rat_2	873	10	00490.png	464.0	482.5	334	5	351	464.0	482.5	0	0.0	0.0
25	vr	37	2019-12-17	rat_2	891	10	00500.png	430.0	483.0	340	7	351	430.0	483.0	0	0.0	0.0
26	vr	37	2019-12-17	rat_2	909	10	00510.png	483.5	473.0	341	5	350	483.5	473.0	0	0.0	0.0
27	vr	37	2019-12-17	rat_2	927	10	00520.png	596.0	424.5	347	5	352	596.0	424.5	0	0.0	0.0
28	vr	37	2019-12-17	rat_2	944	10	00530.png	544.5	410.0	352	14	355	544.5	410.0	0	0.0	0.0
29	vr	37	2019-12-17	rat_2	961	10	00540.png	495.0	407.0	353	18	355	495.0	407.0	0	0.0	0.0
30	vr	37	2019-12-17	rat_2	979	10	00550.png	491.0	404.0	353	18	354	491.0	404.0	0	0.0	0.0
31	vr	37	2019-12-17	rat_2	996	10	00560.png	505.0	400.0	353	15	354	505.0	400.0	0	0.0	0.0
32	vr	37	2019-12-17	rat_2	1013	10	00570.png	524.5	405.0	352	12	355	525.25	405.25	1	-0.75	-0.25
33	vr	37	2019-12-17	rat_2	1014	10	00570.png	526.0	405.5	351	12	355	525.25	405.25	1	0.75	0.25
34	vr	37	2019-12-17	rat_2	1028	10	00580.png	553.5	408.5	351	8	357	553.5	408.5	0	0.0	0.0
35	vr	37	2019-12-17	rat_2	1046	10	00590.png	484.0	496.0	352	358	357	484.0	496.0	0	0.0	0.0
36	vr	37	2019-12-17	rat_2	1063	10	00600.png	308.0	440.5	354	343	359	311.25	439.5	1	-3.25	1.0
37	vr	37	2019-12-17	rat_2	1064	10	00600.png	314.5	438.5	354	342	360	311.25	439.5	1	3.25	-1.0
38	vr	37	2019-12-17	rat_2	1081	10	00610.png	359.5	455.0	356	329	3	359.5	455.0	0	0.0	0.0
39	vr	37	2019-12-17	rat_2	1097	10	00620.png	283.5	453.0	357	317	3	283.5	453.0	0	0.0	0.0
40	vr	37	2019-12-17	rat_2	1114	10	00630.png	338.0	456.0	357	304	2	325.0	453.5	1	13.0	2.5
41	vr	37	2019-12-17	rat_2	1115	10	00630.png	312.0	451.0	357	304	1	325.0	453.5	1	-13.0	-2.5
42	vr	37	2019-12-17	rat_2	1128	10	00640.png	360.0	421.5	6	293	360	360.0	421.5	0	0.0	0.0
43	vr	37	2019-12-17	rat_2	1146	10	00650.png	0.0	840.0	9	281	357	0.0	840.0	0	0.0	0.0
44	vr	37	2019-12-17	rat_2	1163	10	00660.png	315.0	401.0	7	263	354	315.0	401.0	0	0.0	0.0
45	vr	37	2019-12-17	rat_2	1181	10	00670.png	334.5	407.5	5	248	353	334.5	407.5	0	0.0	0.0
46	vr	37	2019-12-17	rat_2	1198	10	00680.png	274.0	411.5	4	240	353	276.75	411.5	1	-2.75	0.0
47	vr	37	2019-12-17	rat_2	1199	10	00680.png	279.5	411.5	4	239	353	276.75	411.5	1	2.75	0.0
48	vr	37	2019-12-17	rat_2	1215	10	00690.png	318.0	414.0	2	232	355	318.0	414.0	0	0.0	0.0
49	vr	37	2019-12-17	rat_2	1232	10	00700.png	304.0	416.0	2	222	356	304.0	416.0	0	0.0	0.0
50	vr	37	2019-12-17	rat_2	1250	10	00710.png	323.5	416.0	2	214	356	323.5	416.0	0	0.0	0.0
51	vr	37	2019-12-17	rat_2	1267	10	00720.png	355.5	418.5	1	206	356	355.5	418.5	0	0.0	0.0
52	vr	37	2019-12-17	rat_2	1284	10	00730.png	371.5	422.5	1	199	356	371.5	422.5	0	0.0	0.0
53	vr	37	2019-12-17	rat_2	1302	10	00740.png	0.0	840.0	3	195	356	0.0	840.0	0	0.0	0.0
54	vr	37	2019-12-17	rat_2	1319	10	00750.png	392.0	595.0	18	193	353	392.0	595.0	0	0.0	0.0
55	vr	37	2019-12-17	rat_2	1337	10	00760.png	362.0	534.0	30	191	352	362.0	534.0	0	0.0	0.0
56	vr	37	2019-12-17	rat_2	1355	10	00770.png	369.0	547.0	40	188	350	369.0	547.0	0	0.0	0.0
57	vr	37	2019-12-17	rat_2	1373	10	00780.png	375.5	562.0	46	187	348	375.5	562.0	0	0.0	0.0
58	vr	37	2019-12-17	rat_2	1390	10	00790.png	380.5	556.0	48	188	347	380.5	556.0	0	0.0	0.0
59	vr	37	2019-12-17	rat_2	1407	10	00800.png	376.0	568.0	47	190	348	376.0	568.0	0	0.0	0.0
60	vr	37	2019-12-17	rat_2	1424	10	00810.png	393.5	422.0	40	192	350	393.5	422.0	0	0.0	0.0
61	vr	37	2019-12-17	rat_2	1440	10	00820.png	310.0	441.5	25	192	352	310.0	441.5	0	0.0	0.0
62	vr	37	2019-12-17	rat_2	1458	10	00830.png	222.5	401.0	6	183	355	222.5	401.0	0	0.0	0.0
63	vr	37	2019-12-17	rat_2	1475	10	00840.png	276.0	433.0	1	164	355	276.0	433.0	0	0.0	0.0
64	vr	37	2019-12-17	rat_2	1492	10	00850.png	308.0	449.0	357	147	358	308.0	449.0	0	0.0	0.0
65	vr	37	2019-12-17	rat_2	1507	10	00860.png	215.0	443.5	358	136	360	215.0	443.5	0	0.0	0.0
66	vr	37	2019-12-17	rat_2	1525	10	00870.png	260.5	445.0	358	128	360	260.5	445.0	0	0.0	0.0
67	vr	37	2019-12-17	rat_2	1543	10	00880.png	276.5	431.5	359	125	359	276.5	431.5	0	0.0	0.0
68	vr	37	2019-12-17	rat_2	1561	10	00890.png	0.0	840.0	357	128	359	0.0	840.0	0	0.0	0.0
69	vr	37	2019-12-17	rat_2	1579	10	00900.png	415.0	282.5	346	135	359	415.0	282.5	0	0.0	0.0
70	vr	37	2019-12-17	rat_2	1597	10	00910.png	448.5	290.5	341	145	359	448.5	290.5	0	0.0	0.0
71	vr	37	2019-12-17	rat_2	1615	10	00920.png	410.0	317.0	337	157	0	410.0	317.0	0	0.0	0.0
72	vr	37	2019-12-17	rat_2	1631	10	00930.png	504.0	483.0	337	168	357	504.0	483.0	0	0.0	0.0
73	vr	37	2019-12-17	rat_2	1649	10	00940.png	422.0	482.5	343	178	356	422.0	482.5	0	0.0	0.0
74	vr	37	2019-12-17	rat_2	1666	10	00950.png	386.0	475.5	347	184	356	386.0	475.5	0	0.0	0.0
75	vr	37	2019-12-17	rat_2	1683	10	00960.png	434.0	470.5	349	189	356	434.0	470.5	0	0.0	0.0
76	vr	37	2019-12-17	rat_2	1701	10	00970.png	493.5	466.0	350	196	356	493.5	466.0	0	0.0	0.0
77	vr	37	2019-12-17	rat_2	1719	10	00980.png	492.5	457.0	352	202	356	492.5	457.0	0	0.0	0.0
78	vr	37	2019-12-17	rat_2	1736	10	00990.png	527.0	450.0	354	209	355	524.75	449.75	1	2.25	0.25
79	vr	37	2019-12-17	rat_2	1737	10	00990.png	522.5	449.5	354	210	355	524.75	449.75	1	-2.25	-0.25
80	vr	37	2019-12-17	rat_2	1753	10	01000.png	477.5	449.0	354	219	355	476.25	449.25	1	1.25	-0.25
81	vr	37	2019-12-17	rat_2	1754	10	01000.png	475.0	449.5	354	219	355	476.25	449.25	1	-1.25	0.25
