	setting_id	subject_id	date	trial_id	sample_id	frame_rate	frame_id	fix_pos_x_old	fix_pos_y_old	cam_angle_x	cam_angle_y	cam_angle_z	fix_pos_x	fix_pos_y	fix_pos_avrgd	fix_pos_diff_x	fix_pos_diff_y
0	vr	02	2019-10-22	reg_2	477	10	00260.png	391.5	491.0	352	192	360	391.5	491.0	0	0.0	0.0
1	vr	02	2019-10-22	reg_2	494	10	00270.png	388.0	473.0	353	192	360	388.0	473.0	0	0.0	0.0
2	vr	02	2019-10-22	reg_2	512	10	00280.png	391.0	474.5	353	191	360	391.0	474.5	0	0.0	0.0
3	vr	02	2019-10-22	reg_2	530	10	00290.png	286.5	456.0	353	190	360	286.5	456.0	0	0.0	0.0
4	vr	02	2019-10-22	reg_2	548	10	00300.png	287.5	454.0	353	188	0	287.5	454.0	0	0.0	0.0
5	vr	02	2019-10-22	reg_2	566	10	00310.png	298.5	451.0	353	185	1	298.5	451.0	0	0.0	0.0
6	vr	02	2019-10-22	reg_2	583	10	00320.png	347.0	449.0	354	182	2	347.0	449.0	0	0.0	0.0
7	vr	02	2019-10-22	reg_2	600	10	00330.png	356.5	445.0	354	180	3	356.5	445.0	0	0.0	0.0
8	vr	02	2019-10-22	reg_2	616	10	00340.png	404.0	437.5	354	180	3	404.0	437.5	0	0.0	0.0
9	vr	02	2019-10-22	reg_2	634	10	00350.png	398.0	438.0	356	182	4	398.0	438.0	0	0.0	0.0
10	vr	02	2019-10-22	reg_2	652	10	00360.png	399.5	453.0	358	181	6	399.5	453.0	0	0.0	0.0
11	vr	02	2019-10-22	reg_2	670	10	00370.png	320.5	422.0	356	172	9	320.5	422.0	0	0.0	0.0
12	vr	02	2019-10-22	reg_2	687	10	00380.png	267.0	425.5	357	164	10	267.0	425.5	0	0.0	0.0
13	vr	02	2019-10-22	reg_2	704	10	00390.png	205.5	408.0	356	157	8	204.25	405.5	1	1.25	2.5
14	vr	02	2019-10-22	reg_2	705	10	00390.png	203.0	403.0	356	157	8	204.25	405.5	1	-1.25	-2.5
15	vr	02	2019-10-22	reg_2	722	10	00400.png	245.5	412.0	356	150	8	245.5	412.0	0	0.0	0.0
16	vr	02	2019-10-22	reg_2	740	10	00410.png	270.0	454.0	358	143	5	270.0	454.0	0	0.0	0.0
17	vr	02	2019-10-22	reg_2	757	10	00420.png	308.5	457.5	358	137	4	308.5	457.5	0	0.0	0.0
18	vr	02	2019-10-22	reg_2	774	10	00430.png	335.5	453.5	358	132	3	335.5	453.5	0	0.0	0.0
19	vr	02	2019-10-22	reg_2	791	10	00440.png	279.0	380.0	357	123	3	282.75	379.75	1	-3.75	0.25
20	vr	02	2019-10-22	reg_2	792	10	00440.png	286.5	379.5	357	123	3	282.75	379.75	1	3.75	-0.25
21	vr	02	2019-10-22	reg_2	809	10	00450.png	294.0	374.5	357	109	2	294.0	374.5	0	0.0	0.0
22	vr	02	2019-10-22	reg_2	827	10	00460.png	211.5	467.5	358	99	2	211.5	467.5	0	0.0	0.0
23	vr	02	2019-10-22	reg_2	844	10	00470.png	265.5	437.5	359	83	2	265.5	437.5	0	0.0	0.0
24	vr	02	2019-10-22	reg_2	862	10	00480.png	334.0	432.0	1	73	2	334.0	432.0	0	0.0	0.0
25	vr	02	2019-10-22	reg_2	880	10	00490.png	380.0	429.0	1	71	3	380.0	429.0	0	0.0	0.0
26	vr	02	2019-10-22	reg_2	898	10	00500.png	364.0	425.5	2	69	3	364.0	425.5	0	0.0	0.0
27	vr	02	2019-10-22	reg_2	916	10	00510.png	365.5	420.0	2	66	3	365.5	420.0	0	0.0	0.0
28	vr	02	2019-10-22	reg_2	932	10	00520.png	415.5	429.5	2	64	3	415.5	429.5	0	0.0	0.0
29	vr	02	2019-10-22	reg_2	949	10	00530.png	427.5	429.0	2	62	3	427.5	429.0	0	0.0	0.0
30	vr	02	2019-10-22	reg_2	965	10	00540.png	429.0	428.5	2	63	3	429.0	428.5	0	0.0	0.0
31	vr	02	2019-10-22	reg_2	983	10	00550.png	369.5	422.5	2	67	4	369.5	422.5	0	0.0	0.0
32	vr	02	2019-10-22	reg_2	1001	10	00560.png	354.0	422.5	1	70	3	354.0	422.5	0	0.0	0.0
33	vr	02	2019-10-22	reg_2	1018	10	00570.png	390.0	432.0	0	71	4	390.0	432.0	0	0.0	0.0
34	vr	02	2019-10-22	reg_2	1036	10	00580.png	388.5	434.5	360	71	4	388.5	434.5	0	0.0	0.0
35	vr	02	2019-10-22	reg_2	1054	10	00590.png	381.5	435.0	360	73	4	381.5	435.0	0	0.0	0.0
36	vr	02	2019-10-22	reg_2	1072	10	00600.png	371.0	429.0	0	76	3	371.0	429.0	0	0.0	0.0
37	vr	02	2019-10-22	reg_2	1089	10	00610.png	358.5	427.5	1	78	3	358.5	427.5	0	0.0	0.0
38	vr	02	2019-10-22	reg_2	1106	10	00620.png	347.0	425.5	1	80	3	347.0	425.5	0	0.0	0.0
39	vr	02	2019-10-22	reg_2	1123	10	00630.png	342.0	427.0	0	82	3	342.0	427.0	0	0.0	0.0
40	vr	02	2019-10-22	reg_2	1139	10	00640.png	296.5	426.5	1	83	3	296.25	426.25	1	0.25	0.25
41	vr	02	2019-10-22	reg_2	1140	10	00640.png	296.0	426.0	1	83	3	296.25	426.25	1	-0.25	-0.25
42	vr	02	2019-10-22	reg_2	1157	10	00650.png	374.5	446.0	0	84	3	374.5	446.0	0	0.0	0.0
43	vr	02	2019-10-22	reg_2	1175	10	00660.png	366.0	443.5	1	87	3	366.0	443.5	0	0.0	0.0
44	vr	02	2019-10-22	reg_2	1193	10	00670.png	434.0	392.5	359	90	4	434.0	392.5	0	0.0	0.0
45	vr	02	2019-10-22	reg_2	1211	10	00680.png	288.0	445.5	357	93	4	288.0	445.5	0	0.0	0.0
46	vr	02	2019-10-22	reg_2	1229	10	00690.png	281.0	444.0	357	95	4	281.0	444.0	0	0.0	0.0
47	vr	02	2019-10-22	reg_2	1246	10	00700.png	264.5	438.0	357	95	4	264.5	438.0	0	0.0	0.0
48	vr	02	2019-10-22	reg_2	1262	10	00710.png	263.0	439.5	356	96	4	263.0	439.5	0	0.0	0.0
49	vr	02	2019-10-22	reg_2	1280	10	00720.png	260.0	443.5	356	96	4	260.0	443.5	0	0.0	0.0
50	vr	02	2019-10-22	reg_2	1297	10	00730.png	390.0	384.5	353	98	5	390.0	384.5	0	0.0	0.0
51	vr	02	2019-10-22	reg_2	1313	10	00740.png	418.5	397.5	350	101	5	418.5	397.5	0	0.0	0.0
52	vr	02	2019-10-22	reg_2	1331	10	00750.png	430.0	407.0	348	106	5	430.0	407.0	0	0.0	0.0
53	vr	02	2019-10-22	reg_2	1348	10	00760.png	401.5	413.0	346	112	4	401.5	413.0	0	0.0	0.0
54	vr	02	2019-10-22	reg_2	1366	10	00770.png	370.5	420.5	345	119	4	370.5	420.5	0	0.0	0.0
55	vr	02	2019-10-22	reg_2	1383	10	00780.png	0.0	840.0	343	128	2	239.25	656.5	1	-239.25	183.5
56	vr	02	2019-10-22	reg_2	1384	10	00780.png	478.5	473.0	343	129	2	239.25	656.5	1	239.25	-183.5
57	vr	02	2019-10-22	reg_2	1401	10	00790.png	450.5	481.5	343	135	1	450.5	481.5	0	0.0	0.0
58	vr	02	2019-10-22	reg_2	1419	10	00800.png	430.5	483.0	344	140	0	430.5	483.0	0	0.0	0.0
59	vr	02	2019-10-22	reg_2	1437	10	00810.png	405.5	470.0	347	146	359	405.5	470.0	0	0.0	0.0
60	vr	02	2019-10-22	reg_2	1455	10	00820.png	504.5	476.5	354	155	358	504.5	476.5	0	0.0	0.0
61	vr	02	2019-10-22	reg_2	1473	10	00830.png	446.0	462.5	355	165	357	446.0	462.5	0	0.0	0.0
62	vr	02	2019-10-22	reg_2	1490	10	00840.png	429.5	470.0	355	171	356	429.5	470.0	0	0.0	0.0
63	vr	02	2019-10-22	reg_2	1506	10	00850.png	410.0	472.5	355	174	357	410.0	472.5	0	0.0	0.0
64	vr	02	2019-10-22	reg_2	1521	10	00860.png	477.0	467.0	355	177	358	477.0	467.0	0	0.0	0.0
65	vr	02	2019-10-22	reg_2	1539	10	00870.png	460.5	462.5	357	179	358	460.5	462.5	0	0.0	0.0
66	vr	02	2019-10-22	reg_2	1557	10	00880.png	371.5	454.5	357	182	357	371.5	454.5	0	0.0	0.0
67	vr	02	2019-10-22	reg_2	1575	10	00890.png	370.0	456.5	356	181	357	370.0	456.5	0	0.0	0.0
68	vr	02	2019-10-22	reg_2	1593	10	00900.png	0.0	840.0	354	182	357	0.0	840.0	0	0.0	0.0
69	vr	02	2019-10-22	reg_2	1611	10	00910.png	433.0	433.0	351	181	357	433.0	433.0	0	0.0	0.0
70	vr	02	2019-10-22	reg_2	1629	10	00920.png	430.0	433.5	351	181	356	430.0	433.5	0	0.0	0.0
71	vr	02	2019-10-22	reg_2	1647	10	00930.png	372.5	491.0	350	178	357	372.5	491.0	0	0.0	0.0
72	vr	02	2019-10-22	reg_2	1664	10	00940.png	344.0	471.5	351	177	356	344.0	471.5	0	0.0	0.0
73	vr	02	2019-10-22	reg_2	1681	10	00950.png	346.5	470.5	349	176	357	346.5	470.5	0	0.0	0.0
74	vr	02	2019-10-22	reg_2	1699	10	00960.png	389.0	504.0	348	176	357	389.0	504.0	0	0.0	0.0
75	vr	02	2019-10-22	reg_2	1717	10	00970.png	382.5	501.5	348	177	356	382.5	501.5	0	0.0	0.0
76	vr	02	2019-10-22	reg_2	1735	10	00980.png	493.5	643.5	348	180	353	493.5	643.5	0	0.0	0.0
77	vr	02	2019-10-22	reg_2	1753	10	00990.png	460.5	477.5	348	187	352	460.5	477.5	0	0.0	0.0
78	vr	02	2019-10-22	reg_2	1771	10	01000.png	424.0	476.0	349	195	352	424.0	476.0	0	0.0	0.0
