	setting_id	subject_id	date	trial_id	sample_id	frame_rate	frame_id	fix_pos_x_old	fix_pos_y_old	cam_angle_x	cam_angle_y	cam_angle_z	fix_pos_x	fix_pos_y	fix_pos_avrgd	fix_pos_diff_x	fix_pos_diff_y
0	vr	25	2019-10-31	bac_1	474	10	00260.png	378.0	479.5	352	203	357	378.75	479.5	1	-0.75	0.0
1	vr	25	2019-10-31	bac_1	475	10	00260.png	379.5	479.5	352	203	357	378.75	479.5	1	0.75	0.0
2	vr	25	2019-10-31	bac_1	489	10	00270.png	382.0	480.5	352	203	357	382.0	480.5	0	0.0	0.0
3	vr	25	2019-10-31	bac_1	507	10	00280.png	404.0	473.0	352	203	357	404.0	473.0	0	0.0	0.0
4	vr	25	2019-10-31	bac_1	525	10	00290.png	444.5	480.0	352	204	357	444.5	480.0	0	0.0	0.0
5	vr	25	2019-10-31	bac_1	542	10	00300.png	421.5	452.0	352	204	357	421.5	452.0	0	0.0	0.0
6	vr	25	2019-10-31	bac_1	558	10	00310.png	376.0	461.5	351	204	357	376.0	461.5	0	0.0	0.0
7	vr	25	2019-10-31	bac_1	576	10	00320.png	370.0	498.5	351	204	357	370.0	498.5	0	0.0	0.0
8	vr	25	2019-10-31	bac_1	592	10	00330.png	369.0	497.5	351	205	357	369.0	497.25	1	0.0	0.25
9	vr	25	2019-10-31	bac_1	593	10	00330.png	369.0	497.0	351	205	357	369.0	497.25	1	0.0	-0.25
10	vr	25	2019-10-31	bac_1	610	10	00340.png	308.5	536.5	349	200	357	308.5	536.5	0	0.0	0.0
11	vr	25	2019-10-31	bac_1	628	10	00350.png	398.5	396.0	343	185	357	398.5	396.0	0	0.0	0.0
12	vr	25	2019-10-31	bac_1	643	10	00360.png	441.0	393.5	336	177	357	400.0	471.25	1	41.0	-77.75
13	vr	25	2019-10-31	bac_1	644	10	00360.png	359.0	549.0	336	177	357	400.0	471.25	1	-41.0	77.75
14	vr	25	2019-10-31	bac_1	657	10	00370.png	334.5	413.0	333	174	358	334.5	413.0	0	0.0	0.0
15	vr	25	2019-10-31	bac_1	674	10	00380.png	339.5	403.5	331	173	357	339.75	403.75	1	-0.25	-0.25
16	vr	25	2019-10-31	bac_1	675	10	00380.png	340.0	404.0	330	173	357	339.75	403.75	1	0.25	0.25
17	vr	25	2019-10-31	bac_1	689	10	00390.png	340.5	398.0	329	172	357	340.75	398.25	1	-0.25	-0.25
18	vr	25	2019-10-31	bac_1	690	10	00390.png	341.0	398.5	329	172	357	340.75	398.25	1	0.25	0.25
19	vr	25	2019-10-31	bac_1	703	10	00400.png	249.5	542.5	333	168	358	251.0	541.0	1	-1.5	1.5
20	vr	25	2019-10-31	bac_1	704	10	00400.png	252.5	539.5	333	167	358	251.0	541.0	1	1.5	-1.5
21	vr	25	2019-10-31	bac_1	718	10	00410.png	296.0	508.0	339	160	359	296.0	508.0	0	0.0	0.0
22	vr	25	2019-10-31	bac_1	736	10	00420.png	287.5	506.5	344	151	360	287.5	506.5	0	0.0	0.0
23	vr	25	2019-10-31	bac_1	754	10	00430.png	216.5	461.0	347	142	359	216.5	461.0	0	0.0	0.0
24	vr	25	2019-10-31	bac_1	771	10	00440.png	254.5	470.5	347	133	358	254.5	470.5	0	0.0	0.0
25	vr	25	2019-10-31	bac_1	788	10	00450.png	292.5	464.0	349	126	358	292.5	464.0	0	0.0	0.0
26	vr	25	2019-10-31	bac_1	807	10	00460.png	258.5	476.5	350	120	358	258.5	476.5	0	0.0	0.0
27	vr	25	2019-10-31	bac_1	824	10	00470.png	285.5	475.5	351	115	357	286.75	475.25	1	-1.25	0.25
28	vr	25	2019-10-31	bac_1	825	10	00470.png	288.0	475.0	351	115	357	286.75	475.25	1	1.25	-0.25
29	vr	25	2019-10-31	bac_1	841	10	00480.png	299.0	468.5	351	112	357	299.0	468.5	0	0.0	0.0
30	vr	25	2019-10-31	bac_1	859	10	00490.png	295.5	450.0	349	110	357	295.75	450.25	1	-0.25	-0.25
31	vr	25	2019-10-31	bac_1	860	10	00490.png	296.0	450.5	349	110	357	295.75	450.25	1	0.25	0.25
32	vr	25	2019-10-31	bac_1	877	10	00500.png	316.0	478.0	350	111	356	316.0	478.0	0	0.0	0.0
33	vr	25	2019-10-31	bac_1	895	10	00510.png	312.5	476.0	349	111	357	312.5	476.0	0	0.0	0.0
34	vr	25	2019-10-31	bac_1	913	10	00520.png	309.0	477.0	349	112	358	309.0	477.0	0	0.0	0.0
35	vr	25	2019-10-31	bac_1	930	10	00530.png	359.0	457.5	349	113	357	359.0	457.5	0	0.0	0.0
36	vr	25	2019-10-31	bac_1	949	10	00540.png	349.0	457.5	349	114	357	349.0	457.5	0	0.0	0.0
37	vr	25	2019-10-31	bac_1	966	10	00550.png	345.5	458.5	349	115	357	345.5	458.5	0	0.0	0.0
38	vr	25	2019-10-31	bac_1	967	10	00550.png	345.5	458.5	349	115	357	345.5	458.5	0	0.0	0.0
39	vr	25	2019-10-31	bac_1	983	10	00560.png	336.0	458.5	349	117	356	336.0	458.5	0	0.0	0.0
40	vr	25	2019-10-31	bac_1	1000	10	00570.png	329.0	460.0	349	119	357	328.75	460.0	1	0.25	0.0
41	vr	25	2019-10-31	bac_1	1001	10	00570.png	328.5	460.0	349	119	357	328.75	460.0	1	-0.25	0.0
42	vr	25	2019-10-31	bac_1	1015	10	00580.png	327.0	461.0	349	121	357	326.75	461.25	1	0.25	-0.25
43	vr	25	2019-10-31	bac_1	1016	10	00580.png	326.5	461.5	349	121	357	326.75	461.25	1	-0.25	0.25
44	vr	25	2019-10-31	bac_1	1030	10	00590.png	311.5	457.5	349	125	357	311.5	457.5	0	0.0	0.0
45	vr	25	2019-10-31	bac_1	1048	10	00600.png	395.5	478.5	350	130	357	395.5	478.5	0	0.0	0.0
46	vr	25	2019-10-31	bac_1	1066	10	00610.png	447.5	544.5	352	144	356	447.5	544.5	0	0.0	0.0
47	vr	25	2019-10-31	bac_1	1083	10	00620.png	392.0	526.0	354	155	355	392.0	526.0	0	0.0	0.0
48	vr	25	2019-10-31	bac_1	1101	10	00630.png	540.5	528.0	354	175	357	535.25	527.0	1	5.25	1.0
49	vr	25	2019-10-31	bac_1	1102	10	00630.png	530.0	526.0	354	177	357	535.25	527.0	1	-5.25	-1.0
50	vr	25	2019-10-31	bac_1	1117	10	00640.png	496.5	484.0	353	194	358	496.5	484.0	0	0.0	0.0
51	vr	25	2019-10-31	bac_1	1135	10	00650.png	444.0	459.5	352	204	358	444.0	459.5	0	0.0	0.0
52	vr	25	2019-10-31	bac_1	1153	10	00660.png	416.0	467.0	351	210	359	416.0	467.0	0	0.0	0.0
53	vr	25	2019-10-31	bac_1	1171	10	00670.png	407.0	468.0	350	215	359	407.0	468.0	0	0.0	0.0
54	vr	25	2019-10-31	bac_1	1187	10	00680.png	426.5	479.5	349	222	359	425.75	479.75	1	0.75	-0.25
55	vr	25	2019-10-31	bac_1	1188	10	00680.png	425.0	480.0	349	223	359	425.75	479.75	1	-0.75	0.25
56	vr	25	2019-10-31	bac_1	1201	10	00690.png	563.0	488.5	349	237	358	560.25	487.25	1	2.75	1.25
57	vr	25	2019-10-31	bac_1	1202	10	00690.png	557.5	486.0	349	238	358	560.25	487.25	1	-2.75	-1.25
58	vr	25	2019-10-31	bac_1	1219	10	00700.png	436.5	482.0	349	252	358	436.5	482.0	0	0.0	0.0
59	vr	25	2019-10-31	bac_1	1236	10	00710.png	508.5	468.0	349	261	358	508.5	468.0	0	0.0	0.0
60	vr	25	2019-10-31	bac_1	1254	10	00720.png	357.5	406.0	349	268	359	357.5	406.0	0	0.0	0.0
61	vr	25	2019-10-31	bac_1	1272	10	00730.png	335.5	404.0	349	274	359	335.5	404.0	0	0.0	0.0
62	vr	25	2019-10-31	bac_1	1290	10	00740.png	503.5	456.0	348	279	359	503.5	456.0	0	0.0	0.0
63	vr	25	2019-10-31	bac_1	1307	10	00750.png	513.5	446.0	346	289	0	513.5	446.0	0	0.0	0.0
64	vr	25	2019-10-31	bac_1	1325	10	00760.png	505.0	449.0	344	300	0	505.0	449.0	0	0.0	0.0
65	vr	25	2019-10-31	bac_1	1342	10	00770.png	551.0	474.5	344	309	359	551.0	474.5	0	0.0	0.0
66	vr	25	2019-10-31	bac_1	1359	10	00780.png	558.5	474.0	345	316	359	558.5	474.0	0	0.0	0.0
67	vr	25	2019-10-31	bac_1	1377	10	00790.png	554.0	486.5	346	322	359	554.0	486.5	0	0.0	0.0
68	vr	25	2019-10-31	bac_1	1395	10	00800.png	369.0	392.5	347	330	359	369.0	392.5	0	0.0	0.0
69	vr	25	2019-10-31	bac_1	1412	10	00810.png	351.5	396.5	347	335	359	350.5	396.25	1	1.0	0.25
70	vr	25	2019-10-31	bac_1	1413	10	00810.png	349.5	396.0	347	335	359	350.5	396.25	1	-1.0	-0.25
71	vr	25	2019-10-31	bac_1	1428	10	00820.png	439.5	463.0	346	333	359	439.5	463.0	0	0.0	0.0
72	vr	25	2019-10-31	bac_1	1446	10	00830.png	430.0	458.0	344	329	359	430.0	458.0	0	0.0	0.0
73	vr	25	2019-10-31	bac_1	1464	10	00840.png	416.5	475.5	344	321	358	416.5	475.5	0	0.0	0.0
74	vr	25	2019-10-31	bac_1	1482	10	00850.png	392.0	482.5	344	314	358	392.0	482.5	0	0.0	0.0
75	vr	25	2019-10-31	bac_1	1499	10	00860.png	344.0	492.5	345	304	358	344.0	492.5	0	0.0	0.0
76	vr	25	2019-10-31	bac_1	1517	10	00870.png	267.0	536.0	345	289	359	267.0	536.0	0	0.0	0.0
77	vr	25	2019-10-31	bac_1	1533	10	00880.png	337.5	493.5	346	272	360	337.5	493.5	0	0.0	0.0
78	vr	25	2019-10-31	bac_1	1548	10	00890.png	320.5	490.0	347	257	359	320.5	490.0	0	0.0	0.0
79	vr	25	2019-10-31	bac_1	1565	10	00900.png	291.0	483.5	347	241	359	292.5	483.25	1	-1.5	0.25
80	vr	25	2019-10-31	bac_1	1566	10	00900.png	294.0	483.0	347	240	359	292.5	483.25	1	1.5	-0.25
81	vr	25	2019-10-31	bac_1	1581	10	00910.png	303.5	470.0	348	227	358	303.5	470.0	0	0.0	0.0
82	vr	25	2019-10-31	bac_1	1599	10	00920.png	313.5	478.5	348	217	358	313.5	478.5	0	0.0	0.0
83	vr	25	2019-10-31	bac_1	1617	10	00930.png	317.0	491.5	348	209	358	317.0	491.5	0	0.0	0.0
84	vr	25	2019-10-31	bac_1	1634	10	00940.png	353.0	459.0	347	206	357	353.0	459.0	0	0.0	0.0
85	vr	25	2019-10-31	bac_1	1652	10	00950.png	358.0	464.0	346	206	357	358.0	464.0	0	0.0	0.0
86	vr	25	2019-10-31	bac_1	1670	10	00960.png	347.0	411.0	344	206	356	347.0	411.0	0	0.0	0.0
87	vr	25	2019-10-31	bac_1	1687	10	00970.png	346.0	418.5	342	205	356	346.0	418.5	0	0.0	0.0
88	vr	25	2019-10-31	bac_1	1705	10	00980.png	344.5	428.5	339	204	355	344.5	428.5	0	0.0	0.0
89	vr	25	2019-10-31	bac_1	1722	10	00990.png	347.0	435.0	338	204	355	347.0	435.0	0	0.0	0.0
90	vr	25	2019-10-31	bac_1	1740	10	01000.png	346.0	443.0	336	204	355	346.0	443.0	0	0.0	0.0
