	subject_location	subject_id	date	daytime	setting_id	trial_id	sample_id	sample_n	sample_rate	sample_time_smi	frame_id	frame_n	frame_rate	frame_time_smi	fix_pos_x	fix_pos_y
0	23_valpre	23	25-10-2019	13:31:45:148	rl	valpre	11	11	60	63971	00005.png	1.0	25	63965.0	866	249
1	23_valpre	23	25-10-2019	13:31:45:347	rl	valpre	23	23	60	64170	00010.png	6.0	25	64165.0	866	243
2	23_valpre	23	25-10-2019	13:31:45:546	rl	valpre	35	35	60	64369	00015.png	11.0	25	64365.0	872	243
3	23_valpre	23	25-10-2019	13:31:45:745	rl	valpre	47	47	60	64569	00020.png	16.0	25	64565.0	872	241
4	23_valpre	23	25-10-2019	13:31:45:945	rl	valpre	59	59	60	64768	00025.png	21.0	25	64765.0	873	241
5	23_valpre	23	25-10-2019	13:31:46:144	rl	valpre	71	71	60	64967	00030.png	26.0	25	64965.0	868	242
6	23_valpre	23	25-10-2019	13:31:46:343	rl	valpre	83	83	60	65166	00035.png	31.0	25	65165.0	872	238
7	23_valpre	23	25-10-2019	13:31:46:542	rl	valpre	95	95	60	65365	00040.png	36.0	25	65365.0	870	237
8	23_valpre	23	25-10-2019	13:31:46:741	rl	valpre	107	107	60	65564	00045.png	41.0	25	65565.0	870	237
9	23_valpre	23	25-10-2019	13:31:46:940	rl	valpre	119	119	60	65764	00050.png	46.0	25	65765.0	867	239
10	23_valpre	23	25-10-2019	13:31:47:140	rl	valpre	131	131	60	65963	00055.png	51.0	25	65965.0	866	242
11	23_valpre	23	25-10-2019	13:31:47:339	rl	valpre	143	143	60	66162	00060.png	56.0	25	66165.0	869	238
12	23_valpre	23	25-10-2019	13:31:47:538	rl	valpre	155	155	60	66361	00065.png	61.0	25	66365.0	869	237
13	23_valpre	23	25-10-2019	13:31:47:737	rl	valpre	166	166	60	66560	00070.png	66.0	25	66565.0	873	231
14	23_valpre	23	25-10-2019	13:31:47:936	rl	valpre	178	178	60	66759	00075.png	71.0	25	66765.0	869	233
15	23_valpre	23	25-10-2019	13:31:48:135	rl	valpre	190	190	60	66959	00080.png	76.0	25	66965.0	873	231
16	23_valpre	23	25-10-2019	13:31:48:334	rl	valpre	202	202	60	67158	00085.png	81.0	25	67165.0	877	231
17	23_valpre	23	25-10-2019	13:31:48:534	rl	valpre	214	214	60	67357	00090.png	86.0	25	67365.0	871	227
18	23_valpre	23	25-10-2019	13:31:48:750	rl	valpre	227	227	60	67573	00095.png	91.0	25	67565.0	875	224
19	23_valpre	23	25-10-2019	13:31:48:948	rl	valpre	239	239	60	67772	00100.png	96.0	25	67765.0	0	0
20	23_valpre	23	25-10-2019	13:31:49:148	rl	valpre	251	251	60	67971	00105.png	101.0	25	67965.0	867	217
21	23_valpre	23	25-10-2019	13:31:49:347	rl	valpre	263	263	60	68170	00110.png	106.0	25	68165.0	866	222
22	23_valpre	23	25-10-2019	13:31:49:546	rl	valpre	275	275	60	68369	00115.png	111.0	25	68365.0	875	221
23	23_valpre	23	25-10-2019	13:31:49:745	rl	valpre	287	287	60	68568	00120.png	116.0	25	68565.0	875	221
24	23_valpre	23	25-10-2019	13:31:49:944	rl	valpre	299	299	60	68767	00125.png	121.0	25	68765.0	873	219
25	23_valpre	23	25-10-2019	13:31:50:143	rl	valpre	311	311	60	68967	00130.png	126.0	25	68965.0	873	224
26	23_valpre	23	25-10-2019	13:31:50:342	rl	valpre	323	323	60	69166	00135.png	131.0	25	69165.0	871	226
27	23_valpre	23	25-10-2019	13:31:50:541	rl	valpre	335	335	60	69365	00140.png	136.0	25	69365.0	871	222
28	23_valpre	23	25-10-2019	13:31:50:741	rl	valpre	347	347	60	69564	00145.png	141.0	25	69565.0	871	225
29	23_valpre	23	25-10-2019	13:31:50:940	rl	valpre	359	359	60	69763	00150.png	146.0	25	69765.0	875	228
30	23_valpre	23	25-10-2019	13:31:51:139	rl	valpre	371	371	60	69962	00155.png	151.0	25	69965.0	874	232
31	23_valpre	23	25-10-2019	13:31:51:338	rl	valpre	383	383	60	70161	00160.png	156.0	25	70165.0	763	165
32	23_valpre	23	25-10-2019	13:31:51:538	rl	valpre	393	393	60	70361	00165.png	161.0	25	70365.0	737	101
33	23_valpre	23	25-10-2019	13:31:51:736	rl	valpre	405	405	60	70560	00170.png	166.0	25	70565.0	736	86
34	23_valpre	23	25-10-2019	13:31:51:935	rl	valpre	417	417	60	70759	00175.png	171.0	25	70765.0	733	89
35	23_valpre	23	25-10-2019	13:31:52:135	rl	valpre	429	429	60	70958	00180.png	176.0	25	70965.0	736	94
36	23_valpre	23	25-10-2019	13:31:52:334	rl	valpre	441	441	60	71157	00185.png	181.0	25	71165.0	739	97
37	23_valpre	23	25-10-2019	13:31:52:550	rl	valpre	454	454	60	71373	00190.png	186.0	25	71365.0	740	90
38	23_valpre	23	25-10-2019	13:31:52:749	rl	valpre	466	466	60	71572	00195.png	191.0	25	71565.0	749	77
39	23_valpre	23	25-10-2019	13:31:52:948	rl	valpre	478	478	60	71771	00200.png	196.0	25	71765.0	745	77
40	23_valpre	23	25-10-2019	13:31:53:147	rl	valpre	490	490	60	71971	00205.png	201.0	25	71965.0	738	84
41	23_valpre	23	25-10-2019	13:31:53:346	rl	valpre	502	502	60	72169	00210.png	206.0	25	72165.0	737	83
42	23_valpre	23	25-10-2019	13:31:53:545	rl	valpre	514	514	60	72369	00215.png	211.0	25	72365.0	733	87
43	23_valpre	23	25-10-2019	13:31:53:745	rl	valpre	526	526	60	72568	00220.png	216.0	25	72565.0	735	89
44	23_valpre	23	25-10-2019	13:31:53:944	rl	valpre	538	538	60	72767	00225.png	221.0	25	72765.0	746	84
45	23_valpre	23	25-10-2019	13:31:54:143	rl	valpre	550	550	60	72966	00230.png	226.0	25	72965.0	743	86
46	23_valpre	23	25-10-2019	13:31:54:342	rl	valpre	562	562	60	73165	00235.png	231.0	25	73165.0	748	85
47	23_valpre	23	25-10-2019	13:31:54:541	rl	valpre	574	574	60	73364	00240.png	236.0	25	73365.0	744	88
48	23_valpre	23	25-10-2019	13:31:54:740	rl	valpre	586	586	60	73564	00245.png	241.0	25	73565.0	745	91
49	23_valpre	23	25-10-2019	13:31:54:939	rl	valpre	598	598	60	73763	00250.png	246.0	25	73765.0	745	93
50	23_valpre	23	25-10-2019	13:31:55:139	rl	valpre	610	610	60	73962	00255.png	251.0	25	73965.0	747	92
51	23_valpre	23	25-10-2019	13:31:55:355	rl	valpre	622	622	60	74178	00260.png	256.0	25	74165.0	748	87
52	23_valpre	23	25-10-2019	13:31:55:537	rl	valpre	633	633	60	74360	00265.png	261.0	25	74365.0	744	89
53	23_valpre	23	25-10-2019	13:31:55:736	rl	valpre	645	645	60	74559	00270.png	266.0	25	74565.0	744	89
54	23_valpre	23	25-10-2019	13:31:55:935	rl	valpre	657	657	60	74758	00275.png	271.0	25	74765.0	745	90
55	23_valpre	23	25-10-2019	13:31:56:134	rl	valpre	669	669	60	74957	00280.png	276.0	25	74965.0	745	90
56	23_valpre	23	25-10-2019	13:31:56:333	rl	valpre	681	681	60	75157	00285.png	281.0	25	75165.0	743	89
57	23_valpre	23	25-10-2019	13:31:56:549	rl	valpre	694	694	60	75372	00290.png	286.0	25	75365.0	745	87
58	23_valpre	23	25-10-2019	13:31:56:748	rl	valpre	706	706	60	75571	00295.png	291.0	25	75565.0	743	84
59	23_valpre	23	25-10-2019	13:31:56:947	rl	valpre	718	718	60	75771	00300.png	296.0	25	75765.0	743	84
60	23_valpre	23	25-10-2019	13:31:57:147	rl	valpre	730	730	60	75970	00305.png	301.0	25	75965.0	747	89
61	23_valpre	23	25-10-2019	13:31:57:346	rl	valpre	742	742	60	76169	00310.png	306.0	25	76165.0	748	95
62	23_valpre	23	25-10-2019	13:31:57:545	rl	valpre	754	754	60	76368	00315.png	311.0	25	76365.0	740	101
63	23_valpre	23	25-10-2019	13:31:57:744	rl	valpre	766	766	60	76567	00320.png	316.0	25	76565.0	745	83
64	23_valpre	23	25-10-2019	13:31:57:943	rl	valpre	778	778	60	76766	00325.png	321.0	25	76765.0	746	77
65	23_valpre	23	25-10-2019	13:31:58:142	rl	valpre	790	790	60	76965	00330.png	326.0	25	76965.0	749	77
66	23_valpre	23	25-10-2019	13:31:58:341	rl	valpre	802	802	60	77165	00335.png	331.0	25	77165.0	748	79
67	23_valpre	23	25-10-2019	13:31:58:541	rl	valpre	814	814	60	77364	00340.png	336.0	25	77365.0	755	76
68	23_valpre	23	25-10-2019	13:31:58:740	rl	valpre	826	826	60	77563	00345.png	341.0	25	77565.0	742	74
69	23_valpre	23	25-10-2019	13:31:58:939	rl	valpre	838	838	60	77762	00350.png	346.0	25	77765.0	741	74
70	23_valpre	23	25-10-2019	13:31:59:138	rl	valpre	850	850	60	77961	00355.png	351.0	25	77965.0	742	71
71	23_valpre	23	25-10-2019	13:31:59:337	rl	valpre	860	860	60	78160	00360.png	356.0	25	78165.0	594	216
72	23_valpre	23	25-10-2019	13:31:59:536	rl	valpre	871	871	60	78359	00365.png	361.0	25	78365.0	578	224
73	23_valpre	23	25-10-2019	13:31:59:735	rl	valpre	883	883	60	78559	00370.png	366.0	25	78565.0	577	221
74	23_valpre	23	25-10-2019	13:31:59:935	rl	valpre	895	895	60	78758	00375.png	371.0	25	78765.0	582	218
75	23_valpre	23	25-10-2019	13:32:00:134	rl	valpre	907	907	60	78957	00380.png	376.0	25	78965.0	584	222
76	23_valpre	23	25-10-2019	13:32:00:350	rl	valpre	920	920	60	79173	00385.png	381.0	25	79165.0	595	221
77	23_valpre	23	25-10-2019	13:32:00:549	rl	valpre	932	932	60	79372	00390.png	386.0	25	79365.0	583	221
78	23_valpre	23	25-10-2019	13:32:00:748	rl	valpre	944	944	60	79571	00395.png	391.0	25	79565.0	587	215
79	23_valpre	23	25-10-2019	13:32:00:947	rl	valpre	956	956	60	79770	00400.png	396.0	25	79765.0	584	215
80	23_valpre	23	25-10-2019	13:32:01:146	rl	valpre	968	968	60	79969	00405.png	401.0	25	79965.0	586	216
81	23_valpre	23	25-10-2019	13:32:01:345	rl	valpre	980	980	60	80168	00410.png	406.0	25	80165.0	595	216
82	23_valpre	23	25-10-2019	13:32:01:544	rl	valpre	992	992	60	80367	00415.png	411.0	25	80365.0	596	216
83	23_valpre	23	25-10-2019	13:32:01:744	rl	valpre	1004	1004	60	80567	00420.png	416.0	25	80565.0	598	214
84	23_valpre	23	25-10-2019	13:32:01:943	rl	valpre	1016	1016	60	80766	00425.png	421.0	25	80765.0	596	211
85	23_valpre	23	25-10-2019	13:32:02:142	rl	valpre	1028	1028	60	80965	00430.png	426.0	25	80965.0	598	211
86	23_valpre	23	25-10-2019	13:32:02:341	rl	valpre	1040	1040	60	81164	00435.png	431.0	25	81165.0	598	214
87	23_valpre	23	25-10-2019	13:32:02:540	rl	valpre	1052	1052	60	81363	00440.png	436.0	25	81365.0	599	216
88	23_valpre	23	25-10-2019	13:32:02:739	rl	valpre	1064	1064	60	81563	00445.png	441.0	25	81565.0	610	212
89	23_valpre	23	25-10-2019	13:32:02:938	rl	valpre	1076	1076	60	81761	00450.png	446.0	25	81765.0	602	214
90	23_valpre	23	25-10-2019	13:32:03:154	rl	valpre	1087	1087	60	81978	00455.png	451.0	25	81965.0	599	219
91	23_valpre	23	25-10-2019	13:32:03:337	rl	valpre	1098	1098	60	82160	00460.png	456.0	25	82165.0	599	220
92	23_valpre	23	25-10-2019	13:32:03:536	rl	valpre	1110	1110	60	82359	00465.png	461.0	25	82365.0	597	219
93	23_valpre	23	25-10-2019	13:32:03:735	rl	valpre	1122	1122	60	82558	00470.png	466.0	25	82565.0	600	217
94	23_valpre	23	25-10-2019	13:32:03:934	rl	valpre	1134	1134	60	82757	00475.png	471.0	25	82765.0	599	219
95	23_valpre	23	25-10-2019	13:32:04:134	rl	valpre	1146	1146	60	82957	00480.png	476.0	25	82965.0	592	221
96	23_valpre	23	25-10-2019	13:32:04:349	rl	valpre	1159	1159	60	83173	00485.png	481.0	25	83165.0	591	220
97	23_valpre	23	25-10-2019	13:32:04:549	rl	valpre	1171	1171	60	83372	00490.png	486.0	25	83365.0	592	217
98	23_valpre	23	25-10-2019	13:32:04:748	rl	valpre	1183	1183	60	83571	00495.png	491.0	25	83565.0	591	222
99	23_valpre	23	25-10-2019	13:32:04:947	rl	valpre	1195	1195	60	83770	00500.png	496.0	25	83765.0	592	219
100	23_valpre	23	25-10-2019	13:32:05:146	rl	valpre	1207	1207	60	83969	00505.png	501.0	25	83965.0	592	212
101	23_valpre	23	25-10-2019	13:32:05:345	rl	valpre	1219	1219	60	84168	00510.png	506.0	25	84165.0	597	210
102	23_valpre	23	25-10-2019	13:32:05:544	rl	valpre	1230	1230	60	84367	00515.png	511.0	25	84365.0	596	208
103	23_valpre	23	25-10-2019	13:32:05:744	rl	valpre	1242	1242	60	84567	00520.png	516.0	25	84565.0	0	0
104	23_valpre	23	25-10-2019	13:32:05:943	rl	valpre	1254	1254	60	84766	00525.png	521.0	25	84765.0	590	193
105	23_valpre	23	25-10-2019	13:32:06:141	rl	valpre	1266	1266	60	84964	00530.png	526.0	25	84965.0	600	196
106	23_valpre	23	25-10-2019	13:32:06:341	rl	valpre	1278	1278	60	85164	00535.png	531.0	25	85165.0	602	200
107	23_valpre	23	25-10-2019	13:32:06:540	rl	valpre	1290	1290	60	85363	00540.png	536.0	25	85365.0	610	195
108	23_valpre	23	25-10-2019	13:32:06:739	rl	valpre	1302	1302	60	85562	00545.png	541.0	25	85565.0	603	201
109	23_valpre	23	25-10-2019	13:32:06:938	rl	valpre	1313	1313	60	85761	00550.png	546.0	25	85765.0	594	203
110	23_valpre	23	25-10-2019	13:32:07:137	rl	valpre	1324	1324	60	85961	00555.png	551.0	25	85965.0	595	200
111	23_valpre	23	25-10-2019	13:32:07:336	rl	valpre	1336	1336	60	86160	00560.png	556.0	25	86165.0	891	227
112	23_valpre	23	25-10-2019	13:32:07:536	rl	valpre	1348	1348	60	86359	00565.png	561.0	25	86365.0	892	226
113	23_valpre	23	25-10-2019	13:32:07:734	rl	valpre	1360	1360	60	86558	00570.png	566.0	25	86565.0	892	222
114	23_valpre	23	25-10-2019	13:32:07:934	rl	valpre	1372	1372	60	86757	00575.png	571.0	25	86765.0	891	220
115	23_valpre	23	25-10-2019	13:32:08:149	rl	valpre	1385	1385	60	86973	00580.png	576.0	25	86965.0	893	219
116	23_valpre	23	25-10-2019	13:32:08:349	rl	valpre	1397	1397	60	87172	00585.png	581.0	25	87165.0	892	216
117	23_valpre	23	25-10-2019	13:32:08:548	rl	valpre	1409	1409	60	87371	00590.png	586.0	25	87365.0	899	217
118	23_valpre	23	25-10-2019	13:32:08:747	rl	valpre	1421	1421	60	87570	00595.png	591.0	25	87565.0	885	217
119	23_valpre	23	25-10-2019	13:32:08:946	rl	valpre	1433	1433	60	87769	00600.png	596.0	25	87765.0	888	217
120	23_valpre	23	25-10-2019	13:32:09:145	rl	valpre	1445	1445	60	87968	00605.png	601.0	25	87965.0	896	218
121	23_valpre	23	25-10-2019	13:32:09:344	rl	valpre	1457	1457	60	88168	00610.png	606.0	25	88165.0	898	211
122	23_valpre	23	25-10-2019	13:32:09:544	rl	valpre	1469	1469	60	88367	00615.png	611.0	25	88365.0	894	210
123	23_valpre	23	25-10-2019	13:32:09:743	rl	valpre	1481	1481	60	88566	00620.png	616.0	25	88565.0	897	211
124	23_valpre	23	25-10-2019	13:32:09:942	rl	valpre	1493	1493	60	88765	00625.png	621.0	25	88765.0	900	213
125	23_valpre	23	25-10-2019	13:32:10:141	rl	valpre	1505	1505	60	88964	00630.png	626.0	25	88965.0	901	220
126	23_valpre	23	25-10-2019	13:32:10:340	rl	valpre	1517	1517	60	89163	00635.png	631.0	25	89165.0	893	229
127	23_valpre	23	25-10-2019	13:32:10:539	rl	valpre	1529	1529	60	89362	00640.png	636.0	25	89365.0	889	237
128	23_valpre	23	25-10-2019	13:32:10:738	rl	valpre	1541	1541	60	89561	00645.png	641.0	25	89565.0	887	240
129	23_valpre	23	25-10-2019	13:32:10:954	rl	valpre	1552	1552	60	89777	00650.png	646.0	25	89765.0	887	239
130	23_valpre	23	25-10-2019	13:32:11:137	rl	valpre	1563	1563	60	89960	00655.png	651.0	25	89965.0	890	232
131	23_valpre	23	25-10-2019	13:32:11:336	rl	valpre	1574	1574	60	90159	00660.png	656.0	25	90165.0	891	232
132	23_valpre	23	25-10-2019	13:32:11:535	rl	valpre	1586	1586	60	90358	00665.png	661.0	25	90365.0	892	231
133	23_valpre	23	25-10-2019	13:32:11:734	rl	valpre	1598	1598	60	90557	00670.png	666.0	25	90565.0	888	230
134	23_valpre	23	25-10-2019	13:32:11:934	rl	valpre	1610	1610	60	90757	00675.png	671.0	25	90765.0	889	229
135	23_valpre	23	25-10-2019	13:32:12:149	rl	valpre	1623	1623	60	90972	00680.png	676.0	25	90965.0	889	227
136	23_valpre	23	25-10-2019	13:32:12:348	rl	valpre	1635	1635	60	91171	00685.png	681.0	25	91165.0	887	226
137	23_valpre	23	25-10-2019	13:32:12:547	rl	valpre	1647	1647	60	91371	00690.png	686.0	25	91365.0	0	0
138	23_valpre	23	25-10-2019	13:32:12:746	rl	valpre	1659	1659	60	91570	00695.png	691.0	25	91565.0	886	227
139	23_valpre	23	25-10-2019	13:32:12:946	rl	valpre	1671	1671	60	91769	00700.png	696.0	25	91765.0	890	219
140	23_valpre	23	25-10-2019	13:32:13:145	rl	valpre	1683	1683	60	91968	00705.png	701.0	25	91965.0	890	219
141	23_valpre	23	25-10-2019	13:32:13:344	rl	valpre	1695	1695	60	92167	00710.png	706.0	25	92165.0	907	209
142	23_valpre	23	25-10-2019	13:32:13:543	rl	valpre	1707	1707	60	92366	00715.png	711.0	25	92365.0	901	205
143	23_valpre	23	25-10-2019	13:32:13:742	rl	valpre	1719	1719	60	92565	00720.png	716.0	25	92565.0	899	207
144	23_valpre	23	25-10-2019	13:32:13:941	rl	valpre	1731	1731	60	92764	00725.png	721.0	25	92765.0	898	208
145	23_valpre	23	25-10-2019	13:32:14:140	rl	valpre	1743	1743	60	92964	00730.png	726.0	25	92965.0	892	206
146	23_valpre	23	25-10-2019	13:32:14:339	rl	valpre	1755	1755	60	93163	00735.png	731.0	25	93165.0	891	207
147	23_valpre	23	25-10-2019	13:32:14:539	rl	valpre	1767	1767	60	93362	00740.png	736.0	25	93365.0	886	205
148	23_valpre	23	25-10-2019	13:32:14:755	rl	valpre	1779	1779	60	93578	00745.png	741.0	25	93565.0	885	206
149	23_valpre	23	25-10-2019	13:32:14:937	rl	valpre	1787	1787	60	93760	00750.png	746.0	25	93765.0	887	207
150	23_valpre	23	25-10-2019	13:32:15:136	rl	valpre	1798	1798	60	93959	00755.png	751.0	25	93965.0	892	205
151	23_valpre	23	25-10-2019	13:32:15:336	rl	valpre	1810	1810	60	94159	00760.png	756.0	25	94165.0	0	0
152	23_valpre	23	25-10-2019	13:32:15:534	rl	valpre	1822	1822	60	94358	00765.png	761.0	25	94365.0	763	64
153	23_valpre	23	25-10-2019	13:32:15:734	rl	valpre	1834	1834	60	94557	00770.png	766.0	25	94565.0	757	52
154	23_valpre	23	25-10-2019	13:32:15:950	rl	valpre	1847	1847	60	94773	00775.png	771.0	25	94765.0	757	53
155	23_valpre	23	25-10-2019	13:32:16:149	rl	valpre	1859	1859	60	94972	00780.png	776.0	25	94965.0	758	60
156	23_valpre	23	25-10-2019	13:32:16:348	rl	valpre	1871	1871	60	95171	00785.png	781.0	25	95165.0	758	59
157	23_valpre	23	25-10-2019	13:32:16:547	rl	valpre	1883	1883	60	95370	00790.png	786.0	25	95365.0	756	54
158	23_valpre	23	25-10-2019	13:32:16:746	rl	valpre	1895	1895	60	95569	00795.png	791.0	25	95565.0	755	55
159	23_valpre	23	25-10-2019	13:32:16:945	rl	valpre	1907	1907	60	95768	00800.png	796.0	25	95765.0	753	56
160	23_valpre	23	25-10-2019	13:32:17:144	rl	valpre	1919	1919	60	95967	00805.png	801.0	25	95965.0	752	54
161	23_valpre	23	25-10-2019	13:32:17:343	rl	valpre	1931	1931	60	96166	00810.png	806.0	25	96165.0	753	55
162	23_valpre	23	25-10-2019	13:32:17:542	rl	valpre	1943	1943	60	96365	00815.png	811.0	25	96365.0	755	51
163	23_valpre	23	25-10-2019	13:32:17:742	rl	valpre	1955	1955	60	96565	00820.png	816.0	25	96565.0	752	51
164	23_valpre	23	25-10-2019	13:32:17:941	rl	valpre	1967	1967	60	96764	00825.png	821.0	25	96765.0	749	50
165	23_valpre	23	25-10-2019	13:32:18:140	rl	valpre	1979	1979	60	96963	00830.png	826.0	25	96965.0	750	47
166	23_valpre	23	25-10-2019	13:32:18:339	rl	valpre	1991	1991	60	97162	00835.png	831.0	25	97165.0	751	52
167	23_valpre	23	25-10-2019	13:32:18:538	rl	valpre	2003	2003	60	97362	00840.png	836.0	25	97365.0	750	53
168	23_valpre	23	25-10-2019	13:32:18:737	rl	valpre	2012	2012	60	97560	00845.png	841.0	25	97565.0	759	56
169	23_valpre	23	25-10-2019	13:32:18:936	rl	valpre	2023	2023	60	97760	00850.png	846.0	25	97765.0	747	65
170	23_valpre	23	25-10-2019	13:32:19:136	rl	valpre	2035	2035	60	97959	00855.png	851.0	25	97965.0	747	66
171	23_valpre	23	25-10-2019	13:32:19:335	rl	valpre	2047	2047	60	98158	00860.png	856.0	25	98165.0	746	64
172	23_valpre	23	25-10-2019	13:32:19:534	rl	valpre	2059	2059	60	98357	00865.png	861.0	25	98365.0	743	62
173	23_valpre	23	25-10-2019	13:32:19:750	rl	valpre	2072	2072	60	98573	00870.png	866.0	25	98565.0	745	62
174	23_valpre	23	25-10-2019	13:32:19:949	rl	valpre	2084	2084	60	98772	00875.png	871.0	25	98765.0	746	66
175	23_valpre	23	25-10-2019	13:32:20:148	rl	valpre	2096	2096	60	98971	00880.png	876.0	25	98965.0	746	60
176	23_valpre	23	25-10-2019	13:32:20:347	rl	valpre	2108	2108	60	99170	00885.png	881.0	25	99165.0	745	55
177	23_valpre	23	25-10-2019	13:32:20:546	rl	valpre	2120	2120	60	99369	00890.png	886.0	25	99365.0	744	64
178	23_valpre	23	25-10-2019	13:32:20:745	rl	valpre	2132	2132	60	99569	00895.png	891.0	25	99565.0	747	61
179	23_valpre	23	25-10-2019	13:32:20:945	rl	valpre	2144	2144	60	99768	00900.png	896.0	25	99765.0	747	61
180	23_valpre	23	25-10-2019	13:32:21:144	rl	valpre	2156	2156	60	99967	00905.png	901.0	25	99965.0	754	61
181	23_valpre	23	25-10-2019	13:32:21:343	rl	valpre	2168	2168	60	100166	00910.png	906.0	25	100165.0	754	61
182	23_valpre	23	25-10-2019	13:32:21:542	rl	valpre	2180	2180	60	100365	00915.png	911.0	25	100365.0	747	61
183	23_valpre	23	25-10-2019	13:32:21:741	rl	valpre	2192	2192	60	100564	00920.png	916.0	25	100565.0	748	57
184	23_valpre	23	25-10-2019	13:32:21:940	rl	valpre	2204	2204	60	100763	00925.png	921.0	25	100765.0	744	57
185	23_valpre	23	25-10-2019	13:32:22:139	rl	valpre	2216	2216	60	100962	00930.png	926.0	25	100965.0	754	51
186	23_valpre	23	25-10-2019	13:32:22:338	rl	valpre	2228	2228	60	101162	00935.png	931.0	25	101165.0	753	51
187	23_valpre	23	25-10-2019	13:32:22:555	rl	valpre	2239	2239	60	101378	00940.png	936.0	25	101365.0	754	50
188	23_valpre	23	25-10-2019	13:32:22:737	rl	valpre	2249	2249	60	101560	00945.png	941.0	25	101565.0	759	44
189	23_valpre	23	25-10-2019	13:32:22:936	rl	valpre	2261	2261	60	101759	00950.png	946.0	25	101765.0	756	41
190	23_valpre	23	25-10-2019	13:32:23:135	rl	valpre	2273	2273	60	101958	00955.png	951.0	25	101965.0	743	42
191	23_valpre	23	25-10-2019	13:32:23:334	rl	valpre	2285	2285	60	102157	00960.png	956.0	25	102165.0	746	41
192	23_valpre	23	25-10-2019	13:32:23:534	rl	valpre	2297	2297	60	102357	00965.png	961.0	25	102365.0	604	183
193	23_valpre	23	25-10-2019	13:32:23:749	rl	valpre	2310	2310	60	102572	00970.png	966.0	25	102565.0	592	207
194	23_valpre	23	25-10-2019	13:32:23:948	rl	valpre	2322	2322	60	102772	00975.png	971.0	25	102765.0	577	193
195	23_valpre	23	25-10-2019	13:32:24:148	rl	valpre	2334	2334	60	102971	00980.png	976.0	25	102965.0	582	186
196	23_valpre	23	25-10-2019	13:32:24:347	rl	valpre	2346	2346	60	103170	00985.png	981.0	25	103165.0	586	179
197	23_valpre	23	25-10-2019	13:32:24:546	rl	valpre	2358	2358	60	103369	00990.png	986.0	25	103365.0	589	178
198	23_valpre	23	25-10-2019	13:32:24:745	rl	valpre	2370	2370	60	103568	00995.png	991.0	25	103565.0	590	175
199	23_valpre	23	25-10-2019	13:32:24:944	rl	valpre	2382	2382	60	103767	01000.png	996.0	25	103765.0	0	0
200	23_valpre	23	25-10-2019	13:32:25:143	rl	valpre	2394	2394	60	103966	01005.png	1001.0	25	103965.0	595	180
201	23_valpre	23	25-10-2019	13:32:25:342	rl	valpre	2406	2406	60	104165	01010.png	1006.0	25	104165.0	599	180
202	23_valpre	23	25-10-2019	13:32:25:541	rl	valpre	2418	2418	60	104364	01015.png	1011.0	25	104365.0	599	179
203	23_valpre	23	25-10-2019	13:32:25:741	rl	valpre	2430	2430	60	104564	01020.png	1016.0	25	104565.0	594	177
204	23_valpre	23	25-10-2019	13:32:25:940	rl	valpre	2442	2442	60	104763	01025.png	1021.0	25	104765.0	595	179
205	23_valpre	23	25-10-2019	13:32:26:139	rl	valpre	2454	2454	60	104962	01030.png	1026.0	25	104965.0	595	182
206	23_valpre	23	25-10-2019	13:32:26:355	rl	valpre	2466	2466	60	105178	01035.png	1031.0	25	105165.0	594	181
207	23_valpre	23	25-10-2019	13:32:26:537	rl	valpre	2477	2477	60	105360	01040.png	1036.0	25	105365.0	595	183
208	23_valpre	23	25-10-2019	13:32:26:736	rl	valpre	2489	2489	60	105559	01045.png	1041.0	25	105565.0	604	182
209	23_valpre	23	25-10-2019	13:32:26:935	rl	valpre	2501	2501	60	105759	01050.png	1046.0	25	105765.0	598	184
210	23_valpre	23	25-10-2019	13:32:27:134	rl	valpre	2513	2513	60	105958	01055.png	1051.0	25	105965.0	596	185
211	23_valpre	23	25-10-2019	13:32:27:334	rl	valpre	2525	2525	60	106157	01060.png	1056.0	25	106165.0	591	183
212	23_valpre	23	25-10-2019	13:32:27:549	rl	valpre	2538	2538	60	106373	01065.png	1061.0	25	106365.0	601	184
213	23_valpre	23	25-10-2019	13:32:27:748	rl	valpre	2550	2550	60	106572	01070.png	1066.0	25	106565.0	593	182
