	subject_location	subject_id	date	daytime	setting_id	trial_id	sample_id	sample_n	sample_rate	sample_time_smi	frame_id	frame_n	frame_rate	frame_time_smi	fix_pos_x	fix_pos_y
0	23_valpost	23	25-10-2019	14:39:57:267	rl	valpost	11	11	60	2791677	00005.png	1.0	25	2791670.0	846	368
1	23_valpost	23	25-10-2019	14:39:57:466	rl	valpost	23	23	60	2791876	00010.png	6.0	25	2791870.0	852	367
2	23_valpost	23	25-10-2019	14:39:57:649	rl	valpost	32	32	60	2792058	00015.png	11.0	25	2792070.0	850	363
3	23_valpost	23	25-10-2019	14:39:57:864	rl	valpost	42	42	60	2792274	00020.png	16.0	25	2792270.0	862	358
4	23_valpost	23	25-10-2019	14:39:58:064	rl	valpost	54	54	60	2792473	00025.png	21.0	25	2792470.0	851	352
5	23_valpost	23	25-10-2019	14:39:58:263	rl	valpost	66	66	60	2792672	00030.png	26.0	25	2792670.0	843	349
6	23_valpost	23	25-10-2019	14:39:58:462	rl	valpost	78	78	60	2792872	00035.png	31.0	25	2792870.0	842	349
7	23_valpost	23	25-10-2019	14:39:58:661	rl	valpost	90	90	60	2793071	00040.png	36.0	25	2793070.0	980	593
8	23_valpost	23	25-10-2019	14:39:58:860	rl	valpost	102	102	60	2793270	00045.png	41.0	25	2793270.0	855	344
9	23_valpost	23	25-10-2019	14:39:59:060	rl	valpost	114	114	60	2793469	00050.png	46.0	25	2793470.0	873	390
10	23_valpost	23	25-10-2019	14:39:59:258	rl	valpost	126	126	60	2793668	00055.png	51.0	25	2793670.0	881	411
11	23_valpost	23	25-10-2019	14:39:59:458	rl	valpost	138	138	60	2793867	00060.png	56.0	25	2793870.0	894	440
12	23_valpost	23	25-10-2019	14:39:59:657	rl	valpost	150	150	60	2794066	00065.png	61.0	25	2794070.0	758	344
13	23_valpost	23	25-10-2019	14:39:59:856	rl	valpost	162	162	60	2794265	00070.png	66.0	25	2794270.0	892	448
14	23_valpost	23	25-10-2019	14:40:00:055	rl	valpost	174	174	60	2794464	00075.png	71.0	25	2794470.0	887	451
15	23_valpost	23	25-10-2019	14:40:00:254	rl	valpost	186	186	60	2794664	00080.png	76.0	25	2794670.0	891	450
16	23_valpost	23	25-10-2019	14:40:00:453	rl	valpost	198	198	60	2794863	00085.png	81.0	25	2794870.0	892	446
17	23_valpost	23	25-10-2019	14:40:00:652	rl	valpost	210	210	60	2795062	00090.png	86.0	25	2795070.0	892	446
18	23_valpost	23	25-10-2019	14:40:00:869	rl	valpost	223	223	60	2795278	00095.png	91.0	25	2795270.0	885	446
19	23_valpost	23	25-10-2019	14:40:01:067	rl	valpost	235	235	60	2795477	00100.png	96.0	25	2795470.0	880	443
20	23_valpost	23	25-10-2019	14:40:01:267	rl	valpost	247	247	60	2795676	00105.png	101.0	25	2795670.0	878	442
21	23_valpost	23	25-10-2019	14:40:01:466	rl	valpost	259	259	60	2795875	00110.png	106.0	25	2795870.0	877	442
22	23_valpost	23	25-10-2019	14:40:01:648	rl	valpost	268	268	60	2796058	00115.png	111.0	25	2796070.0	878	446
23	23_valpost	23	25-10-2019	14:40:01:864	rl	valpost	279	279	60	2796273	00120.png	116.0	25	2796270.0	881	447
24	23_valpost	23	25-10-2019	14:40:02:063	rl	valpost	291	291	60	2796473	00125.png	121.0	25	2796470.0	885	458
25	23_valpost	23	25-10-2019	14:40:02:262	rl	valpost	303	303	60	2796672	00130.png	126.0	25	2796670.0	886	463
26	23_valpost	23	25-10-2019	14:40:02:462	rl	valpost	315	315	60	2796871	00135.png	131.0	25	2796870.0	886	465
27	23_valpost	23	25-10-2019	14:40:02:661	rl	valpost	327	327	60	2797070	00140.png	136.0	25	2797070.0	882	463
28	23_valpost	23	25-10-2019	14:40:02:860	rl	valpost	339	339	60	2797269	00145.png	141.0	25	2797270.0	886	461
29	23_valpost	23	25-10-2019	14:40:03:059	rl	valpost	351	351	60	2797469	00150.png	146.0	25	2797470.0	886	457
30	23_valpost	23	25-10-2019	14:40:03:258	rl	valpost	363	363	60	2797668	00155.png	151.0	25	2797670.0	881	454
31	23_valpost	23	25-10-2019	14:40:03:458	rl	valpost	375	375	60	2797867	00160.png	156.0	25	2797870.0	881	452
32	23_valpost	23	25-10-2019	14:40:03:657	rl	valpost	387	387	60	2798066	00165.png	161.0	25	2798070.0	898	452
33	23_valpost	23	25-10-2019	14:40:03:856	rl	valpost	399	399	60	2798265	00170.png	166.0	25	2798270.0	891	446
34	23_valpost	23	25-10-2019	14:40:04:055	rl	valpost	411	411	60	2798464	00175.png	171.0	25	2798470.0	882	451
35	23_valpost	23	25-10-2019	14:40:04:254	rl	valpost	423	423	60	2798664	00180.png	176.0	25	2798670.0	875	451
36	23_valpost	23	25-10-2019	14:40:04:453	rl	valpost	435	435	60	2798863	00185.png	181.0	25	2798870.0	3156	474
37	23_valpost	23	25-10-2019	14:40:04:652	rl	valpost	447	447	60	2799062	00190.png	186.0	25	2799070.0	675	282
38	23_valpost	23	25-10-2019	14:40:04:868	rl	valpost	460	460	60	2799277	00195.png	191.0	25	2799270.0	671	267
39	23_valpost	23	25-10-2019	14:40:05:067	rl	valpost	472	472	60	2799476	00200.png	196.0	25	2799470.0	673	262
40	23_valpost	23	25-10-2019	14:40:05:266	rl	valpost	484	484	60	2799676	00205.png	201.0	25	2799670.0	669	261
41	23_valpost	23	25-10-2019	14:40:05:465	rl	valpost	494	494	60	2799875	00210.png	206.0	25	2799870.0	664	256
42	23_valpost	23	25-10-2019	14:40:05:665	rl	valpost	504	504	60	2800074	00215.png	211.0	25	2800070.0	666	258
43	23_valpost	23	25-10-2019	14:40:05:864	rl	valpost	516	516	60	2800273	00220.png	216.0	25	2800270.0	664	256
44	23_valpost	23	25-10-2019	14:40:06:063	rl	valpost	528	528	60	2800472	00225.png	221.0	25	2800470.0	661	250
45	23_valpost	23	25-10-2019	14:40:06:262	rl	valpost	540	540	60	2800672	00230.png	226.0	25	2800670.0	669	247
46	23_valpost	23	25-10-2019	14:40:06:461	rl	valpost	552	552	60	2800871	00235.png	231.0	25	2800870.0	657	241
47	23_valpost	23	25-10-2019	14:40:06:660	rl	valpost	564	564	60	2801069	00240.png	236.0	25	2801070.0	663	238
48	23_valpost	23	25-10-2019	14:40:06:860	rl	valpost	576	576	60	2801269	00245.png	241.0	25	2801270.0	655	239
49	23_valpost	23	25-10-2019	14:40:07:058	rl	valpost	588	588	60	2801468	00250.png	246.0	25	2801470.0	666	237
50	23_valpost	23	25-10-2019	14:40:07:258	rl	valpost	600	600	60	2801667	00255.png	251.0	25	2801670.0	673	241
51	23_valpost	23	25-10-2019	14:40:07:457	rl	valpost	612	612	60	2801866	00260.png	256.0	25	2801870.0	675	240
52	23_valpost	23	25-10-2019	14:40:07:656	rl	valpost	624	624	60	2802065	00265.png	261.0	25	2802070.0	673	240
53	23_valpost	23	25-10-2019	14:40:07:855	rl	valpost	636	636	60	2802265	00270.png	266.0	25	2802270.0	683	232
54	23_valpost	23	25-10-2019	14:40:08:054	rl	valpost	648	648	60	2802464	00275.png	271.0	25	2802470.0	683	250
55	23_valpost	23	25-10-2019	14:40:08:253	rl	valpost	660	660	60	2802663	00280.png	276.0	25	2802670.0	679	246
56	23_valpost	23	25-10-2019	14:40:08:453	rl	valpost	672	672	60	2802862	00285.png	281.0	25	2802870.0	751	426
57	23_valpost	23	25-10-2019	14:40:08:668	rl	valpost	685	685	60	2803077	00290.png	286.0	25	2803070.0	681	252
58	23_valpost	23	25-10-2019	14:40:08:867	rl	valpost	697	697	60	2803277	00295.png	291.0	25	2803270.0	686	256
59	23_valpost	23	25-10-2019	14:40:09:067	rl	valpost	709	709	60	2803476	00300.png	296.0	25	2803470.0	697	264
60	23_valpost	23	25-10-2019	14:40:09:266	rl	valpost	721	721	60	2803675	00305.png	301.0	25	2803670.0	703	271
61	23_valpost	23	25-10-2019	14:40:09:465	rl	valpost	732	732	60	2803874	00310.png	306.0	25	2803870.0	702	274
62	23_valpost	23	25-10-2019	14:40:09:664	rl	valpost	744	744	60	2804074	00315.png	311.0	25	2804070.0	699	276
63	23_valpost	23	25-10-2019	14:40:09:863	rl	valpost	756	756	60	2804273	00320.png	316.0	25	2804270.0	703	278
64	23_valpost	23	25-10-2019	14:40:10:062	rl	valpost	768	768	60	2804472	00325.png	321.0	25	2804470.0	717	276
65	23_valpost	23	25-10-2019	14:40:10:261	rl	valpost	780	780	60	2804671	00330.png	326.0	25	2804670.0	712	269
66	23_valpost	23	25-10-2019	14:40:10:460	rl	valpost	792	792	60	2804870	00335.png	331.0	25	2804870.0	704	272
67	23_valpost	23	25-10-2019	14:40:10:660	rl	valpost	804	804	60	2805069	00340.png	336.0	25	2805070.0	704	271
68	23_valpost	23	25-10-2019	14:40:10:859	rl	valpost	816	816	60	2805268	00345.png	341.0	25	2805270.0	714	274
69	23_valpost	23	25-10-2019	14:40:11:058	rl	valpost	828	828	60	2805467	00350.png	346.0	25	2805470.0	696	271
70	23_valpost	23	25-10-2019	14:40:11:257	rl	valpost	840	840	60	2805667	00355.png	351.0	25	2805670.0	-15683	-3088
71	23_valpost	23	25-10-2019	14:40:11:456	rl	valpost	852	852	60	2805866	00360.png	356.0	25	2805870.0	694	273
72	23_valpost	23	25-10-2019	14:40:11:655	rl	valpost	864	864	60	2806065	00365.png	361.0	25	2806070.0	698	284
73	23_valpost	23	25-10-2019	14:40:11:855	rl	valpost	876	876	60	2806264	00370.png	366.0	25	2806270.0	692	276
74	23_valpost	23	25-10-2019	14:40:12:054	rl	valpost	888	888	60	2806463	00375.png	371.0	25	2806470.0	696	271
75	23_valpost	23	25-10-2019	14:40:12:253	rl	valpost	900	900	60	2806662	00380.png	376.0	25	2806670.0	689	273
76	23_valpost	23	25-10-2019	14:40:12:452	rl	valpost	912	912	60	2806862	00385.png	381.0	25	2806870.0	682	276
77	23_valpost	23	25-10-2019	14:40:12:668	rl	valpost	925	925	60	2807077	00390.png	386.0	25	2807070.0	680	279
78	23_valpost	23	25-10-2019	14:40:12:867	rl	valpost	937	937	60	2807276	00395.png	391.0	25	2807270.0	681	278
79	23_valpost	23	25-10-2019	14:40:13:066	rl	valpost	949	949	60	2807475	00400.png	396.0	25	2807470.0	542	420
80	23_valpost	23	25-10-2019	14:40:13:265	rl	valpost	958	958	60	2807674	00405.png	401.0	25	2807670.0	557	430
81	23_valpost	23	25-10-2019	14:40:13:464	rl	valpost	970	970	60	2807874	00410.png	406.0	25	2807870.0	555	412
82	23_valpost	23	25-10-2019	14:40:13:663	rl	valpost	982	982	60	2808073	00415.png	411.0	25	2808070.0	555	403
83	23_valpost	23	25-10-2019	14:40:13:862	rl	valpost	994	994	60	2808272	00420.png	416.0	25	2808270.0	560	403
84	23_valpost	23	25-10-2019	14:40:14:062	rl	valpost	1006	1006	60	2808471	00425.png	421.0	25	2808470.0	559	403
85	23_valpost	23	25-10-2019	14:40:14:261	rl	valpost	1018	1018	60	2808670	00430.png	426.0	25	2808670.0	558	408
86	23_valpost	23	25-10-2019	14:40:14:460	rl	valpost	1030	1030	60	2808870	00435.png	431.0	25	2808870.0	555	407
87	23_valpost	23	25-10-2019	14:40:14:659	rl	valpost	1042	1042	60	2809068	00440.png	436.0	25	2809070.0	569	399
88	23_valpost	23	25-10-2019	14:40:14:858	rl	valpost	1054	1054	60	2809268	00445.png	441.0	25	2809270.0	566	395
89	23_valpost	23	25-10-2019	14:40:15:057	rl	valpost	1066	1066	60	2809467	00450.png	446.0	25	2809470.0	558	398
90	23_valpost	23	25-10-2019	14:40:15:256	rl	valpost	1078	1078	60	2809666	00455.png	451.0	25	2809670.0	0	0
91	23_valpost	23	25-10-2019	14:40:15:456	rl	valpost	1090	1090	60	2809865	00460.png	456.0	25	2809870.0	558	399
92	23_valpost	23	25-10-2019	14:40:15:655	rl	valpost	1102	1102	60	2810064	00465.png	461.0	25	2810070.0	672	676
93	23_valpost	23	25-10-2019	14:40:15:854	rl	valpost	1114	1114	60	2810263	00470.png	466.0	25	2810270.0	550	406
94	23_valpost	23	25-10-2019	14:40:16:053	rl	valpost	1126	1126	60	2810463	00475.png	471.0	25	2810470.0	551	408
95	23_valpost	23	25-10-2019	14:40:16:253	rl	valpost	1138	1138	60	2810662	00480.png	476.0	25	2810670.0	563	403
96	23_valpost	23	25-10-2019	14:40:16:468	rl	valpost	1151	1151	60	2810878	00485.png	481.0	25	2810870.0	565	399
97	23_valpost	23	25-10-2019	14:40:16:667	rl	valpost	1163	1163	60	2811076	00490.png	486.0	25	2811070.0	566	400
98	23_valpost	23	25-10-2019	14:40:16:866	rl	valpost	1175	1175	60	2811276	00495.png	491.0	25	2811270.0	596	392
99	23_valpost	23	25-10-2019	14:40:17:049	rl	valpost	1186	1186	60	2811459	00500.png	496.0	25	2811470.0	594	390
100	23_valpost	23	25-10-2019	14:40:17:264	rl	valpost	1196	1196	60	2811674	00505.png	501.0	25	2811670.0	598	395
101	23_valpost	23	25-10-2019	14:40:17:464	rl	valpost	1208	1208	60	2811873	00510.png	506.0	25	2811870.0	601	398
102	23_valpost	23	25-10-2019	14:40:17:663	rl	valpost	1220	1220	60	2812073	00515.png	511.0	25	2812070.0	602	399
103	23_valpost	23	25-10-2019	14:40:17:862	rl	valpost	1232	1232	60	2812272	00520.png	516.0	25	2812270.0	567	404
104	23_valpost	23	25-10-2019	14:40:18:061	rl	valpost	1244	1244	60	2812470	00525.png	521.0	25	2812470.0	562	399
105	23_valpost	23	25-10-2019	14:40:18:261	rl	valpost	1256	1256	60	2812670	00530.png	526.0	25	2812670.0	560	400
106	23_valpost	23	25-10-2019	14:40:18:460	rl	valpost	1268	1268	60	2812869	00535.png	531.0	25	2812870.0	562	399
107	23_valpost	23	25-10-2019	14:40:18:658	rl	valpost	1280	1280	60	2813068	00540.png	536.0	25	2813070.0	586	396
108	23_valpost	23	25-10-2019	14:40:18:858	rl	valpost	1292	1292	60	2813267	00545.png	541.0	25	2813270.0	589	393
109	23_valpost	23	25-10-2019	14:40:19:057	rl	valpost	1304	1304	60	2813467	00550.png	546.0	25	2813470.0	591	394
110	23_valpost	23	25-10-2019	14:40:19:256	rl	valpost	1316	1316	60	2813666	00555.png	551.0	25	2813670.0	561	397
111	23_valpost	23	25-10-2019	14:40:19:455	rl	valpost	1328	1328	60	2813864	00560.png	556.0	25	2813870.0	562	396
112	23_valpost	23	25-10-2019	14:40:19:654	rl	valpost	1340	1340	60	2814064	00565.png	561.0	25	2814070.0	565	399
113	23_valpost	23	25-10-2019	14:40:19:853	rl	valpost	1352	1352	60	2814263	00570.png	566.0	25	2814270.0	566	403
114	23_valpost	23	25-10-2019	14:40:20:053	rl	valpost	1364	1364	60	2814462	00575.png	571.0	25	2814470.0	565	401
115	23_valpost	23	25-10-2019	14:40:20:269	rl	valpost	1377	1377	60	2814678	00580.png	576.0	25	2814670.0	563	401
116	23_valpost	23	25-10-2019	14:40:20:468	rl	valpost	1389	1389	60	2814877	00585.png	581.0	25	2814870.0	567	403
117	23_valpost	23	25-10-2019	14:40:20:667	rl	valpost	1401	1401	60	2815076	00590.png	586.0	25	2815070.0	566	399
118	23_valpost	23	25-10-2019	14:40:20:849	rl	valpost	1412	1412	60	2815259	00595.png	591.0	25	2815270.0	565	400
119	23_valpost	23	25-10-2019	14:40:21:065	rl	valpost	1423	1423	60	2815474	00600.png	596.0	25	2815470.0	0	0
120	23_valpost	23	25-10-2019	14:40:21:264	rl	valpost	1435	1435	60	2815674	00605.png	601.0	25	2815670.0	970	460
121	23_valpost	23	25-10-2019	14:40:21:463	rl	valpost	1447	1447	60	2815873	00610.png	606.0	25	2815870.0	938	469
122	23_valpost	23	25-10-2019	14:40:21:663	rl	valpost	1459	1459	60	2816072	00615.png	611.0	25	2816070.0	938	462
123	23_valpost	23	25-10-2019	14:40:21:862	rl	valpost	1471	1471	60	2816271	00620.png	616.0	25	2816270.0	933	456
124	23_valpost	23	25-10-2019	14:40:22:061	rl	valpost	1483	1483	60	2816470	00625.png	621.0	25	2816470.0	930	451
125	23_valpost	23	25-10-2019	14:40:22:260	rl	valpost	1495	1495	60	2816670	00630.png	626.0	25	2816670.0	924	448
126	23_valpost	23	25-10-2019	14:40:22:459	rl	valpost	1507	1507	60	2816868	00635.png	631.0	25	2816870.0	932	453
127	23_valpost	23	25-10-2019	14:40:22:658	rl	valpost	1519	1519	60	2817068	00640.png	636.0	25	2817070.0	927	456
128	23_valpost	23	25-10-2019	14:40:22:857	rl	valpost	1531	1531	60	2817267	00645.png	641.0	25	2817270.0	926	456
129	23_valpost	23	25-10-2019	14:40:23:056	rl	valpost	1543	1543	60	2817466	00650.png	646.0	25	2817470.0	924	455
130	23_valpost	23	25-10-2019	14:40:23:255	rl	valpost	1555	1555	60	2817665	00655.png	651.0	25	2817670.0	924	454
131	23_valpost	23	25-10-2019	14:40:23:455	rl	valpost	1567	1567	60	2817864	00660.png	656.0	25	2817870.0	927	462
132	23_valpost	23	25-10-2019	14:40:23:654	rl	valpost	1579	1579	60	2818064	00665.png	661.0	25	2818070.0	929	468
133	23_valpost	23	25-10-2019	14:40:23:853	rl	valpost	1591	1591	60	2818262	00670.png	666.0	25	2818270.0	928	467
134	23_valpost	23	25-10-2019	14:40:24:052	rl	valpost	1603	1603	60	2818462	00675.png	671.0	25	2818470.0	928	473
135	23_valpost	23	25-10-2019	14:40:24:268	rl	valpost	1616	1616	60	2818677	00680.png	676.0	25	2818670.0	944	477
136	23_valpost	23	25-10-2019	14:40:24:467	rl	valpost	1628	1628	60	2818876	00685.png	681.0	25	2818870.0	928	473
137	23_valpost	23	25-10-2019	14:40:24:666	rl	valpost	1640	1640	60	2819075	00690.png	686.0	25	2819070.0	942	476
138	23_valpost	23	25-10-2019	14:40:24:865	rl	valpost	1650	1650	60	2819275	00695.png	691.0	25	2819270.0	942	469
139	23_valpost	23	25-10-2019	14:40:25:065	rl	valpost	1660	1660	60	2819474	00700.png	696.0	25	2819470.0	0	0
140	23_valpost	23	25-10-2019	14:40:25:263	rl	valpost	1672	1672	60	2819673	00705.png	701.0	25	2819670.0	943	468
141	23_valpost	23	25-10-2019	14:40:25:463	rl	valpost	1684	1684	60	2819872	00710.png	706.0	25	2819870.0	937	464
142	23_valpost	23	25-10-2019	14:40:25:662	rl	valpost	1695	1695	60	2820071	00715.png	711.0	25	2820070.0	947	504
143	23_valpost	23	25-10-2019	14:40:25:861	rl	valpost	1707	1707	60	2820270	00720.png	716.0	25	2820270.0	920	462
144	23_valpost	23	25-10-2019	14:40:26:060	rl	valpost	1719	1719	60	2820470	00725.png	721.0	25	2820470.0	943	473
145	23_valpost	23	25-10-2019	14:40:26:259	rl	valpost	1731	1731	60	2820669	00730.png	726.0	25	2820670.0	941	466
146	23_valpost	23	25-10-2019	14:40:26:458	rl	valpost	1743	1743	60	2820868	00735.png	731.0	25	2820870.0	932	466
147	23_valpost	23	25-10-2019	14:40:26:658	rl	valpost	1755	1755	60	2821067	00740.png	736.0	25	2821070.0	0	0
148	23_valpost	23	25-10-2019	14:40:26:857	rl	valpost	1767	1767	60	2821266	00745.png	741.0	25	2821270.0	919	455
149	23_valpost	23	25-10-2019	14:40:27:056	rl	valpost	1779	1779	60	2821466	00750.png	746.0	25	2821470.0	926	482
150	23_valpost	23	25-10-2019	14:40:27:255	rl	valpost	1791	1791	60	2821665	00755.png	751.0	25	2821670.0	924	483
151	23_valpost	23	25-10-2019	14:40:27:454	rl	valpost	1803	1803	60	2821864	00760.png	756.0	25	2821870.0	926	485
152	23_valpost	23	25-10-2019	14:40:27:654	rl	valpost	1815	1815	60	2822063	00765.png	761.0	25	2822070.0	922	476
153	23_valpost	23	25-10-2019	14:40:27:853	rl	valpost	1827	1827	60	2822262	00770.png	766.0	25	2822270.0	923	471
154	23_valpost	23	25-10-2019	14:40:28:068	rl	valpost	1840	1840	60	2822478	00775.png	771.0	25	2822470.0	927	477
155	23_valpost	23	25-10-2019	14:40:28:267	rl	valpost	1852	1852	60	2822677	00780.png	776.0	25	2822670.0	921	432
