	setting_id	subject_id	date	trial_id	sample_id	frame_rate	frame_id	fix_pos_x_old	fix_pos_y_old	cam_angle_x	cam_angle_y	cam_angle_z	fix_pos_x	fix_pos_y	fix_pos_avrgd	fix_pos_diff_x	fix_pos_diff_y
0	vr	34	2019-12-10	rat_1	473	10	00260.png	358.0	455.0	359	234	359	358.25	455.0	1	-0.25	0.0
1	vr	34	2019-12-10	rat_1	474	10	00260.png	358.5	455.0	359	234	359	358.25	455.0	1	0.25	0.0
2	vr	34	2019-12-10	rat_1	489	10	00270.png	402.5	464.5	358	233	359	402.5	464.5	0	0.0	0.0
3	vr	34	2019-12-10	rat_1	507	10	00280.png	422.0	466.5	360	235	359	422.0	466.5	0	0.0	0.0
4	vr	34	2019-12-10	rat_1	524	10	00290.png	322.5	416.0	360	237	358	322.25	415.75	1	0.25	0.25
5	vr	34	2019-12-10	rat_1	525	10	00290.png	322.0	415.5	359	237	358	322.25	415.75	1	-0.25	-0.25
6	vr	34	2019-12-10	rat_1	542	10	00300.png	321.5	421.5	359	236	358	321.5	421.5	0	0.0	0.0
7	vr	34	2019-12-10	rat_1	559	10	00310.png	334.0	452.0	357	233	357	334.0	452.0	0	0.0	0.0
8	vr	34	2019-12-10	rat_1	577	10	00320.png	255.5	477.0	357	220	356	255.5	477.0	0	0.0	0.0
9	vr	34	2019-12-10	rat_1	594	10	00330.png	243.5	456.0	358	200	356	243.5	456.0	0	0.0	0.0
10	vr	34	2019-12-10	rat_1	612	10	00340.png	222.0	492.5	358	181	355	222.0	492.5	0	0.0	0.0
11	vr	34	2019-12-10	rat_1	630	10	00350.png	187.5	474.0	359	162	355	187.5	474.0	0	0.0	0.0
12	vr	34	2019-12-10	rat_1	648	10	00360.png	288.5	478.0	357	143	354	288.5	478.0	0	0.0	0.0
13	vr	34	2019-12-10	rat_1	666	10	00370.png	246.0	464.5	345	130	356	246.0	464.5	0	0.0	0.0
14	vr	34	2019-12-10	rat_1	683	10	00380.png	342.5	311.5	334	123	358	342.5	311.5	0	0.0	0.0
15	vr	34	2019-12-10	rat_1	701	10	00390.png	356.5	321.0	329	121	358	356.5	321.0	0	0.0	0.0
16	vr	34	2019-12-10	rat_1	718	10	00400.png	325.0	301.0	327	121	358	325.0	301.0	0	0.0	0.0
17	vr	34	2019-12-10	rat_1	733	10	00410.png	384.0	211.5	323	121	358	384.0	211.5	0	0.0	0.0
18	vr	34	2019-12-10	rat_1	751	10	00420.png	383.0	239.0	321	123	359	383.0	239.0	0	0.0	0.0
19	vr	34	2019-12-10	rat_1	768	10	00430.png	378.0	465.0	329	126	359	378.0	465.0	0	0.0	0.0
20	vr	34	2019-12-10	rat_1	783	10	00440.png	429.0	523.5	348	126	359	429.0	523.5	0	0.0	0.0
21	vr	34	2019-12-10	rat_1	799	10	00450.png	416.5	513.0	355	124	358	403.25	513.75	1	13.25	-0.75
22	vr	34	2019-12-10	rat_1	800	10	00450.png	390.0	514.5	355	124	358	403.25	513.75	1	-13.25	0.75
23	vr	34	2019-12-10	rat_1	817	10	00460.png	306.5	524.5	357	112	356	306.5	524.5	0	0.0	0.0
24	vr	34	2019-12-10	rat_1	834	10	00470.png	294.0	507.0	356	103	356	294.0	507.0	0	0.0	0.0
25	vr	34	2019-12-10	rat_1	852	10	00480.png	375.0	503.0	355	105	357	375.0	503.0	0	0.0	0.0
26	vr	34	2019-12-10	rat_1	870	10	00490.png	485.0	513.5	356	120	358	485.0	513.5	0	0.0	0.0
27	vr	34	2019-12-10	rat_1	888	10	00500.png	526.5	493.5	356	137	357	526.5	493.5	0	0.0	0.0
28	vr	34	2019-12-10	rat_1	906	10	00510.png	450.0	484.5	357	149	357	450.0	484.5	0	0.0	0.0
29	vr	34	2019-12-10	rat_1	922	10	00520.png	481.0	471.0	357	157	355	481.0	471.0	0	0.0	0.0
30	vr	34	2019-12-10	rat_1	939	10	00530.png	469.0	451.0	356	166	355	469.0	451.0	0	0.0	0.0
31	vr	34	2019-12-10	rat_1	956	10	00540.png	491.5	452.0	357	173	355	491.5	452.0	0	0.0	0.0
32	vr	34	2019-12-10	rat_1	973	10	00550.png	0.0	840.0	357	178	356	0.0	840.0	0	0.0	0.0
33	vr	34	2019-12-10	rat_1	974	10	00550.png	0.0	840.0	357	179	356	0.0	840.0	0	0.0	0.0
34	vr	34	2019-12-10	rat_1	986	10	00560.png	377.5	469.5	357	183	357	377.5	469.5	0	0.0	0.0
35	vr	34	2019-12-10	rat_1	1003	10	00570.png	367.0	464.0	358	185	358	367.0	464.0	0	0.0	0.0
36	vr	34	2019-12-10	rat_1	1020	10	00580.png	382.0	464.5	358	187	357	380.75	464.75	1	1.25	-0.25
37	vr	34	2019-12-10	rat_1	1021	10	00580.png	379.5	465.0	358	188	357	380.75	464.75	1	-1.25	0.25
38	vr	34	2019-12-10	rat_1	1036	10	00590.png	394.0	442.5	357	192	355	394.0	442.5	0	0.0	0.0
39	vr	34	2019-12-10	rat_1	1053	10	00600.png	392.0	440.0	355	197	355	392.0	440.0	0	0.0	0.0
40	vr	34	2019-12-10	rat_1	1071	10	00610.png	399.5	420.0	355	202	353	399.5	420.0	0	0.0	0.0
41	vr	34	2019-12-10	rat_1	1088	10	00620.png	443.0	439.0	355	207	354	443.0	439.0	0	0.0	0.0
42	vr	34	2019-12-10	rat_1	1105	10	00630.png	448.5	434.0	354	211	354	448.5	434.0	0	0.0	0.0
43	vr	34	2019-12-10	rat_1	1122	10	00640.png	456.0	477.5	354	216	355	456.0	477.5	0	0.0	0.0
44	vr	34	2019-12-10	rat_1	1139	10	00650.png	427.0	469.5	358	222	355	427.0	469.5	0	0.0	0.0
45	vr	34	2019-12-10	rat_1	1157	10	00660.png	469.0	469.5	360	232	355	469.0	469.5	0	0.0	0.0
46	vr	34	2019-12-10	rat_1	1174	10	00670.png	426.0	466.5	359	241	356	426.0	466.5	0	0.0	0.0
47	vr	34	2019-12-10	rat_1	1192	10	00680.png	448.5	473.5	359	248	356	448.5	473.5	0	0.0	0.0
48	vr	34	2019-12-10	rat_1	1210	10	00690.png	396.5	409.5	359	252	357	396.5	409.5	0	0.0	0.0
49	vr	34	2019-12-10	rat_1	1228	10	00700.png	446.5	414.0	356	253	358	446.5	414.0	0	0.0	0.0
50	vr	34	2019-12-10	rat_1	1245	10	00710.png	545.5	479.5	356	259	360	545.5	479.5	0	0.0	0.0
51	vr	34	2019-12-10	rat_1	1263	10	00720.png	509.0	475.0	356	273	0	509.0	475.0	0	0.0	0.0
52	vr	34	2019-12-10	rat_1	1281	10	00730.png	461.5	408.5	354	286	0	461.5	408.5	0	0.0	0.0
53	vr	34	2019-12-10	rat_1	1298	10	00740.png	586.0	447.0	352	296	360	586.0	447.0	0	0.0	0.0
54	vr	34	2019-12-10	rat_1	1315	10	00750.png	520.5	434.0	354	304	358	520.5	434.0	0	0.0	0.0
55	vr	34	2019-12-10	rat_1	1331	10	00760.png	498.5	457.0	354	313	1	497.75	457.0	1	0.75	0.0
56	vr	34	2019-12-10	rat_1	1332	10	00760.png	497.0	457.0	354	314	1	497.75	457.0	1	-0.75	0.0
57	vr	34	2019-12-10	rat_1	1350	10	00770.png	486.0	463.5	353	324	2	486.0	463.5	0	0.0	0.0
58	vr	34	2019-12-10	rat_1	1368	10	00780.png	491.5	490.0	351	334	2	491.5	490.0	0	0.0	0.0
59	vr	34	2019-12-10	rat_1	1385	10	00790.png	532.0	458.0	351	349	2	532.0	458.0	0	0.0	0.0
60	vr	34	2019-12-10	rat_1	1403	10	00800.png	531.0	454.5	346	359	1	531.0	454.5	0	0.0	0.0
61	vr	34	2019-12-10	rat_1	1420	10	00810.png	497.0	379.0	346	5	0	497.0	379.0	0	0.0	0.0
62	vr	34	2019-12-10	rat_1	1437	10	00820.png	434.5	333.5	341	7	2	434.5	333.5	0	0.0	0.0
63	vr	34	2019-12-10	rat_1	1453	10	00830.png	413.5	347.5	337	8	2	413.5	347.5	0	0.0	0.0
64	vr	34	2019-12-10	rat_1	1469	10	00840.png	393.5	383.5	335	8	1	393.5	383.5	0	0.0	0.0
65	vr	34	2019-12-10	rat_1	1487	10	00850.png	382.0	433.5	336	7	0	382.0	433.5	0	0.0	0.0
66	vr	34	2019-12-10	rat_1	1504	10	00860.png	395.0	504.5	338	5	0	395.0	504.5	0	0.0	0.0
67	vr	34	2019-12-10	rat_1	1521	10	00870.png	299.0	477.0	339	0	2	299.0	477.0	0	0.0	0.0
68	vr	34	2019-12-10	rat_1	1539	10	00880.png	244.0	473.5	340	355	2	244.0	473.5	0	0.0	0.0
69	vr	34	2019-12-10	rat_1	1556	10	00890.png	270.0	434.5	341	348	2	270.0	434.5	0	0.0	0.0
70	vr	34	2019-12-10	rat_1	1574	10	00900.png	320.5	316.5	340	342	0	320.5	316.5	0	0.0	0.0
71	vr	34	2019-12-10	rat_1	1592	10	00910.png	352.5	321.0	338	333	359	352.5	321.0	0	0.0	0.0
72	vr	34	2019-12-10	rat_1	1608	10	00920.png	259.5	297.0	337	323	358	259.5	297.0	0	0.0	0.0
73	vr	34	2019-12-10	rat_1	1626	10	00930.png	234.5	350.0	338	312	358	234.5	350.0	0	0.0	0.0
74	vr	34	2019-12-10	rat_1	1643	10	00940.png	262.0	417.0	338	301	357	262.0	417.0	0	0.0	0.0
75	vr	34	2019-12-10	rat_1	1660	10	00950.png	313.0	411.0	339	290	357	313.0	411.0	0	0.0	0.0
76	vr	34	2019-12-10	rat_1	1678	10	00960.png	324.5	436.5	339	284	357	324.5	436.5	0	0.0	0.0
77	vr	34	2019-12-10	rat_1	1695	10	00970.png	273.0	504.5	340	280	356	275.25	503.5	1	-2.25	1.0
78	vr	34	2019-12-10	rat_1	1696	10	00970.png	277.5	502.5	340	280	356	275.25	503.5	1	2.25	-1.0
79	vr	34	2019-12-10	rat_1	1710	10	00980.png	279.0	525.0	342	273	356	279.5	526.0	1	-0.5	-1.0
80	vr	34	2019-12-10	rat_1	1711	10	00980.png	280.0	527.0	342	272	356	279.5	526.0	1	0.5	1.0
81	vr	34	2019-12-10	rat_1	1727	10	00990.png	301.5	532.5	345	264	356	298.25	541.0	1	3.25	-8.5
82	vr	34	2019-12-10	rat_1	1728	10	00990.png	295.0	549.5	345	263	356	298.25	541.0	1	-3.25	8.5
83	vr	34	2019-12-10	rat_1	1746	10	01000.png	344.0	509.5	354	252	356	344.0	509.5	0	0.0	0.0
