	setting_id	subject_id	date	trial_id	sample_id	frame_rate	frame_id	fix_pos_x_old	fix_pos_y_old	cam_angle_x	cam_angle_y	cam_angle_z	fix_pos_x	fix_pos_y	fix_pos_avrgd	fix_pos_diff_x	fix_pos_diff_y
0	vr	03	2019-10-23	gas_1	482	10	00260.png	367.5	436.5	1	211	357	367.5	436.5	0	0.0	0.0
1	vr	03	2019-10-23	gas_1	496	10	00270.png	334.0	424.0	1	211	357	334.0	424.0	0	0.0	0.0
2	vr	03	2019-10-23	gas_1	513	10	00280.png	306.5	424.5	1	210	357	306.5	424.5	0	0.0	0.0
3	vr	03	2019-10-23	gas_1	531	10	00290.png	308.5	422.5	1	209	357	308.5	422.5	0	0.0	0.0
4	vr	03	2019-10-23	gas_1	547	10	00300.png	497.0	417.5	2	208	357	497.25	418.25	1	-0.25	-0.75
5	vr	03	2019-10-23	gas_1	548	10	00300.png	497.5	419.0	2	208	357	497.25	418.25	1	0.25	0.75
6	vr	03	2019-10-23	gas_1	561	10	00310.png	532.5	413.5	2	207	357	533.0	412.75	1	-0.5	0.75
7	vr	03	2019-10-23	gas_1	562	10	00310.png	533.5	412.0	2	207	357	533.0	412.75	1	0.5	-0.75
8	vr	03	2019-10-23	gas_1	579	10	00320.png	527.5	410.0	2	209	357	527.5	410.0	0	0.0	0.0
9	vr	03	2019-10-23	gas_1	596	10	00330.png	335.0	418.5	3	210	357	335.0	418.5	0	0.0	0.0
10	vr	03	2019-10-23	gas_1	614	10	00340.png	316.0	414.5	4	209	357	316.0	414.5	0	0.0	0.0
11	vr	03	2019-10-23	gas_1	632	10	00350.png	330.5	409.0	4	205	358	330.5	409.0	0	0.0	0.0
12	vr	03	2019-10-23	gas_1	650	10	00360.png	350.5	403.0	5	196	359	350.5	403.0	0	0.0	0.0
13	vr	03	2019-10-23	gas_1	667	10	00370.png	407.0	402.5	5	184	359	407.0	402.5	0	0.0	0.0
14	vr	03	2019-10-23	gas_1	684	10	00380.png	297.0	418.5	4	174	359	297.0	418.5	0	0.0	0.0
15	vr	03	2019-10-23	gas_1	702	10	00390.png	244.0	412.0	4	168	359	244.0	412.0	0	0.0	0.0
16	vr	03	2019-10-23	gas_1	719	10	00400.png	195.0	439.5	4	165	358	195.0	440.75	1	0.0	-1.25
17	vr	03	2019-10-23	gas_1	720	10	00400.png	195.0	442.0	5	165	358	195.0	440.75	1	0.0	1.25
18	vr	03	2019-10-23	gas_1	735	10	00410.png	238.0	451.0	5	156	359	238.0	451.0	0	0.0	0.0
19	vr	03	2019-10-23	gas_1	752	10	00420.png	247.0	439.5	5	141	359	247.0	439.5	0	0.0	0.0
20	vr	03	2019-10-23	gas_1	770	10	00430.png	198.0	407.0	5	124	359	198.0	407.0	0	0.0	0.0
21	vr	03	2019-10-23	gas_1	788	10	00440.png	288.0	407.0	5	113	360	288.0	407.0	0	0.0	0.0
22	vr	03	2019-10-23	gas_1	805	10	00450.png	313.0	409.0	5	111	360	313.5	409.0	1	-0.5	0.0
23	vr	03	2019-10-23	gas_1	806	10	00450.png	314.0	409.0	5	111	360	313.5	409.0	1	0.5	0.0
24	vr	03	2019-10-23	gas_1	822	10	00460.png	308.5	412.0	5	112	359	308.5	412.0	0	0.0	0.0
25	vr	03	2019-10-23	gas_1	840	10	00470.png	298.5	412.5	5	114	359	298.5	412.5	0	0.0	0.0
26	vr	03	2019-10-23	gas_1	857	10	00480.png	286.0	413.0	5	116	359	286.0	413.0	0	0.0	0.0
27	vr	03	2019-10-23	gas_1	875	10	00490.png	280.0	416.5	3	117	359	280.0	416.5	0	0.0	0.0
28	vr	03	2019-10-23	gas_1	893	10	00500.png	264.5	411.5	4	120	358	264.5	411.5	0	0.0	0.0
29	vr	03	2019-10-23	gas_1	909	10	00510.png	253.5	409.5	4	121	359	252.75	409.5	1	0.75	0.0
30	vr	03	2019-10-23	gas_1	910	10	00510.png	252.0	409.5	4	121	359	252.75	409.5	1	-0.75	0.0
31	vr	03	2019-10-23	gas_1	926	10	00520.png	249.5	411.0	4	121	359	249.25	411.25	1	0.25	-0.25
32	vr	03	2019-10-23	gas_1	927	10	00520.png	249.0	411.5	3	121	359	249.25	411.25	1	-0.25	0.25
33	vr	03	2019-10-23	gas_1	940	10	00530.png	238.0	429.5	3	122	359	238.0	429.5	0	0.0	0.0
34	vr	03	2019-10-23	gas_1	958	10	00540.png	241.5	430.0	2	121	359	241.5	430.0	0	0.0	0.0
35	vr	03	2019-10-23	gas_1	976	10	00550.png	239.0	426.5	2	121	360	239.0	426.5	0	0.0	0.0
36	vr	03	2019-10-23	gas_1	994	10	00560.png	247.0	427.5	2	120	360	247.0	427.5	0	0.0	0.0
37	vr	03	2019-10-23	gas_1	1012	10	00570.png	250.0	428.5	2	120	360	250.0	428.5	0	0.0	0.0
38	vr	03	2019-10-23	gas_1	1028	10	00580.png	253.0	428.0	3	119	359	253.25	427.5	1	-0.25	0.5
39	vr	03	2019-10-23	gas_1	1029	10	00580.png	253.5	427.0	3	119	359	253.25	427.5	1	0.25	-0.5
40	vr	03	2019-10-23	gas_1	1046	10	00590.png	261.0	411.0	3	118	359	261.0	411.0	0	0.0	0.0
41	vr	03	2019-10-23	gas_1	1063	10	00600.png	268.5	412.5	3	117	359	268.5	412.5	0	0.0	0.0
42	vr	03	2019-10-23	gas_1	1081	10	00610.png	283.5	400.5	4	115	0	283.5	400.5	0	0.0	0.0
43	vr	03	2019-10-23	gas_1	1098	10	00620.png	301.0	401.0	5	112	0	301.0	401.0	0	0.0	0.0
44	vr	03	2019-10-23	gas_1	1115	10	00630.png	307.0	402.0	5	110	0	308.25	401.5	1	-1.25	0.5
45	vr	03	2019-10-23	gas_1	1116	10	00630.png	309.5	401.0	5	110	0	308.25	401.5	1	1.25	-0.5
46	vr	03	2019-10-23	gas_1	1134	10	00640.png	278.0	410.0	5	107	1	278.0	410.0	0	0.0	0.0
47	vr	03	2019-10-23	gas_1	1152	10	00650.png	323.5	426.5	4	105	0	323.5	426.5	0	0.0	0.0
48	vr	03	2019-10-23	gas_1	1169	10	00660.png	329.0	427.5	4	104	0	329.0	427.5	0	0.0	0.0
49	vr	03	2019-10-23	gas_1	1186	10	00670.png	325.0	423.5	5	105	359	325.0	423.5	0	0.0	0.0
50	vr	03	2019-10-23	gas_1	1204	10	00680.png	317.5	421.0	5	105	359	317.5	421.0	0	0.0	0.0
51	vr	03	2019-10-23	gas_1	1222	10	00690.png	329.0	402.0	4	106	359	329.0	402.0	0	0.0	0.0
52	vr	03	2019-10-23	gas_1	1239	10	00700.png	311.0	407.0	4	109	359	310.5	406.75	1	0.5	0.25
53	vr	03	2019-10-23	gas_1	1240	10	00700.png	310.0	406.5	4	109	359	310.5	406.75	1	-0.5	-0.25
54	vr	03	2019-10-23	gas_1	1253	10	00710.png	308.5	405.5	4	110	359	308.25	405.5	1	0.25	0.0
55	vr	03	2019-10-23	gas_1	1254	10	00710.png	308.0	405.5	4	110	359	308.25	405.5	1	-0.25	0.0
56	vr	03	2019-10-23	gas_1	1269	10	00720.png	259.5	419.0	4	104	360	259.5	419.0	0	0.0	0.0
57	vr	03	2019-10-23	gas_1	1287	10	00730.png	193.0	427.0	6	83	360	193.0	427.0	0	0.0	0.0
58	vr	03	2019-10-23	gas_1	1305	10	00740.png	200.5	437.5	7	54	359	200.5	437.5	0	0.0	0.0
59	vr	03	2019-10-23	gas_1	1323	10	00750.png	162.0	430.5	7	28	359	162.0	430.5	0	0.0	0.0
60	vr	03	2019-10-23	gas_1	1340	10	00760.png	136.0	424.0	8	5	359	136.0	424.0	0	0.0	0.0
61	vr	03	2019-10-23	gas_1	1358	10	00770.png	248.5	428.0	10	345	358	248.5	428.0	0	0.0	0.0
62	vr	03	2019-10-23	gas_1	1374	10	00780.png	288.5	411.5	10	337	359	288.5	411.5	0	0.0	0.0
63	vr	03	2019-10-23	gas_1	1392	10	00790.png	294.5	414.0	9	342	359	294.5	414.0	0	0.0	0.0
64	vr	03	2019-10-23	gas_1	1410	10	00800.png	264.0	413.5	8	356	359	264.0	413.5	0	0.0	0.0
65	vr	03	2019-10-23	gas_1	1427	10	00810.png	280.0	411.0	7	13	0	293.75	410.25	1	-13.75	0.75
66	vr	03	2019-10-23	gas_1	1428	10	00810.png	307.5	409.5	7	14	0	293.75	410.25	1	13.75	-0.75
67	vr	03	2019-10-23	gas_1	1444	10	00820.png	557.0	413.0	6	35	1	557.0	413.0	0	0.0	0.0
68	vr	03	2019-10-23	gas_1	1462	10	00830.png	561.0	422.0	6	55	1	561.0	422.0	0	0.0	0.0
69	vr	03	2019-10-23	gas_1	1479	10	00840.png	514.0	432.5	6	67	1	514.0	432.5	0	0.0	0.0
70	vr	03	2019-10-23	gas_1	1497	10	00850.png	438.5	434.0	6	76	1	438.5	434.0	0	0.0	0.0
71	vr	03	2019-10-23	gas_1	1515	10	00860.png	392.5	451.0	6	83	0	392.5	451.0	0	0.0	0.0
72	vr	03	2019-10-23	gas_1	1532	10	00870.png	370.5	453.0	6	86	0	370.5	453.0	0	0.0	0.0
73	vr	03	2019-10-23	gas_1	1549	10	00880.png	368.5	406.0	6	88	0	368.5	406.0	0	0.0	0.0
74	vr	03	2019-10-23	gas_1	1568	10	00890.png	350.0	405.5	5	93	0	350.0	405.5	0	0.0	0.0
75	vr	03	2019-10-23	gas_1	1585	10	00900.png	320.0	406.5	6	100	0	320.0	406.5	0	0.0	0.0
76	vr	03	2019-10-23	gas_1	1603	10	00910.png	296.0	406.5	6	104	0	296.0	406.5	0	0.0	0.0
77	vr	03	2019-10-23	gas_1	1620	10	00920.png	296.0	429.0	6	107	360	296.0	429.0	0	0.0	0.0
78	vr	03	2019-10-23	gas_1	1638	10	00930.png	312.0	458.0	6	110	360	312.0	458.0	0	0.0	0.0
79	vr	03	2019-10-23	gas_1	1656	10	00940.png	328.0	458.0	6	114	360	328.0	458.0	0	0.0	0.0
80	vr	03	2019-10-23	gas_1	1674	10	00950.png	283.5	416.0	4	117	0	283.5	416.0	0	0.0	0.0
81	vr	03	2019-10-23	gas_1	1692	10	00960.png	278.5	420.5	3	121	1	278.5	420.5	0	0.0	0.0
82	vr	03	2019-10-23	gas_1	1726	10	00980.png	290.0	423.5	3	131	359	290.0	423.5	0	0.0	0.0
83	vr	03	2019-10-23	gas_1	1743	10	00990.png	292.0	423.5	3	137	359	292.0	423.5	0	0.0	0.0
84	vr	03	2019-10-23	gas_1	1761	10	01000.png	298.0	426.0	4	142	359	298.0	426.0	0	0.0	0.0
