	setting_id	subject_id	date	trial_id	sample_id	frame_rate	frame_id	fix_pos_x_old	fix_pos_y_old	cam_angle_x	cam_angle_y	cam_angle_z	fix_pos_x	fix_pos_y	fix_pos_avrgd	fix_pos_diff_x	fix_pos_diff_y
0	vr	43	2019-12-20	loc_1	475	10	00260.png	465.0	472.0	4	157	358	464.25	472.5	1	0.75	-0.5
1	vr	43	2019-12-20	loc_1	476	10	00260.png	463.5	473.0	4	157	358	464.25	472.5	1	-0.75	0.5
2	vr	43	2019-12-20	loc_1	491	10	00270.png	421.0	405.0	4	157	358	421.0	405.0	0	0.0	0.0
3	vr	43	2019-12-20	loc_1	508	10	00280.png	430.0	380.0	4	158	358	430.0	380.0	0	0.0	0.0
4	vr	43	2019-12-20	loc_1	525	10	00290.png	540.5	357.0	3	160	359	540.5	357.0	0	0.0	0.0
5	vr	43	2019-12-20	loc_1	543	10	00300.png	454.0	363.5	1	170	359	454.0	363.5	0	0.0	0.0
6	vr	43	2019-12-20	loc_1	560	10	00310.png	421.0	338.5	357	183	359	421.0	338.5	0	0.0	0.0
7	vr	43	2019-12-20	loc_1	573	10	00320.png	495.5	400.5	353	195	359	495.5	400.5	0	0.0	0.0
8	vr	43	2019-12-20	loc_1	590	10	00330.png	427.5	417.5	353	214	357	427.5	417.5	0	0.0	0.0
9	vr	43	2019-12-20	loc_1	607	10	00340.png	500.5	432.0	355	229	354	500.5	432.0	0	0.0	0.0
10	vr	43	2019-12-20	loc_1	624	10	00350.png	437.5	370.0	357	239	354	437.0	369.0	1	0.5	1.0
11	vr	43	2019-12-20	loc_1	625	10	00350.png	436.5	368.0	357	239	354	437.0	369.0	1	-0.5	-1.0
12	vr	43	2019-12-20	loc_1	638	10	00360.png	436.0	363.5	358	246	354	435.75	364.25	1	0.25	-0.75
13	vr	43	2019-12-20	loc_1	639	10	00360.png	435.5	365.0	358	246	354	435.75	364.25	1	-0.25	0.75
14	vr	43	2019-12-20	loc_1	650	10	00370.png	419.0	365.5	358	250	353	419.0	365.5	0	0.0	0.0
15	vr	43	2019-12-20	loc_1	661	10	00380.png	355.5	419.5	357	248	353	355.5	419.5	0	0.0	0.0
16	vr	43	2019-12-20	loc_1	679	10	00390.png	286.0	447.5	357	241	353	286.0	447.5	0	0.0	0.0
17	vr	43	2019-12-20	loc_1	697	10	00400.png	274.0	392.5	355	229	354	274.0	392.5	0	0.0	0.0
18	vr	43	2019-12-20	loc_1	713	10	00410.png	0.0	840.0	353	206	356	0.0	840.0	0	0.0	0.0
19	vr	43	2019-12-20	loc_1	729	10	00420.png	285.0	454.5	355	178	358	285.0	454.5	0	0.0	0.0
20	vr	43	2019-12-20	loc_1	745	10	00430.png	302.5	448.0	357	163	358	302.5	448.0	0	0.0	0.0
21	vr	43	2019-12-20	loc_1	763	10	00440.png	297.0	373.5	357	151	358	297.0	373.5	0	0.0	0.0
22	vr	43	2019-12-20	loc_1	781	10	00450.png	313.5	399.5	356	143	357	313.5	399.5	0	0.0	0.0
23	vr	43	2019-12-20	loc_1	798	10	00460.png	358.5	402.5	356	138	358	358.5	402.5	0	0.0	0.0
24	vr	43	2019-12-20	loc_1	811	10	00470.png	305.5	387.5	356	131	358	305.5	387.5	0	0.0	0.0
25	vr	43	2019-12-20	loc_1	828	10	00480.png	279.5	450.0	357	120	359	279.5	450.0	0	0.0	0.0
26	vr	43	2019-12-20	loc_1	845	10	00490.png	249.5	439.5	358	108	360	249.5	439.5	0	0.0	0.0
27	vr	43	2019-12-20	loc_1	863	10	00500.png	288.0	420.5	359	97	0	288.0	420.5	0	0.0	0.0
28	vr	43	2019-12-20	loc_1	881	10	00510.png	245.0	421.0	359	86	1	245.0	421.0	0	0.0	0.0
29	vr	43	2019-12-20	loc_1	898	10	00520.png	301.0	416.5	358	71	2	301.0	416.5	0	0.0	0.0
30	vr	43	2019-12-20	loc_1	912	10	00530.png	298.0	417.5	359	55	2	298.0	417.5	0	0.0	0.0
31	vr	43	2019-12-20	loc_1	929	10	00540.png	319.0	420.0	0	45	2	319.0	420.0	0	0.0	0.0
32	vr	43	2019-12-20	loc_1	947	10	00550.png	319.5	382.0	1	34	2	319.5	382.0	0	0.0	0.0
33	vr	43	2019-12-20	loc_1	964	10	00560.png	267.0	393.5	2	23	1	267.0	393.5	0	0.0	0.0
34	vr	43	2019-12-20	loc_1	981	10	00570.png	272.5	414.5	2	12	0	272.5	414.5	0	0.0	0.0
35	vr	43	2019-12-20	loc_1	999	10	00580.png	326.5	414.0	1	7	0	326.5	414.0	0	0.0	0.0
36	vr	43	2019-12-20	loc_1	1017	10	00590.png	386.0	418.5	360	6	0	386.0	418.5	0	0.0	0.0
37	vr	43	2019-12-20	loc_1	1033	10	00600.png	403.5	429.5	358	7	1	403.5	429.5	0	0.0	0.0
38	vr	43	2019-12-20	loc_1	1050	10	00610.png	319.5	432.5	357	8	1	319.5	432.5	0	0.0	0.0
39	vr	43	2019-12-20	loc_1	1066	10	00620.png	321.0	430.0	357	8	1	321.0	430.0	0	0.0	0.0
40	vr	43	2019-12-20	loc_1	1083	10	00630.png	398.0	433.5	357	10	1	398.0	433.5	0	0.0	0.0
41	vr	43	2019-12-20	loc_1	1100	10	00640.png	473.5	471.5	358	23	359	473.5	471.5	0	0.0	0.0
42	vr	43	2019-12-20	loc_1	1118	10	00650.png	0.0	840.0	359	40	357	0.0	840.0	0	0.0	0.0
43	vr	43	2019-12-20	loc_1	1135	10	00660.png	460.5	441.5	358	59	355	459.5	440.0	1	1.0	1.5
44	vr	43	2019-12-20	loc_1	1136	10	00660.png	458.5	438.5	358	60	355	459.5	440.0	1	-1.0	-1.5
45	vr	43	2019-12-20	loc_1	1151	10	00670.png	454.0	421.5	360	72	355	454.0	421.5	0	0.0	0.0
46	vr	43	2019-12-20	loc_1	1168	10	00680.png	411.5	417.0	359	82	356	411.5	417.0	0	0.0	0.0
47	vr	43	2019-12-20	loc_1	1183	10	00690.png	367.0	353.5	360	89	356	366.0	352.5	1	1.0	1.0
48	vr	43	2019-12-20	loc_1	1184	10	00690.png	365.0	351.5	360	89	356	366.0	352.5	1	-1.0	-1.0
49	vr	43	2019-12-20	loc_1	1198	10	00700.png	391.5	417.5	359	93	357	391.5	417.5	0	0.0	0.0
50	vr	43	2019-12-20	loc_1	1216	10	00710.png	457.5	439.5	359	102	357	457.5	439.5	0	0.0	0.0
51	vr	43	2019-12-20	loc_1	1234	10	00720.png	0.0	840.0	358	122	359	0.0	840.0	0	0.0	0.0
52	vr	43	2019-12-20	loc_1	1252	10	00730.png	449.5	423.0	357	141	358	449.5	423.0	0	0.0	0.0
53	vr	43	2019-12-20	loc_1	1270	10	00740.png	480.0	430.0	356	157	355	480.0	430.0	0	0.0	0.0
54	vr	43	2019-12-20	loc_1	1287	10	00750.png	460.5	402.0	355	169	356	460.5	402.0	0	0.0	0.0
55	vr	43	2019-12-20	loc_1	1305	10	00760.png	429.5	379.0	356	182	357	429.5	379.0	0	0.0	0.0
56	vr	43	2019-12-20	loc_1	1321	10	00770.png	492.5	393.0	356	196	358	492.5	393.0	0	0.0	0.0
57	vr	43	2019-12-20	loc_1	1336	10	00780.png	487.0	456.5	355	208	359	483.75	457.75	1	3.25	-1.25
58	vr	43	2019-12-20	loc_1	1337	10	00780.png	480.5	459.0	355	209	359	483.75	457.75	1	-3.25	1.25
59	vr	43	2019-12-20	loc_1	1350	10	00790.png	603.5	439.0	355	222	358	632.0	438.0	1	-28.5	1.0
60	vr	43	2019-12-20	loc_1	1351	10	00790.png	660.5	437.0	355	223	358	632.0	438.0	1	28.5	-1.0
61	vr	43	2019-12-20	loc_1	1369	10	00800.png	480.5	437.0	355	232	357	480.5	437.0	0	0.0	0.0
62	vr	43	2019-12-20	loc_1	1387	10	00810.png	518.0	369.5	357	242	356	518.0	369.5	0	0.0	0.0
63	vr	43	2019-12-20	loc_1	1405	10	00820.png	562.0	382.0	354	249	354	562.0	382.0	0	0.0	0.0
64	vr	43	2019-12-20	loc_1	1422	10	00830.png	468.5	352.0	353	255	353	468.5	352.0	0	0.0	0.0
65	vr	43	2019-12-20	loc_1	1440	10	00840.png	444.0	372.5	352	256	352	444.0	372.5	0	0.0	0.0
66	vr	43	2019-12-20	loc_1	1457	10	00850.png	418.0	343.5	351	257	352	418.0	343.5	0	0.0	0.0
67	vr	43	2019-12-20	loc_1	1475	10	00860.png	384.5	374.5	351	257	352	384.5	374.5	0	0.0	0.0
68	vr	43	2019-12-20	loc_1	1507	10	00880.png	344.0	406.0	352	250	353	345.5	406.0	1	-1.5	0.0
69	vr	43	2019-12-20	loc_1	1508	10	00880.png	347.0	406.0	353	250	353	345.5	406.0	1	1.5	0.0
70	vr	43	2019-12-20	loc_1	1521	10	00890.png	340.0	392.0	354	243	354	341.75	391.75	1	-1.75	0.25
71	vr	43	2019-12-20	loc_1	1522	10	00890.png	343.5	391.5	354	242	354	341.75	391.75	1	1.75	-0.25
72	vr	43	2019-12-20	loc_1	1537	10	00900.png	382.0	383.0	354	232	355	382.0	383.0	0	0.0	0.0
73	vr	43	2019-12-20	loc_1	1555	10	00910.png	378.0	355.5	354	217	356	378.0	355.5	0	0.0	0.0
74	vr	43	2019-12-20	loc_1	1570	10	00920.png	367.5	364.5	355	201	356	367.5	364.5	0	0.0	0.0
75	vr	43	2019-12-20	loc_1	1587	10	00930.png	346.0	377.0	355	186	356	346.0	377.0	0	0.0	0.0
76	vr	43	2019-12-20	loc_1	1605	10	00940.png	339.5	437.5	356	167	357	339.5	437.5	0	0.0	0.0
77	vr	43	2019-12-20	loc_1	1622	10	00950.png	321.5	442.5	357	151	358	321.5	442.5	0	0.0	0.0
78	vr	43	2019-12-20	loc_1	1640	10	00960.png	295.5	410.5	357	132	359	295.5	410.5	0	0.0	0.0
79	vr	43	2019-12-20	loc_1	1658	10	00970.png	277.0	424.0	358	116	358	277.0	424.0	0	0.0	0.0
80	vr	43	2019-12-20	loc_1	1675	10	00980.png	297.5	429.0	358	100	359	297.5	429.0	0	0.0	0.0
81	vr	43	2019-12-20	loc_1	1691	10	00990.png	356.5	422.5	358	90	360	358.75	424.0	1	-2.25	-1.5
82	vr	43	2019-12-20	loc_1	1692	10	00990.png	361.0	425.5	358	89	360	358.75	424.0	1	2.25	1.5
83	vr	43	2019-12-20	loc_1	1706	10	01000.png	366.5	380.0	357	79	1	366.5	380.0	0	0.0	0.0
