	setting_id	subject_id	date	trial_id	sample_id	frame_rate	frame_id	fix_pos_x_old	fix_pos_y_old	cam_angle_x	cam_angle_y	cam_angle_z	fix_pos_x	fix_pos_y	fix_pos_avrgd	fix_pos_diff_x	fix_pos_diff_y
0	vr	43	2019-12-20	valpre	469	10	00260.png	415.5	465.0	5	200	0	415.5	465.0	0	0.0	0.0
1	vr	43	2019-12-20	valpre	487	10	00270.png	365.5	437.5	5	200	0	365.5	437.5	0	0.0	0.0
2	vr	43	2019-12-20	valpre	505	10	00280.png	379.0	434.5	5	200	0	379.0	434.5	0	0.0	0.0
3	vr	43	2019-12-20	valpre	523	10	00290.png	382.0	432.5	5	200	0	382.0	432.5	0	0.0	0.0
4	vr	43	2019-12-20	valpre	540	10	00300.png	385.0	433.0	5	200	0	385.0	433.0	0	0.0	0.0
5	vr	43	2019-12-20	valpre	557	10	00310.png	384.0	433.0	5	200	0	384.0	433.0	0	0.0	0.0
6	vr	43	2019-12-20	valpre	575	10	00320.png	382.5	433.5	5	200	0	382.5	433.5	0	0.0	0.0
7	vr	43	2019-12-20	valpre	592	10	00330.png	381.0	432.5	5	200	0	381.0	432.5	0	0.0	0.0
8	vr	43	2019-12-20	valpre	609	10	00340.png	381.0	432.5	5	200	0	381.0	432.5	0	0.0	0.0
9	vr	43	2019-12-20	valpre	610	10	00340.png	381.0	432.5	5	200	0	381.0	432.5	0	0.0	0.0
10	vr	43	2019-12-20	valpre	627	10	00350.png	381.0	433.0	5	200	0	381.0	433.0	0	0.0	0.0
11	vr	43	2019-12-20	valpre	644	10	00360.png	383.5	432.5	5	200	0	383.5	432.5	0	0.0	0.0
12	vr	43	2019-12-20	valpre	662	10	00370.png	383.0	433.0	5	200	0	383.0	433.0	0	0.0	0.0
13	vr	43	2019-12-20	valpre	680	10	00380.png	259.5	347.0	5	200	0	259.5	347.0	0	0.0	0.0
14	vr	43	2019-12-20	valpre	697	10	00390.png	186.0	429.0	5	200	0	186.0	429.0	0	0.0	0.0
15	vr	43	2019-12-20	valpre	715	10	00400.png	164.0	445.5	5	200	0	164.0	445.5	0	0.0	0.0
16	vr	43	2019-12-20	valpre	732	10	00410.png	370.0	427.5	5	200	0	370.0	427.5	0	0.0	0.0
17	vr	43	2019-12-20	valpre	750	10	00420.png	251.5	327.0	5	200	0	251.5	327.0	0	0.0	0.0
18	vr	43	2019-12-20	valpre	767	10	00430.png	252.5	321.5	5	200	0	252.5	321.5	0	0.0	0.0
19	vr	43	2019-12-20	valpre	784	10	00440.png	264.0	323.0	5	199	0	264.0	323.0	0	0.0	0.0
20	vr	43	2019-12-20	valpre	802	10	00450.png	257.0	327.5	5	199	0	257.0	327.5	0	0.0	0.0
21	vr	43	2019-12-20	valpre	818	10	00460.png	270.5	331.5	5	199	0	270.0	329.75	1	0.5	1.75
22	vr	43	2019-12-20	valpre	819	10	00460.png	269.5	328.0	5	199	0	270.0	329.75	1	-0.5	-1.75
23	vr	43	2019-12-20	valpre	834	10	00470.png	267.0	323.5	5	198	0	267.0	323.5	0	0.0	0.0
24	vr	43	2019-12-20	valpre	852	10	00480.png	264.5	323.0	5	198	0	264.5	323.0	0	0.0	0.0
25	vr	43	2019-12-20	valpre	869	10	00490.png	251.5	321.0	5	198	0	251.5	321.0	0	0.0	0.0
26	vr	43	2019-12-20	valpre	887	10	00500.png	266.5	323.0	5	197	360	266.5	323.0	0	0.0	0.0
27	vr	43	2019-12-20	valpre	904	10	00510.png	270.0	321.0	5	197	360	270.0	321.0	0	0.0	0.0
28	vr	43	2019-12-20	valpre	921	10	00520.png	231.0	388.0	5	196	360	231.0	388.0	0	0.0	0.0
29	vr	43	2019-12-20	valpre	939	10	00530.png	151.5	435.5	5	196	360	151.5	435.5	0	0.0	0.0
30	vr	43	2019-12-20	valpre	957	10	00540.png	395.0	446.0	5	196	360	395.0	446.0	0	0.0	0.0
31	vr	43	2019-12-20	valpre	975	10	00550.png	412.5	452.5	5	196	360	412.5	452.5	0	0.0	0.0
32	vr	43	2019-12-20	valpre	991	10	00560.png	405.0	442.5	5	196	359	405.25	442.5	1	-0.25	0.0
33	vr	43	2019-12-20	valpre	992	10	00560.png	405.5	442.5	5	196	359	405.25	442.5	1	0.25	0.0
34	vr	43	2019-12-20	valpre	1008	10	00570.png	0.0	840.0	5	196	359	0.0	840.0	0	0.0	0.0
35	vr	43	2019-12-20	valpre	1009	10	00570.png	0.0	840.0	5	196	359	0.0	840.0	0	0.0	0.0
36	vr	43	2019-12-20	valpre	1026	10	00580.png	183.0	448.5	5	195	360	183.0	448.5	0	0.0	0.0
37	vr	43	2019-12-20	valpre	1043	10	00590.png	176.5	448.0	5	194	360	176.5	448.0	0	0.0	0.0
38	vr	43	2019-12-20	valpre	1061	10	00600.png	174.0	451.5	5	193	360	174.0	451.5	0	0.0	0.0
39	vr	43	2019-12-20	valpre	1079	10	00610.png	149.5	452.5	5	193	359	149.5	452.5	0	0.0	0.0
40	vr	43	2019-12-20	valpre	1097	10	00620.png	127.5	462.5	5	193	359	127.5	462.5	0	0.0	0.0
41	vr	43	2019-12-20	valpre	1114	10	00630.png	172.0	462.0	5	192	359	172.0	462.0	0	0.0	0.0
42	vr	43	2019-12-20	valpre	1132	10	00640.png	181.5	454.5	5	192	360	181.5	454.5	0	0.0	0.0
43	vr	43	2019-12-20	valpre	1150	10	00650.png	181.5	453.5	5	192	360	181.5	453.5	0	0.0	0.0
44	vr	43	2019-12-20	valpre	1167	10	00660.png	181.5	453.0	5	192	360	181.5	453.0	0	0.0	0.0
45	vr	43	2019-12-20	valpre	1168	10	00660.png	181.5	453.0	5	192	360	181.5	453.0	0	0.0	0.0
46	vr	43	2019-12-20	valpre	1182	10	00670.png	182.0	453.5	5	192	360	182.0	453.5	0	0.0	0.0
47	vr	43	2019-12-20	valpre	1200	10	00680.png	241.0	410.5	5	192	359	241.0	410.5	0	0.0	0.0
48	vr	43	2019-12-20	valpre	1218	10	00690.png	266.5	359.0	5	192	359	266.5	359.0	0	0.0	0.0
49	vr	43	2019-12-20	valpre	1236	10	00700.png	309.5	335.0	5	192	359	309.5	335.0	0	0.0	0.0
50	vr	43	2019-12-20	valpre	1254	10	00710.png	305.0	329.5	5	192	359	305.0	329.5	0	0.0	0.0
51	vr	43	2019-12-20	valpre	1272	10	00720.png	305.0	329.5	5	192	359	305.0	329.5	0	0.0	0.0
52	vr	43	2019-12-20	valpre	1307	10	00740.png	202.5	427.0	6	192	360	202.5	427.0	0	0.0	0.0
53	vr	43	2019-12-20	valpre	1325	10	00750.png	275.0	431.5	6	192	359	275.0	431.5	0	0.0	0.0
54	vr	43	2019-12-20	valpre	1343	10	00760.png	407.5	445.0	5	192	359	407.5	445.0	0	0.0	0.0
55	vr	43	2019-12-20	valpre	1360	10	00770.png	429.0	440.5	5	192	359	428.75	440.5	1	0.25	0.0
56	vr	43	2019-12-20	valpre	1361	10	00770.png	428.5	440.5	5	192	359	428.75	440.5	1	-0.25	0.0
57	vr	43	2019-12-20	valpre	1377	10	00780.png	427.5	441.5	5	192	359	427.5	441.5	0	0.0	0.0
58	vr	43	2019-12-20	valpre	1378	10	00780.png	427.5	441.5	5	192	359	427.5	441.5	0	0.0	0.0
59	vr	43	2019-12-20	valpre	1393	10	00790.png	428.5	440.0	5	192	359	428.5	440.0	0	0.0	0.0
60	vr	43	2019-12-20	valpre	1411	10	00800.png	453.0	460.0	5	192	359	453.0	460.0	0	0.0	0.0
61	vr	43	2019-12-20	valpre	1429	10	00810.png	452.5	461.0	5	192	359	452.5	461.0	0	0.0	0.0
62	vr	43	2019-12-20	valpre	1446	10	00820.png	428.0	437.5	5	192	360	428.0	437.5	0	0.0	0.0
63	vr	43	2019-12-20	valpre	1464	10	00830.png	430.5	437.0	5	192	360	430.5	437.0	0	0.0	0.0
64	vr	43	2019-12-20	valpre	1482	10	00840.png	430.0	436.5	5	192	359	430.0	436.5	0	0.0	0.0
65	vr	43	2019-12-20	valpre	1499	10	00850.png	427.5	436.5	5	192	359	427.5	436.5	0	0.0	0.0
66	vr	43	2019-12-20	valpre	1517	10	00860.png	427.5	436.5	5	192	359	427.5	436.5	0	0.0	0.0
67	vr	43	2019-12-20	valpre	1534	10	00870.png	431.0	436.5	5	192	359	431.0	436.5	0	0.0	0.0
68	vr	43	2019-12-20	valpre	1552	10	00880.png	431.5	436.5	5	192	359	431.5	436.5	0	0.0	0.0
69	vr	43	2019-12-20	valpre	1553	10	00880.png	431.5	436.5	5	192	359	431.5	436.5	0	0.0	0.0
70	vr	43	2019-12-20	valpre	1570	10	00890.png	313.5	352.0	5	192	359	313.5	352.0	0	0.0	0.0
71	vr	43	2019-12-20	valpre	1588	10	00900.png	316.0	352.5	5	192	359	316.0	352.5	0	0.0	0.0
72	vr	43	2019-12-20	valpre	1606	10	00910.png	299.5	341.5	5	192	359	299.5	341.5	0	0.0	0.0
73	vr	43	2019-12-20	valpre	1624	10	00920.png	304.5	332.5	5	192	359	304.5	332.5	0	0.0	0.0
74	vr	43	2019-12-20	valpre	1642	10	00930.png	303.0	331.0	5	192	359	303.0	331.0	0	0.0	0.0
75	vr	43	2019-12-20	valpre	1659	10	00940.png	302.5	330.0	5	192	359	302.5	330.0	0	0.0	0.0
76	vr	43	2019-12-20	valpre	1677	10	00950.png	302.0	328.5	5	192	360	302.0	328.5	0	0.0	0.0
77	vr	43	2019-12-20	valpre	1695	10	00960.png	313.0	328.5	5	192	360	313.0	328.5	0	0.0	0.0
78	vr	43	2019-12-20	valpre	1713	10	00970.png	312.5	329.5	5	192	360	312.5	329.5	0	0.0	0.0
79	vr	43	2019-12-20	valpre	1729	10	00980.png	305.0	327.5	5	192	360	304.5	327.0	1	0.5	0.5
80	vr	43	2019-12-20	valpre	1730	10	00980.png	304.0	326.5	5	192	360	304.5	327.0	1	-0.5	-0.5
81	vr	43	2019-12-20	valpre	1746	10	00990.png	305.5	328.5	5	192	360	305.5	328.5	0	0.0	0.0
82	vr	43	2019-12-20	valpre	1764	10	01000.png	304.0	330.5	5	192	360	304.0	330.5	0	0.0	0.0
