	setting_id	subject_id	date	trial_id	sample_id	frame_rate	frame_id	fix_pos_x_old	fix_pos_y_old	cam_angle_x	cam_angle_y	cam_angle_z	fix_pos_x	fix_pos_y	fix_pos_avrgd	fix_pos_diff_x	fix_pos_diff_y
0	vr	05	2019-10-23	gas_2	472	10	00260.png	397.5	490.5	4	174	5	397.0	491.75	1	0.5	-1.25
1	vr	05	2019-10-23	gas_2	473	10	00260.png	396.5	493.0	4	174	5	397.0	491.75	1	-0.5	1.25
2	vr	05	2019-10-23	gas_2	487	10	00270.png	418.5	430.5	5	175	3	418.5	430.5	0	0.0	0.0
3	vr	05	2019-10-23	gas_2	504	10	00280.png	416.5	426.5	5	177	3	416.5	426.5	0	0.0	0.0
4	vr	05	2019-10-23	gas_2	521	10	00290.png	416.0	421.0	6	174	2	416.0	421.0	0	0.0	0.0
5	vr	05	2019-10-23	gas_2	539	10	00300.png	202.5	435.5	8	152	1	202.5	435.5	0	0.0	0.0
6	vr	05	2019-10-23	gas_2	557	10	00310.png	349.5	434.5	9	126	359	349.5	434.5	0	0.0	0.0
7	vr	05	2019-10-23	gas_2	573	10	00320.png	319.5	430.5	7	97	0	319.5	430.5	0	0.0	0.0
8	vr	05	2019-10-23	gas_2	590	10	00330.png	395.0	413.5	5	94	2	395.0	413.5	0	0.0	0.0
9	vr	05	2019-10-23	gas_2	607	10	00340.png	395.5	413.5	5	99	2	395.5	413.5	0	0.0	0.0
10	vr	05	2019-10-23	gas_2	624	10	00350.png	381.5	416.5	5	101	1	381.25	415.75	1	0.25	0.75
11	vr	05	2019-10-23	gas_2	625	10	00350.png	381.0	415.0	6	101	1	381.25	415.75	1	-0.25	-0.75
12	vr	05	2019-10-23	gas_2	638	10	00360.png	376.0	407.5	6	103	1	375.75	407.25	1	0.25	0.25
13	vr	05	2019-10-23	gas_2	639	10	00360.png	375.5	407.0	6	103	1	375.75	407.25	1	-0.25	-0.25
14	vr	05	2019-10-23	gas_2	654	10	00370.png	342.0	410.0	5	103	0	342.0	410.0	0	0.0	0.0
15	vr	05	2019-10-23	gas_2	669	10	00380.png	237.0	404.5	6	88	2	237.0	404.5	0	0.0	0.0
16	vr	05	2019-10-23	gas_2	686	10	00390.png	237.0	377.0	5	80	3	237.0	377.0	0	0.0	0.0
17	vr	05	2019-10-23	gas_2	704	10	00400.png	380.0	334.0	2	75	2	380.0	334.0	0	0.0	0.0
18	vr	05	2019-10-23	gas_2	721	10	00410.png	380.0	347.0	0	77	1	380.0	347.0	0	0.0	0.0
19	vr	05	2019-10-23	gas_2	738	10	00420.png	393.5	347.0	359	80	2	393.5	347.0	0	0.0	0.0
20	vr	05	2019-10-23	gas_2	754	10	00430.png	448.0	379.5	359	83	2	448.0	379.5	0	0.0	0.0
21	vr	05	2019-10-23	gas_2	769	10	00440.png	444.5	394.5	0	110	1	444.5	394.5	0	0.0	0.0
22	vr	05	2019-10-23	gas_2	787	10	00450.png	659.5	430.5	7	155	359	659.5	430.5	0	0.0	0.0
23	vr	05	2019-10-23	gas_2	805	10	00460.png	430.0	423.5	7	191	1	430.0	423.5	0	0.0	0.0
24	vr	05	2019-10-23	gas_2	822	10	00470.png	371.0	408.0	7	199	0	371.0	408.0	0	0.0	0.0
25	vr	05	2019-10-23	gas_2	840	10	00480.png	366.0	412.0	7	200	360	366.0	412.0	0	0.0	0.0
26	vr	05	2019-10-23	gas_2	856	10	00490.png	362.5	412.0	7	201	359	362.5	412.0	0	0.0	0.0
27	vr	05	2019-10-23	gas_2	874	10	00500.png	552.0	429.5	6	223	360	552.0	429.5	0	0.0	0.0
28	vr	05	2019-10-23	gas_2	892	10	00510.png	446.5	434.5	5	251	358	446.5	434.5	0	0.0	0.0
29	vr	05	2019-10-23	gas_2	909	10	00520.png	526.0	437.0	6	273	356	526.0	437.0	0	0.0	0.0
30	vr	05	2019-10-23	gas_2	925	10	00530.png	432.0	419.0	5	284	355	430.0	419.25	1	2.0	-0.25
31	vr	05	2019-10-23	gas_2	926	10	00530.png	428.0	419.5	5	285	355	430.0	419.25	1	-2.0	0.25
32	vr	05	2019-10-23	gas_2	942	10	00540.png	611.0	444.0	4	301	356	611.0	444.0	0	0.0	0.0
33	vr	05	2019-10-23	gas_2	959	10	00550.png	467.0	431.5	4	320	355	467.0	431.5	0	0.0	0.0
34	vr	05	2019-10-23	gas_2	976	10	00560.png	558.5	430.0	5	327	355	557.5	429.25	1	1.0	0.75
35	vr	05	2019-10-23	gas_2	977	10	00560.png	556.5	428.5	5	327	355	557.5	429.25	1	-1.0	-0.75
36	vr	05	2019-10-23	gas_2	991	10	00570.png	560.5	392.5	3	327	354	560.0	392.75	1	0.5	-0.25
37	vr	05	2019-10-23	gas_2	992	10	00570.png	559.5	393.0	3	327	354	560.0	392.75	1	-0.5	0.25
38	vr	05	2019-10-23	gas_2	1007	10	00580.png	389.5	325.0	357	322	352	389.5	325.0	0	0.0	0.0
39	vr	05	2019-10-23	gas_2	1024	10	00590.png	393.5	310.0	352	318	352	393.5	310.0	0	0.0	0.0
40	vr	05	2019-10-23	gas_2	1042	10	00600.png	320.5	323.0	346	309	351	320.5	323.0	0	0.0	0.0
41	vr	05	2019-10-23	gas_2	1060	10	00610.png	221.5	362.5	336	277	353	221.5	362.5	0	0.0	0.0
42	vr	05	2019-10-23	gas_2	1078	10	00620.png	387.5	350.0	332	254	356	387.5	350.0	0	0.0	0.0
43	vr	05	2019-10-23	gas_2	1096	10	00630.png	446.0	348.0	326	242	356	446.0	348.0	0	0.0	0.0
44	vr	05	2019-10-23	gas_2	1113	10	00640.png	204.5	459.0	327	222	358	184.5	461.0	1	20.0	-2.0
45	vr	05	2019-10-23	gas_2	1114	10	00640.png	164.5	463.0	328	220	358	184.5	461.0	1	-20.0	2.0
46	vr	05	2019-10-23	gas_2	1130	10	00650.png	0.0	840.0	343	183	4	0.0	840.0	0	0.0	0.0
47	vr	05	2019-10-23	gas_2	1148	10	00660.png	0.0	840.0	359	146	10	0.0	840.0	0	0.0	0.0
48	vr	05	2019-10-23	gas_2	1165	10	00670.png	335.0	430.5	8	122	7	335.0	430.5	0	0.0	0.0
49	vr	05	2019-10-23	gas_2	1183	10	00680.png	432.5	411.5	7	118	6	432.5	411.5	0	0.0	0.0
50	vr	05	2019-10-23	gas_2	1201	10	00690.png	254.0	402.0	7	115	4	254.0	402.0	0	0.0	0.0
51	vr	05	2019-10-23	gas_2	1219	10	00700.png	303.5	397.5	7	110	2	303.5	397.5	0	0.0	0.0
52	vr	05	2019-10-23	gas_2	1235	10	00710.png	310.5	393.5	7	109	2	310.5	393.5	0	0.0	0.0
53	vr	05	2019-10-23	gas_2	1253	10	00720.png	357.0	395.5	7	99	1	357.0	395.5	0	0.0	0.0
54	vr	05	2019-10-23	gas_2	1269	10	00730.png	0.0	840.0	6	114	5	0.0	840.0	0	0.0	0.0
55	vr	05	2019-10-23	gas_2	1286	10	00740.png	515.0	454.5	5	140	4	512.25	454.25	1	2.75	0.25
56	vr	05	2019-10-23	gas_2	1287	10	00740.png	509.5	454.0	5	141	4	512.25	454.25	1	-2.75	-0.25
57	vr	05	2019-10-23	gas_2	1304	10	00750.png	504.5	424.5	5	143	2	504.5	424.5	0	0.0	0.0
58	vr	05	2019-10-23	gas_2	1322	10	00760.png	526.0	424.5	5	141	1	526.0	424.5	0	0.0	0.0
59	vr	05	2019-10-23	gas_2	1339	10	00770.png	0.0	840.0	5	134	360	0.0	840.0	0	0.0	0.0
60	vr	05	2019-10-23	gas_2	1355	10	00780.png	271.0	415.5	6	124	0	272.5	415.0	1	-1.5	0.5
61	vr	05	2019-10-23	gas_2	1356	10	00780.png	274.0	414.5	6	124	0	272.5	415.0	1	1.5	-0.5
62	vr	05	2019-10-23	gas_2	1370	10	00790.png	317.0	406.0	6	117	0	316.75	405.5	1	0.25	0.5
63	vr	05	2019-10-23	gas_2	1371	10	00790.png	316.5	405.0	6	117	1	316.75	405.5	1	-0.25	-0.5
64	vr	05	2019-10-23	gas_2	1389	10	00800.png	446.5	427.5	7	118	2	446.5	427.5	0	0.0	0.0
65	vr	05	2019-10-23	gas_2	1407	10	00810.png	483.5	413.0	7	125	2	483.5	413.0	0	0.0	0.0
66	vr	05	2019-10-23	gas_2	1425	10	00820.png	534.0	430.5	8	147	3	534.0	430.5	0	0.0	0.0
67	vr	05	2019-10-23	gas_2	1443	10	00830.png	589.0	708.5	8	157	2	589.0	708.5	0	0.0	0.0
68	vr	05	2019-10-23	gas_2	1461	10	00840.png	535.5	654.5	8	156	1	535.5	654.5	0	0.0	0.0
69	vr	05	2019-10-23	gas_2	1478	10	00850.png	558.0	665.5	9	154	1	558.0	665.5	0	0.0	0.0
70	vr	05	2019-10-23	gas_2	1496	10	00860.png	557.0	622.0	8	152	1	557.0	622.0	0	0.0	0.0
71	vr	05	2019-10-23	gas_2	1514	10	00870.png	0.0	840.0	8	137	359	0.0	840.0	0	0.0	0.0
72	vr	05	2019-10-23	gas_2	1531	10	00880.png	180.0	422.5	7	117	357	186.75	420.0	1	-6.75	2.5
73	vr	05	2019-10-23	gas_2	1532	10	00880.png	193.5	417.5	7	116	357	186.75	420.0	1	6.75	-2.5
74	vr	05	2019-10-23	gas_2	1546	10	00890.png	245.5	427.5	7	101	358	245.5	427.5	0	0.0	0.0
75	vr	05	2019-10-23	gas_2	1564	10	00900.png	373.0	402.5	6	93	359	373.0	402.5	0	0.0	0.0
76	vr	05	2019-10-23	gas_2	1582	10	00910.png	381.5	404.5	6	92	359	381.5	404.5	0	0.0	0.0
77	vr	05	2019-10-23	gas_2	1600	10	00920.png	304.0	343.5	6	94	360	304.0	343.5	0	0.0	0.0
78	vr	05	2019-10-23	gas_2	1618	10	00930.png	191.5	422.0	6	98	360	191.5	422.0	0	0.0	0.0
79	vr	05	2019-10-23	gas_2	1635	10	00940.png	493.0	202.5	7	128	2	493.0	202.5	0	0.0	0.0
80	vr	05	2019-10-23	gas_2	1652	10	00950.png	506.5	423.5	10	153	0	506.5	423.5	0	0.0	0.0
81	vr	05	2019-10-23	gas_2	1670	10	00960.png	424.5	397.0	10	170	0	424.5	397.0	0	0.0	0.0
82	vr	05	2019-10-23	gas_2	1687	10	00970.png	435.0	398.5	9	179	1	435.0	398.5	0	0.0	0.0
83	vr	05	2019-10-23	gas_2	1705	10	00980.png	345.5	387.5	9	182	2	345.5	387.5	0	0.0	0.0
84	vr	05	2019-10-23	gas_2	1723	10	00990.png	331.5	388.5	9	185	3	331.5	388.5	0	0.0	0.0
85	vr	05	2019-10-23	gas_2	1740	10	01000.png	319.0	392.5	9	185	4	319.0	392.5	0	0.0	0.0
86	vr	05	2019-10-23	gas_2	1741	10	01000.png	319.0	392.5	9	185	4	319.0	392.5	0	0.0	0.0
