	subject_location	subject_id	date	daytime	setting_id	trial_id	sample_id	sample_n	sample_rate	sample_time_smi	frame_id	frame_n	frame_rate	frame_time_smi	fix_pos_x	fix_pos_y
0	36_valpre	36	10-12-2019	18:46:40:884	rl	valpre	11	11	60	53940	00005.png	1.0	25	53934.0	731	177
1	36_valpre	36	10-12-2019	18:46:41:083	rl	valpre	23	23	60	54139	00010.png	6.0	25	54134.0	732	178
2	36_valpre	36	10-12-2019	18:46:41:282	rl	valpre	35	35	60	54338	00015.png	11.0	25	54334.0	732	167
3	36_valpre	36	10-12-2019	18:46:41:481	rl	valpre	47	47	60	54537	00020.png	16.0	25	54534.0	744	150
4	36_valpre	36	10-12-2019	18:46:41:681	rl	valpre	59	59	60	54737	00025.png	21.0	25	54734.0	750	130
5	36_valpre	36	10-12-2019	18:46:41:880	rl	valpre	70	70	60	54936	00030.png	26.0	25	54934.0	751	138
6	36_valpre	36	10-12-2019	18:46:42:062	rl	valpre	80	80	60	55118	00035.png	31.0	25	55134.0	736	149
7	36_valpre	36	10-12-2019	18:46:42:278	rl	valpre	92	92	60	55334	00040.png	36.0	25	55334.0	736	159
8	36_valpre	36	10-12-2019	18:46:42:477	rl	valpre	104	104	60	55533	00045.png	41.0	25	55534.0	733	146
9	36_valpre	36	10-12-2019	18:46:42:677	rl	valpre	116	116	60	55733	00050.png	46.0	25	55734.0	734	148
10	36_valpre	36	10-12-2019	18:46:42:876	rl	valpre	128	128	60	55932	00055.png	51.0	25	55934.0	746	137
11	36_valpre	36	10-12-2019	18:46:43:075	rl	valpre	140	140	60	56131	00060.png	56.0	25	56134.0	730	151
12	36_valpre	36	10-12-2019	18:46:43:274	rl	valpre	152	152	60	56330	00065.png	61.0	25	56334.0	728	143
13	36_valpre	36	10-12-2019	18:46:43:473	rl	valpre	164	164	60	56529	00070.png	66.0	25	56534.0	728	147
14	36_valpre	36	10-12-2019	18:46:43:672	rl	valpre	176	176	60	56728	00075.png	71.0	25	56734.0	737	139
15	36_valpre	36	10-12-2019	18:46:43:871	rl	valpre	188	188	60	56927	00080.png	76.0	25	56934.0	729	149
16	36_valpre	36	10-12-2019	18:46:44:070	rl	valpre	200	200	60	57127	00085.png	81.0	25	57134.0	571	-47
17	36_valpre	36	10-12-2019	18:46:44:270	rl	valpre	212	212	60	57326	00090.png	86.0	25	57334.0	561	-26
18	36_valpre	36	10-12-2019	18:46:44:485	rl	valpre	225	225	60	57542	00095.png	91.0	25	57534.0	575	-33
19	36_valpre	36	10-12-2019	18:46:44:684	rl	valpre	237	237	60	57740	00100.png	96.0	25	57734.0	572	-30
20	36_valpre	36	10-12-2019	18:46:44:883	rl	valpre	249	249	60	57940	00105.png	101.0	25	57934.0	575	-40
21	36_valpre	36	10-12-2019	18:46:45:083	rl	valpre	261	261	60	58139	00110.png	106.0	25	58134.0	577	-19
22	36_valpre	36	10-12-2019	18:46:45:282	rl	valpre	273	273	60	58338	00115.png	111.0	25	58334.0	573	-24
23	36_valpre	36	10-12-2019	18:46:45:481	rl	valpre	285	285	60	58537	00120.png	116.0	25	58534.0	580	-37
24	36_valpre	36	10-12-2019	18:46:45:680	rl	valpre	297	297	60	58736	00125.png	121.0	25	58734.0	578	-36
25	36_valpre	36	10-12-2019	18:46:45:880	rl	valpre	306	306	60	58936	00130.png	126.0	25	58934.0	587	-22
26	36_valpre	36	10-12-2019	18:46:46:078	rl	valpre	318	318	60	59135	00135.png	131.0	25	59134.0	585	-30
27	36_valpre	36	10-12-2019	18:46:46:278	rl	valpre	330	330	60	59334	00140.png	136.0	25	59334.0	588	-33
28	36_valpre	36	10-12-2019	18:46:46:477	rl	valpre	342	342	60	59533	00145.png	141.0	25	59534.0	586	-31
29	36_valpre	36	10-12-2019	18:46:46:676	rl	valpre	354	354	60	59732	00150.png	146.0	25	59734.0	582	-26
30	36_valpre	36	10-12-2019	18:46:46:875	rl	valpre	366	366	60	59931	00155.png	151.0	25	59934.0	569	-16
31	36_valpre	36	10-12-2019	18:46:47:074	rl	valpre	378	378	60	60130	00160.png	156.0	25	60134.0	672	-114
32	36_valpre	36	10-12-2019	18:46:47:273	rl	valpre	390	390	60	60329	00165.png	161.0	25	60334.0	660	-111
33	36_valpre	36	10-12-2019	18:46:47:472	rl	valpre	402	402	60	60528	00170.png	166.0	25	60534.0	585	-42
34	36_valpre	36	10-12-2019	18:46:47:671	rl	valpre	414	414	60	60727	00175.png	171.0	25	60734.0	585	-44
35	36_valpre	36	10-12-2019	18:46:47:870	rl	valpre	426	426	60	60927	00180.png	176.0	25	60934.0	444	159
36	36_valpre	36	10-12-2019	18:46:48:070	rl	valpre	438	438	60	61126	00185.png	181.0	25	61134.0	414	112
37	36_valpre	36	10-12-2019	18:46:48:286	rl	valpre	451	451	60	61342	00190.png	186.0	25	61334.0	443	152
38	36_valpre	36	10-12-2019	18:46:48:485	rl	valpre	463	463	60	61541	00195.png	191.0	25	61534.0	407	109
39	36_valpre	36	10-12-2019	18:46:48:684	rl	valpre	475	475	60	61740	00200.png	196.0	25	61734.0	405	112
40	36_valpre	36	10-12-2019	18:46:48:883	rl	valpre	487	487	60	61939	00205.png	201.0	25	61934.0	409	115
41	36_valpre	36	10-12-2019	18:46:49:082	rl	valpre	499	499	60	62139	00210.png	206.0	25	62134.0	406	112
42	36_valpre	36	10-12-2019	18:46:49:282	rl	valpre	511	511	60	62338	00215.png	211.0	25	62334.0	396	125
43	36_valpre	36	10-12-2019	18:46:49:481	rl	valpre	523	523	60	62537	00220.png	216.0	25	62534.0	413	114
44	36_valpre	36	10-12-2019	18:46:49:680	rl	valpre	534	534	60	62736	00225.png	221.0	25	62734.0	405	119
45	36_valpre	36	10-12-2019	18:46:49:879	rl	valpre	545	545	60	62935	00230.png	226.0	25	62934.0	406	114
46	36_valpre	36	10-12-2019	18:46:50:078	rl	valpre	557	557	60	63134	00235.png	231.0	25	63134.0	407	112
47	36_valpre	36	10-12-2019	18:46:50:277	rl	valpre	569	569	60	63333	00240.png	236.0	25	63334.0	407	103
48	36_valpre	36	10-12-2019	18:46:50:476	rl	valpre	581	581	60	63532	00245.png	241.0	25	63534.0	406	107
49	36_valpre	36	10-12-2019	18:46:50:675	rl	valpre	593	593	60	63731	00250.png	246.0	25	63734.0	407	109
50	36_valpre	36	10-12-2019	18:46:50:874	rl	valpre	605	605	60	63930	00255.png	251.0	25	63934.0	406	109
51	36_valpre	36	10-12-2019	18:46:51:074	rl	valpre	617	617	60	64130	00260.png	256.0	25	64134.0	405	103
52	36_valpre	36	10-12-2019	18:46:51:273	rl	valpre	629	629	60	64329	00265.png	261.0	25	64334.0	402	105
53	36_valpre	36	10-12-2019	18:46:51:472	rl	valpre	641	641	60	64528	00270.png	266.0	25	64534.0	782	168
54	36_valpre	36	10-12-2019	18:46:51:671	rl	valpre	653	653	60	64727	00275.png	271.0	25	64734.0	764	127
55	36_valpre	36	10-12-2019	18:46:51:870	rl	valpre	665	665	60	64926	00280.png	276.0	25	64934.0	761	124
56	36_valpre	36	10-12-2019	18:46:52:070	rl	valpre	677	677	60	65126	00285.png	281.0	25	65134.0	765	121
57	36_valpre	36	10-12-2019	18:46:52:285	rl	valpre	690	690	60	65341	00290.png	286.0	25	65334.0	760	124
58	36_valpre	36	10-12-2019	18:46:52:484	rl	valpre	702	702	60	65541	00295.png	291.0	25	65534.0	744	130
59	36_valpre	36	10-12-2019	18:46:52:683	rl	valpre	714	714	60	65739	00300.png	296.0	25	65734.0	761	113
60	36_valpre	36	10-12-2019	18:46:52:882	rl	valpre	726	726	60	65939	00305.png	301.0	25	65934.0	758	91
61	36_valpre	36	10-12-2019	18:46:53:082	rl	valpre	738	738	60	66138	00310.png	306.0	25	66134.0	756	125
62	36_valpre	36	10-12-2019	18:46:53:281	rl	valpre	750	750	60	66337	00315.png	311.0	25	66334.0	763	107
63	36_valpre	36	10-12-2019	18:46:53:480	rl	valpre	761	761	60	66536	00320.png	316.0	25	66534.0	753	128
64	36_valpre	36	10-12-2019	18:46:53:679	rl	valpre	770	770	60	66735	00325.png	321.0	25	66734.0	750	129
65	36_valpre	36	10-12-2019	18:46:53:878	rl	valpre	782	782	60	66934	00330.png	326.0	25	66934.0	754	129
66	36_valpre	36	10-12-2019	18:46:54:077	rl	valpre	794	794	60	67134	00335.png	331.0	25	67134.0	765	117
67	36_valpre	36	10-12-2019	18:46:54:277	rl	valpre	806	806	60	67333	00340.png	336.0	25	67334.0	762	119
68	36_valpre	36	10-12-2019	18:46:54:476	rl	valpre	817	817	60	67532	00345.png	341.0	25	67534.0	758	121
69	36_valpre	36	10-12-2019	18:46:54:675	rl	valpre	829	829	60	67731	00350.png	346.0	25	67734.0	752	117
70	36_valpre	36	10-12-2019	18:46:54:874	rl	valpre	841	841	60	67930	00355.png	351.0	25	67934.0	768	114
71	36_valpre	36	10-12-2019	18:46:55:073	rl	valpre	853	853	60	68129	00360.png	356.0	25	68134.0	742	123
72	36_valpre	36	10-12-2019	18:46:55:272	rl	valpre	865	865	60	68328	00365.png	361.0	25	68334.0	600	-36
73	36_valpre	36	10-12-2019	18:46:55:471	rl	valpre	877	877	60	68527	00370.png	366.0	25	68534.0	672	-156
74	36_valpre	36	10-12-2019	18:46:55:670	rl	valpre	889	889	60	68727	00375.png	371.0	25	68734.0	770	-210
75	36_valpre	36	10-12-2019	18:46:55:870	rl	valpre	901	901	60	68926	00380.png	376.0	25	68934.0	769	-238
76	36_valpre	36	10-12-2019	18:46:56:085	rl	valpre	914	914	60	69141	00385.png	381.0	25	69134.0	0	0
77	36_valpre	36	10-12-2019	18:46:56:284	rl	valpre	926	926	60	69340	00390.png	386.0	25	69334.0	0	0
78	36_valpre	36	10-12-2019	18:46:56:484	rl	valpre	938	938	60	69540	00395.png	391.0	25	69534.0	763	-241
79	36_valpre	36	10-12-2019	18:46:56:683	rl	valpre	950	950	60	69739	00400.png	396.0	25	69734.0	0	0
80	36_valpre	36	10-12-2019	18:46:56:882	rl	valpre	962	962	60	69938	00405.png	401.0	25	69934.0	0	0
81	36_valpre	36	10-12-2019	18:46:57:081	rl	valpre	974	974	60	70137	00410.png	406.0	25	70134.0	0	0
82	36_valpre	36	10-12-2019	18:46:57:280	rl	valpre	983	983	60	70336	00415.png	411.0	25	70334.0	0	0
83	36_valpre	36	10-12-2019	18:46:57:496	rl	valpre	992	992	60	70552	00420.png	416.0	25	70534.0	595	-33
84	36_valpre	36	10-12-2019	18:46:57:679	rl	valpre	1003	1003	60	70735	00425.png	421.0	25	70734.0	650	62
85	36_valpre	36	10-12-2019	18:46:57:878	rl	valpre	1014	1014	60	70934	00430.png	426.0	25	70934.0	690	-108
86	36_valpre	36	10-12-2019	18:46:58:077	rl	valpre	1023	1023	60	71133	00435.png	431.0	25	71134.0	0	0
87	36_valpre	36	10-12-2019	18:46:58:276	rl	valpre	1031	1031	60	71332	00440.png	436.0	25	71334.0	591	-53
88	36_valpre	36	10-12-2019	18:46:58:475	rl	valpre	1043	1043	60	71531	00445.png	441.0	25	71534.0	609	-62
89	36_valpre	36	10-12-2019	18:46:58:674	rl	valpre	1055	1055	60	71730	00450.png	446.0	25	71734.0	589	-18
90	36_valpre	36	10-12-2019	18:46:58:873	rl	valpre	1065	1065	60	71929	00455.png	451.0	25	71934.0	432	136
91	36_valpre	36	10-12-2019	18:46:59:072	rl	valpre	1077	1077	60	72128	00460.png	456.0	25	72134.0	419	108
92	36_valpre	36	10-12-2019	18:46:59:272	rl	valpre	1089	1089	60	72328	00465.png	461.0	25	72334.0	420	106
93	36_valpre	36	10-12-2019	18:46:59:471	rl	valpre	1101	1101	60	72527	00470.png	466.0	25	72534.0	416	106
94	36_valpre	36	10-12-2019	18:46:59:670	rl	valpre	1113	1113	60	72726	00475.png	471.0	25	72734.0	416	95
95	36_valpre	36	10-12-2019	18:46:59:886	rl	valpre	1126	1126	60	72942	00480.png	476.0	25	72934.0	419	100
96	36_valpre	36	10-12-2019	18:47:00:085	rl	valpre	1138	1138	60	73141	00485.png	481.0	25	73134.0	416	105
97	36_valpre	36	10-12-2019	18:47:00:284	rl	valpre	1150	1150	60	73340	00490.png	486.0	25	73334.0	421	103
98	36_valpre	36	10-12-2019	18:47:00:483	rl	valpre	1162	1162	60	73539	00495.png	491.0	25	73534.0	420	95
99	36_valpre	36	10-12-2019	18:47:00:683	rl	valpre	1174	1174	60	73739	00500.png	496.0	25	73734.0	418	100
100	36_valpre	36	10-12-2019	18:47:00:881	rl	valpre	1186	1186	60	73938	00505.png	501.0	25	73934.0	419	101
101	36_valpre	36	10-12-2019	18:47:01:081	rl	valpre	1198	1198	60	74137	00510.png	506.0	25	74134.0	420	100
102	36_valpre	36	10-12-2019	18:47:01:280	rl	valpre	1210	1210	60	74336	00515.png	511.0	25	74334.0	422	94
103	36_valpre	36	10-12-2019	18:47:01:479	rl	valpre	1220	1220	60	74535	00520.png	516.0	25	74534.0	422	99
104	36_valpre	36	10-12-2019	18:47:01:678	rl	valpre	1232	1232	60	74734	00525.png	521.0	25	74734.0	422	100
105	36_valpre	36	10-12-2019	18:47:01:877	rl	valpre	1244	1244	60	74934	00530.png	526.0	25	74934.0	421	109
106	36_valpre	36	10-12-2019	18:47:02:076	rl	valpre	1256	1256	60	75132	00535.png	531.0	25	75134.0	425	94
107	36_valpre	36	10-12-2019	18:47:02:275	rl	valpre	1268	1268	60	75331	00540.png	536.0	25	75334.0	420	92
108	36_valpre	36	10-12-2019	18:47:02:475	rl	valpre	1280	1280	60	75531	00545.png	541.0	25	75534.0	794	155
109	36_valpre	36	10-12-2019	18:47:02:674	rl	valpre	1292	1292	60	75730	00550.png	546.0	25	75734.0	766	144
110	36_valpre	36	10-12-2019	18:47:02:873	rl	valpre	1304	1304	60	75929	00555.png	551.0	25	75934.0	764	145
111	36_valpre	36	10-12-2019	18:47:03:072	rl	valpre	1316	1316	60	76128	00560.png	556.0	25	76134.0	757	137
112	36_valpre	36	10-12-2019	18:47:03:271	rl	valpre	1327	1327	60	76327	00565.png	561.0	25	76334.0	763	128
113	36_valpre	36	10-12-2019	18:47:03:470	rl	valpre	1339	1339	60	76527	00570.png	566.0	25	76534.0	750	136
114	36_valpre	36	10-12-2019	18:47:03:686	rl	valpre	1352	1352	60	76742	00575.png	571.0	25	76734.0	749	150
115	36_valpre	36	10-12-2019	18:47:03:885	rl	valpre	1364	1364	60	76941	00580.png	576.0	25	76934.0	760	134
116	36_valpre	36	10-12-2019	18:47:04:084	rl	valpre	1376	1376	60	77140	00585.png	581.0	25	77134.0	758	137
117	36_valpre	36	10-12-2019	18:47:04:283	rl	valpre	1388	1388	60	77340	00590.png	586.0	25	77334.0	748	143
118	36_valpre	36	10-12-2019	18:47:04:483	rl	valpre	1400	1400	60	77539	00595.png	591.0	25	77534.0	760	135
119	36_valpre	36	10-12-2019	18:47:04:682	rl	valpre	1412	1412	60	77738	00600.png	596.0	25	77734.0	759	128
120	36_valpre	36	10-12-2019	18:47:04:881	rl	valpre	1424	1424	60	77937	00605.png	601.0	25	77934.0	755	136
121	36_valpre	36	10-12-2019	18:47:05:080	rl	valpre	1436	1436	60	78136	00610.png	606.0	25	78134.0	763	122
122	36_valpre	36	10-12-2019	18:47:05:279	rl	valpre	1444	1444	60	78335	00615.png	611.0	25	78334.0	766	123
123	36_valpre	36	10-12-2019	18:47:05:478	rl	valpre	1456	1456	60	78534	00620.png	616.0	25	78534.0	759	113
124	36_valpre	36	10-12-2019	18:47:05:678	rl	valpre	1468	1468	60	78734	00625.png	621.0	25	78734.0	753	125
125	36_valpre	36	10-12-2019	18:47:05:877	rl	valpre	1480	1480	60	78933	00630.png	626.0	25	78934.0	768	110
126	36_valpre	36	10-12-2019	18:47:06:076	rl	valpre	1492	1492	60	79132	00635.png	631.0	25	79134.0	754	126
127	36_valpre	36	10-12-2019	18:47:06:275	rl	valpre	1504	1504	60	79331	00640.png	636.0	25	79334.0	599	-56
128	36_valpre	36	10-12-2019	18:47:06:474	rl	valpre	1516	1516	60	79530	00645.png	641.0	25	79534.0	584	-20
129	36_valpre	36	10-12-2019	18:47:06:673	rl	valpre	1528	1528	60	79729	00650.png	646.0	25	79734.0	596	-34
130	36_valpre	36	10-12-2019	18:47:06:872	rl	valpre	1540	1540	60	79928	00655.png	651.0	25	79934.0	666	-127
131	36_valpre	36	10-12-2019	18:47:07:071	rl	valpre	1552	1552	60	80128	00660.png	656.0	25	80134.0	668	-120
132	36_valpre	36	10-12-2019	18:47:07:271	rl	valpre	1564	1564	60	80327	00665.png	661.0	25	80334.0	672	-118
133	36_valpre	36	10-12-2019	18:47:07:470	rl	valpre	1576	1576	60	80526	00670.png	666.0	25	80534.0	594	-52
134	36_valpre	36	10-12-2019	18:47:07:686	rl	valpre	1589	1589	60	80742	00675.png	671.0	25	80734.0	657	-126
135	36_valpre	36	10-12-2019	18:47:07:885	rl	valpre	1601	1601	60	80941	00680.png	676.0	25	80934.0	593	-62
136	36_valpre	36	10-12-2019	18:47:08:084	rl	valpre	1612	1612	60	81140	00685.png	681.0	25	81134.0	593	-50
137	36_valpre	36	10-12-2019	18:47:08:283	rl	valpre	1624	1624	60	81339	00690.png	686.0	25	81334.0	578	-95
138	36_valpre	36	10-12-2019	18:47:08:482	rl	valpre	1634	1634	60	81538	00695.png	691.0	25	81534.0	583	-71
139	36_valpre	36	10-12-2019	18:47:08:681	rl	valpre	1643	1643	60	81737	00700.png	696.0	25	81734.0	665	-128
140	36_valpre	36	10-12-2019	18:47:08:880	rl	valpre	1654	1654	60	81936	00705.png	701.0	25	81934.0	672	-138
141	36_valpre	36	10-12-2019	18:47:09:079	rl	valpre	1664	1664	60	82136	00710.png	706.0	25	82134.0	669	-145
142	36_valpre	36	10-12-2019	18:47:09:279	rl	valpre	1676	1676	60	82335	00715.png	711.0	25	82334.0	663	-157
143	36_valpre	36	10-12-2019	18:47:09:478	rl	valpre	1688	1688	60	82534	00720.png	716.0	25	82534.0	672	-149
144	36_valpre	36	10-12-2019	18:47:09:677	rl	valpre	1700	1700	60	82733	00725.png	721.0	25	82734.0	668	-159
145	36_valpre	36	10-12-2019	18:47:09:876	rl	valpre	1712	1712	60	82932	00730.png	726.0	25	82934.0	584	-77
146	36_valpre	36	10-12-2019	18:47:10:076	rl	valpre	1724	1724	60	83132	00735.png	731.0	25	83134.0	427	85
147	36_valpre	36	10-12-2019	18:47:10:275	rl	valpre	1736	1736	60	83331	00740.png	736.0	25	83334.0	412	83
148	36_valpre	36	10-12-2019	18:47:10:474	rl	valpre	1748	1748	60	83530	00745.png	741.0	25	83534.0	412	77
149	36_valpre	36	10-12-2019	18:47:10:673	rl	valpre	1760	1760	60	83729	00750.png	746.0	25	83734.0	408	77
150	36_valpre	36	10-12-2019	18:47:10:872	rl	valpre	1772	1772	60	83928	00755.png	751.0	25	83934.0	410	79
151	36_valpre	36	10-12-2019	18:47:11:071	rl	valpre	1784	1784	60	84127	00760.png	756.0	25	84134.0	412	86
152	36_valpre	36	10-12-2019	18:47:11:270	rl	valpre	1796	1796	60	84326	00765.png	761.0	25	84334.0	409	89
153	36_valpre	36	10-12-2019	18:47:11:470	rl	valpre	1808	1808	60	84526	00770.png	766.0	25	84534.0	410	82
154	36_valpre	36	10-12-2019	18:47:11:685	rl	valpre	1821	1821	60	84741	00775.png	771.0	25	84734.0	451	94
155	36_valpre	36	10-12-2019	18:47:11:884	rl	valpre	1833	1833	60	84940	00780.png	776.0	25	84934.0	409	83
156	36_valpre	36	10-12-2019	18:47:12:083	rl	valpre	1845	1845	60	85139	00785.png	781.0	25	85134.0	408	76
157	36_valpre	36	10-12-2019	18:47:12:283	rl	valpre	1857	1857	60	85339	00790.png	786.0	25	85334.0	406	67
158	36_valpre	36	10-12-2019	18:47:12:482	rl	valpre	1869	1869	60	85538	00795.png	791.0	25	85534.0	408	67
159	36_valpre	36	10-12-2019	18:47:12:681	rl	valpre	1881	1881	60	85737	00800.png	796.0	25	85734.0	410	67
160	36_valpre	36	10-12-2019	18:47:12:880	rl	valpre	1893	1893	60	85936	00805.png	801.0	25	85934.0	409	74
161	36_valpre	36	10-12-2019	18:47:13:079	rl	valpre	1902	1902	60	86135	00810.png	806.0	25	86134.0	412	64
162	36_valpre	36	10-12-2019	18:47:13:279	rl	valpre	1914	1914	60	86335	00815.png	811.0	25	86334.0	411	52
163	36_valpre	36	10-12-2019	18:47:13:478	rl	valpre	1926	1926	60	86534	00820.png	816.0	25	86534.0	404	66
164	36_valpre	36	10-12-2019	18:47:13:676	rl	valpre	1938	1938	60	86732	00825.png	821.0	25	86734.0	412	66
165	36_valpre	36	10-12-2019	18:47:13:876	rl	valpre	1950	1950	60	86932	00830.png	826.0	25	86934.0	410	66
166	36_valpre	36	10-12-2019	18:47:14:075	rl	valpre	1962	1962	60	87131	00835.png	831.0	25	87134.0	409	82
167	36_valpre	36	10-12-2019	18:47:14:274	rl	valpre	1974	1974	60	87330	00840.png	836.0	25	87334.0	728	126
168	36_valpre	36	10-12-2019	18:47:14:473	rl	valpre	1986	1986	60	87529	00845.png	841.0	25	87534.0	760	147
169	36_valpre	36	10-12-2019	18:47:14:672	rl	valpre	1998	1998	60	87729	00850.png	846.0	25	87734.0	763	112
170	36_valpre	36	10-12-2019	18:47:14:871	rl	valpre	2010	2010	60	87927	00855.png	851.0	25	87934.0	768	108
171	36_valpre	36	10-12-2019	18:47:15:071	rl	valpre	2022	2022	60	88127	00860.png	856.0	25	88134.0	758	118
