	subject_location	subject_id	date	daytime	setting_id	trial_id	sample_id	sample_n	sample_rate	sample_time_smi	frame_id	frame_n	frame_rate	frame_time_smi	fix_pos_x	fix_pos_y
0	39_rat	39	12-12-2019	19:02:31:649	rl	rat	625	625	60	2346462	00030.png	1.0	25	2346461.0	0	0
1	39_rat	39	12-12-2019	19:02:31:848	rl	rat	637	637	60	2346661	00035.png	6.0	25	2346661.0	309	335
2	39_rat	39	12-12-2019	19:02:32:047	rl	rat	649	649	60	2346860	00040.png	11.0	25	2346861.0	327	491
3	39_rat	39	12-12-2019	19:02:32:246	rl	rat	661	661	60	2347059	00045.png	16.0	25	2347061.0	546	467
4	39_rat	39	12-12-2019	19:02:32:445	rl	rat	673	673	60	2347258	00050.png	21.0	25	2347261.0	-285	-146
5	39_rat	39	12-12-2019	19:02:32:645	rl	rat	685	685	60	2347458	00055.png	26.0	25	2347461.0	-7863	-4786
6	39_rat	39	12-12-2019	19:02:32:844	rl	rat	697	697	60	2347657	00060.png	31.0	25	2347661.0	943	322
7	39_rat	39	12-12-2019	19:02:33:043	rl	rat	709	709	60	2347856	00065.png	36.0	25	2347861.0	-1603	-1101
8	39_rat	39	12-12-2019	19:02:33:242	rl	rat	721	721	60	2348055	00070.png	41.0	25	2348061.0	-54	-113
9	39_rat	39	12-12-2019	19:02:33:441	rl	rat	733	733	60	2348254	00075.png	46.0	25	2348261.0	1065	252
10	39_rat	39	12-12-2019	19:02:33:640	rl	rat	745	745	60	2348453	00080.png	51.0	25	2348461.0	1770	161
11	39_rat	39	12-12-2019	19:02:33:856	rl	rat	758	758	60	2348669	00085.png	56.0	25	2348661.0	1410	275
12	39_rat	39	12-12-2019	19:02:34:055	rl	rat	770	770	60	2348868	00090.png	61.0	25	2348861.0	1534	267
13	39_rat	39	12-12-2019	19:02:34:254	rl	rat	782	782	60	2349067	00095.png	66.0	25	2349061.0	56	289
14	39_rat	39	12-12-2019	19:02:34:454	rl	rat	794	794	60	2349266	00100.png	71.0	25	2349261.0	831	409
15	39_rat	39	12-12-2019	19:02:34:653	rl	rat	805	805	60	2349466	00105.png	76.0	25	2349461.0	722	335
16	39_rat	39	12-12-2019	19:02:34:852	rl	rat	816	816	60	2349664	00110.png	81.0	25	2349661.0	-696	-194
17	39_rat	39	12-12-2019	19:02:35:051	rl	rat	828	828	60	2349864	00115.png	86.0	25	2349861.0	559	803
18	39_rat	39	12-12-2019	19:02:35:250	rl	rat	840	840	60	2350063	00120.png	91.0	25	2350061.0	-3057	-186
19	39_rat	39	12-12-2019	19:02:35:449	rl	rat	852	852	60	2350262	00125.png	96.0	25	2350261.0	-5546	-966
20	39_rat	39	12-12-2019	19:02:35:648	rl	rat	864	864	60	2350461	00130.png	101.0	25	2350461.0	-787	14
21	39_rat	39	12-12-2019	19:02:35:848	rl	rat	876	876	60	2350660	00135.png	106.0	25	2350661.0	-765	22
22	39_rat	39	12-12-2019	19:02:36:047	rl	rat	888	888	60	2350859	00140.png	111.0	25	2350861.0	-251	177
23	39_rat	39	12-12-2019	19:02:36:245	rl	rat	900	900	60	2351058	00145.png	116.0	25	2351061.0	-3143	-914
24	39_rat	39	12-12-2019	19:02:36:445	rl	rat	912	912	60	2351257	00150.png	121.0	25	2351261.0	0	0
25	39_rat	39	12-12-2019	19:02:36:644	rl	rat	924	924	60	2351457	00155.png	126.0	25	2351461.0	1570	980
26	39_rat	39	12-12-2019	19:02:36:843	rl	rat	936	936	60	2351656	00160.png	131.0	25	2351661.0	1130	797
27	39_rat	39	12-12-2019	19:02:37:042	rl	rat	948	948	60	2351855	00165.png	136.0	25	2351861.0	501	256
28	39_rat	39	12-12-2019	19:02:37:241	rl	rat	960	960	60	2352054	00170.png	141.0	25	2352061.0	-707	99
29	39_rat	39	12-12-2019	19:02:37:440	rl	rat	972	972	60	2352253	00175.png	146.0	25	2352261.0	-247	270
30	39_rat	39	12-12-2019	19:02:37:640	rl	rat	984	984	60	2352453	00180.png	151.0	25	2352461.0	-437	193
31	39_rat	39	12-12-2019	19:02:37:856	rl	rat	997	997	60	2352669	00185.png	156.0	25	2352661.0	51	297
32	39_rat	39	12-12-2019	19:02:38:054	rl	rat	1009	1009	60	2352867	00190.png	161.0	25	2352861.0	-832	-24
33	39_rat	39	12-12-2019	19:02:38:254	rl	rat	1021	1021	60	2353067	00195.png	166.0	25	2353061.0	-7398	-2550
34	39_rat	39	12-12-2019	19:02:38:453	rl	rat	1033	1033	60	2353266	00200.png	171.0	25	2353261.0	-3984	-641
35	39_rat	39	12-12-2019	19:02:38:635	rl	rat	1042	1042	60	2353448	00205.png	176.0	25	2353461.0	14314	4539
36	39_rat	39	12-12-2019	19:02:38:851	rl	rat	1054	1054	60	2353664	00210.png	181.0	25	2353661.0	-429273	-150481
37	39_rat	39	12-12-2019	19:02:39:051	rl	rat	1066	1066	60	2353863	00215.png	186.0	25	2353861.0	328	418
38	39_rat	39	12-12-2019	19:02:39:249	rl	rat	1078	1078	60	2354062	00220.png	191.0	25	2354061.0	702	835
39	39_rat	39	12-12-2019	19:02:39:449	rl	rat	1090	1090	60	2354261	00225.png	196.0	25	2354261.0	768	786
40	39_rat	39	12-12-2019	19:02:39:648	rl	rat	1102	1102	60	2354461	00230.png	201.0	25	2354461.0	13918	5355
41	39_rat	39	12-12-2019	19:02:39:847	rl	rat	1114	1114	60	2354660	00235.png	206.0	25	2354661.0	-997	-259
42	39_rat	39	12-12-2019	19:02:40:046	rl	rat	1126	1126	60	2354859	00240.png	211.0	25	2354861.0	-1824	-565
43	39_rat	39	12-12-2019	19:02:40:245	rl	rat	1138	1138	60	2355058	00245.png	216.0	25	2355061.0	-4258	-1540
44	39_rat	39	12-12-2019	19:02:40:444	rl	rat	1150	1150	60	2355257	00250.png	221.0	25	2355261.0	232	206
45	39_rat	39	12-12-2019	19:02:40:643	rl	rat	1162	1162	60	2355456	00255.png	226.0	25	2355461.0	-1338	-426
46	39_rat	39	12-12-2019	19:02:40:843	rl	rat	1174	1174	60	2355655	00260.png	231.0	25	2355661.0	-6116	-2620
47	39_rat	39	12-12-2019	19:02:41:042	rl	rat	1186	1186	60	2355855	00265.png	236.0	25	2355861.0	1294	888
48	39_rat	39	12-12-2019	19:02:41:241	rl	rat	1198	1198	60	2356053	00270.png	241.0	25	2356061.0	2519	1237
49	39_rat	39	12-12-2019	19:02:41:440	rl	rat	1210	1210	60	2356253	00275.png	246.0	25	2356261.0	0	0
50	39_rat	39	12-12-2019	19:02:41:656	rl	rat	1223	1223	60	2356469	00280.png	251.0	25	2356461.0	1531	844
51	39_rat	39	12-12-2019	19:02:41:855	rl	rat	1235	1235	60	2356668	00285.png	256.0	25	2356661.0	1654	884
52	39_rat	39	12-12-2019	19:02:42:054	rl	rat	1247	1247	60	2356867	00290.png	261.0	25	2356861.0	2308	2049
53	39_rat	39	12-12-2019	19:02:42:253	rl	rat	1259	1259	60	2357066	00295.png	266.0	25	2357061.0	363	295
54	39_rat	39	12-12-2019	19:02:42:452	rl	rat	1270	1270	60	2357265	00300.png	271.0	25	2357261.0	-379	-15
55	39_rat	39	12-12-2019	19:02:42:652	rl	rat	1281	1281	60	2357464	00305.png	276.0	25	2357461.0	-271	29
56	39_rat	39	12-12-2019	19:02:42:851	rl	rat	1293	1293	60	2357664	00310.png	281.0	25	2357661.0	641	248
57	39_rat	39	12-12-2019	19:02:43:050	rl	rat	1305	1305	60	2357863	00315.png	286.0	25	2357861.0	-226	-177
58	39_rat	39	12-12-2019	19:02:43:249	rl	rat	1317	1317	60	2358062	00320.png	291.0	25	2358061.0	-556	-340
59	39_rat	39	12-12-2019	19:02:43:448	rl	rat	1329	1329	60	2358261	00325.png	296.0	25	2358261.0	4744	2881
60	39_rat	39	12-12-2019	19:02:43:647	rl	rat	1341	1341	60	2358460	00330.png	301.0	25	2358461.0	3782	1932
61	39_rat	39	12-12-2019	19:02:43:847	rl	rat	1353	1353	60	2358660	00335.png	306.0	25	2358661.0	2893	1562
62	39_rat	39	12-12-2019	19:02:44:046	rl	rat	1365	1365	60	2358858	00340.png	311.0	25	2358861.0	1564	939
63	39_rat	39	12-12-2019	19:02:44:245	rl	rat	1377	1377	60	2359057	00345.png	316.0	25	2359061.0	1554	947
64	39_rat	39	12-12-2019	19:02:44:444	rl	rat	1389	1389	60	2359256	00350.png	321.0	25	2359261.0	1739	1007
65	39_rat	39	12-12-2019	19:02:44:643	rl	rat	1401	1401	60	2359456	00355.png	326.0	25	2359461.0	2644	1343
66	39_rat	39	12-12-2019	19:02:44:842	rl	rat	1413	1413	60	2359655	00360.png	331.0	25	2359661.0	1438	853
67	39_rat	39	12-12-2019	19:02:45:041	rl	rat	1425	1425	60	2359854	00365.png	336.0	25	2359861.0	1688	931
68	39_rat	39	12-12-2019	19:02:45:241	rl	rat	1437	1437	60	2360054	00370.png	341.0	25	2360061.0	1681	935
69	39_rat	39	12-12-2019	19:02:45:440	rl	rat	1449	1449	60	2360253	00375.png	346.0	25	2360261.0	-5	54
70	39_rat	39	12-12-2019	19:02:45:655	rl	rat	1462	1462	60	2360468	00380.png	351.0	25	2360461.0	64	81
71	39_rat	39	12-12-2019	19:02:45:854	rl	rat	1474	1474	60	2360667	00385.png	356.0	25	2360661.0	-1622	-1117
72	39_rat	39	12-12-2019	19:02:46:054	rl	rat	1486	1486	60	2360866	00390.png	361.0	25	2360861.0	772	250
73	39_rat	39	12-12-2019	19:02:46:252	rl	rat	1497	1497	60	2361065	00395.png	366.0	25	2361061.0	229	-18
74	39_rat	39	12-12-2019	19:02:46:452	rl	rat	1509	1509	60	2361265	00400.png	371.0	25	2361261.0	-3723	-2560
75	39_rat	39	12-12-2019	19:02:46:651	rl	rat	1521	1521	60	2361464	00405.png	376.0	25	2361461.0	-1512	-1074
76	39_rat	39	12-12-2019	19:02:46:850	rl	rat	1533	1533	60	2361663	00410.png	381.0	25	2361661.0	765	285
77	39_rat	39	12-12-2019	19:02:47:049	rl	rat	1545	1545	60	2361862	00415.png	386.0	25	2361861.0	-1741	-534
78	39_rat	39	12-12-2019	19:02:47:248	rl	rat	1557	1557	60	2362061	00420.png	391.0	25	2362061.0	-1560	-471
79	39_rat	39	12-12-2019	19:02:47:448	rl	rat	1569	1569	60	2362261	00425.png	396.0	25	2362261.0	-536	-103
80	39_rat	39	12-12-2019	19:02:47:647	rl	rat	1581	1581	60	2362460	00430.png	401.0	25	2362461.0	-424	0
81	39_rat	39	12-12-2019	19:02:47:846	rl	rat	1593	1593	60	2362659	00435.png	406.0	25	2362661.0	-562	-18
82	39_rat	39	12-12-2019	19:02:48:045	rl	rat	1605	1605	60	2362858	00440.png	411.0	25	2362861.0	-1311	-331
83	39_rat	39	12-12-2019	19:02:48:244	rl	rat	1617	1617	60	2363057	00445.png	416.0	25	2363061.0	-656	-64
84	39_rat	39	12-12-2019	19:02:48:443	rl	rat	1629	1629	60	2363256	00450.png	421.0	25	2363261.0	-618	-55
85	39_rat	39	12-12-2019	19:02:48:642	rl	rat	1641	1641	60	2363455	00455.png	426.0	25	2363461.0	-456	4
86	39_rat	39	12-12-2019	19:02:48:842	rl	rat	1653	1653	60	2363654	00460.png	431.0	25	2363661.0	-396	37
87	39_rat	39	12-12-2019	19:02:49:041	rl	rat	1665	1665	60	2363854	00465.png	436.0	25	2363861.0	-417	46
88	39_rat	39	12-12-2019	19:02:49:240	rl	rat	1677	1677	60	2364053	00470.png	441.0	25	2364061.0	-411	60
89	39_rat	39	12-12-2019	19:02:49:456	rl	rat	1690	1690	60	2364268	00475.png	446.0	25	2364261.0	-1213	-310
90	39_rat	39	12-12-2019	19:02:49:655	rl	rat	1702	1702	60	2364467	00480.png	451.0	25	2364461.0	-616	-25
91	39_rat	39	12-12-2019	19:02:49:854	rl	rat	1714	1714	60	2364667	00485.png	456.0	25	2364661.0	-553	8
92	39_rat	39	12-12-2019	19:02:50:053	rl	rat	1726	1726	60	2364866	00490.png	461.0	25	2364861.0	-516	25
93	39_rat	39	12-12-2019	19:02:50:252	rl	rat	1735	1735	60	2365065	00495.png	466.0	25	2365061.0	-567	1
94	39_rat	39	12-12-2019	19:02:50:451	rl	rat	1747	1747	60	2365264	00500.png	471.0	25	2365261.0	-516	15
95	39_rat	39	12-12-2019	19:02:50:651	rl	rat	1759	1759	60	2365463	00505.png	476.0	25	2365461.0	-884	-147
96	39_rat	39	12-12-2019	19:02:50:850	rl	rat	1771	1771	60	2365663	00510.png	481.0	25	2365661.0	-976	-200
97	39_rat	39	12-12-2019	19:02:51:049	rl	rat	1783	1783	60	2365862	00515.png	486.0	25	2365861.0	-895	-164
98	39_rat	39	12-12-2019	19:02:51:248	rl	rat	1795	1795	60	2366061	00520.png	491.0	25	2366061.0	-1379	-393
99	39_rat	39	12-12-2019	19:02:51:447	rl	rat	1807	1807	60	2366260	00525.png	496.0	25	2366261.0	-660	-90
100	39_rat	39	12-12-2019	19:02:51:646	rl	rat	1819	1819	60	2366459	00530.png	501.0	25	2366461.0	-590	-59
101	39_rat	39	12-12-2019	19:02:51:846	rl	rat	1831	1831	60	2366658	00535.png	506.0	25	2366661.0	-401	28
102	39_rat	39	12-12-2019	19:02:52:045	rl	rat	1843	1843	60	2366857	00540.png	511.0	25	2366861.0	-288	92
103	39_rat	39	12-12-2019	19:02:52:244	rl	rat	1855	1855	60	2367056	00545.png	516.0	25	2367061.0	-413	30
104	39_rat	39	12-12-2019	19:02:52:443	rl	rat	1867	1867	60	2367256	00550.png	521.0	25	2367261.0	0	0
105	39_rat	39	12-12-2019	19:02:52:642	rl	rat	1879	1879	60	2367455	00555.png	526.0	25	2367461.0	0	0
106	39_rat	39	12-12-2019	19:02:52:841	rl	rat	1891	1891	60	2367654	00560.png	531.0	25	2367661.0	117	192
107	39_rat	39	12-12-2019	19:02:53:040	rl	rat	1903	1903	60	2367853	00565.png	536.0	25	2367861.0	24	198
108	39_rat	39	12-12-2019	19:02:53:256	rl	rat	1916	1916	60	2368069	00570.png	541.0	25	2368061.0	0	0
109	39_rat	39	12-12-2019	19:02:53:455	rl	rat	1928	1928	60	2368268	00575.png	546.0	25	2368261.0	0	0
110	39_rat	39	12-12-2019	19:02:53:654	rl	rat	1940	1940	60	2368467	00580.png	551.0	25	2368461.0	195	245
111	39_rat	39	12-12-2019	19:02:53:853	rl	rat	1952	1952	60	2368666	00585.png	556.0	25	2368661.0	67	228
112	39_rat	39	12-12-2019	19:02:54:053	rl	rat	1963	1963	60	2368866	00590.png	561.0	25	2368861.0	-644	-80
113	39_rat	39	12-12-2019	19:02:54:252	rl	rat	1973	1973	60	2369064	00595.png	566.0	25	2369061.0	-654	-78
114	39_rat	39	12-12-2019	19:02:54:451	rl	rat	1985	1985	60	2369264	00600.png	571.0	25	2369261.0	-93	167
115	39_rat	39	12-12-2019	19:02:54:650	rl	rat	1997	1997	60	2369463	00605.png	576.0	25	2369461.0	6	199
116	39_rat	39	12-12-2019	19:02:54:850	rl	rat	2009	2009	60	2369662	00610.png	581.0	25	2369661.0	-42	166
117	39_rat	39	12-12-2019	19:02:55:048	rl	rat	2021	2021	60	2369861	00615.png	586.0	25	2369861.0	-172	101
118	39_rat	39	12-12-2019	19:02:55:248	rl	rat	2033	2033	60	2370060	00620.png	591.0	25	2370061.0	-195	89
119	39_rat	39	12-12-2019	19:02:55:447	rl	rat	2045	2045	60	2370260	00625.png	596.0	25	2370261.0	-210	77
120	39_rat	39	12-12-2019	19:02:55:646	rl	rat	2057	2057	60	2370459	00630.png	601.0	25	2370461.0	-726	-177
121	39_rat	39	12-12-2019	19:02:55:845	rl	rat	2069	2069	60	2370658	00635.png	606.0	25	2370661.0	-554	-106
122	39_rat	39	12-12-2019	19:02:56:044	rl	rat	2081	2081	60	2370857	00640.png	611.0	25	2370861.0	-1354	-380
123	39_rat	39	12-12-2019	19:02:56:243	rl	rat	2093	2093	60	2371056	00645.png	616.0	25	2371061.0	-999	-240
124	39_rat	39	12-12-2019	19:02:56:442	rl	rat	2105	2105	60	2371255	00650.png	621.0	25	2371261.0	0	0
125	39_rat	39	12-12-2019	19:02:56:641	rl	rat	2117	2117	60	2371454	00655.png	626.0	25	2371461.0	-67	142
126	39_rat	39	12-12-2019	19:02:56:840	rl	rat	2129	2129	60	2371653	00660.png	631.0	25	2371661.0	-90	136
127	39_rat	39	12-12-2019	19:02:57:057	rl	rat	2142	2142	60	2371869	00665.png	636.0	25	2371861.0	-10	174
128	39_rat	39	12-12-2019	19:02:57:256	rl	rat	2154	2154	60	2372069	00670.png	641.0	25	2372061.0	-48	152
129	39_rat	39	12-12-2019	19:02:57:455	rl	rat	2166	2166	60	2372268	00675.png	646.0	25	2372261.0	-17	156
130	39_rat	39	12-12-2019	19:02:57:654	rl	rat	2178	2178	60	2372467	00680.png	651.0	25	2372461.0	21	170
131	39_rat	39	12-12-2019	19:02:57:853	rl	rat	2189	2189	60	2372666	00685.png	656.0	25	2372661.0	78	202
132	39_rat	39	12-12-2019	19:02:58:052	rl	rat	2200	2200	60	2372865	00690.png	661.0	25	2372861.0	762	1837
133	39_rat	39	12-12-2019	19:02:58:251	rl	rat	2212	2212	60	2373064	00695.png	666.0	25	2373061.0	-504	-24
134	39_rat	39	12-12-2019	19:02:58:450	rl	rat	2224	2224	60	2373263	00700.png	671.0	25	2373261.0	-511	-42
135	39_rat	39	12-12-2019	19:02:58:649	rl	rat	2236	2236	60	2373462	00705.png	676.0	25	2373461.0	-482	-52
136	39_rat	39	12-12-2019	19:02:58:849	rl	rat	2248	2248	60	2373661	00710.png	681.0	25	2373661.0	-422	-48
137	39_rat	39	12-12-2019	19:02:59:048	rl	rat	2260	2260	60	2373861	00715.png	686.0	25	2373861.0	-261	24
138	39_rat	39	12-12-2019	19:02:59:247	rl	rat	2272	2272	60	2374060	00720.png	691.0	25	2374061.0	-178	45
139	39_rat	39	12-12-2019	19:02:59:446	rl	rat	2284	2284	60	2374259	00725.png	696.0	25	2374261.0	-162	30
140	39_rat	39	12-12-2019	19:02:59:645	rl	rat	2296	2296	60	2374458	00730.png	701.0	25	2374461.0	0	0
141	39_rat	39	12-12-2019	19:02:59:845	rl	rat	2308	2308	60	2374657	00735.png	706.0	25	2374661.0	-71	112
142	39_rat	39	12-12-2019	19:03:00:044	rl	rat	2320	2320	60	2374856	00740.png	711.0	25	2374861.0	47	152
143	39_rat	39	12-12-2019	19:03:00:243	rl	rat	2332	2332	60	2375055	00745.png	716.0	25	2375061.0	56	159
144	39_rat	39	12-12-2019	19:03:00:442	rl	rat	2344	2344	60	2375255	00750.png	721.0	25	2375261.0	-200	64
145	39_rat	39	12-12-2019	19:03:00:641	rl	rat	2356	2356	60	2375454	00755.png	726.0	25	2375461.0	-509	-80
146	39_rat	39	12-12-2019	19:03:00:840	rl	rat	2368	2368	60	2375653	00760.png	731.0	25	2375661.0	798	423
147	39_rat	39	12-12-2019	19:03:01:056	rl	rat	2381	2381	60	2375869	00765.png	736.0	25	2375861.0	70	178
148	39_rat	39	12-12-2019	19:03:01:255	rl	rat	2393	2393	60	2376068	00770.png	741.0	25	2376061.0	40	112
149	39_rat	39	12-12-2019	19:03:01:454	rl	rat	2405	2405	60	2376267	00775.png	746.0	25	2376261.0	-148	26
