	subject_location	subject_id	date	daytime	setting_id	trial_id	sample_id	sample_n	sample_rate	sample_time_smi	frame_id	frame_n	frame_rate	frame_time_smi	fix_pos_x	fix_pos_y
0	39_valpost	39	12-12-2019	19:27:35:347	rl	valpost	11	11	60	3850158	00005.png	1.0	25	3850151.0	784	388
1	39_valpost	39	12-12-2019	19:27:35:546	rl	valpost	23	23	60	3850357	00010.png	6.0	25	3850351.0	783	386
2	39_valpost	39	12-12-2019	19:27:35:745	rl	valpost	35	35	60	3850556	00015.png	11.0	25	3850551.0	783	388
3	39_valpost	39	12-12-2019	19:27:35:945	rl	valpost	47	47	60	3850755	00020.png	16.0	25	3850751.0	780	391
4	39_valpost	39	12-12-2019	19:27:36:144	rl	valpost	59	59	60	3850954	00025.png	21.0	25	3850951.0	778	392
5	39_valpost	39	12-12-2019	19:27:36:343	rl	valpost	71	71	60	3851153	00030.png	26.0	25	3851151.0	777	395
6	39_valpost	39	12-12-2019	19:27:36:542	rl	valpost	83	83	60	3851352	00035.png	31.0	25	3851351.0	774	398
7	39_valpost	39	12-12-2019	19:27:36:741	rl	valpost	95	95	60	3851552	00040.png	36.0	25	3851551.0	775	394
8	39_valpost	39	12-12-2019	19:27:36:940	rl	valpost	107	107	60	3851751	00045.png	41.0	25	3851751.0	774	394
9	39_valpost	39	12-12-2019	19:27:37:139	rl	valpost	119	119	60	3851950	00050.png	46.0	25	3851951.0	773	401
10	39_valpost	39	12-12-2019	19:27:37:338	rl	valpost	131	131	60	3852149	00055.png	51.0	25	3852151.0	771	402
11	39_valpost	39	12-12-2019	19:27:37:554	rl	valpost	140	140	60	3852365	00060.png	56.0	25	3852351.0	770	402
12	39_valpost	39	12-12-2019	19:27:37:737	rl	valpost	151	151	60	3852547	00065.png	61.0	25	3852551.0	767	394
13	39_valpost	39	12-12-2019	19:27:37:936	rl	valpost	163	163	60	3852747	00070.png	66.0	25	3852751.0	768	393
14	39_valpost	39	12-12-2019	19:27:38:135	rl	valpost	175	175	60	3852946	00075.png	71.0	25	3852951.0	771	400
15	39_valpost	39	12-12-2019	19:27:38:334	rl	valpost	187	187	60	3853145	00080.png	76.0	25	3853151.0	769	396
16	39_valpost	39	12-12-2019	19:27:38:534	rl	valpost	199	199	60	3853344	00085.png	81.0	25	3853351.0	771	394
17	39_valpost	39	12-12-2019	19:27:38:733	rl	valpost	211	211	60	3853544	00090.png	86.0	25	3853551.0	618	264
18	39_valpost	39	12-12-2019	19:27:38:948	rl	valpost	224	224	60	3853759	00095.png	91.0	25	3853751.0	577	282
19	39_valpost	39	12-12-2019	19:27:39:148	rl	valpost	236	236	60	3853958	00100.png	96.0	25	3853951.0	583	283
20	39_valpost	39	12-12-2019	19:27:39:346	rl	valpost	248	248	60	3854157	00105.png	101.0	25	3854151.0	618	294
21	39_valpost	39	12-12-2019	19:27:39:546	rl	valpost	260	260	60	3854356	00110.png	106.0	25	3854351.0	617	291
22	39_valpost	39	12-12-2019	19:27:39:745	rl	valpost	272	272	60	3854556	00115.png	111.0	25	3854551.0	621	287
23	39_valpost	39	12-12-2019	19:27:39:944	rl	valpost	284	284	60	3854755	00120.png	116.0	25	3854751.0	628	295
24	39_valpost	39	12-12-2019	19:27:40:143	rl	valpost	296	296	60	3854954	00125.png	121.0	25	3854951.0	623	312
25	39_valpost	39	12-12-2019	19:27:40:342	rl	valpost	308	308	60	3855153	00130.png	126.0	25	3855151.0	623	319
26	39_valpost	39	12-12-2019	19:27:40:541	rl	valpost	320	320	60	3855352	00135.png	131.0	25	3855351.0	619	320
27	39_valpost	39	12-12-2019	19:27:40:741	rl	valpost	332	332	60	3855551	00140.png	136.0	25	3855551.0	617	337
28	39_valpost	39	12-12-2019	19:27:40:940	rl	valpost	344	344	60	3855750	00145.png	141.0	25	3855751.0	615	352
29	39_valpost	39	12-12-2019	19:27:41:139	rl	valpost	356	356	60	3855950	00150.png	146.0	25	3855951.0	608	351
30	39_valpost	39	12-12-2019	19:27:41:355	rl	valpost	368	368	60	3856165	00155.png	151.0	25	3856151.0	610	349
31	39_valpost	39	12-12-2019	19:27:41:537	rl	valpost	377	377	60	3856348	00160.png	156.0	25	3856351.0	609	346
32	39_valpost	39	12-12-2019	19:27:41:737	rl	valpost	389	389	60	3856547	00165.png	161.0	25	3856551.0	608	345
33	39_valpost	39	12-12-2019	19:27:41:935	rl	valpost	401	401	60	3856746	00170.png	166.0	25	3856751.0	604	342
34	39_valpost	39	12-12-2019	19:27:42:134	rl	valpost	413	413	60	3856945	00175.png	171.0	25	3856951.0	602	335
35	39_valpost	39	12-12-2019	19:27:42:334	rl	valpost	425	425	60	3857144	00180.png	176.0	25	3857151.0	0	0
36	39_valpost	39	12-12-2019	19:27:42:533	rl	valpost	437	437	60	3857343	00185.png	181.0	25	3857351.0	463	477
37	39_valpost	39	12-12-2019	19:27:42:732	rl	valpost	449	449	60	3857543	00190.png	186.0	25	3857551.0	508	477
38	39_valpost	39	12-12-2019	19:27:42:948	rl	valpost	462	462	60	3857759	00195.png	191.0	25	3857751.0	513	474
39	39_valpost	39	12-12-2019	19:27:43:147	rl	valpost	474	474	60	3857958	00200.png	196.0	25	3857951.0	513	458
40	39_valpost	39	12-12-2019	19:27:43:346	rl	valpost	486	486	60	3858156	00205.png	201.0	25	3858151.0	516	452
41	39_valpost	39	12-12-2019	19:27:43:545	rl	valpost	498	498	60	3858356	00210.png	206.0	25	3858351.0	516	440
42	39_valpost	39	12-12-2019	19:27:43:744	rl	valpost	510	510	60	3858555	00215.png	211.0	25	3858551.0	518	437
43	39_valpost	39	12-12-2019	19:27:43:943	rl	valpost	522	522	60	3858754	00220.png	216.0	25	3858751.0	515	444
44	39_valpost	39	12-12-2019	19:27:44:143	rl	valpost	534	534	60	3858953	00225.png	221.0	25	3858951.0	514	445
45	39_valpost	39	12-12-2019	19:27:44:342	rl	valpost	546	546	60	3859153	00230.png	226.0	25	3859151.0	516	439
46	39_valpost	39	12-12-2019	19:27:44:541	rl	valpost	558	558	60	3859351	00235.png	231.0	25	3859351.0	516	435
47	39_valpost	39	12-12-2019	19:27:44:740	rl	valpost	570	570	60	3859550	00240.png	236.0	25	3859551.0	515	442
48	39_valpost	39	12-12-2019	19:27:44:939	rl	valpost	582	582	60	3859750	00245.png	241.0	25	3859751.0	516	437
49	39_valpost	39	12-12-2019	19:27:45:139	rl	valpost	593	593	60	3859949	00250.png	246.0	25	3859951.0	515	442
50	39_valpost	39	12-12-2019	19:27:45:338	rl	valpost	602	602	60	3860148	00255.png	251.0	25	3860151.0	513	436
51	39_valpost	39	12-12-2019	19:27:45:536	rl	valpost	613	613	60	3860347	00260.png	256.0	25	3860351.0	516	434
52	39_valpost	39	12-12-2019	19:27:45:736	rl	valpost	625	625	60	3860546	00265.png	261.0	25	3860551.0	519	439
53	39_valpost	39	12-12-2019	19:27:45:935	rl	valpost	637	637	60	3860745	00270.png	266.0	25	3860751.0	517	437
54	39_valpost	39	12-12-2019	19:27:46:134	rl	valpost	649	649	60	3860945	00275.png	271.0	25	3860951.0	514	438
55	39_valpost	39	12-12-2019	19:27:46:333	rl	valpost	661	661	60	3861144	00280.png	276.0	25	3861151.0	516	438
56	39_valpost	39	12-12-2019	19:27:46:532	rl	valpost	673	673	60	3861343	00285.png	281.0	25	3861351.0	260	3661
57	39_valpost	39	12-12-2019	19:27:46:748	rl	valpost	686	686	60	3861559	00290.png	286.0	25	3861551.0	832	412
58	39_valpost	39	12-12-2019	19:27:46:947	rl	valpost	698	698	60	3861758	00295.png	291.0	25	3861751.0	762	420
59	39_valpost	39	12-12-2019	19:27:47:146	rl	valpost	710	710	60	3861957	00300.png	296.0	25	3861951.0	735	409
60	39_valpost	39	12-12-2019	19:27:47:346	rl	valpost	722	722	60	3862156	00305.png	301.0	25	3862151.0	737	418
61	39_valpost	39	12-12-2019	19:27:47:545	rl	valpost	734	734	60	3862355	00310.png	306.0	25	3862351.0	736	414
62	39_valpost	39	12-12-2019	19:27:47:744	rl	valpost	746	746	60	3862554	00315.png	311.0	25	3862551.0	732	407
63	39_valpost	39	12-12-2019	19:27:47:943	rl	valpost	758	758	60	3862754	00320.png	316.0	25	3862751.0	728	403
64	39_valpost	39	12-12-2019	19:27:48:142	rl	valpost	770	770	60	3862953	00325.png	321.0	25	3862951.0	727	407
65	39_valpost	39	12-12-2019	19:27:48:341	rl	valpost	782	782	60	3863152	00330.png	326.0	25	3863151.0	727	412
66	39_valpost	39	12-12-2019	19:27:48:540	rl	valpost	794	794	60	3863351	00335.png	331.0	25	3863351.0	728	426
67	39_valpost	39	12-12-2019	19:27:48:739	rl	valpost	806	806	60	3863550	00340.png	336.0	25	3863551.0	729	432
68	39_valpost	39	12-12-2019	19:27:48:939	rl	valpost	818	818	60	3863749	00345.png	341.0	25	3863751.0	732	415
69	39_valpost	39	12-12-2019	19:27:49:139	rl	valpost	829	829	60	3863949	00350.png	346.0	25	3863951.0	731	414
70	39_valpost	39	12-12-2019	19:27:49:337	rl	valpost	839	839	60	3864148	00355.png	351.0	25	3864151.0	730	424
71	39_valpost	39	12-12-2019	19:27:49:536	rl	valpost	850	850	60	3864347	00360.png	356.0	25	3864351.0	734	424
72	39_valpost	39	12-12-2019	19:27:49:735	rl	valpost	862	862	60	3864546	00365.png	361.0	25	3864551.0	739	426
73	39_valpost	39	12-12-2019	19:27:49:934	rl	valpost	874	874	60	3864745	00370.png	366.0	25	3864751.0	745	411
74	39_valpost	39	12-12-2019	19:27:50:134	rl	valpost	886	886	60	3864944	00375.png	371.0	25	3864951.0	745	408
75	39_valpost	39	12-12-2019	19:27:50:333	rl	valpost	898	898	60	3865143	00380.png	376.0	25	3865151.0	741	408
76	39_valpost	39	12-12-2019	19:27:50:548	rl	valpost	910	910	60	3865359	00385.png	381.0	25	3865351.0	743	407
77	39_valpost	39	12-12-2019	19:27:50:748	rl	valpost	922	922	60	3865558	00390.png	386.0	25	3865551.0	741	411
78	39_valpost	39	12-12-2019	19:27:50:947	rl	valpost	934	934	60	3865757	00395.png	391.0	25	3865751.0	743	404
79	39_valpost	39	12-12-2019	19:27:51:146	rl	valpost	946	946	60	3865956	00400.png	396.0	25	3865951.0	748	415
80	39_valpost	39	12-12-2019	19:27:51:345	rl	valpost	958	958	60	3866156	00405.png	401.0	25	3866151.0	752	421
81	39_valpost	39	12-12-2019	19:27:51:544	rl	valpost	970	970	60	3866355	00410.png	406.0	25	3866351.0	575	308
82	39_valpost	39	12-12-2019	19:27:51:743	rl	valpost	982	982	60	3866554	00415.png	411.0	25	3866551.0	602	316
83	39_valpost	39	12-12-2019	19:27:51:943	rl	valpost	994	994	60	3866753	00420.png	416.0	25	3866751.0	613	318
84	39_valpost	39	12-12-2019	19:27:52:142	rl	valpost	1006	1006	60	3866953	00425.png	421.0	25	3866951.0	615	316
85	39_valpost	39	12-12-2019	19:27:52:341	rl	valpost	1018	1018	60	3867152	00430.png	426.0	25	3867151.0	618	319
86	39_valpost	39	12-12-2019	19:27:52:540	rl	valpost	1030	1030	60	3867351	00435.png	431.0	25	3867351.0	619	320
87	39_valpost	39	12-12-2019	19:27:52:739	rl	valpost	1042	1042	60	3867550	00440.png	436.0	25	3867551.0	618	328
88	39_valpost	39	12-12-2019	19:27:52:955	rl	valpost	1054	1054	60	3867766	00445.png	441.0	25	3867751.0	620	324
89	39_valpost	39	12-12-2019	19:27:53:138	rl	valpost	1062	1062	60	3867948	00450.png	446.0	25	3867951.0	618	320
90	39_valpost	39	12-12-2019	19:27:53:337	rl	valpost	1074	1074	60	3868147	00455.png	451.0	25	3868151.0	620	325
91	39_valpost	39	12-12-2019	19:27:53:536	rl	valpost	1086	1086	60	3868346	00460.png	456.0	25	3868351.0	625	331
92	39_valpost	39	12-12-2019	19:27:53:735	rl	valpost	1098	1098	60	3868545	00465.png	461.0	25	3868551.0	626	333
93	39_valpost	39	12-12-2019	19:27:53:934	rl	valpost	1110	1110	60	3868744	00470.png	466.0	25	3868751.0	625	336
94	39_valpost	39	12-12-2019	19:27:54:133	rl	valpost	1122	1122	60	3868944	00475.png	471.0	25	3868951.0	624	339
95	39_valpost	39	12-12-2019	19:27:54:333	rl	valpost	1134	1134	60	3869143	00480.png	476.0	25	3869151.0	623	343
96	39_valpost	39	12-12-2019	19:27:54:548	rl	valpost	1147	1147	60	3869358	00485.png	481.0	25	3869351.0	619	343
97	39_valpost	39	12-12-2019	19:27:54:747	rl	valpost	1159	1159	60	3869558	00490.png	486.0	25	3869551.0	619	340
98	39_valpost	39	12-12-2019	19:27:54:946	rl	valpost	1171	1171	60	3869757	00495.png	491.0	25	3869751.0	619	338
99	39_valpost	39	12-12-2019	19:27:55:145	rl	valpost	1183	1183	60	3869956	00500.png	496.0	25	3869951.0	619	334
100	39_valpost	39	12-12-2019	19:27:55:344	rl	valpost	1195	1195	60	3870155	00505.png	501.0	25	3870151.0	588	329
101	39_valpost	39	12-12-2019	19:27:55:544	rl	valpost	1207	1207	60	3870354	00510.png	506.0	25	3870351.0	608	308
102	39_valpost	39	12-12-2019	19:27:55:743	rl	valpost	1219	1219	60	3870554	00515.png	511.0	25	3870551.0	522	474
103	39_valpost	39	12-12-2019	19:27:55:942	rl	valpost	1231	1231	60	3870752	00520.png	516.0	25	3870751.0	575	445
104	39_valpost	39	12-12-2019	19:27:56:141	rl	valpost	1243	1243	60	3870952	00525.png	521.0	25	3870951.0	569	435
105	39_valpost	39	12-12-2019	19:27:56:341	rl	valpost	1255	1255	60	3871151	00530.png	526.0	25	3871151.0	574	432
106	39_valpost	39	12-12-2019	19:27:56:539	rl	valpost	1267	1267	60	3871350	00535.png	531.0	25	3871351.0	570	434
107	39_valpost	39	12-12-2019	19:27:56:739	rl	valpost	1279	1279	60	3871549	00540.png	536.0	25	3871551.0	570	437
108	39_valpost	39	12-12-2019	19:27:56:938	rl	valpost	1289	1289	60	3871748	00545.png	541.0	25	3871751.0	566	436
109	39_valpost	39	12-12-2019	19:27:57:137	rl	valpost	1301	1301	60	3871947	00550.png	546.0	25	3871951.0	562	434
110	39_valpost	39	12-12-2019	19:27:57:336	rl	valpost	1313	1313	60	3872146	00555.png	551.0	25	3872151.0	562	432
111	39_valpost	39	12-12-2019	19:27:57:535	rl	valpost	1324	1324	60	3872346	00560.png	556.0	25	3872351.0	560	431
112	39_valpost	39	12-12-2019	19:27:57:734	rl	valpost	1336	1336	60	3872545	00565.png	561.0	25	3872551.0	558	433
113	39_valpost	39	12-12-2019	19:27:57:933	rl	valpost	1348	1348	60	3872744	00570.png	566.0	25	3872751.0	556	433
114	39_valpost	39	12-12-2019	19:27:58:132	rl	valpost	1360	1360	60	3872943	00575.png	571.0	25	3872951.0	551	433
115	39_valpost	39	12-12-2019	19:27:58:348	rl	valpost	1373	1373	60	3873159	00580.png	576.0	25	3873151.0	553	428
116	39_valpost	39	12-12-2019	19:27:58:547	rl	valpost	1385	1385	60	3873358	00585.png	581.0	25	3873351.0	553	432
117	39_valpost	39	12-12-2019	19:27:58:747	rl	valpost	1397	1397	60	3873557	00590.png	586.0	25	3873551.0	553	436
118	39_valpost	39	12-12-2019	19:27:58:946	rl	valpost	1409	1409	60	3873756	00595.png	591.0	25	3873751.0	553	436
119	39_valpost	39	12-12-2019	19:27:59:145	rl	valpost	1421	1421	60	3873955	00600.png	596.0	25	3873951.0	553	431
120	39_valpost	39	12-12-2019	19:27:59:344	rl	valpost	1433	1433	60	3874155	00605.png	601.0	25	3874151.0	551	427
121	39_valpost	39	12-12-2019	19:27:59:543	rl	valpost	1445	1445	60	3874354	00610.png	606.0	25	3874351.0	0	0
122	39_valpost	39	12-12-2019	19:27:59:742	rl	valpost	1457	1457	60	3874553	00615.png	611.0	25	3874551.0	803	397
123	39_valpost	39	12-12-2019	19:27:59:941	rl	valpost	1469	1469	60	3874752	00620.png	616.0	25	3874751.0	775	410
124	39_valpost	39	12-12-2019	19:28:00:141	rl	valpost	1481	1481	60	3874952	00625.png	621.0	25	3874951.0	752	408
125	39_valpost	39	12-12-2019	19:28:00:340	rl	valpost	1493	1493	60	3875151	00630.png	626.0	25	3875151.0	738	397
126	39_valpost	39	12-12-2019	19:28:00:539	rl	valpost	1505	1505	60	3875350	00635.png	631.0	25	3875351.0	738	390
127	39_valpost	39	12-12-2019	19:28:00:738	rl	valpost	1516	1516	60	3875548	00640.png	636.0	25	3875551.0	740	397
128	39_valpost	39	12-12-2019	19:28:00:937	rl	valpost	1528	1528	60	3875748	00645.png	641.0	25	3875751.0	740	397
129	39_valpost	39	12-12-2019	19:28:01:136	rl	valpost	1540	1540	60	3875947	00650.png	646.0	25	3875951.0	737	408
130	39_valpost	39	12-12-2019	19:28:01:335	rl	valpost	1552	1552	60	3876146	00655.png	651.0	25	3876151.0	738	406
131	39_valpost	39	12-12-2019	19:28:01:535	rl	valpost	1564	1564	60	3876345	00660.png	656.0	25	3876351.0	739	403
132	39_valpost	39	12-12-2019	19:28:01:734	rl	valpost	1576	1576	60	3876544	00665.png	661.0	25	3876551.0	738	402
133	39_valpost	39	12-12-2019	19:28:01:933	rl	valpost	1588	1588	60	3876743	00670.png	666.0	25	3876751.0	739	396
134	39_valpost	39	12-12-2019	19:28:02:132	rl	valpost	1600	1600	60	3876943	00675.png	671.0	25	3876951.0	738	398
