	subject_location	subject_id	date	daytime	setting_id	trial_id	sample_id	sample_n	sample_rate	sample_time_smi	frame_id	frame_n	frame_rate	frame_time_smi	fix_pos_x	fix_pos_y
0	06_rat	06	18-10-2019	12:57:28:387	rl	rat	1201	1201	60	405395	00502.png	1.0	25	405394.0	763	478
1	06_rat	06	18-10-2019	12:57:28:587	rl	rat	1213	1213	60	405595	00507.png	6.0	25	405594.0	595	489
2	06_rat	06	18-10-2019	12:57:28:786	rl	rat	1225	1225	60	405794	00512.png	11.0	25	405794.0	618	490
3	06_rat	06	18-10-2019	12:57:28:985	rl	rat	1237	1237	60	405993	00517.png	16.0	25	405994.0	660	486
4	06_rat	06	18-10-2019	12:57:29:184	rl	rat	1249	1249	60	406192	00522.png	21.0	25	406194.0	682	481
5	06_rat	06	18-10-2019	12:57:29:383	rl	rat	1261	1261	60	406391	00527.png	26.0	25	406394.0	0	0
6	06_rat	06	18-10-2019	12:57:29:583	rl	rat	1273	1273	60	406590	00532.png	31.0	25	406594.0	0	0
7	06_rat	06	18-10-2019	12:57:29:782	rl	rat	1285	1285	60	406790	00537.png	36.0	25	406794.0	0	0
8	06_rat	06	18-10-2019	12:57:29:981	rl	rat	1297	1297	60	406989	00542.png	41.0	25	406994.0	0	0
9	06_rat	06	18-10-2019	12:57:30:180	rl	rat	1309	1309	60	407188	00547.png	46.0	25	407194.0	0	0
10	06_rat	06	18-10-2019	12:57:30:379	rl	rat	1319	1319	60	407387	00552.png	51.0	25	407394.0	0	0
11	06_rat	06	18-10-2019	12:57:30:578	rl	rat	1331	1331	60	407586	00557.png	56.0	25	407594.0	0	0
12	06_rat	06	18-10-2019	12:57:30:794	rl	rat	1344	1344	60	407802	00562.png	61.0	25	407794.0	0	0
13	06_rat	06	18-10-2019	12:57:30:993	rl	rat	1356	1356	60	408001	00567.png	66.0	25	407994.0	0	0
14	06_rat	06	18-10-2019	12:57:31:192	rl	rat	1368	1368	60	408200	00572.png	71.0	25	408194.0	953	534
15	06_rat	06	18-10-2019	12:57:31:392	rl	rat	1380	1380	60	408399	00577.png	76.0	25	408394.0	0	0
16	06_rat	06	18-10-2019	12:57:31:591	rl	rat	1392	1392	60	408599	00582.png	81.0	25	408594.0	1044	501
17	06_rat	06	18-10-2019	12:57:31:789	rl	rat	1404	1404	60	408797	00587.png	86.0	25	408794.0	1110	492
18	06_rat	06	18-10-2019	12:57:31:989	rl	rat	1416	1416	60	408997	00592.png	91.0	25	408994.0	0	0
19	06_rat	06	18-10-2019	12:57:32:188	rl	rat	1428	1428	60	409196	00597.png	96.0	25	409194.0	0	0
20	06_rat	06	18-10-2019	12:57:32:387	rl	rat	1440	1440	60	409395	00602.png	101.0	25	409394.0	250	519
21	06_rat	06	18-10-2019	12:57:32:586	rl	rat	1452	1452	60	409594	00607.png	106.0	25	409594.0	0	0
22	06_rat	06	18-10-2019	12:57:32:786	rl	rat	1464	1464	60	409793	00612.png	111.0	25	409794.0	497	538
23	06_rat	06	18-10-2019	12:57:32:985	rl	rat	1476	1476	60	409992	00617.png	116.0	25	409994.0	2367	360
24	06_rat	06	18-10-2019	12:57:33:184	rl	rat	1488	1488	60	410192	00622.png	121.0	25	410194.0	0	0
25	06_rat	06	18-10-2019	12:57:33:383	rl	rat	1500	1500	60	410391	00627.png	126.0	25	410394.0	0	0
26	06_rat	06	18-10-2019	12:57:33:582	rl	rat	1512	1512	60	410590	00632.png	131.0	25	410594.0	0	0
27	06_rat	06	18-10-2019	12:57:33:781	rl	rat	1524	1524	60	410789	00637.png	136.0	25	410794.0	698	479
28	06_rat	06	18-10-2019	12:57:33:980	rl	rat	1536	1536	60	410988	00642.png	141.0	25	410994.0	719	506
29	06_rat	06	18-10-2019	12:57:34:180	rl	rat	1548	1548	60	411187	00647.png	146.0	25	411194.0	778	499
30	06_rat	06	18-10-2019	12:57:34:379	rl	rat	1559	1559	60	411387	00652.png	151.0	25	411394.0	626	481
31	06_rat	06	18-10-2019	12:57:34:594	rl	rat	1572	1572	60	411602	00657.png	156.0	25	411594.0	624	475
32	06_rat	06	18-10-2019	12:57:34:794	rl	rat	1584	1584	60	411801	00662.png	161.0	25	411794.0	546	467
33	06_rat	06	18-10-2019	12:57:34:992	rl	rat	1596	1596	60	412000	00667.png	166.0	25	411994.0	0	0
34	06_rat	06	18-10-2019	12:57:35:192	rl	rat	1608	1608	60	412200	00672.png	171.0	25	412194.0	853	217
35	06_rat	06	18-10-2019	12:57:35:391	rl	rat	1620	1620	60	412399	00677.png	176.0	25	412394.0	448	546
36	06_rat	06	18-10-2019	12:57:35:590	rl	rat	1632	1632	60	412598	00682.png	181.0	25	412594.0	1042	511
37	06_rat	06	18-10-2019	12:57:35:789	rl	rat	1644	1644	60	412797	00687.png	186.0	25	412794.0	1046	506
38	06_rat	06	18-10-2019	12:57:35:989	rl	rat	1656	1656	60	412996	00692.png	191.0	25	412994.0	963	516
39	06_rat	06	18-10-2019	12:57:36:187	rl	rat	1668	1668	60	413195	00697.png	196.0	25	413194.0	932	515
40	06_rat	06	18-10-2019	12:57:36:387	rl	rat	1680	1680	60	413394	00702.png	201.0	25	413394.0	1012	516
41	06_rat	06	18-10-2019	12:57:36:586	rl	rat	1692	1692	60	413594	00707.png	206.0	25	413594.0	963	507
42	06_rat	06	18-10-2019	12:57:36:785	rl	rat	1704	1704	60	413793	00712.png	211.0	25	413794.0	720	490
43	06_rat	06	18-10-2019	12:57:36:984	rl	rat	1716	1716	60	413992	00717.png	216.0	25	413994.0	699	487
44	06_rat	06	18-10-2019	12:57:37:183	rl	rat	1728	1728	60	414191	00722.png	221.0	25	414194.0	699	487
45	06_rat	06	18-10-2019	12:57:37:382	rl	rat	1740	1740	60	414390	00727.png	226.0	25	414394.0	699	487
46	06_rat	06	18-10-2019	12:57:37:582	rl	rat	1752	1752	60	414589	00732.png	231.0	25	414594.0	699	487
47	06_rat	06	18-10-2019	12:57:37:781	rl	rat	1764	1764	60	414789	00737.png	236.0	25	414794.0	699	487
48	06_rat	06	18-10-2019	12:57:37:980	rl	rat	1776	1776	60	414988	00742.png	241.0	25	414994.0	699	487
49	06_rat	06	18-10-2019	12:57:38:196	rl	rat	1787	1787	60	415204	00747.png	246.0	25	415194.0	0	0
50	06_rat	06	18-10-2019	12:57:38:378	rl	rat	1798	1798	60	415386	00752.png	251.0	25	415394.0	0	0
51	06_rat	06	18-10-2019	12:57:38:594	rl	rat	1811	1811	60	415601	00757.png	256.0	25	415594.0	0	0
52	06_rat	06	18-10-2019	12:57:38:793	rl	rat	1823	1823	60	415801	00762.png	261.0	25	415794.0	0	0
53	06_rat	06	18-10-2019	12:57:38:992	rl	rat	1835	1835	60	416000	00767.png	266.0	25	415994.0	0	0
54	06_rat	06	18-10-2019	12:57:39:191	rl	rat	1847	1847	60	416199	00772.png	271.0	25	416194.0	0	0
55	06_rat	06	18-10-2019	12:57:39:390	rl	rat	1859	1859	60	416398	00777.png	276.0	25	416394.0	714	495
56	06_rat	06	18-10-2019	12:57:39:590	rl	rat	1871	1871	60	416598	00782.png	281.0	25	416594.0	703	480
57	06_rat	06	18-10-2019	12:57:39:788	rl	rat	1883	1883	60	416796	00787.png	286.0	25	416794.0	531	520
58	06_rat	06	18-10-2019	12:57:39:988	rl	rat	1895	1895	60	416996	00792.png	291.0	25	416994.0	642	537
59	06_rat	06	18-10-2019	12:57:40:187	rl	rat	1907	1907	60	417195	00797.png	296.0	25	417194.0	676	479
60	06_rat	06	18-10-2019	12:57:40:386	rl	rat	1919	1919	60	417394	00802.png	301.0	25	417394.0	532	501
61	06_rat	06	18-10-2019	12:57:40:585	rl	rat	1931	1931	60	417593	00807.png	306.0	25	417594.0	663	490
62	06_rat	06	18-10-2019	12:57:40:785	rl	rat	1943	1943	60	417793	00812.png	311.0	25	417794.0	707	491
63	06_rat	06	18-10-2019	12:57:40:984	rl	rat	1955	1955	60	417992	00817.png	316.0	25	417994.0	627	516
64	06_rat	06	18-10-2019	12:57:41:183	rl	rat	1967	1967	60	418190	00822.png	321.0	25	418194.0	550	527
65	06_rat	06	18-10-2019	12:57:41:382	rl	rat	1979	1979	60	418390	00827.png	326.0	25	418394.0	640	479
66	06_rat	06	18-10-2019	12:57:41:581	rl	rat	1991	1991	60	418589	00832.png	331.0	25	418594.0	632	474
67	06_rat	06	18-10-2019	12:57:41:780	rl	rat	2003	2003	60	418788	00837.png	336.0	25	418794.0	642	475
68	06_rat	06	18-10-2019	12:57:41:979	rl	rat	2014	2014	60	418987	00842.png	341.0	25	418994.0	583	500
69	06_rat	06	18-10-2019	12:57:42:179	rl	rat	2026	2026	60	419186	00847.png	346.0	25	419194.0	552	507
70	06_rat	06	18-10-2019	12:57:42:378	rl	rat	2038	2038	60	419386	00852.png	351.0	25	419394.0	528	516
71	06_rat	06	18-10-2019	12:57:42:593	rl	rat	2051	2051	60	419601	00857.png	356.0	25	419594.0	627	516
72	06_rat	06	18-10-2019	12:57:42:793	rl	rat	2063	2063	60	419801	00862.png	361.0	25	419794.0	593	519
73	06_rat	06	18-10-2019	12:57:42:991	rl	rat	2075	2075	60	419999	00867.png	366.0	25	419994.0	511	521
74	06_rat	06	18-10-2019	12:57:43:191	rl	rat	2087	2087	60	420199	00872.png	371.0	25	420194.0	529	516
75	06_rat	06	18-10-2019	12:57:43:390	rl	rat	2099	2099	60	420398	00877.png	376.0	25	420394.0	549	514
76	06_rat	06	18-10-2019	12:57:43:589	rl	rat	2111	2111	60	420597	00882.png	381.0	25	420594.0	543	516
77	06_rat	06	18-10-2019	12:57:43:788	rl	rat	2123	2123	60	420796	00887.png	386.0	25	420794.0	500	520
78	06_rat	06	18-10-2019	12:57:43:987	rl	rat	2135	2135	60	420995	00892.png	391.0	25	420994.0	502	520
79	06_rat	06	18-10-2019	12:57:44:186	rl	rat	2147	2147	60	421194	00897.png	396.0	25	421194.0	509	516
80	06_rat	06	18-10-2019	12:57:44:385	rl	rat	2159	2159	60	421393	00902.png	401.0	25	421394.0	630	479
81	06_rat	06	18-10-2019	12:57:44:585	rl	rat	2171	2171	60	421593	00907.png	406.0	25	421594.0	684	463
82	06_rat	06	18-10-2019	12:57:44:784	rl	rat	2183	2183	60	421792	00912.png	411.0	25	421794.0	562	513
83	06_rat	06	18-10-2019	12:57:44:983	rl	rat	2195	2195	60	421991	00917.png	416.0	25	421994.0	567	517
84	06_rat	06	18-10-2019	12:57:45:182	rl	rat	2207	2207	60	422190	00922.png	421.0	25	422194.0	672	523
85	06_rat	06	18-10-2019	12:57:45:382	rl	rat	2219	2219	60	422389	00927.png	426.0	25	422394.0	581	522
86	06_rat	06	18-10-2019	12:57:45:580	rl	rat	2231	2231	60	422588	00932.png	431.0	25	422594.0	661	505
87	06_rat	06	18-10-2019	12:57:45:780	rl	rat	2243	2243	60	422787	00937.png	436.0	25	422794.0	638	505
88	06_rat	06	18-10-2019	12:57:45:979	rl	rat	2253	2253	60	422987	00942.png	441.0	25	422994.0	729	488
89	06_rat	06	18-10-2019	12:57:46:178	rl	rat	2264	2264	60	423186	00947.png	446.0	25	423194.0	773	483
90	06_rat	06	18-10-2019	12:57:46:394	rl	rat	2277	2277	60	423402	00952.png	451.0	25	423394.0	759	478
91	06_rat	06	18-10-2019	12:57:46:593	rl	rat	2289	2289	60	423601	00957.png	456.0	25	423594.0	840	506
92	06_rat	06	18-10-2019	12:57:46:792	rl	rat	2301	2301	60	423800	00962.png	461.0	25	423794.0	769	507
93	06_rat	06	18-10-2019	12:57:46:991	rl	rat	2313	2313	60	423999	00967.png	466.0	25	423994.0	713	514
94	06_rat	06	18-10-2019	12:57:47:191	rl	rat	2325	2325	60	424198	00972.png	471.0	25	424194.0	528	529
95	06_rat	06	18-10-2019	12:57:47:390	rl	rat	2337	2337	60	424397	00977.png	476.0	25	424394.0	488	530
96	06_rat	06	18-10-2019	12:57:47:589	rl	rat	2349	2349	60	424597	00982.png	481.0	25	424594.0	494	529
97	06_rat	06	18-10-2019	12:57:47:788	rl	rat	2361	2361	60	424796	00987.png	486.0	25	424794.0	429	532
98	06_rat	06	18-10-2019	12:57:47:986	rl	rat	2373	2373	60	424994	00992.png	491.0	25	424994.0	605	534
99	06_rat	06	18-10-2019	12:57:48:186	rl	rat	2385	2385	60	425194	00997.png	496.0	25	425194.0	593	528
100	06_rat	06	18-10-2019	12:57:48:385	rl	rat	2397	2397	60	425393	01002.png	501.0	25	425394.0	586	528
101	06_rat	06	18-10-2019	12:57:48:584	rl	rat	2409	2409	60	425592	01007.png	506.0	25	425594.0	862	489
102	06_rat	06	18-10-2019	12:57:48:783	rl	rat	2421	2421	60	425791	01012.png	511.0	25	425794.0	800	492
103	06_rat	06	18-10-2019	12:57:48:983	rl	rat	2433	2433	60	425991	01017.png	516.0	25	425994.0	791	498
104	06_rat	06	18-10-2019	12:57:49:182	rl	rat	2445	2445	60	426190	01022.png	521.0	25	426194.0	793	493
105	06_rat	06	18-10-2019	12:57:49:381	rl	rat	2457	2457	60	426389	01027.png	526.0	25	426394.0	78	456
106	06_rat	06	18-10-2019	12:57:49:580	rl	rat	2469	2469	60	426588	01032.png	531.0	25	426594.0	439	433
107	06_rat	06	18-10-2019	12:57:49:779	rl	rat	2481	2481	60	426787	01037.png	536.0	25	426794.0	458	470
108	06_rat	06	18-10-2019	12:57:49:979	rl	rat	2492	2492	60	426986	01042.png	541.0	25	426994.0	236	469
109	06_rat	06	18-10-2019	12:57:50:194	rl	rat	2505	2505	60	427202	01047.png	546.0	25	427194.0	486	434
110	06_rat	06	18-10-2019	12:57:50:393	rl	rat	2517	2517	60	427401	01052.png	551.0	25	427394.0	593	454
111	06_rat	06	18-10-2019	12:57:50:593	rl	rat	2529	2529	60	427601	01057.png	556.0	25	427594.0	0	0
112	06_rat	06	18-10-2019	12:57:50:791	rl	rat	2541	2541	60	427799	01062.png	561.0	25	427794.0	365	472
113	06_rat	06	18-10-2019	12:57:50:991	rl	rat	2553	2553	60	427999	01067.png	566.0	25	427994.0	303	469
114	06_rat	06	18-10-2019	12:57:51:189	rl	rat	2565	2565	60	428197	01072.png	571.0	25	428194.0	308	466
115	06_rat	06	18-10-2019	12:57:51:389	rl	rat	2577	2577	60	428397	01077.png	576.0	25	428394.0	640	452
116	06_rat	06	18-10-2019	12:57:51:588	rl	rat	2589	2589	60	428596	01082.png	581.0	25	428594.0	632	448
117	06_rat	06	18-10-2019	12:57:51:787	rl	rat	2601	2601	60	428795	01087.png	586.0	25	428794.0	1088	493
118	06_rat	06	18-10-2019	12:57:51:986	rl	rat	2613	2613	60	428994	01092.png	591.0	25	428994.0	900	479
119	06_rat	06	18-10-2019	12:57:52:185	rl	rat	2625	2625	60	429193	01097.png	596.0	25	429194.0	775	470
120	06_rat	06	18-10-2019	12:57:52:385	rl	rat	2637	2637	60	429393	01102.png	601.0	25	429394.0	938	428
121	06_rat	06	18-10-2019	12:57:52:584	rl	rat	2649	2649	60	429592	01107.png	606.0	25	429594.0	402	540
122	06_rat	06	18-10-2019	12:57:52:783	rl	rat	2661	2661	60	429791	01112.png	611.0	25	429794.0	179	607
123	06_rat	06	18-10-2019	12:57:52:982	rl	rat	2673	2673	60	429990	01117.png	616.0	25	429994.0	283	566
124	06_rat	06	18-10-2019	12:57:53:181	rl	rat	2685	2685	60	430189	01122.png	621.0	25	430194.0	375	548
125	06_rat	06	18-10-2019	12:57:53:380	rl	rat	2697	2697	60	430388	01127.png	626.0	25	430394.0	445	540
126	06_rat	06	18-10-2019	12:57:53:579	rl	rat	2709	2709	60	430587	01132.png	631.0	25	430594.0	304	561
127	06_rat	06	18-10-2019	12:57:53:779	rl	rat	2720	2720	60	430787	01137.png	636.0	25	430794.0	302	564
128	06_rat	06	18-10-2019	12:57:53:978	rl	rat	2732	2732	60	430986	01142.png	641.0	25	430994.0	382	542
129	06_rat	06	18-10-2019	12:57:54:193	rl	rat	2745	2745	60	431201	01147.png	646.0	25	431194.0	377	548
130	06_rat	06	18-10-2019	12:57:54:393	rl	rat	2757	2757	60	431400	01152.png	651.0	25	431394.0	312	555
131	06_rat	06	18-10-2019	12:57:54:592	rl	rat	2769	2769	60	431600	01157.png	656.0	25	431594.0	182	575
132	06_rat	06	18-10-2019	12:57:54:791	rl	rat	2781	2781	60	431799	01162.png	661.0	25	431794.0	150	571
133	06_rat	06	18-10-2019	12:57:54:990	rl	rat	2793	2793	60	431998	01167.png	666.0	25	431994.0	137	573
134	06_rat	06	18-10-2019	12:57:55:189	rl	rat	2805	2805	60	432197	01172.png	671.0	25	432194.0	639	516
135	06_rat	06	18-10-2019	12:57:55:388	rl	rat	2817	2817	60	432396	01177.png	676.0	25	432394.0	575	517
136	06_rat	06	18-10-2019	12:57:55:587	rl	rat	2829	2829	60	432595	01182.png	681.0	25	432594.0	464	528
137	06_rat	06	18-10-2019	12:57:55:787	rl	rat	2841	2841	60	432794	01187.png	686.0	25	432794.0	406	530
138	06_rat	06	18-10-2019	12:57:55:986	rl	rat	2853	2853	60	432994	01192.png	691.0	25	432994.0	485	528
139	06_rat	06	18-10-2019	12:57:56:185	rl	rat	2865	2865	60	433193	01197.png	696.0	25	433194.0	826	531
140	06_rat	06	18-10-2019	12:57:56:384	rl	rat	2877	2877	60	433392	01202.png	701.0	25	433394.0	820	536
141	06_rat	06	18-10-2019	12:57:56:583	rl	rat	2889	2889	60	433591	01207.png	706.0	25	433594.0	772	546
142	06_rat	06	18-10-2019	12:57:56:782	rl	rat	2901	2901	60	433790	01212.png	711.0	25	433794.0	735	538
143	06_rat	06	18-10-2019	12:57:56:981	rl	rat	2913	2913	60	433989	01217.png	716.0	25	433994.0	1191	554
144	06_rat	06	18-10-2019	12:57:57:181	rl	rat	2925	2925	60	434189	01222.png	721.0	25	434194.0	1075	563
145	06_rat	06	18-10-2019	12:57:57:380	rl	rat	2937	2937	60	434388	01227.png	726.0	25	434394.0	1004	577
146	06_rat	06	18-10-2019	12:57:57:579	rl	rat	2947	2947	60	434587	01232.png	731.0	25	434594.0	898	555
147	06_rat	06	18-10-2019	12:57:57:778	rl	rat	2959	2959	60	434786	01237.png	736.0	25	434794.0	1514	590
148	06_rat	06	18-10-2019	12:57:57:994	rl	rat	2972	2972	60	435001	01242.png	741.0	25	434994.0	992	544
149	06_rat	06	18-10-2019	12:57:58:193	rl	rat	2984	2984	60	435201	01247.png	746.0	25	435194.0	835	535
