	subject_location	subject_id	date	daytime	setting_id	trial_id	sample_id	sample_n	sample_rate	sample_time_smi	frame_id	frame_n	frame_rate	frame_time_smi	fix_pos_x	fix_pos_y
0	06_gas	06	18-10-2019	13:05:11:695	rl	gas	799	799	60	868690	00334.png	1.0	25	868690.0	165	-535
1	06_gas	06	18-10-2019	13:05:11:893	rl	gas	811	811	60	868889	00339.png	6.0	25	868890.0	326	285
2	06_gas	06	18-10-2019	13:05:12:093	rl	gas	823	823	60	869089	00344.png	11.0	25	869090.0	-1057	-4026
3	06_gas	06	18-10-2019	13:05:12:292	rl	gas	835	835	60	869287	00349.png	16.0	25	869290.0	-1168	-4577
4	06_gas	06	18-10-2019	13:05:12:491	rl	gas	847	847	60	869487	00354.png	21.0	25	869490.0	0	0
5	06_gas	06	18-10-2019	13:05:12:690	rl	gas	858	858	60	869686	00359.png	26.0	25	869690.0	-1168	-4577
6	06_gas	06	18-10-2019	13:05:12:889	rl	gas	870	870	60	869885	00364.png	31.0	25	869890.0	1211	25924
7	06_gas	06	18-10-2019	13:05:13:088	rl	gas	882	882	60	870084	00369.png	36.0	25	870090.0	0	0
8	06_gas	06	18-10-2019	13:05:13:288	rl	gas	894	894	60	870284	00374.png	41.0	25	870290.0	958	661
9	06_gas	06	18-10-2019	13:05:13:487	rl	gas	906	906	60	870483	00379.png	46.0	25	870490.0	808	677
10	06_gas	06	18-10-2019	13:05:13:686	rl	gas	918	918	60	870682	00384.png	51.0	25	870690.0	1388	1062
11	06_gas	06	18-10-2019	13:05:13:902	rl	gas	931	931	60	870898	00389.png	56.0	25	870890.0	967	-972
12	06_gas	06	18-10-2019	13:05:14:101	rl	gas	943	943	60	871097	00394.png	61.0	25	871090.0	770	-4947
13	06_gas	06	18-10-2019	13:05:14:300	rl	gas	955	955	60	871296	00399.png	66.0	25	871290.0	908	3723
14	06_gas	06	18-10-2019	13:05:14:499	rl	gas	967	967	60	871495	00404.png	71.0	25	871490.0	1113	13596
15	06_gas	06	18-10-2019	13:05:14:698	rl	gas	979	979	60	871694	00409.png	76.0	25	871690.0	861	-2041
16	06_gas	06	18-10-2019	13:05:14:897	rl	gas	991	991	60	871893	00414.png	81.0	25	871890.0	989	-768
17	06_gas	06	18-10-2019	13:05:15:097	rl	gas	1003	1003	60	872092	00419.png	86.0	25	872090.0	1016	2450
18	06_gas	06	18-10-2019	13:05:15:295	rl	gas	1015	1015	60	872291	00424.png	91.0	25	872290.0	940	2148
19	06_gas	06	18-10-2019	13:05:15:495	rl	gas	1027	1027	60	872491	00429.png	96.0	25	872490.0	884	2131
20	06_gas	06	18-10-2019	13:05:15:694	rl	gas	1039	1039	60	872690	00434.png	101.0	25	872690.0	842	2058
21	06_gas	06	18-10-2019	13:05:15:893	rl	gas	1051	1051	60	872889	00439.png	106.0	25	872890.0	843	2050
22	06_gas	06	18-10-2019	13:05:16:092	rl	gas	1063	1063	60	873088	00444.png	111.0	25	873090.0	857	2038
23	06_gas	06	18-10-2019	13:05:16:292	rl	gas	1075	1075	60	873287	00449.png	116.0	25	873290.0	919	2080
24	06_gas	06	18-10-2019	13:05:16:507	rl	gas	1085	1085	60	873503	00454.png	121.0	25	873490.0	910	2112
25	06_gas	06	18-10-2019	13:05:16:690	rl	gas	1096	1096	60	873686	00459.png	126.0	25	873690.0	1410	2629
26	06_gas	06	18-10-2019	13:05:16:889	rl	gas	1108	1108	60	873885	00464.png	131.0	25	873890.0	880	2026
27	06_gas	06	18-10-2019	13:05:17:088	rl	gas	1120	1120	60	874084	00469.png	136.0	25	874090.0	630	1683
28	06_gas	06	18-10-2019	13:05:17:287	rl	gas	1132	1132	60	874283	00474.png	141.0	25	874290.0	654	1683
29	06_gas	06	18-10-2019	13:05:17:486	rl	gas	1144	1144	60	874482	00479.png	146.0	25	874490.0	674	1706
30	06_gas	06	18-10-2019	13:05:17:702	rl	gas	1157	1157	60	874698	00484.png	151.0	25	874690.0	812	-756
31	06_gas	06	18-10-2019	13:05:17:901	rl	gas	1169	1169	60	874897	00489.png	156.0	25	874890.0	789	156
32	06_gas	06	18-10-2019	13:05:18:100	rl	gas	1181	1181	60	875096	00494.png	161.0	25	875090.0	789	215
33	06_gas	06	18-10-2019	13:05:18:299	rl	gas	1193	1193	60	875295	00499.png	166.0	25	875290.0	768	204
34	06_gas	06	18-10-2019	13:05:18:499	rl	gas	1205	1205	60	875495	00504.png	171.0	25	875490.0	759	221
35	06_gas	06	18-10-2019	13:05:18:698	rl	gas	1217	1217	60	875694	00509.png	176.0	25	875690.0	761	233
36	06_gas	06	18-10-2019	13:05:18:897	rl	gas	1229	1229	60	875893	00514.png	181.0	25	875890.0	746	205
37	06_gas	06	18-10-2019	13:05:19:096	rl	gas	1241	1241	60	876092	00519.png	186.0	25	876090.0	730	109
38	06_gas	06	18-10-2019	13:05:19:295	rl	gas	1253	1253	60	876291	00524.png	191.0	25	876290.0	728	-77
39	06_gas	06	18-10-2019	13:05:19:494	rl	gas	1265	1265	60	876490	00529.png	196.0	25	876490.0	711	-389
40	06_gas	06	18-10-2019	13:05:19:694	rl	gas	1277	1277	60	876689	00534.png	201.0	25	876690.0	705	-495
41	06_gas	06	18-10-2019	13:05:19:893	rl	gas	1289	1289	60	876889	00539.png	206.0	25	876890.0	637	-1845
42	06_gas	06	18-10-2019	13:05:20:092	rl	gas	1301	1301	60	877087	00544.png	211.0	25	877090.0	456	-6873
43	06_gas	06	18-10-2019	13:05:20:291	rl	gas	1310	1310	60	877287	00549.png	216.0	25	877290.0	362	-8533
44	06_gas	06	18-10-2019	13:05:20:490	rl	gas	1321	1321	60	877486	00554.png	221.0	25	877490.0	444	-5559
45	06_gas	06	18-10-2019	13:05:20:689	rl	gas	1333	1333	60	877685	00559.png	226.0	25	877690.0	-75	-17773
46	06_gas	06	18-10-2019	13:05:20:888	rl	gas	1344	1344	60	877884	00564.png	231.0	25	877890.0	845	175
47	06_gas	06	18-10-2019	13:05:21:088	rl	gas	1356	1356	60	878083	00569.png	236.0	25	878090.0	850	125
48	06_gas	06	18-10-2019	13:05:21:287	rl	gas	1368	1368	60	878283	00574.png	241.0	25	878290.0	854	138
49	06_gas	06	18-10-2019	13:05:21:486	rl	gas	1380	1380	60	878482	00579.png	246.0	25	878490.0	848	146
50	06_gas	06	18-10-2019	13:05:21:702	rl	gas	1393	1393	60	878697	00584.png	251.0	25	878690.0	849	145
51	06_gas	06	18-10-2019	13:05:21:900	rl	gas	1405	1405	60	878896	00589.png	256.0	25	878890.0	858	134
52	06_gas	06	18-10-2019	13:05:22:100	rl	gas	1417	1417	60	879096	00594.png	261.0	25	879090.0	841	75
53	06_gas	06	18-10-2019	13:05:22:299	rl	gas	1429	1429	60	879295	00599.png	266.0	25	879290.0	0	0
54	06_gas	06	18-10-2019	13:05:22:498	rl	gas	1441	1441	60	879494	00604.png	271.0	25	879490.0	810	64
55	06_gas	06	18-10-2019	13:05:22:697	rl	gas	1453	1453	60	879693	00609.png	276.0	25	879690.0	817	58
56	06_gas	06	18-10-2019	13:05:22:896	rl	gas	1465	1465	60	879892	00614.png	281.0	25	879890.0	817	31
57	06_gas	06	18-10-2019	13:05:23:095	rl	gas	1477	1477	60	880091	00619.png	286.0	25	880090.0	775	54
58	06_gas	06	18-10-2019	13:05:23:295	rl	gas	1489	1489	60	880291	00624.png	291.0	25	880290.0	772	78
59	06_gas	06	18-10-2019	13:05:23:493	rl	gas	1501	1501	60	880489	00629.png	296.0	25	880490.0	763	131
60	06_gas	06	18-10-2019	13:05:23:693	rl	gas	1513	1513	60	880689	00634.png	301.0	25	880690.0	775	152
61	06_gas	06	18-10-2019	13:05:23:892	rl	gas	1525	1525	60	880888	00639.png	306.0	25	880890.0	785	132
62	06_gas	06	18-10-2019	13:05:24:091	rl	gas	1536	1536	60	881087	00644.png	311.0	25	881090.0	789	177
63	06_gas	06	18-10-2019	13:05:24:291	rl	gas	1546	1546	60	881286	00649.png	316.0	25	881290.0	775	45
64	06_gas	06	18-10-2019	13:05:24:490	rl	gas	1558	1558	60	881486	00654.png	321.0	25	881490.0	873	88
65	06_gas	06	18-10-2019	13:05:24:689	rl	gas	1570	1570	60	881685	00659.png	326.0	25	881690.0	870	72
66	06_gas	06	18-10-2019	13:05:24:888	rl	gas	1582	1582	60	881884	00664.png	331.0	25	881890.0	553	-2761
67	06_gas	06	18-10-2019	13:05:25:087	rl	gas	1594	1594	60	882083	00669.png	336.0	25	882090.0	748	540
68	06_gas	06	18-10-2019	13:05:25:286	rl	gas	1606	1606	60	882282	00674.png	341.0	25	882290.0	700	612
69	06_gas	06	18-10-2019	13:05:25:502	rl	gas	1619	1619	60	882498	00679.png	346.0	25	882490.0	696	575
70	06_gas	06	18-10-2019	13:05:25:701	rl	gas	1631	1631	60	882697	00684.png	351.0	25	882690.0	724	450
71	06_gas	06	18-10-2019	13:05:25:900	rl	gas	1643	1643	60	882896	00689.png	356.0	25	882890.0	395	-5382
72	06_gas	06	18-10-2019	13:05:26:099	rl	gas	1655	1655	60	883095	00694.png	361.0	25	883090.0	987	7607
73	06_gas	06	18-10-2019	13:05:26:298	rl	gas	1667	1667	60	883294	00699.png	366.0	25	883290.0	1145	11122
74	06_gas	06	18-10-2019	13:05:26:498	rl	gas	1679	1679	60	883494	00704.png	371.0	25	883490.0	450	-4886
75	06_gas	06	18-10-2019	13:05:26:697	rl	gas	1691	1691	60	883692	00709.png	376.0	25	883690.0	592	-2483
76	06_gas	06	18-10-2019	13:05:26:896	rl	gas	1703	1703	60	883892	00714.png	381.0	25	883890.0	671	-1132
77	06_gas	06	18-10-2019	13:05:27:095	rl	gas	1715	1715	60	884091	00719.png	386.0	25	884090.0	682	-1006
78	06_gas	06	18-10-2019	13:05:27:294	rl	gas	1727	1727	60	884290	00724.png	391.0	25	884290.0	716	16
79	06_gas	06	18-10-2019	13:05:27:493	rl	gas	1739	1739	60	884489	00729.png	396.0	25	884490.0	724	63
80	06_gas	06	18-10-2019	13:05:27:693	rl	gas	1751	1751	60	884688	00734.png	401.0	25	884690.0	381	3058
81	06_gas	06	18-10-2019	13:05:27:891	rl	gas	1763	1763	60	884887	00739.png	406.0	25	884890.0	1577	7891
82	06_gas	06	18-10-2019	13:05:28:091	rl	gas	1774	1774	60	885087	00744.png	411.0	25	885090.0	3892	20973
83	06_gas	06	18-10-2019	13:05:28:290	rl	gas	1786	1786	60	885286	00749.png	416.0	25	885290.0	6592	38410
84	06_gas	06	18-10-2019	13:05:28:489	rl	gas	1798	1798	60	885485	00754.png	421.0	25	885490.0	3034	19351
85	06_gas	06	18-10-2019	13:05:28:688	rl	gas	1810	1810	60	885684	00759.png	426.0	25	885690.0	3307	21154
86	06_gas	06	18-10-2019	13:05:28:887	rl	gas	1822	1822	60	885883	00764.png	431.0	25	885890.0	512	-373
87	06_gas	06	18-10-2019	13:05:29:086	rl	gas	1834	1834	60	886082	00769.png	436.0	25	886090.0	-2174	-32718
88	06_gas	06	18-10-2019	13:05:29:302	rl	gas	1847	1847	60	886298	00774.png	441.0	25	886290.0	-896	-4939
89	06_gas	06	18-10-2019	13:05:29:501	rl	gas	1859	1859	60	886497	00779.png	446.0	25	886490.0	929	2466
90	06_gas	06	18-10-2019	13:05:29:700	rl	gas	1871	1871	60	886696	00784.png	451.0	25	886690.0	729	1868
91	06_gas	06	18-10-2019	13:05:29:900	rl	gas	1883	1883	60	886896	00789.png	456.0	25	886890.0	676	1811
92	06_gas	06	18-10-2019	13:05:30:099	rl	gas	1895	1895	60	887095	00794.png	461.0	25	887090.0	681	1802
93	06_gas	06	18-10-2019	13:05:30:298	rl	gas	1907	1907	60	887294	00799.png	466.0	25	887290.0	705	1797
94	06_gas	06	18-10-2019	13:05:30:497	rl	gas	1919	1919	60	887493	00804.png	471.0	25	887490.0	710	1791
95	06_gas	06	18-10-2019	13:05:30:696	rl	gas	1931	1931	60	887692	00809.png	476.0	25	887690.0	848	1988
96	06_gas	06	18-10-2019	13:05:30:895	rl	gas	1943	1943	60	887891	00814.png	481.0	25	887890.0	-568	20524
97	06_gas	06	18-10-2019	13:05:31:095	rl	gas	1955	1955	60	888091	00819.png	486.0	25	888090.0	948	-3272
98	06_gas	06	18-10-2019	13:05:31:294	rl	gas	1967	1967	60	888289	00824.png	491.0	25	888290.0	822	-2328
99	06_gas	06	18-10-2019	13:05:31:493	rl	gas	1979	1979	60	888489	00829.png	496.0	25	888490.0	-3654	-17528
100	06_gas	06	18-10-2019	13:05:31:692	rl	gas	1991	1991	60	888688	00834.png	501.0	25	888690.0	531	-2468
101	06_gas	06	18-10-2019	13:05:31:908	rl	gas	2003	2003	60	888904	00839.png	506.0	25	888890.0	3051	-32044
102	06_gas	06	18-10-2019	13:05:32:090	rl	gas	2012	2012	60	889086	00844.png	511.0	25	889090.0	871	-4189
103	06_gas	06	18-10-2019	13:05:32:289	rl	gas	2024	2024	60	889285	00849.png	516.0	25	889290.0	555	3154
104	06_gas	06	18-10-2019	13:05:32:488	rl	gas	2036	2036	60	889484	00854.png	521.0	25	889490.0	735	6383
105	06_gas	06	18-10-2019	13:05:32:688	rl	gas	2048	2048	60	889684	00859.png	526.0	25	889690.0	1045	-2548
106	06_gas	06	18-10-2019	13:05:32:887	rl	gas	2060	2060	60	889883	00864.png	531.0	25	889890.0	1338	-5046
107	06_gas	06	18-10-2019	13:05:33:086	rl	gas	2072	2072	60	890082	00869.png	536.0	25	890090.0	924	-2897
108	06_gas	06	18-10-2019	13:05:33:302	rl	gas	2085	2085	60	890297	00874.png	541.0	25	890290.0	-248	13053
109	06_gas	06	18-10-2019	13:05:33:501	rl	gas	2097	2097	60	890497	00879.png	546.0	25	890490.0	845	-4335
110	06_gas	06	18-10-2019	13:05:33:700	rl	gas	2109	2109	60	890696	00884.png	551.0	25	890690.0	743	419
111	06_gas	06	18-10-2019	13:05:33:899	rl	gas	2121	2121	60	890895	00889.png	556.0	25	890890.0	688	829
112	06_gas	06	18-10-2019	13:05:34:098	rl	gas	2133	2133	60	891094	00894.png	561.0	25	891090.0	635	1026
113	06_gas	06	18-10-2019	13:05:34:297	rl	gas	2145	2145	60	891293	00899.png	566.0	25	891290.0	819	1123
114	06_gas	06	18-10-2019	13:05:34:497	rl	gas	2157	2157	60	891493	00904.png	571.0	25	891490.0	776	1410
115	06_gas	06	18-10-2019	13:05:34:696	rl	gas	2169	2169	60	891692	00909.png	576.0	25	891690.0	543	3330
116	06_gas	06	18-10-2019	13:05:34:895	rl	gas	2181	2181	60	891891	00914.png	581.0	25	891890.0	849	129
117	06_gas	06	18-10-2019	13:05:35:094	rl	gas	2193	2193	60	892090	00919.png	586.0	25	892090.0	856	201
118	06_gas	06	18-10-2019	13:05:35:293	rl	gas	2205	2205	60	892289	00924.png	591.0	25	892290.0	861	1689
119	06_gas	06	18-10-2019	13:05:35:492	rl	gas	2217	2217	60	892488	00929.png	596.0	25	892490.0	936	10926
120	06_gas	06	18-10-2019	13:05:35:691	rl	gas	2229	2229	60	892687	00934.png	601.0	25	892690.0	1024	-1100
121	06_gas	06	18-10-2019	13:05:35:891	rl	gas	2240	2240	60	892886	00939.png	606.0	25	892890.0	975	5636
122	06_gas	06	18-10-2019	13:05:36:090	rl	gas	2252	2252	60	893086	00944.png	611.0	25	893090.0	1016	95
123	06_gas	06	18-10-2019	13:05:36:289	rl	gas	2264	2264	60	893285	00949.png	616.0	25	893290.0	1052	280
124	06_gas	06	18-10-2019	13:05:36:488	rl	gas	2276	2276	60	893484	00954.png	621.0	25	893490.0	1054	280
125	06_gas	06	18-10-2019	13:05:36:687	rl	gas	2288	2288	60	893683	00959.png	626.0	25	893690.0	1038	334
126	06_gas	06	18-10-2019	13:05:36:886	rl	gas	2300	2300	60	893882	00964.png	631.0	25	893890.0	-379	869
127	06_gas	06	18-10-2019	13:05:37:102	rl	gas	2313	2313	60	894098	00969.png	636.0	25	894090.0	0	0
128	06_gas	06	18-10-2019	13:05:37:302	rl	gas	2325	2325	60	894297	00974.png	641.0	25	894290.0	-547	-837
129	06_gas	06	18-10-2019	13:05:37:500	rl	gas	2337	2337	60	894496	00979.png	646.0	25	894490.0	-406	-543
130	06_gas	06	18-10-2019	13:05:37:699	rl	gas	2349	2349	60	894695	00984.png	651.0	25	894690.0	-12	-321
131	06_gas	06	18-10-2019	13:05:37:899	rl	gas	2361	2361	60	894895	00989.png	656.0	25	894890.0	104	-274
132	06_gas	06	18-10-2019	13:05:38:098	rl	gas	2373	2373	60	895094	00994.png	661.0	25	895090.0	117	-36
133	06_gas	06	18-10-2019	13:05:38:297	rl	gas	2385	2385	60	895293	00999.png	666.0	25	895290.0	-75	-100
134	06_gas	06	18-10-2019	13:05:38:496	rl	gas	2397	2397	60	895492	01004.png	671.0	25	895490.0	1283	-2195
135	06_gas	06	18-10-2019	13:05:38:695	rl	gas	2409	2409	60	895691	01009.png	676.0	25	895690.0	-1049	-2874
136	06_gas	06	18-10-2019	13:05:38:895	rl	gas	2421	2421	60	895890	01014.png	681.0	25	895890.0	-1912	-6354
137	06_gas	06	18-10-2019	13:05:39:094	rl	gas	2433	2433	60	896090	01019.png	686.0	25	896090.0	27493	108122
138	06_gas	06	18-10-2019	13:05:39:293	rl	gas	2445	2445	60	896289	01024.png	691.0	25	896290.0	-8672	-32637
139	06_gas	06	18-10-2019	13:05:39:492	rl	gas	2457	2457	60	896488	01029.png	696.0	25	896490.0	-3521	-12795
140	06_gas	06	18-10-2019	13:05:39:691	rl	gas	2469	2469	60	896687	01034.png	701.0	25	896690.0	0	0
141	06_gas	06	18-10-2019	13:05:39:907	rl	gas	2480	2480	60	896903	01039.png	706.0	25	896890.0	-1351	-4803
142	06_gas	06	18-10-2019	13:05:40:089	rl	gas	2491	2491	60	897085	01044.png	711.0	25	897090.0	149	-1522
143	06_gas	06	18-10-2019	13:05:40:289	rl	gas	2503	2503	60	897285	01049.png	716.0	25	897290.0	198	-1425
144	06_gas	06	18-10-2019	13:05:40:488	rl	gas	2515	2515	60	897484	01054.png	721.0	25	897490.0	219	-1381
145	06_gas	06	18-10-2019	13:05:40:687	rl	gas	2527	2527	60	897683	01059.png	726.0	25	897690.0	206	-1435
146	06_gas	06	18-10-2019	13:05:40:886	rl	gas	2539	2539	60	897882	01064.png	731.0	25	897890.0	-121	-1842
147	06_gas	06	18-10-2019	13:05:41:102	rl	gas	2552	2552	60	898097	01069.png	736.0	25	898090.0	-537	-8592
148	06_gas	06	18-10-2019	13:05:41:301	rl	gas	2564	2564	60	898296	01074.png	741.0	25	898290.0	-1404	-4321
149	06_gas	06	18-10-2019	13:05:41:500	rl	gas	2576	2576	60	898496	01079.png	746.0	25	898490.0	9961	46100
