subject_id	setting_id	trial_id	first_frame_n	first_frame_time	first_frame_id
7	rl	bac	297	2015153.0	00297.png
7	rl	gas	368	1295561.0	00368.png
7	rl	loc	389	900583.0	00389.png
7	rl	rat	282	1719802.0	00282.png
7	rl	reg	325	2622487.0	00325.png
7	rl	valpost	5	62983.0	00005.png
7	rl	valpre	5	59609.0	00005.png
