	setting_id	subject_id	date	trial_id	sample_id	frame_rate	frame_id	fix_pos_x_old	fix_pos_y_old	cam_angle_x	cam_angle_y	cam_angle_z	fix_pos_x	fix_pos_y	fix_pos_avrgd	fix_pos_diff_x	fix_pos_diff_y
0	vr	20	2019-10-30	valpre	470	10	00260.png	314.5	445.5	1	206	358	314.5	445.5	0	0.0	0.0
1	vr	20	2019-10-30	valpre	488	10	00270.png	344.0	492.0	1	206	358	344.0	492.0	0	0.0	0.0
2	vr	20	2019-10-30	valpre	504	10	00280.png	343.0	493.0	1	206	358	343.0	493.0	0	0.0	0.0
3	vr	20	2019-10-30	valpre	522	10	00290.png	342.0	493.0	1	206	358	342.0	493.0	0	0.0	0.0
4	vr	20	2019-10-30	valpre	540	10	00300.png	337.5	489.0	0	206	358	337.5	489.0	0	0.0	0.0
5	vr	20	2019-10-30	valpre	557	10	00310.png	335.0	489.5	0	206	358	335.0	489.5	0	0.0	0.0
6	vr	20	2019-10-30	valpre	574	10	00320.png	330.5	483.5	1	206	358	330.5	483.5	0	0.0	0.0
7	vr	20	2019-10-30	valpre	575	10	00320.png	330.5	483.5	1	206	358	330.5	483.5	0	0.0	0.0
8	vr	20	2019-10-30	valpre	592	10	00330.png	329.0	482.0	1	206	358	329.0	482.0	0	0.0	0.0
9	vr	20	2019-10-30	valpre	610	10	00340.png	326.0	481.5	1	206	358	326.0	481.5	0	0.0	0.0
10	vr	20	2019-10-30	valpre	627	10	00350.png	324.0	480.5	1	206	358	324.0	480.5	0	0.0	0.0
11	vr	20	2019-10-30	valpre	645	10	00360.png	323.0	480.5	1	206	358	323.0	480.5	0	0.0	0.0
12	vr	20	2019-10-30	valpre	663	10	00370.png	322.0	481.0	1	206	358	322.0	481.0	0	0.0	0.0
13	vr	20	2019-10-30	valpre	681	10	00380.png	293.0	407.0	1	206	358	293.0	407.0	0	0.0	0.0
14	vr	20	2019-10-30	valpre	698	10	00390.png	259.5	402.0	1	206	358	259.5	402.0	0	0.0	0.0
15	vr	20	2019-10-30	valpre	716	10	00400.png	258.5	401.5	1	206	358	258.5	401.5	0	0.0	0.0
16	vr	20	2019-10-30	valpre	734	10	00410.png	280.0	451.5	1	206	358	280.0	451.5	0	0.0	0.0
17	vr	20	2019-10-30	valpre	751	10	00420.png	244.0	383.0	1	206	358	244.75	383.0	1	-0.75	0.0
18	vr	20	2019-10-30	valpre	752	10	00420.png	245.5	383.0	1	206	358	244.75	383.0	1	0.75	0.0
19	vr	20	2019-10-30	valpre	768	10	00430.png	244.5	383.5	1	206	358	244.5	384.0	1	0.0	-0.5
20	vr	20	2019-10-30	valpre	769	10	00430.png	244.5	384.5	1	206	358	244.5	384.0	1	0.0	0.5
21	vr	20	2019-10-30	valpre	783	10	00440.png	241.5	379.0	1	206	358	241.5	379.0	0	0.0	0.0
22	vr	20	2019-10-30	valpre	784	10	00440.png	241.5	379.0	1	206	358	241.5	379.0	0	0.0	0.0
23	vr	20	2019-10-30	valpre	801	10	00450.png	241.0	380.5	1	206	358	241.0	380.5	0	0.0	0.0
24	vr	20	2019-10-30	valpre	819	10	00460.png	240.5	383.5	1	206	358	240.5	383.5	0	0.0	0.0
25	vr	20	2019-10-30	valpre	837	10	00470.png	243.0	381.5	1	206	358	243.0	381.5	0	0.0	0.0
26	vr	20	2019-10-30	valpre	854	10	00480.png	241.5	386.0	1	206	358	241.5	386.0	0	0.0	0.0
27	vr	20	2019-10-30	valpre	871	10	00490.png	243.5	386.0	1	206	358	244.0	386.25	1	-0.5	-0.25
28	vr	20	2019-10-30	valpre	872	10	00490.png	244.5	386.5	1	206	358	244.0	386.25	1	0.5	0.25
29	vr	20	2019-10-30	valpre	888	10	00500.png	245.5	387.5	1	206	358	245.5	387.5	0	0.0	0.0
30	vr	20	2019-10-30	valpre	905	10	00510.png	247.5	391.0	1	206	358	247.5	391.0	0	0.0	0.0
31	vr	20	2019-10-30	valpre	923	10	00520.png	245.5	390.5	0	206	358	245.5	390.5	0	0.0	0.0
32	vr	20	2019-10-30	valpre	941	10	00530.png	246.0	389.0	1	206	358	246.0	389.0	0	0.0	0.0
33	vr	20	2019-10-30	valpre	958	10	00540.png	329.0	472.0	1	205	358	329.0	472.0	0	0.0	0.0
34	vr	20	2019-10-30	valpre	976	10	00550.png	300.5	474.5	1	205	358	300.5	474.5	0	0.0	0.0
35	vr	20	2019-10-30	valpre	994	10	00560.png	311.0	476.5	1	205	358	311.0	476.5	0	0.0	0.0
36	vr	20	2019-10-30	valpre	1012	10	00570.png	177.0	553.0	1	205	358	177.0	553.0	0	0.0	0.0
37	vr	20	2019-10-30	valpre	1030	10	00580.png	174.0	547.0	1	205	358	174.0	547.0	0	0.0	0.0
38	vr	20	2019-10-30	valpre	1046	10	00590.png	149.5	536.5	1	205	358	149.5	536.5	0	0.0	0.0
39	vr	20	2019-10-30	valpre	1064	10	00600.png	156.5	534.5	1	204	358	160.25	533.5	1	-3.75	1.0
40	vr	20	2019-10-30	valpre	1065	10	00600.png	164.0	532.5	1	204	358	160.25	533.5	1	3.75	-1.0
41	vr	20	2019-10-30	valpre	1082	10	00610.png	177.0	514.5	1	201	358	177.0	514.5	0	0.0	0.0
42	vr	20	2019-10-30	valpre	1098	10	00620.png	177.0	507.5	2	195	359	179.5	505.75	1	-2.5	1.75
43	vr	20	2019-10-30	valpre	1099	10	00620.png	182.0	504.0	2	195	359	179.5	505.75	1	2.5	-1.75
44	vr	20	2019-10-30	valpre	1116	10	00630.png	199.0	483.5	2	194	359	199.0	483.5	0	0.0	0.0
45	vr	20	2019-10-30	valpre	1134	10	00640.png	208.5	502.0	2	194	359	208.5	502.0	0	0.0	0.0
46	vr	20	2019-10-30	valpre	1151	10	00650.png	200.0	496.0	2	194	359	200.0	496.0	0	0.0	0.0
47	vr	20	2019-10-30	valpre	1169	10	00660.png	210.5	509.5	2	193	359	210.5	509.5	0	0.0	0.0
48	vr	20	2019-10-30	valpre	1187	10	00670.png	258.5	539.0	2	194	359	258.5	539.0	0	0.0	0.0
49	vr	20	2019-10-30	valpre	1205	10	00680.png	256.5	483.5	2	194	359	256.5	483.5	0	0.0	0.0
50	vr	20	2019-10-30	valpre	1222	10	00690.png	296.5	484.0	2	193	359	296.5	484.0	0	0.0	0.0
51	vr	20	2019-10-30	valpre	1238	10	00700.png	304.5	480.5	2	193	359	304.5	480.5	0	0.0	0.0
52	vr	20	2019-10-30	valpre	1256	10	00710.png	324.0	411.5	2	193	359	322.0	403.25	1	2.0	8.25
53	vr	20	2019-10-30	valpre	1257	10	00710.png	320.0	395.0	2	193	359	322.0	403.25	1	-2.0	-8.25
54	vr	20	2019-10-30	valpre	1273	10	00720.png	325.5	389.5	2	192	359	325.5	389.5	0	0.0	0.0
55	vr	20	2019-10-30	valpre	1291	10	00730.png	246.0	476.0	2	192	359	246.0	476.0	0	0.0	0.0
56	vr	20	2019-10-30	valpre	1307	10	00740.png	409.5	474.0	2	192	358	409.0	474.25	1	0.5	-0.25
57	vr	20	2019-10-30	valpre	1308	10	00740.png	408.5	474.5	2	192	358	409.0	474.25	1	-0.5	0.25
58	vr	20	2019-10-30	valpre	1324	10	00750.png	381.5	482.0	2	193	358	381.5	481.75	1	0.0	0.25
59	vr	20	2019-10-30	valpre	1325	10	00750.png	381.5	481.5	2	193	358	381.5	481.75	1	0.0	-0.25
60	vr	20	2019-10-30	valpre	1343	10	00760.png	379.5	482.0	2	193	358	379.5	482.0	0	0.0	0.0
61	vr	20	2019-10-30	valpre	1361	10	00770.png	399.0	482.0	2	193	358	399.0	482.0	0	0.0	0.0
62	vr	20	2019-10-30	valpre	1378	10	00780.png	0.0	840.0	2	194	358	0.0	840.0	0	0.0	0.0
63	vr	20	2019-10-30	valpre	1396	10	00790.png	386.5	483.0	2	196	358	386.5	483.0	0	0.0	0.0
64	vr	20	2019-10-30	valpre	1414	10	00800.png	400.0	473.0	2	196	358	400.0	473.0	0	0.0	0.0
65	vr	20	2019-10-30	valpre	1432	10	00810.png	412.5	473.0	2	196	358	412.5	473.0	0	0.0	0.0
66	vr	20	2019-10-30	valpre	1448	10	00820.png	413.0	472.5	2	197	358	413.0	472.5	0	0.0	0.0
67	vr	20	2019-10-30	valpre	1466	10	00830.png	410.0	473.5	2	197	358	410.0	473.5	0	0.0	0.0
68	vr	20	2019-10-30	valpre	1484	10	00840.png	409.0	475.0	3	198	358	409.0	475.0	0	0.0	0.0
69	vr	20	2019-10-30	valpre	1502	10	00850.png	405.0	473.0	3	198	358	405.0	473.0	0	0.0	0.0
70	vr	20	2019-10-30	valpre	1518	10	00860.png	406.0	472.0	3	198	358	406.0	472.0	0	0.0	0.0
71	vr	20	2019-10-30	valpre	1519	10	00860.png	406.0	472.0	3	198	358	406.0	472.0	0	0.0	0.0
72	vr	20	2019-10-30	valpre	1537	10	00870.png	286.0	391.0	3	198	358	286.0	391.0	0	0.0	0.0
73	vr	20	2019-10-30	valpre	1555	10	00880.png	302.0	395.5	3	198	358	302.0	395.5	0	0.0	0.0
74	vr	20	2019-10-30	valpre	1573	10	00890.png	286.5	387.0	3	198	358	286.5	387.0	0	0.0	0.0
75	vr	20	2019-10-30	valpre	1591	10	00900.png	288.0	371.5	3	197	358	288.0	371.5	0	0.0	0.0
76	vr	20	2019-10-30	valpre	1609	10	00910.png	289.0	371.0	3	197	358	289.0	371.0	0	0.0	0.0
77	vr	20	2019-10-30	valpre	1627	10	00920.png	285.0	368.0	2	197	358	285.0	368.0	0	0.0	0.0
78	vr	20	2019-10-30	valpre	1643	10	00930.png	288.0	370.5	2	196	358	288.0	370.5	0	0.0	0.0
79	vr	20	2019-10-30	valpre	1661	10	00940.png	290.0	391.0	2	196	358	290.0	391.0	0	0.0	0.0
80	vr	20	2019-10-30	valpre	1678	10	00950.png	294.0	370.5	2	196	358	294.0	370.5	0	0.0	0.0
81	vr	20	2019-10-30	valpre	1679	10	00950.png	294.0	370.5	2	196	358	294.0	370.5	0	0.0	0.0
82	vr	20	2019-10-30	valpre	1693	10	00960.png	296.0	369.5	2	196	358	295.25	379.75	1	0.75	-10.25
83	vr	20	2019-10-30	valpre	1694	10	00960.png	294.5	390.0	2	196	358	295.25	379.75	1	-0.75	10.25
84	vr	20	2019-10-30	valpre	1711	10	00970.png	295.5	371.0	2	195	358	295.5	371.0	0	0.0	0.0
85	vr	20	2019-10-30	valpre	1729	10	00980.png	297.5	372.0	2	195	358	297.5	372.0	0	0.0	0.0
86	vr	20	2019-10-30	valpre	1746	10	00990.png	297.0	372.0	2	195	358	297.0	372.0	0	0.0	0.0
87	vr	20	2019-10-30	valpre	1764	10	01000.png	300.0	393.0	2	195	358	300.0	393.0	0	0.0	0.0
