	setting_id	subject_id	date	trial_id	sample_id	frame_rate	frame_id	fix_pos_x_old	fix_pos_y_old	cam_angle_x	cam_angle_y	cam_angle_z	fix_pos_x	fix_pos_y	fix_pos_avrgd	fix_pos_diff_x	fix_pos_diff_y
0	vr	22	2019-10-30	bac_1	477	10	00260.png	461.0	430.0	359	198	1	461.0	430.0	0	0.0	0.0
1	vr	22	2019-10-30	bac_1	495	10	00270.png	403.0	431.0	359	199	1	403.0	431.0	0	0.0	0.0
2	vr	22	2019-10-30	bac_1	513	10	00280.png	408.5	415.5	359	199	1	408.5	415.5	0	0.0	0.0
3	vr	22	2019-10-30	bac_1	531	10	00290.png	410.5	413.0	359	201	1	410.5	413.0	0	0.0	0.0
4	vr	22	2019-10-30	bac_1	549	10	00300.png	434.5	396.0	359	206	1	434.5	396.0	0	0.0	0.0
5	vr	22	2019-10-30	bac_1	566	10	00310.png	542.5	445.0	359	214	1	542.5	445.0	0	0.0	0.0
6	vr	22	2019-10-30	bac_1	584	10	00320.png	482.5	441.5	359	224	0	482.5	441.5	0	0.0	0.0
7	vr	22	2019-10-30	bac_1	601	10	00330.png	518.5	427.5	359	233	0	518.5	427.5	0	0.0	0.0
8	vr	22	2019-10-30	bac_1	618	10	00340.png	482.0	429.5	358	239	0	480.5	429.5	1	1.5	0.0
9	vr	22	2019-10-30	bac_1	619	10	00340.png	479.0	429.5	358	239	0	480.5	429.5	1	-1.5	0.0
10	vr	22	2019-10-30	bac_1	635	10	00350.png	335.5	432.0	358	240	0	335.5	432.0	0	0.0	0.0
11	vr	22	2019-10-30	bac_1	636	10	00350.png	335.5	432.0	358	240	0	335.5	432.0	0	0.0	0.0
12	vr	22	2019-10-30	bac_1	651	10	00360.png	342.5	429.5	359	238	0	342.5	429.5	0	0.0	0.0
13	vr	22	2019-10-30	bac_1	669	10	00370.png	394.5	430.5	359	237	0	394.5	430.5	0	0.0	0.0
14	vr	22	2019-10-30	bac_1	686	10	00380.png	446.0	429.5	359	237	0	446.0	429.5	0	0.0	0.0
15	vr	22	2019-10-30	bac_1	704	10	00390.png	530.0	420.5	360	242	360	530.0	420.5	0	0.0	0.0
16	vr	22	2019-10-30	bac_1	722	10	00400.png	566.0	408.0	1	258	359	566.0	408.0	0	0.0	0.0
17	vr	22	2019-10-30	bac_1	740	10	00410.png	487.0	403.5	2	271	359	487.0	403.5	0	0.0	0.0
18	vr	22	2019-10-30	bac_1	758	10	00420.png	475.0	408.5	1	277	359	475.0	408.5	0	0.0	0.0
19	vr	22	2019-10-30	bac_1	775	10	00430.png	424.5	448.5	2	280	358	412.25	428.0	1	12.25	20.5
20	vr	22	2019-10-30	bac_1	776	10	00430.png	400.0	407.5	1	280	358	412.25	428.0	1	-12.25	-20.5
21	vr	22	2019-10-30	bac_1	793	10	00440.png	365.5	407.0	1	279	358	365.5	407.0	0	0.0	0.0
22	vr	22	2019-10-30	bac_1	811	10	00450.png	329.0	411.0	1	276	358	329.0	411.0	0	0.0	0.0
23	vr	22	2019-10-30	bac_1	829	10	00460.png	347.0	416.5	1	270	358	347.0	416.5	0	0.0	0.0
24	vr	22	2019-10-30	bac_1	845	10	00470.png	326.5	418.0	1	257	359	318.5	418.25	1	8.0	-0.25
25	vr	22	2019-10-30	bac_1	846	10	00470.png	310.5	418.5	1	256	359	318.5	418.25	1	-8.0	0.25
26	vr	22	2019-10-30	bac_1	862	10	00480.png	331.0	421.5	1	239	360	331.0	421.5	0	0.0	0.0
27	vr	22	2019-10-30	bac_1	879	10	00490.png	270.5	434.0	3	221	360	272.5	433.5	1	-2.0	0.5
28	vr	22	2019-10-30	bac_1	880	10	00490.png	274.5	433.0	3	220	360	272.5	433.5	1	2.0	-0.5
29	vr	22	2019-10-30	bac_1	897	10	00500.png	301.0	398.5	3	204	358	301.0	398.5	0	0.0	0.0
30	vr	22	2019-10-30	bac_1	915	10	00510.png	216.0	413.0	3	190	359	216.0	413.0	0	0.0	0.0
31	vr	22	2019-10-30	bac_1	933	10	00520.png	247.5	412.5	4	178	359	247.5	412.5	0	0.0	0.0
32	vr	22	2019-10-30	bac_1	951	10	00530.png	292.0	426.0	1	166	359	292.0	426.0	0	0.0	0.0
33	vr	22	2019-10-30	bac_1	969	10	00540.png	355.5	339.5	359	156	359	355.5	339.5	0	0.0	0.0
34	vr	22	2019-10-30	bac_1	986	10	00550.png	263.0	397.0	359	149	359	265.0	397.5	1	-2.0	-0.5
35	vr	22	2019-10-30	bac_1	987	10	00550.png	267.0	398.0	359	149	359	265.0	397.5	1	2.0	0.5
36	vr	22	2019-10-30	bac_1	1003	10	00560.png	222.0	403.0	358	141	360	222.0	403.0	0	0.0	0.0
37	vr	22	2019-10-30	bac_1	1020	10	00570.png	257.5	408.5	358	130	1	257.5	408.5	0	0.0	0.0
38	vr	22	2019-10-30	bac_1	1037	10	00580.png	311.5	399.0	359	120	2	311.5	399.0	0	0.0	0.0
39	vr	22	2019-10-30	bac_1	1054	10	00590.png	294.5	412.5	1	113	1	294.5	412.5	0	0.0	0.0
40	vr	22	2019-10-30	bac_1	1072	10	00600.png	326.5	420.5	0	106	360	326.5	420.5	0	0.0	0.0
41	vr	22	2019-10-30	bac_1	1090	10	00610.png	342.5	422.5	0	102	360	342.5	422.5	0	0.0	0.0
42	vr	22	2019-10-30	bac_1	1107	10	00620.png	356.0	425.0	359	97	359	356.0	425.0	0	0.0	0.0
43	vr	22	2019-10-30	bac_1	1125	10	00630.png	371.0	425.5	360	94	359	371.0	425.5	0	0.0	0.0
44	vr	22	2019-10-30	bac_1	1143	10	00640.png	358.0	412.5	1	95	359	358.0	412.5	0	0.0	0.0
45	vr	22	2019-10-30	bac_1	1160	10	00650.png	361.5	393.0	2	95	359	361.5	393.0	0	0.0	0.0
46	vr	22	2019-10-30	bac_1	1161	10	00650.png	361.5	393.0	2	95	359	361.5	393.0	0	0.0	0.0
47	vr	22	2019-10-30	bac_1	1176	10	00660.png	360.5	390.5	1	95	359	360.5	390.5	0	0.0	0.0
48	vr	22	2019-10-30	bac_1	1193	10	00670.png	354.5	391.0	0	97	359	354.5	391.0	0	0.0	0.0
49	vr	22	2019-10-30	bac_1	1211	10	00680.png	350.5	385.0	1	98	358	350.5	385.0	0	0.0	0.0
50	vr	22	2019-10-30	bac_1	1229	10	00690.png	341.0	378.5	2	100	358	341.0	378.5	0	0.0	0.0
51	vr	22	2019-10-30	bac_1	1247	10	00700.png	333.0	383.0	1	102	358	333.0	383.0	0	0.0	0.0
52	vr	22	2019-10-30	bac_1	1265	10	00710.png	336.5	383.5	2	101	358	336.5	383.5	0	0.0	0.0
53	vr	22	2019-10-30	bac_1	1281	10	00720.png	331.0	384.5	1	102	358	331.0	384.5	0	0.0	0.0
54	vr	22	2019-10-30	bac_1	1298	10	00730.png	325.5	397.0	2	102	358	325.5	397.0	0	0.0	0.0
55	vr	22	2019-10-30	bac_1	1317	10	00740.png	326.5	389.0	2	101	358	326.5	389.0	0	0.0	0.0
56	vr	22	2019-10-30	bac_1	1334	10	00750.png	327.5	373.0	2	101	358	327.5	373.0	0	0.0	0.0
57	vr	22	2019-10-30	bac_1	1352	10	00760.png	324.5	370.0	2	102	358	324.5	370.0	0	0.0	0.0
58	vr	22	2019-10-30	bac_1	1369	10	00770.png	322.5	373.5	1	102	358	322.25	373.75	1	0.25	-0.25
59	vr	22	2019-10-30	bac_1	1370	10	00770.png	322.0	374.0	1	102	358	322.25	373.75	1	-0.25	0.25
60	vr	22	2019-10-30	bac_1	1383	10	00780.png	324.0	417.5	2	106	358	323.0	417.5	1	1.0	0.0
61	vr	22	2019-10-30	bac_1	1384	10	00780.png	322.0	417.5	2	106	358	323.0	417.5	1	-1.0	0.0
62	vr	22	2019-10-30	bac_1	1398	10	00790.png	298.5	410.0	3	112	359	298.5	410.0	0	0.0	0.0
63	vr	22	2019-10-30	bac_1	1416	10	00800.png	279.0	405.0	3	113	359	279.0	405.0	0	0.0	0.0
64	vr	22	2019-10-30	bac_1	1434	10	00810.png	363.0	403.0	3	113	360	363.0	403.0	0	0.0	0.0
65	vr	22	2019-10-30	bac_1	1452	10	00820.png	406.5	422.5	2	123	0	406.5	422.5	0	0.0	0.0
66	vr	22	2019-10-30	bac_1	1486	10	00840.png	403.0	444.0	2	146	1	403.0	444.0	0	0.0	0.0
67	vr	22	2019-10-30	bac_1	1503	10	00850.png	414.0	461.0	3	153	1	414.0	461.0	0	0.0	0.0
68	vr	22	2019-10-30	bac_1	1520	10	00860.png	377.5	454.5	4	160	1	377.5	454.5	0	0.0	0.0
69	vr	22	2019-10-30	bac_1	1538	10	00870.png	533.5	424.0	3	165	1	533.5	424.0	0	0.0	0.0
70	vr	22	2019-10-30	bac_1	1554	10	00880.png	486.0	430.5	2	175	1	499.5	430.25	1	-13.5	0.25
71	vr	22	2019-10-30	bac_1	1555	10	00880.png	513.0	430.0	1	175	2	499.5	430.25	1	13.5	-0.25
72	vr	22	2019-10-30	bac_1	1569	10	00890.png	323.5	381.0	1	185	2	407.25	405.75	1	-83.75	-24.75
73	vr	22	2019-10-30	bac_1	1570	10	00890.png	491.0	430.5	1	186	2	407.25	405.75	1	83.75	24.75
74	vr	22	2019-10-30	bac_1	1585	10	00900.png	460.5	417.5	1	192	2	459.75	417.5	1	0.75	0.0
75	vr	22	2019-10-30	bac_1	1586	10	00900.png	459.0	417.5	1	192	2	459.75	417.5	1	-0.75	0.0
76	vr	22	2019-10-30	bac_1	1603	10	00910.png	433.0	414.0	1	197	1	433.0	414.0	0	0.0	0.0
77	vr	22	2019-10-30	bac_1	1621	10	00920.png	411.5	411.5	1	200	1	411.5	411.5	0	0.0	0.0
78	vr	22	2019-10-30	bac_1	1639	10	00930.png	401.5	408.5	1	202	0	401.5	408.5	0	0.0	0.0
79	vr	22	2019-10-30	bac_1	1656	10	00940.png	400.0	406.0	1	202	0	400.0	406.0	0	0.0	0.0
80	vr	22	2019-10-30	bac_1	1673	10	00950.png	394.0	408.0	1	203	1	394.0	408.0	0	0.0	0.0
81	vr	22	2019-10-30	bac_1	1691	10	00960.png	432.5	431.5	2	203	1	432.5	431.5	0	0.0	0.0
82	vr	22	2019-10-30	bac_1	1709	10	00970.png	474.5	438.0	3	205	0	474.5	438.0	0	0.0	0.0
83	vr	22	2019-10-30	bac_1	1726	10	00980.png	462.0	433.5	2	210	1	462.0	433.5	0	0.0	0.0
84	vr	22	2019-10-30	bac_1	1743	10	00990.png	462.0	393.5	2	216	360	461.0	393.5	1	1.0	0.0
85	vr	22	2019-10-30	bac_1	1744	10	00990.png	460.0	393.5	2	217	360	461.0	393.5	1	-1.0	0.0
86	vr	22	2019-10-30	bac_1	1761	10	01000.png	479.0	334.5	1	224	359	479.0	334.5	0	0.0	0.0
