	subject_location	subject_id	date	daytime	setting_id	trial_id	sample_id	sample_n	sample_rate	sample_time_smi	frame_id	frame_n	frame_rate	frame_time_smi	fix_pos_x	fix_pos_y
0	21_rat	21	24-10-2019	18:23:07:956	rl	rat	1183	1183	60	1782579	00493.png	1.0	25	1782583.0	787	593
1	21_rat	21	24-10-2019	18:23:08:155	rl	rat	1193	1193	60	1782779	00498.png	6.0	25	1782783.0	715	248
2	21_rat	21	24-10-2019	18:23:08:354	rl	rat	1205	1205	60	1782978	00503.png	11.0	25	1782983.0	0	0
3	21_rat	21	24-10-2019	18:23:08:553	rl	rat	1217	1217	60	1783177	00508.png	16.0	25	1783183.0	0	0
4	21_rat	21	24-10-2019	18:23:08:752	rl	rat	1229	1229	60	1783376	00513.png	21.0	25	1783383.0	0	0
5	21_rat	21	24-10-2019	18:23:08:951	rl	rat	1241	1241	60	1783575	00518.png	26.0	25	1783583.0	0	0
6	21_rat	21	24-10-2019	18:23:09:167	rl	rat	1254	1254	60	1783791	00523.png	31.0	25	1783783.0	0	0
7	21_rat	21	24-10-2019	18:23:09:366	rl	rat	1266	1266	60	1783990	00528.png	36.0	25	1783983.0	-635	-186
8	21_rat	21	24-10-2019	18:23:09:565	rl	rat	1278	1278	60	1784189	00533.png	41.0	25	1784183.0	0	0
9	21_rat	21	24-10-2019	18:23:09:764	rl	rat	1290	1290	60	1784388	00538.png	46.0	25	1784383.0	-839	-228
10	21_rat	21	24-10-2019	18:23:09:964	rl	rat	1302	1302	60	1784587	00543.png	51.0	25	1784583.0	0	0
11	21_rat	21	24-10-2019	18:23:10:163	rl	rat	1314	1314	60	1784787	00548.png	56.0	25	1784783.0	-393	320
12	21_rat	21	24-10-2019	18:23:10:362	rl	rat	1326	1326	60	1784986	00553.png	61.0	25	1784983.0	0	0
13	21_rat	21	24-10-2019	18:23:10:561	rl	rat	1338	1338	60	1785185	00558.png	66.0	25	1785183.0	0	0
14	21_rat	21	24-10-2019	18:23:10:760	rl	rat	1350	1350	60	1785384	00563.png	71.0	25	1785383.0	-91	386
15	21_rat	21	24-10-2019	18:23:10:959	rl	rat	1362	1362	60	1785583	00568.png	76.0	25	1785583.0	0	0
16	21_rat	21	24-10-2019	18:23:11:158	rl	rat	1374	1374	60	1785782	00573.png	81.0	25	1785783.0	758	422
17	21_rat	21	24-10-2019	18:23:11:357	rl	rat	1386	1386	60	1785981	00578.png	86.0	25	1785983.0	0	0
18	21_rat	21	24-10-2019	18:23:11:557	rl	rat	1398	1398	60	1786180	00583.png	91.0	25	1786183.0	0	0
19	21_rat	21	24-10-2019	18:23:11:756	rl	rat	1410	1410	60	1786380	00588.png	96.0	25	1786383.0	0	0
20	21_rat	21	24-10-2019	18:23:11:955	rl	rat	1420	1420	60	1786579	00593.png	101.0	25	1786583.0	0	0
21	21_rat	21	24-10-2019	18:23:12:154	rl	rat	1432	1432	60	1786778	00598.png	106.0	25	1786783.0	0	0
22	21_rat	21	24-10-2019	18:23:12:353	rl	rat	1444	1444	60	1786977	00603.png	111.0	25	1786983.0	0	0
23	21_rat	21	24-10-2019	18:23:12:553	rl	rat	1456	1456	60	1787176	00608.png	116.0	25	1787183.0	0	0
24	21_rat	21	24-10-2019	18:23:12:752	rl	rat	1468	1468	60	1787376	00613.png	121.0	25	1787383.0	0	0
25	21_rat	21	24-10-2019	18:23:12:951	rl	rat	1480	1480	60	1787575	00618.png	126.0	25	1787583.0	0	0
26	21_rat	21	24-10-2019	18:23:13:167	rl	rat	1493	1493	60	1787791	00623.png	131.0	25	1787783.0	-51	250
27	21_rat	21	24-10-2019	18:23:13:366	rl	rat	1505	1505	60	1787989	00628.png	136.0	25	1787983.0	-535	252
28	21_rat	21	24-10-2019	18:23:13:565	rl	rat	1517	1517	60	1788189	00633.png	141.0	25	1788183.0	0	0
29	21_rat	21	24-10-2019	18:23:13:764	rl	rat	1529	1529	60	1788388	00638.png	146.0	25	1788383.0	-732	251
30	21_rat	21	24-10-2019	18:23:13:963	rl	rat	1541	1541	60	1788587	00643.png	151.0	25	1788583.0	-380	49
31	21_rat	21	24-10-2019	18:23:14:162	rl	rat	1553	1553	60	1788786	00648.png	156.0	25	1788783.0	0	0
32	21_rat	21	24-10-2019	18:23:14:361	rl	rat	1565	1565	60	1788985	00653.png	161.0	25	1788983.0	0	0
33	21_rat	21	24-10-2019	18:23:14:561	rl	rat	1577	1577	60	1789184	00658.png	166.0	25	1789183.0	0	0
34	21_rat	21	24-10-2019	18:23:14:760	rl	rat	1589	1589	60	1789384	00663.png	171.0	25	1789383.0	0	0
35	21_rat	21	24-10-2019	18:23:14:959	rl	rat	1601	1601	60	1789583	00668.png	176.0	25	1789583.0	0	0
36	21_rat	21	24-10-2019	18:23:15:158	rl	rat	1613	1613	60	1789782	00673.png	181.0	25	1789783.0	0	0
37	21_rat	21	24-10-2019	18:23:15:357	rl	rat	1625	1625	60	1789981	00678.png	186.0	25	1789983.0	1867	-28
38	21_rat	21	24-10-2019	18:23:15:556	rl	rat	1637	1637	60	1790180	00683.png	191.0	25	1790183.0	0	0
39	21_rat	21	24-10-2019	18:23:15:772	rl	rat	1648	1648	60	1790396	00688.png	196.0	25	1790383.0	305	149
40	21_rat	21	24-10-2019	18:23:15:955	rl	rat	1658	1658	60	1790578	00693.png	201.0	25	1790583.0	470	152
41	21_rat	21	24-10-2019	18:23:16:154	rl	rat	1670	1670	60	1790778	00698.png	206.0	25	1790783.0	371	174
42	21_rat	21	24-10-2019	18:23:16:353	rl	rat	1682	1682	60	1790977	00703.png	211.0	25	1790983.0	-570	436
43	21_rat	21	24-10-2019	18:23:16:552	rl	rat	1694	1694	60	1791176	00708.png	216.0	25	1791183.0	-408	474
44	21_rat	21	24-10-2019	18:23:16:751	rl	rat	1706	1706	60	1791375	00713.png	221.0	25	1791383.0	-705	261
45	21_rat	21	24-10-2019	18:23:16:967	rl	rat	1719	1719	60	1791591	00718.png	226.0	25	1791583.0	1375	85
46	21_rat	21	24-10-2019	18:23:17:166	rl	rat	1731	1731	60	1791789	00723.png	231.0	25	1791783.0	327	115
47	21_rat	21	24-10-2019	18:23:17:365	rl	rat	1743	1743	60	1791989	00728.png	236.0	25	1791983.0	-1270	424
48	21_rat	21	24-10-2019	18:23:17:564	rl	rat	1755	1755	60	1792188	00733.png	241.0	25	1792183.0	0	0
49	21_rat	21	24-10-2019	18:23:17:763	rl	rat	1767	1767	60	1792387	00738.png	246.0	25	1792383.0	1876	-32
50	21_rat	21	24-10-2019	18:23:17:962	rl	rat	1779	1779	60	1792586	00743.png	251.0	25	1792583.0	1590	46
51	21_rat	21	24-10-2019	18:23:18:162	rl	rat	1791	1791	60	1792786	00748.png	256.0	25	1792783.0	-957	868
52	21_rat	21	24-10-2019	18:23:18:361	rl	rat	1803	1803	60	1792985	00753.png	261.0	25	1792983.0	-1391	258
53	21_rat	21	24-10-2019	18:23:18:560	rl	rat	1815	1815	60	1793184	00758.png	266.0	25	1793183.0	402	228
54	21_rat	21	24-10-2019	18:23:18:759	rl	rat	1827	1827	60	1793383	00763.png	271.0	25	1793383.0	-1407	243
55	21_rat	21	24-10-2019	18:23:18:958	rl	rat	1839	1839	60	1793582	00768.png	276.0	25	1793583.0	-177	318
56	21_rat	21	24-10-2019	18:23:19:157	rl	rat	1851	1851	60	1793781	00773.png	281.0	25	1793783.0	193	353
57	21_rat	21	24-10-2019	18:23:19:357	rl	rat	1863	1863	60	1793981	00778.png	286.0	25	1793983.0	-66	344
58	21_rat	21	24-10-2019	18:23:19:556	rl	rat	1875	1875	60	1794180	00783.png	291.0	25	1794183.0	-1371	72
59	21_rat	21	24-10-2019	18:23:19:755	rl	rat	1884	1884	60	1794379	00788.png	296.0	25	1794383.0	188	347
60	21_rat	21	24-10-2019	18:23:19:954	rl	rat	1896	1896	60	1794578	00793.png	301.0	25	1794583.0	187	347
61	21_rat	21	24-10-2019	18:23:20:153	rl	rat	1908	1908	60	1794777	00798.png	306.0	25	1794783.0	210	349
62	21_rat	21	24-10-2019	18:23:20:352	rl	rat	1920	1920	60	1794976	00803.png	311.0	25	1794983.0	517	252
63	21_rat	21	24-10-2019	18:23:20:552	rl	rat	1932	1932	60	1795175	00808.png	316.0	25	1795183.0	758	422
64	21_rat	21	24-10-2019	18:23:20:767	rl	rat	1945	1945	60	1795391	00813.png	321.0	25	1795383.0	758	422
65	21_rat	21	24-10-2019	18:23:20:966	rl	rat	1957	1957	60	1795590	00818.png	326.0	25	1795583.0	0	0
66	21_rat	21	24-10-2019	18:23:21:166	rl	rat	1969	1969	60	1795789	00823.png	331.0	25	1795783.0	0	0
67	21_rat	21	24-10-2019	18:23:21:364	rl	rat	1981	1981	60	1795988	00828.png	336.0	25	1795983.0	0	0
68	21_rat	21	24-10-2019	18:23:21:563	rl	rat	1993	1993	60	1796187	00833.png	341.0	25	1796183.0	0	0
69	21_rat	21	24-10-2019	18:23:21:763	rl	rat	2005	2005	60	1796387	00838.png	346.0	25	1796383.0	0	0
70	21_rat	21	24-10-2019	18:23:21:962	rl	rat	2017	2017	60	1796586	00843.png	351.0	25	1796583.0	0	0
71	21_rat	21	24-10-2019	18:23:22:161	rl	rat	2029	2029	60	1796785	00848.png	356.0	25	1796783.0	0	0
72	21_rat	21	24-10-2019	18:23:22:360	rl	rat	2041	2041	60	1796984	00853.png	361.0	25	1796983.0	0	0
73	21_rat	21	24-10-2019	18:23:22:560	rl	rat	2053	2053	60	1797183	00858.png	366.0	25	1797183.0	0	0
74	21_rat	21	24-10-2019	18:23:22:758	rl	rat	2065	2065	60	1797382	00863.png	371.0	25	1797383.0	0	0
75	21_rat	21	24-10-2019	18:23:22:958	rl	rat	2077	2077	60	1797582	00868.png	376.0	25	1797583.0	-38	391
76	21_rat	21	24-10-2019	18:23:23:157	rl	rat	2089	2089	60	1797781	00873.png	381.0	25	1797783.0	0	0
77	21_rat	21	24-10-2019	18:23:23:356	rl	rat	2101	2101	60	1797980	00878.png	386.0	25	1797983.0	0	0
78	21_rat	21	24-10-2019	18:23:23:555	rl	rat	2112	2112	60	1798179	00883.png	391.0	25	1798183.0	1087	168
79	21_rat	21	24-10-2019	18:23:23:754	rl	rat	2124	2124	60	1798378	00888.png	396.0	25	1798383.0	0	0
80	21_rat	21	24-10-2019	18:23:23:954	rl	rat	2136	2136	60	1798577	00893.png	401.0	25	1798583.0	0	0
81	21_rat	21	24-10-2019	18:23:24:153	rl	rat	2148	2148	60	1798777	00898.png	406.0	25	1798783.0	758	422
82	21_rat	21	24-10-2019	18:23:24:352	rl	rat	2160	2160	60	1798976	00903.png	411.0	25	1798983.0	2544	-258
83	21_rat	21	24-10-2019	18:23:24:551	rl	rat	2172	2172	60	1799175	00908.png	416.0	25	1799183.0	3050	-454
84	21_rat	21	24-10-2019	18:23:24:767	rl	rat	2185	2185	60	1799391	00913.png	421.0	25	1799383.0	163	344
85	21_rat	21	24-10-2019	18:23:24:966	rl	rat	2197	2197	60	1799590	00918.png	426.0	25	1799583.0	0	0
86	21_rat	21	24-10-2019	18:23:25:165	rl	rat	2209	2209	60	1799789	00923.png	431.0	25	1799783.0	758	422
87	21_rat	21	24-10-2019	18:23:25:364	rl	rat	2221	2221	60	1799988	00928.png	436.0	25	1799983.0	758	422
88	21_rat	21	24-10-2019	18:23:25:563	rl	rat	2233	2233	60	1800187	00933.png	441.0	25	1800183.0	0	0
89	21_rat	21	24-10-2019	18:23:25:762	rl	rat	2245	2245	60	1800386	00938.png	446.0	25	1800383.0	0	0
90	21_rat	21	24-10-2019	18:23:25:962	rl	rat	2257	2257	60	1800586	00943.png	451.0	25	1800583.0	0	0
91	21_rat	21	24-10-2019	18:23:26:161	rl	rat	2269	2269	60	1800785	00948.png	456.0	25	1800783.0	0	0
92	21_rat	21	24-10-2019	18:23:26:360	rl	rat	2281	2281	60	1800984	00953.png	461.0	25	1800983.0	0	0
93	21_rat	21	24-10-2019	18:23:26:559	rl	rat	2293	2293	60	1801183	00958.png	466.0	25	1801183.0	0	0
94	21_rat	21	24-10-2019	18:23:26:758	rl	rat	2305	2305	60	1801382	00963.png	471.0	25	1801383.0	0	0
95	21_rat	21	24-10-2019	18:23:26:957	rl	rat	2317	2317	60	1801581	00968.png	476.0	25	1801583.0	0	0
96	21_rat	21	24-10-2019	18:23:27:157	rl	rat	2329	2329	60	1801780	00973.png	481.0	25	1801783.0	1182	331
97	21_rat	21	24-10-2019	18:23:27:356	rl	rat	2339	2339	60	1801979	00978.png	486.0	25	1801983.0	0	0
98	21_rat	21	24-10-2019	18:23:27:555	rl	rat	2351	2351	60	1802179	00983.png	491.0	25	1802183.0	887	134
99	21_rat	21	24-10-2019	18:23:27:754	rl	rat	2363	2363	60	1802378	00988.png	496.0	25	1802383.0	0	0
100	21_rat	21	24-10-2019	18:23:27:953	rl	rat	2375	2375	60	1802576	00993.png	501.0	25	1802583.0	0	0
101	21_rat	21	24-10-2019	18:23:28:152	rl	rat	2387	2387	60	1802776	00998.png	506.0	25	1802783.0	0	0
102	21_rat	21	24-10-2019	18:23:28:351	rl	rat	2399	2399	60	1802975	01003.png	511.0	25	1802983.0	0	0
103	21_rat	21	24-10-2019	18:23:28:551	rl	rat	2411	2411	60	1803175	01008.png	516.0	25	1803183.0	997	260
104	21_rat	21	24-10-2019	18:23:28:766	rl	rat	2424	2424	60	1803390	01013.png	521.0	25	1803383.0	2387	295
105	21_rat	21	24-10-2019	18:23:28:965	rl	rat	2436	2436	60	1803589	01018.png	526.0	25	1803583.0	0	0
106	21_rat	21	24-10-2019	18:23:29:164	rl	rat	2448	2448	60	1803788	01023.png	531.0	25	1803783.0	0	0
107	21_rat	21	24-10-2019	18:23:29:364	rl	rat	2460	2460	60	1803987	01028.png	536.0	25	1803983.0	-22582	-4636
108	21_rat	21	24-10-2019	18:23:29:563	rl	rat	2472	2472	60	1804187	01033.png	541.0	25	1804183.0	0	0
109	21_rat	21	24-10-2019	18:23:29:762	rl	rat	2484	2484	60	1804386	01038.png	546.0	25	1804383.0	0	0
110	21_rat	21	24-10-2019	18:23:29:961	rl	rat	2496	2496	60	1804585	01043.png	551.0	25	1804583.0	0	0
111	21_rat	21	24-10-2019	18:23:30:160	rl	rat	2508	2508	60	1804784	01048.png	556.0	25	1804783.0	0	0
112	21_rat	21	24-10-2019	18:23:30:359	rl	rat	2520	2520	60	1804983	01053.png	561.0	25	1804983.0	0	0
113	21_rat	21	24-10-2019	18:23:30:559	rl	rat	2532	2532	60	1805182	01058.png	566.0	25	1805183.0	0	0
114	21_rat	21	24-10-2019	18:23:30:758	rl	rat	2544	2544	60	1805382	01063.png	571.0	25	1805383.0	0	0
115	21_rat	21	24-10-2019	18:23:30:957	rl	rat	2556	2556	60	1805581	01068.png	576.0	25	1805583.0	0	0
116	21_rat	21	24-10-2019	18:23:31:156	rl	rat	2568	2568	60	1805780	01073.png	581.0	25	1805783.0	0	0
117	21_rat	21	24-10-2019	18:23:31:355	rl	rat	2578	2578	60	1805979	01078.png	586.0	25	1805983.0	254	255
118	21_rat	21	24-10-2019	18:23:31:554	rl	rat	2589	2589	60	1806178	01083.png	591.0	25	1806183.0	144	258
119	21_rat	21	24-10-2019	18:23:31:753	rl	rat	2601	2601	60	1806377	01088.png	596.0	25	1806383.0	0	0
120	21_rat	21	24-10-2019	18:23:31:953	rl	rat	2613	2613	60	1806576	01093.png	601.0	25	1806583.0	410	254
121	21_rat	21	24-10-2019	18:23:32:152	rl	rat	2625	2625	60	1806775	01098.png	606.0	25	1806783.0	439	341
122	21_rat	21	24-10-2019	18:23:32:351	rl	rat	2637	2637	60	1806975	01103.png	611.0	25	1806983.0	758	422
123	21_rat	21	24-10-2019	18:23:32:566	rl	rat	2650	2650	60	1807190	01108.png	616.0	25	1807183.0	759	423
124	21_rat	21	24-10-2019	18:23:32:766	rl	rat	2662	2662	60	1807390	01113.png	621.0	25	1807383.0	767	425
125	21_rat	21	24-10-2019	18:23:32:965	rl	rat	2674	2674	60	1807589	01118.png	626.0	25	1807583.0	0	0
126	21_rat	21	24-10-2019	18:23:33:164	rl	rat	2686	2686	60	1807788	01123.png	631.0	25	1807783.0	0	0
127	21_rat	21	24-10-2019	18:23:33:363	rl	rat	2698	2698	60	1807987	01128.png	636.0	25	1807983.0	0	0
128	21_rat	21	24-10-2019	18:23:33:562	rl	rat	2710	2710	60	1808186	01133.png	641.0	25	1808183.0	0	0
129	21_rat	21	24-10-2019	18:23:33:761	rl	rat	2722	2722	60	1808385	01138.png	646.0	25	1808383.0	768	425
130	21_rat	21	24-10-2019	18:23:33:961	rl	rat	2734	2734	60	1808584	01143.png	651.0	25	1808583.0	-377	265
131	21_rat	21	24-10-2019	18:23:34:160	rl	rat	2746	2746	60	1808784	01148.png	656.0	25	1808783.0	768	425
132	21_rat	21	24-10-2019	18:23:34:359	rl	rat	2758	2758	60	1808983	01153.png	661.0	25	1808983.0	-65	85
133	21_rat	21	24-10-2019	18:23:34:558	rl	rat	2770	2770	60	1809182	01158.png	666.0	25	1809183.0	-634	316
134	21_rat	21	24-10-2019	18:23:34:757	rl	rat	2782	2782	60	1809381	01163.png	671.0	25	1809383.0	0	0
135	21_rat	21	24-10-2019	18:23:34:956	rl	rat	2794	2794	60	1809580	01168.png	676.0	25	1809583.0	-547	163
136	21_rat	21	24-10-2019	18:23:35:155	rl	rat	2805	2805	60	1809779	01173.png	681.0	25	1809783.0	50547	3863
137	21_rat	21	24-10-2019	18:23:35:354	rl	rat	2816	2816	60	1809978	01178.png	686.0	25	1809983.0	784	598
138	21_rat	21	24-10-2019	18:23:35:554	rl	rat	2828	2828	60	1810178	01183.png	691.0	25	1810183.0	584	605
139	21_rat	21	24-10-2019	18:23:35:753	rl	rat	2840	2840	60	1810377	01188.png	696.0	25	1810383.0	566	-2
140	21_rat	21	24-10-2019	18:23:35:952	rl	rat	2852	2852	60	1810576	01193.png	701.0	25	1810583.0	0	0
141	21_rat	21	24-10-2019	18:23:36:151	rl	rat	2864	2864	60	1810775	01198.png	706.0	25	1810783.0	0	0
142	21_rat	21	24-10-2019	18:23:36:367	rl	rat	2877	2877	60	1810991	01203.png	711.0	25	1810983.0	-127	295
143	21_rat	21	24-10-2019	18:23:36:566	rl	rat	2889	2889	60	1811190	01208.png	716.0	25	1811183.0	0	0
144	21_rat	21	24-10-2019	18:23:36:765	rl	rat	2901	2901	60	1811389	01213.png	721.0	25	1811383.0	768	425
145	21_rat	21	24-10-2019	18:23:36:965	rl	rat	2913	2913	60	1811588	01218.png	726.0	25	1811583.0	0	0
146	21_rat	21	24-10-2019	18:23:37:164	rl	rat	2925	2925	60	1811787	01223.png	731.0	25	1811783.0	0	0
147	21_rat	21	24-10-2019	18:23:37:362	rl	rat	2937	2937	60	1811986	01228.png	736.0	25	1811983.0	0	0
148	21_rat	21	24-10-2019	18:23:37:562	rl	rat	2949	2949	60	1812186	01233.png	741.0	25	1812183.0	130	-110
149	21_rat	21	24-10-2019	18:23:37:761	rl	rat	2961	2961	60	1812385	01238.png	746.0	25	1812383.0	0	0
