	subject_location	subject_id	date	daytime	setting_id	trial_id	sample_id	sample_n	sample_rate	sample_time_smi	frame_id	frame_n	frame_rate	frame_time_smi	fix_pos_x	fix_pos_y
0	21_reg	21	24-10-2019	18:37:38:870	rl	reg	1080	1080	60	2653508	00452.png	1.0	25	2653515.0	550	381
1	21_reg	21	24-10-2019	18:37:39:069	rl	reg	1092	1092	60	2653708	00457.png	6.0	25	2653715.0	605	368
2	21_reg	21	24-10-2019	18:37:39:268	rl	reg	1104	1104	60	2653907	00462.png	11.0	25	2653915.0	605	367
3	21_reg	21	24-10-2019	18:37:39:484	rl	reg	1117	1117	60	2654122	00467.png	16.0	25	2654115.0	656	267
4	21_reg	21	24-10-2019	18:37:39:683	rl	reg	1129	1129	60	2654322	00472.png	21.0	25	2654315.0	670	331
5	21_reg	21	24-10-2019	18:37:39:882	rl	reg	1141	1141	60	2654521	00477.png	26.0	25	2654515.0	663	299
6	21_reg	21	24-10-2019	18:37:40:081	rl	reg	1153	1153	60	2654720	00482.png	31.0	25	2654715.0	663	299
7	21_reg	21	24-10-2019	18:37:40:280	rl	reg	1165	1165	60	2654919	00487.png	36.0	25	2654915.0	663	299
8	21_reg	21	24-10-2019	18:37:40:480	rl	reg	1177	1177	60	2655118	00492.png	41.0	25	2655115.0	663	299
9	21_reg	21	24-10-2019	18:37:40:679	rl	reg	1189	1189	60	2655317	00497.png	46.0	25	2655315.0	663	299
10	21_reg	21	24-10-2019	18:37:40:877	rl	reg	1201	1201	60	2655516	00502.png	51.0	25	2655515.0	663	299
11	21_reg	21	24-10-2019	18:37:41:077	rl	reg	1213	1213	60	2655715	00507.png	56.0	25	2655715.0	663	298
12	21_reg	21	24-10-2019	18:37:41:276	rl	reg	1225	1225	60	2655914	00512.png	61.0	25	2655915.0	663	295
13	21_reg	21	24-10-2019	18:37:41:475	rl	reg	1237	1237	60	2656114	00517.png	66.0	25	2656115.0	663	295
14	21_reg	21	24-10-2019	18:37:41:674	rl	reg	1249	1249	60	2656313	00522.png	71.0	25	2656315.0	663	294
15	21_reg	21	24-10-2019	18:37:41:874	rl	reg	1257	1257	60	2656512	00527.png	76.0	25	2656515.0	663	294
16	21_reg	21	24-10-2019	18:37:42:073	rl	reg	1269	1269	60	2656711	00532.png	81.0	25	2656715.0	663	294
17	21_reg	21	24-10-2019	18:37:42:271	rl	reg	1281	1281	60	2656910	00537.png	86.0	25	2656915.0	663	294
18	21_reg	21	24-10-2019	18:37:42:471	rl	reg	1293	1293	60	2657109	00542.png	91.0	25	2657115.0	663	294
19	21_reg	21	24-10-2019	18:37:42:670	rl	reg	1305	1305	60	2657309	00547.png	96.0	25	2657315.0	663	294
20	21_reg	21	24-10-2019	18:37:42:869	rl	reg	1317	1317	60	2657508	00552.png	101.0	25	2657515.0	663	292
21	21_reg	21	24-10-2019	18:37:43:069	rl	reg	1329	1329	60	2657707	00557.png	106.0	25	2657715.0	670	330
22	21_reg	21	24-10-2019	18:37:43:284	rl	reg	1342	1342	60	2657923	00562.png	111.0	25	2657915.0	484	321
23	21_reg	21	24-10-2019	18:37:43:484	rl	reg	1354	1354	60	2658122	00567.png	116.0	25	2658115.0	384	300
24	21_reg	21	24-10-2019	18:37:43:682	rl	reg	1366	1366	60	2658321	00572.png	121.0	25	2658315.0	293	296
25	21_reg	21	24-10-2019	18:37:43:882	rl	reg	1378	1378	60	2658520	00577.png	126.0	25	2658515.0	239	295
26	21_reg	21	24-10-2019	18:37:44:081	rl	reg	1390	1390	60	2658719	00582.png	131.0	25	2658715.0	377	507
27	21_reg	21	24-10-2019	18:37:44:280	rl	reg	1402	1402	60	2658918	00587.png	136.0	25	2658915.0	550	482
28	21_reg	21	24-10-2019	18:37:44:479	rl	reg	1414	1414	60	2659118	00592.png	141.0	25	2659115.0	459	760
29	21_reg	21	24-10-2019	18:37:44:678	rl	reg	1426	1426	60	2659317	00597.png	146.0	25	2659315.0	252	305
30	21_reg	21	24-10-2019	18:37:44:877	rl	reg	1438	1438	60	2659516	00602.png	151.0	25	2659515.0	268	362
31	21_reg	21	24-10-2019	18:37:45:077	rl	reg	1450	1450	60	2659715	00607.png	156.0	25	2659715.0	275	390
32	21_reg	21	24-10-2019	18:37:45:276	rl	reg	1462	1462	60	2659914	00612.png	161.0	25	2659915.0	243	369
33	21_reg	21	24-10-2019	18:37:45:475	rl	reg	1474	1474	60	2660113	00617.png	166.0	25	2660115.0	264	332
34	21_reg	21	24-10-2019	18:37:45:674	rl	reg	1484	1484	60	2660312	00622.png	171.0	25	2660315.0	0	0
35	21_reg	21	24-10-2019	18:37:45:873	rl	reg	1495	1495	60	2660512	00627.png	176.0	25	2660515.0	971	404
36	21_reg	21	24-10-2019	18:37:46:072	rl	reg	1507	1507	60	2660711	00632.png	181.0	25	2660715.0	866	486
37	21_reg	21	24-10-2019	18:37:46:272	rl	reg	1519	1519	60	2660910	00637.png	186.0	25	2660915.0	912	423
38	21_reg	21	24-10-2019	18:37:46:470	rl	reg	1531	1531	60	2661109	00642.png	191.0	25	2661115.0	882	486
39	21_reg	21	24-10-2019	18:37:46:670	rl	reg	1543	1543	60	2661308	00647.png	196.0	25	2661315.0	785	619
40	21_reg	21	24-10-2019	18:37:46:869	rl	reg	1555	1555	60	2661507	00652.png	201.0	25	2661515.0	733	532
41	21_reg	21	24-10-2019	18:37:47:085	rl	reg	1568	1568	60	2661723	00657.png	206.0	25	2661715.0	604	512
42	21_reg	21	24-10-2019	18:37:47:284	rl	reg	1580	1580	60	2661922	00662.png	211.0	25	2661915.0	0	0
43	21_reg	21	24-10-2019	18:37:47:483	rl	reg	1592	1592	60	2662122	00667.png	216.0	25	2662115.0	1436	606
44	21_reg	21	24-10-2019	18:37:47:682	rl	reg	1604	1604	60	2662320	00672.png	221.0	25	2662315.0	1180	476
45	21_reg	21	24-10-2019	18:37:47:881	rl	reg	1616	1616	60	2662520	00677.png	226.0	25	2662515.0	1172	479
46	21_reg	21	24-10-2019	18:37:48:080	rl	reg	1628	1628	60	2662719	00682.png	231.0	25	2662715.0	1193	416
47	21_reg	21	24-10-2019	18:37:48:279	rl	reg	1640	1640	60	2662918	00687.png	236.0	25	2662915.0	1174	417
48	21_reg	21	24-10-2019	18:37:48:479	rl	reg	1652	1652	60	2663117	00692.png	241.0	25	2663115.0	1172	417
49	21_reg	21	24-10-2019	18:37:48:677	rl	reg	1664	1664	60	2663316	00697.png	246.0	25	2663315.0	1063	263
50	21_reg	21	24-10-2019	18:37:48:877	rl	reg	1676	1676	60	2663515	00702.png	251.0	25	2663515.0	1165	425
51	21_reg	21	24-10-2019	18:37:49:076	rl	reg	1688	1688	60	2663714	00707.png	256.0	25	2663715.0	1203	479
52	21_reg	21	24-10-2019	18:37:49:275	rl	reg	1700	1700	60	2663914	00712.png	261.0	25	2663915.0	1145	410
53	21_reg	21	24-10-2019	18:37:49:474	rl	reg	1711	1711	60	2664113	00717.png	266.0	25	2664115.0	1052	429
54	21_reg	21	24-10-2019	18:37:49:674	rl	reg	1721	1721	60	2664312	00722.png	271.0	25	2664315.0	1037	434
55	21_reg	21	24-10-2019	18:37:49:873	rl	reg	1733	1733	60	2664511	00727.png	276.0	25	2664515.0	74	156
56	21_reg	21	24-10-2019	18:37:50:072	rl	reg	1745	1745	60	2664710	00732.png	281.0	25	2664715.0	994	274
57	21_reg	21	24-10-2019	18:37:50:271	rl	reg	1757	1757	60	2664909	00737.png	286.0	25	2664915.0	994	274
58	21_reg	21	24-10-2019	18:37:50:470	rl	reg	1769	1769	60	2665109	00742.png	291.0	25	2665115.0	931	438
59	21_reg	21	24-10-2019	18:37:50:669	rl	reg	1781	1781	60	2665308	00747.png	296.0	25	2665315.0	888	474
60	21_reg	21	24-10-2019	18:37:50:869	rl	reg	1793	1793	60	2665507	00752.png	301.0	25	2665515.0	969	449
61	21_reg	21	24-10-2019	18:37:51:084	rl	reg	1806	1806	60	2665722	00757.png	306.0	25	2665715.0	1002	433
62	21_reg	21	24-10-2019	18:37:51:283	rl	reg	1818	1818	60	2665922	00762.png	311.0	25	2665915.0	1037	417
63	21_reg	21	24-10-2019	18:37:51:482	rl	reg	1830	1830	60	2666121	00767.png	316.0	25	2666115.0	882	424
64	21_reg	21	24-10-2019	18:37:51:681	rl	reg	1842	1842	60	2666320	00772.png	321.0	25	2666315.0	893	421
65	21_reg	21	24-10-2019	18:37:51:881	rl	reg	1854	1854	60	2666519	00777.png	326.0	25	2666515.0	921	419
66	21_reg	21	24-10-2019	18:37:52:080	rl	reg	1866	1866	60	2666718	00782.png	331.0	25	2666715.0	930	419
67	21_reg	21	24-10-2019	18:37:52:279	rl	reg	1878	1878	60	2666917	00787.png	336.0	25	2666915.0	943	411
68	21_reg	21	24-10-2019	18:37:52:478	rl	reg	1890	1890	60	2667117	00792.png	341.0	25	2667115.0	937	418
69	21_reg	21	24-10-2019	18:37:52:677	rl	reg	1902	1902	60	2667316	00797.png	346.0	25	2667315.0	941	417
70	21_reg	21	24-10-2019	18:37:52:876	rl	reg	1914	1914	60	2667515	00802.png	351.0	25	2667515.0	948	416
71	21_reg	21	24-10-2019	18:37:53:076	rl	reg	1926	1926	60	2667714	00807.png	356.0	25	2667715.0	947	413
72	21_reg	21	24-10-2019	18:37:53:275	rl	reg	1938	1938	60	2667913	00812.png	361.0	25	2667915.0	939	411
73	21_reg	21	24-10-2019	18:37:53:474	rl	reg	1948	1948	60	2668112	00817.png	366.0	25	2668115.0	957	410
74	21_reg	21	24-10-2019	18:37:53:673	rl	reg	1960	1960	60	2668311	00822.png	371.0	25	2668315.0	956	406
75	21_reg	21	24-10-2019	18:37:53:872	rl	reg	1972	1972	60	2668511	00827.png	376.0	25	2668515.0	1117	408
76	21_reg	21	24-10-2019	18:37:54:071	rl	reg	1984	1984	60	2668710	00832.png	381.0	25	2668715.0	1112	400
77	21_reg	21	24-10-2019	18:37:54:270	rl	reg	1996	1996	60	2668909	00837.png	386.0	25	2668915.0	1103	398
78	21_reg	21	24-10-2019	18:37:54:469	rl	reg	2008	2008	60	2669108	00842.png	391.0	25	2669115.0	1100	393
79	21_reg	21	24-10-2019	18:37:54:669	rl	reg	2020	2020	60	2669307	00847.png	396.0	25	2669315.0	1064	360
80	21_reg	21	24-10-2019	18:37:54:868	rl	reg	2032	2032	60	2669507	00852.png	401.0	25	2669515.0	1090	498
81	21_reg	21	24-10-2019	18:37:55:084	rl	reg	2045	2045	60	2669722	00857.png	406.0	25	2669715.0	1039	222
82	21_reg	21	24-10-2019	18:37:55:283	rl	reg	2057	2057	60	2669921	00862.png	411.0	25	2669915.0	849	270
83	21_reg	21	24-10-2019	18:37:55:482	rl	reg	2069	2069	60	2670120	00867.png	416.0	25	2670115.0	659	318
84	21_reg	21	24-10-2019	18:37:55:681	rl	reg	2081	2081	60	2670319	00872.png	421.0	25	2670315.0	1039	222
85	21_reg	21	24-10-2019	18:37:55:880	rl	reg	2093	2093	60	2670519	00877.png	426.0	25	2670515.0	1039	222
86	21_reg	21	24-10-2019	18:37:56:079	rl	reg	2105	2105	60	2670717	00882.png	431.0	25	2670715.0	0	0
87	21_reg	21	24-10-2019	18:37:56:278	rl	reg	2117	2117	60	2670917	00887.png	436.0	25	2670915.0	659	318
88	21_reg	21	24-10-2019	18:37:56:478	rl	reg	2129	2129	60	2671116	00892.png	441.0	25	2671115.0	1029	411
89	21_reg	21	24-10-2019	18:37:56:676	rl	reg	2141	2141	60	2671315	00897.png	446.0	25	2671315.0	659	318
90	21_reg	21	24-10-2019	18:37:56:876	rl	reg	2153	2153	60	2671515	00902.png	451.0	25	2671515.0	1082	349
91	21_reg	21	24-10-2019	18:37:57:075	rl	reg	2165	2165	60	2671713	00907.png	456.0	25	2671715.0	0	0
92	21_reg	21	24-10-2019	18:37:57:291	rl	reg	2176	2176	60	2671929	00912.png	461.0	25	2671915.0	659	318
93	21_reg	21	24-10-2019	18:37:57:473	rl	reg	2187	2187	60	2672112	00917.png	466.0	25	2672115.0	1185	533
94	21_reg	21	24-10-2019	18:37:57:672	rl	reg	2199	2199	60	2672311	00922.png	471.0	25	2672315.0	724	380
95	21_reg	21	24-10-2019	18:37:57:872	rl	reg	2211	2211	60	2672510	00927.png	476.0	25	2672515.0	724	380
96	21_reg	21	24-10-2019	18:37:58:070	rl	reg	2223	2223	60	2672709	00932.png	481.0	25	2672715.0	573	346
97	21_reg	21	24-10-2019	18:37:58:270	rl	reg	2235	2235	60	2672908	00937.png	486.0	25	2672915.0	0	0
98	21_reg	21	24-10-2019	18:37:58:469	rl	reg	2247	2247	60	2673108	00942.png	491.0	25	2673115.0	724	380
99	21_reg	21	24-10-2019	18:37:58:668	rl	reg	2259	2259	60	2673307	00947.png	496.0	25	2673315.0	531	333
100	21_reg	21	24-10-2019	18:37:58:884	rl	reg	2272	2272	60	2673522	00952.png	501.0	25	2673515.0	724	380
101	21_reg	21	24-10-2019	18:37:59:083	rl	reg	2284	2284	60	2673722	00957.png	506.0	25	2673715.0	724	380
102	21_reg	21	24-10-2019	18:37:59:282	rl	reg	2296	2296	60	2673921	00962.png	511.0	25	2673915.0	724	380
103	21_reg	21	24-10-2019	18:37:59:481	rl	reg	2308	2308	60	2674120	00967.png	516.0	25	2674115.0	724	380
104	21_reg	21	24-10-2019	18:37:59:681	rl	reg	2320	2320	60	2674319	00972.png	521.0	25	2674315.0	724	380
105	21_reg	21	24-10-2019	18:37:59:880	rl	reg	2332	2332	60	2674518	00977.png	526.0	25	2674515.0	0	0
106	21_reg	21	24-10-2019	18:38:00:079	rl	reg	2344	2344	60	2674717	00982.png	531.0	25	2674715.0	646	334
107	21_reg	21	24-10-2019	18:38:00:278	rl	reg	2356	2356	60	2674916	00987.png	536.0	25	2674915.0	593	368
108	21_reg	21	24-10-2019	18:38:00:477	rl	reg	2368	2368	60	2675116	00992.png	541.0	25	2675115.0	534	384
109	21_reg	21	24-10-2019	18:38:00:676	rl	reg	2380	2380	60	2675315	00997.png	546.0	25	2675315.0	531	386
110	21_reg	21	24-10-2019	18:38:00:875	rl	reg	2392	2392	60	2675514	01002.png	551.0	25	2675515.0	636	413
111	21_reg	21	24-10-2019	18:38:01:074	rl	reg	2403	2403	60	2675713	01007.png	556.0	25	2675715.0	622	407
112	21_reg	21	24-10-2019	18:38:01:274	rl	reg	2413	2413	60	2675912	01012.png	561.0	25	2675915.0	655	375
113	21_reg	21	24-10-2019	18:38:01:473	rl	reg	2425	2425	60	2676111	01017.png	566.0	25	2676115.0	642	369
114	21_reg	21	24-10-2019	18:38:01:672	rl	reg	2437	2437	60	2676310	01022.png	571.0	25	2676315.0	548	349
115	21_reg	21	24-10-2019	18:38:01:871	rl	reg	2449	2449	60	2676510	01027.png	576.0	25	2676515.0	329	433
116	21_reg	21	24-10-2019	18:38:02:070	rl	reg	2461	2461	60	2676709	01032.png	581.0	25	2676715.0	385	393
117	21_reg	21	24-10-2019	18:38:02:269	rl	reg	2473	2473	60	2676908	01037.png	586.0	25	2676915.0	403	407
118	21_reg	21	24-10-2019	18:38:02:468	rl	reg	2485	2485	60	2677107	01042.png	591.0	25	2677115.0	253	433
119	21_reg	21	24-10-2019	18:38:02:684	rl	reg	2498	2498	60	2677323	01047.png	596.0	25	2677315.0	216	401
120	21_reg	21	24-10-2019	18:38:02:883	rl	reg	2510	2510	60	2677522	01052.png	601.0	25	2677515.0	269	385
121	21_reg	21	24-10-2019	18:38:03:082	rl	reg	2522	2522	60	2677721	01057.png	606.0	25	2677715.0	464	377
122	21_reg	21	24-10-2019	18:38:03:281	rl	reg	2534	2534	60	2677920	01062.png	611.0	25	2677915.0	467	404
123	21_reg	21	24-10-2019	18:38:03:481	rl	reg	2546	2546	60	2678120	01067.png	616.0	25	2678115.0	0	0
124	21_reg	21	24-10-2019	18:38:03:680	rl	reg	2558	2558	60	2678318	01072.png	621.0	25	2678315.0	925	219
125	21_reg	21	24-10-2019	18:38:03:879	rl	reg	2570	2570	60	2678518	01077.png	626.0	25	2678515.0	986	325
126	21_reg	21	24-10-2019	18:38:04:078	rl	reg	2582	2582	60	2678717	01082.png	631.0	25	2678715.0	910	326
127	21_reg	21	24-10-2019	18:38:04:277	rl	reg	2594	2594	60	2678916	01087.png	636.0	25	2678915.0	822	308
128	21_reg	21	24-10-2019	18:38:04:477	rl	reg	2606	2606	60	2679115	01092.png	641.0	25	2679115.0	957	362
129	21_reg	21	24-10-2019	18:38:04:676	rl	reg	2618	2618	60	2679314	01097.png	646.0	25	2679315.0	984	371
130	21_reg	21	24-10-2019	18:38:04:875	rl	reg	2630	2630	60	2679513	01102.png	651.0	25	2679515.0	1024	376
131	21_reg	21	24-10-2019	18:38:05:074	rl	reg	2641	2641	60	2679712	01107.png	656.0	25	2679715.0	855	443
132	21_reg	21	24-10-2019	18:38:05:273	rl	reg	2653	2653	60	2679912	01112.png	661.0	25	2679915.0	877	437
133	21_reg	21	24-10-2019	18:38:05:473	rl	reg	2665	2665	60	2680111	01117.png	666.0	25	2680115.0	900	520
134	21_reg	21	24-10-2019	18:38:05:671	rl	reg	2677	2677	60	2680310	01122.png	671.0	25	2680315.0	859	396
135	21_reg	21	24-10-2019	18:38:05:871	rl	reg	2689	2689	60	2680509	01127.png	676.0	25	2680515.0	900	520
136	21_reg	21	24-10-2019	18:38:06:070	rl	reg	2701	2701	60	2680708	01132.png	681.0	25	2680715.0	0	0
137	21_reg	21	24-10-2019	18:38:06:269	rl	reg	2713	2713	60	2680907	01137.png	686.0	25	2680915.0	0	0
138	21_reg	21	24-10-2019	18:38:06:468	rl	reg	2725	2725	60	2681107	01142.png	691.0	25	2681115.0	0	0
139	21_reg	21	24-10-2019	18:38:06:684	rl	reg	2738	2738	60	2681322	01147.png	696.0	25	2681315.0	0	0
140	21_reg	21	24-10-2019	18:38:06:883	rl	reg	2750	2750	60	2681522	01152.png	701.0	25	2681515.0	900	520
141	21_reg	21	24-10-2019	18:38:07:082	rl	reg	2762	2762	60	2681721	01157.png	706.0	25	2681715.0	523	401
142	21_reg	21	24-10-2019	18:38:07:281	rl	reg	2774	2774	60	2681920	01162.png	711.0	25	2681915.0	521	391
143	21_reg	21	24-10-2019	18:38:07:481	rl	reg	2786	2786	60	2682119	01167.png	716.0	25	2682115.0	606	480
144	21_reg	21	24-10-2019	18:38:07:680	rl	reg	2798	2798	60	2682318	01172.png	721.0	25	2682315.0	0	0
145	21_reg	21	24-10-2019	18:38:07:879	rl	reg	2810	2810	60	2682517	01177.png	726.0	25	2682515.0	596	396
146	21_reg	21	24-10-2019	18:38:08:078	rl	reg	2822	2822	60	2682716	01182.png	731.0	25	2682715.0	0	0
147	21_reg	21	24-10-2019	18:38:08:277	rl	reg	2834	2834	60	2682916	01187.png	736.0	25	2682915.0	0	0
148	21_reg	21	24-10-2019	18:38:08:476	rl	reg	2846	2846	60	2683115	01192.png	741.0	25	2683115.0	0	0
149	21_reg	21	24-10-2019	18:38:08:675	rl	reg	2858	2858	60	2683314	01197.png	746.0	25	2683315.0	0	0
