	setting_id	subject_id	date	trial_id	sample_id	frame_rate	frame_id	fix_pos_x_old	fix_pos_y_old	cam_angle_x	cam_angle_y	cam_angle_z	fix_pos_x	fix_pos_y	fix_pos_avrgd	fix_pos_diff_x	fix_pos_diff_y
0	vr	19	2019-10-30	rat_2	475	10	00260.png	414.0	471.5	347	182	356	414.0	471.5	0	0.0	0.0
1	vr	19	2019-10-30	rat_2	492	10	00270.png	384.0	496.5	346	182	356	384.0	496.5	0	0.0	0.0
2	vr	19	2019-10-30	rat_2	509	10	00280.png	384.5	501.5	347	183	356	384.5	501.5	0	0.0	0.0
3	vr	19	2019-10-30	rat_2	527	10	00290.png	428.5	501.0	347	183	356	428.5	501.0	0	0.0	0.0
4	vr	19	2019-10-30	rat_2	545	10	00300.png	407.0	463.0	347	183	356	407.0	463.0	0	0.0	0.0
5	vr	19	2019-10-30	rat_2	561	10	00310.png	351.0	380.0	347	183	355	351.0	380.0	0	0.0	0.0
6	vr	19	2019-10-30	rat_2	579	10	00320.png	290.0	299.5	343	180	355	290.0	299.5	0	0.0	0.0
7	vr	19	2019-10-30	rat_2	595	10	00330.png	328.0	299.0	332	175	352	328.0	299.0	0	0.0	0.0
8	vr	19	2019-10-30	rat_2	611	10	00340.png	364.0	311.5	319	170	349	364.75	313.0	1	-0.75	-1.5
9	vr	19	2019-10-30	rat_2	612	10	00340.png	365.5	314.5	318	170	349	364.75	313.0	1	0.75	1.5
10	vr	19	2019-10-30	rat_2	625	10	00350.png	360.0	311.5	313	172	348	360.5	310.5	1	-0.5	1.0
11	vr	19	2019-10-30	rat_2	626	10	00350.png	361.0	309.5	312	172	348	360.5	310.5	1	0.5	-1.0
12	vr	19	2019-10-30	rat_2	639	10	00360.png	346.5	288.0	312	175	347	346.25	288.0	1	0.25	0.0
13	vr	19	2019-10-30	rat_2	640	10	00360.png	346.0	288.0	311	175	347	346.25	288.0	1	-0.25	0.0
14	vr	19	2019-10-30	rat_2	657	10	00370.png	336.0	278.5	311	178	347	336.0	278.5	0	0.0	0.0
15	vr	19	2019-10-30	rat_2	674	10	00380.png	520.0	600.0	317	186	347	520.0	600.0	0	0.0	0.0
16	vr	19	2019-10-30	rat_2	692	10	00390.png	483.5	621.0	326	196	347	483.5	621.0	0	0.0	0.0
17	vr	19	2019-10-30	rat_2	710	10	00400.png	440.0	608.5	331	201	349	440.0	608.5	0	0.0	0.0
18	vr	19	2019-10-30	rat_2	728	10	00410.png	399.5	567.0	337	206	351	399.5	567.0	0	0.0	0.0
19	vr	19	2019-10-30	rat_2	745	10	00420.png	446.5	563.5	337	206	351	446.5	563.5	0	0.0	0.0
20	vr	19	2019-10-30	rat_2	762	10	00430.png	449.5	566.5	336	205	351	449.5	566.5	0	0.0	0.0
21	vr	19	2019-10-30	rat_2	780	10	00440.png	316.0	590.0	336	204	350	316.0	590.0	0	0.0	0.0
22	vr	19	2019-10-30	rat_2	798	10	00450.png	306.0	577.5	337	203	351	306.0	577.5	0	0.0	0.0
23	vr	19	2019-10-30	rat_2	815	10	00460.png	305.0	519.0	337	203	351	304.75	518.5	1	0.25	0.5
24	vr	19	2019-10-30	rat_2	816	10	00460.png	304.5	518.0	337	203	351	304.75	518.5	1	-0.25	-0.5
25	vr	19	2019-10-30	rat_2	829	10	00470.png	253.0	524.0	337	202	350	253.0	524.0	0	0.0	0.0
26	vr	19	2019-10-30	rat_2	847	10	00480.png	270.5	519.5	337	198	351	270.5	519.5	0	0.0	0.0
27	vr	19	2019-10-30	rat_2	865	10	00490.png	269.5	545.5	337	196	352	269.5	545.5	0	0.0	0.0
28	vr	19	2019-10-30	rat_2	883	10	00500.png	546.0	541.0	339	203	352	546.0	541.0	0	0.0	0.0
29	vr	19	2019-10-30	rat_2	901	10	00510.png	450.5	528.5	343	218	353	450.5	528.5	0	0.0	0.0
30	vr	19	2019-10-30	rat_2	918	10	00520.png	466.5	517.5	345	231	354	466.5	517.5	0	0.0	0.0
31	vr	19	2019-10-30	rat_2	933	10	00530.png	524.0	533.0	346	237	355	524.0	533.0	0	0.0	0.0
32	vr	19	2019-10-30	rat_2	950	10	00540.png	523.0	490.0	347	244	356	523.0	490.0	0	0.0	0.0
33	vr	19	2019-10-30	rat_2	968	10	00550.png	494.5	471.0	349	250	355	494.5	471.0	0	0.0	0.0
34	vr	19	2019-10-30	rat_2	986	10	00560.png	470.5	458.5	348	257	354	470.5	458.5	0	0.0	0.0
35	vr	19	2019-10-30	rat_2	1003	10	00570.png	427.0	498.5	351	260	355	426.75	498.25	1	0.25	0.25
36	vr	19	2019-10-30	rat_2	1004	10	00570.png	426.5	498.0	351	260	355	426.75	498.25	1	-0.25	-0.25
37	vr	19	2019-10-30	rat_2	1019	10	00580.png	445.5	521.5	352	258	356	445.5	521.5	0	0.0	0.0
38	vr	19	2019-10-30	rat_2	1037	10	00590.png	437.5	527.5	351	261	357	437.5	527.5	0	0.0	0.0
39	vr	19	2019-10-30	rat_2	1055	10	00600.png	587.0	406.0	350	271	357	587.0	406.0	0	0.0	0.0
40	vr	19	2019-10-30	rat_2	1071	10	00610.png	489.0	425.5	349	281	356	489.0	425.5	0	0.0	0.0
41	vr	19	2019-10-30	rat_2	1088	10	00620.png	471.5	508.0	350	284	356	471.5	508.0	0	0.0	0.0
42	vr	19	2019-10-30	rat_2	1105	10	00630.png	439.0	517.0	350	285	356	439.0	517.0	0	0.0	0.0
43	vr	19	2019-10-30	rat_2	1122	10	00640.png	433.0	511.0	351	287	355	433.0	511.0	0	0.0	0.0
44	vr	19	2019-10-30	rat_2	1140	10	00650.png	455.5	514.0	351	292	355	455.5	514.0	0	0.0	0.0
45	vr	19	2019-10-30	rat_2	1157	10	00660.png	482.5	505.0	351	299	355	482.5	505.0	0	0.0	0.0
46	vr	19	2019-10-30	rat_2	1174	10	00670.png	484.5	504.0	351	302	356	499.5	499.0	1	-15.0	5.0
47	vr	19	2019-10-30	rat_2	1175	10	00670.png	514.5	494.0	351	302	356	499.5	499.0	1	15.0	-5.0
48	vr	19	2019-10-30	rat_2	1189	10	00680.png	563.5	451.5	351	304	356	562.5	451.75	1	1.0	-0.25
49	vr	19	2019-10-30	rat_2	1190	10	00680.png	561.5	452.0	351	305	356	562.5	451.75	1	-1.0	0.25
50	vr	19	2019-10-30	rat_2	1201	10	00690.png	546.0	414.5	349	306	355	546.0	414.5	0	0.0	0.0
51	vr	19	2019-10-30	rat_2	1218	10	00700.png	522.5	430.0	348	310	354	522.5	430.0	0	0.0	0.0
52	vr	19	2019-10-30	rat_2	1236	10	00710.png	601.0	512.5	350	319	355	601.0	512.5	0	0.0	0.0
53	vr	19	2019-10-30	rat_2	1254	10	00720.png	521.5	522.5	355	327	354	521.5	522.5	0	0.0	0.0
54	vr	19	2019-10-30	rat_2	1269	10	00730.png	572.0	485.5	355	331	355	572.0	485.5	0	0.0	0.0
55	vr	19	2019-10-30	rat_2	1281	10	00740.png	545.0	489.5	354	335	354	545.0	489.5	0	0.0	0.0
56	vr	19	2019-10-30	rat_2	1297	10	00750.png	462.5	342.5	352	334	353	462.5	342.5	0	0.0	0.0
57	vr	19	2019-10-30	rat_2	1315	10	00760.png	373.0	266.5	346	328	350	373.0	266.5	0	0.0	0.0
58	vr	19	2019-10-30	rat_2	1332	10	00770.png	416.5	292.0	340	318	350	420.5	292.25	1	-4.0	-0.25
59	vr	19	2019-10-30	rat_2	1333	10	00770.png	424.5	292.5	340	318	350	420.5	292.25	1	4.0	0.25
60	vr	19	2019-10-30	rat_2	1347	10	00780.png	335.0	292.5	333	305	349	335.0	292.5	0	0.0	0.0
61	vr	19	2019-10-30	rat_2	1364	10	00790.png	289.5	253.5	321	291	349	291.0	282.25	1	-1.5	-28.75
62	vr	19	2019-10-30	rat_2	1365	10	00790.png	292.5	311.0	320	290	349	291.0	282.25	1	1.5	28.75
63	vr	19	2019-10-30	rat_2	1380	10	00800.png	396.0	291.0	317	280	352	396.0	291.0	0	0.0	0.0
64	vr	19	2019-10-30	rat_2	1398	10	00810.png	393.5	553.5	322	267	356	393.5	553.5	0	0.0	0.0
65	vr	19	2019-10-30	rat_2	1416	10	00820.png	422.0	579.5	328	260	357	422.0	579.5	0	0.0	0.0
66	vr	19	2019-10-30	rat_2	1433	10	00830.png	408.5	584.5	332	256	356	408.5	584.5	0	0.0	0.0
67	vr	19	2019-10-30	rat_2	1450	10	00840.png	335.5	579.5	333	255	353	335.5	579.5	0	0.0	0.0
68	vr	19	2019-10-30	rat_2	1468	10	00850.png	316.5	575.0	333	249	351	316.5	575.0	0	0.0	0.0
69	vr	19	2019-10-30	rat_2	1486	10	00860.png	309.5	561.0	333	240	349	309.5	561.0	0	0.0	0.0
70	vr	19	2019-10-30	rat_2	1503	10	00870.png	324.0	523.0	333	228	345	325.5	523.0	1	-1.5	0.0
71	vr	19	2019-10-30	rat_2	1504	10	00870.png	327.0	523.0	333	227	345	325.5	523.0	1	1.5	0.0
72	vr	19	2019-10-30	rat_2	1518	10	00880.png	300.5	543.0	334	219	346	301.75	541.75	1	-1.25	1.25
73	vr	19	2019-10-30	rat_2	1519	10	00880.png	303.0	540.5	334	219	346	301.75	541.75	1	1.25	-1.25
74	vr	19	2019-10-30	rat_2	1531	10	00890.png	261.0	512.5	335	215	347	261.0	512.5	0	0.0	0.0
75	vr	19	2019-10-30	rat_2	1549	10	00900.png	269.5	501.0	336	209	344	269.5	501.0	0	0.0	0.0
76	vr	19	2019-10-30	rat_2	1566	10	00910.png	295.5	500.0	336	206	343	295.5	500.0	0	0.0	0.0
77	vr	19	2019-10-30	rat_2	1582	10	00920.png	285.0	583.0	337	209	342	285.0	583.0	0	0.0	0.0
78	vr	19	2019-10-30	rat_2	1600	10	00930.png	351.0	591.5	339	209	344	351.0	591.5	0	0.0	0.0
79	vr	19	2019-10-30	rat_2	1617	10	00940.png	379.0	567.5	340	207	345	379.0	567.5	0	0.0	0.0
80	vr	19	2019-10-30	rat_2	1634	10	00950.png	383.0	549.0	342	205	349	383.0	549.0	0	0.0	0.0
81	vr	19	2019-10-30	rat_2	1651	10	00960.png	422.0	522.0	344	204	352	422.0	522.0	0	0.0	0.0
82	vr	19	2019-10-30	rat_2	1669	10	00970.png	436.0	507.0	346	205	356	436.0	507.0	0	0.0	0.0
83	vr	19	2019-10-30	rat_2	1687	10	00980.png	439.5	493.0	350	204	359	439.5	493.0	0	0.0	0.0
84	vr	19	2019-10-30	rat_2	1704	10	00990.png	454.0	435.0	356	203	1	454.25	434.0	1	-0.25	1.0
85	vr	19	2019-10-30	rat_2	1705	10	00990.png	454.5	433.0	357	202	1	454.25	434.0	1	0.25	-1.0
86	vr	19	2019-10-30	rat_2	1719	10	01000.png	321.5	470.0	356	197	1	323.0	470.25	1	-1.5	-0.25
87	vr	19	2019-10-30	rat_2	1720	10	01000.png	324.5	470.5	356	197	1	323.0	470.25	1	1.5	0.25
