setting_id	subject_id	date	trial_id	sample_id	frame_rate	frame_id	fix_pos_x	fix_pos_y	cam_angle_x	cam_angle_y	cam_angle_z
vr	40	2019-12-19	gas_1	00001	10	00000.ppm	0	0	4	233	360
vr	40	2019-12-19	gas_1	00002	10	00000.ppm	0	0	4	233	360
vr	40	2019-12-19	gas_1	00003	10	00000.ppm	790	760	4	233	360
vr	40	2019-12-19	gas_1	00004	10	00000.ppm	788	764	360	214	358
vr	40	2019-12-19	gas_1	00005	10	00000.ppm	786	764	360	214	358
vr	40	2019-12-19	gas_1	00006	10	00000.ppm	786	764	360	214	358
vr	40	2019-12-19	gas_1	00007	10	00000.ppm	786	764	360	214	358
vr	40	2019-12-19	gas_1	00008	10	00000.ppm	785	763	360	214	358
vr	40	2019-12-19	gas_1	00009	10	00000.ppm	784	763	360	214	358
vr	40	2019-12-19	gas_1	00010	10	00000.ppm	783	765	360	214	358
vr	40	2019-12-19	gas_1	00011	10	00000.ppm	781	765	360	214	358
vr	40	2019-12-19	gas_1	00012	10	00000.ppm	780	766	360	214	358
vr	40	2019-12-19	gas_1	00013	10	00000.ppm	779	766	360	214	358
vr	40	2019-12-19	gas_1	00014	10	00000.ppm	779	766	360	214	358
vr	40	2019-12-19	gas_1	00015	10	00000.ppm	777	766	360	214	358
vr	40	2019-12-19	gas_1	00016	10	00000.ppm	776	766	0	214	358
vr	40	2019-12-19	gas_1	00017	10	00000.ppm	774	768	0	214	358
vr	40	2019-12-19	gas_1	00018	10	00000.ppm	772	768	0	214	358
vr	40	2019-12-19	gas_1	00019	10	00000.ppm	772	768	0	214	358
vr	40	2019-12-19	gas_1	00020	10	00000.ppm	771	768	0	214	358
vr	40	2019-12-19	gas_1	00021	10	00000.ppm	771	769	0	214	358
vr	40	2019-12-19	gas_1	00022	10	00000.ppm	771	768	0	214	358
vr	40	2019-12-19	gas_1	00023	10	00000.ppm	771	769	0	215	358
vr	40	2019-12-19	gas_1	00024	10	00001.ppm	771	770	0	215	358
vr	40	2019-12-19	gas_1	00025	10	00002.ppm	772	772	0	215	358
vr	40	2019-12-19	gas_1	00026	10	00003.ppm	771	772	0	215	359
vr	40	2019-12-19	gas_1	00027	10	00004.ppm	771	773	0	215	359
vr	40	2019-12-19	gas_1	00028	10	00005.ppm	0	0	0	215	359
vr	40	2019-12-19	gas_1	00029	10	00005.ppm	0	0	0	215	359
vr	40	2019-12-19	gas_1	00030	10	00007.ppm	0	0	0	215	359
vr	40	2019-12-19	gas_1	00031	10	00008.ppm	0	0	0	216	359
vr	40	2019-12-19	gas_1	00032	10	00009.ppm	0	0	0	216	359
vr	40	2019-12-19	gas_1	00033	10	00010.ppm	0	0	0	216	359
vr	40	2019-12-19	gas_1	00034	10	00011.ppm	0	0	0	217	359
vr	40	2019-12-19	gas_1	00035	10	00012.ppm	0	0	0	217	359
vr	40	2019-12-19	gas_1	00036	10	00013.ppm	805	767	0	217	359
vr	40	2019-12-19	gas_1	00037	10	00013.ppm	803	766	0	217	359
vr	40	2019-12-19	gas_1	00038	10	00014.ppm	803	776	0	217	359
vr	40	2019-12-19	gas_1	00039	10	00015.ppm	766	796	0	217	359
vr	40	2019-12-19	gas_1	00040	10	00015.ppm	769	798	0	217	359
vr	40	2019-12-19	gas_1	00041	10	00015.ppm	771	801	0	217	359
vr	40	2019-12-19	gas_1	00042	10	00016.ppm	772	804	0	218	359
vr	40	2019-12-19	gas_1	00043	10	00016.ppm	773	804	0	218	359
vr	40	2019-12-19	gas_1	00044	10	00017.ppm	773	804	0	218	359
vr	40	2019-12-19	gas_1	00045	10	00017.ppm	770	803	0	218	359
vr	40	2019-12-19	gas_1	00046	10	00018.ppm	769	803	0	218	359
vr	40	2019-12-19	gas_1	00047	10	00019.ppm	768	801	0	218	359
vr	40	2019-12-19	gas_1	00048	10	00020.ppm	767	800	0	218	359
vr	40	2019-12-19	gas_1	00049	10	00020.ppm	766	800	0	218	359
vr	40	2019-12-19	gas_1	00050	10	00020.ppm	766	798	0	218	359
vr	40	2019-12-19	gas_1	00051	10	00021.ppm	766	799	0	219	359
vr	40	2019-12-19	gas_1	00052	10	00021.ppm	767	800	0	219	359
vr	40	2019-12-19	gas_1	00053	10	00022.ppm	768	801	0	219	359
vr	40	2019-12-19	gas_1	00054	10	00023.ppm	768	801	0	219	359
vr	40	2019-12-19	gas_1	00055	10	00023.ppm	764	801	0	219	359
vr	40	2019-12-19	gas_1	00056	10	00024.ppm	764	801	0	219	359
vr	40	2019-12-19	gas_1	00057	10	00024.ppm	763	801	0	219	359
vr	40	2019-12-19	gas_1	00058	10	00025.ppm	763	801	0	219	359
vr	40	2019-12-19	gas_1	00059	10	00025.ppm	763	801	0	219	359
vr	40	2019-12-19	gas_1	00060	10	00026.ppm	763	800	0	219	359
vr	40	2019-12-19	gas_1	00061	10	00026.ppm	765	801	0	219	359
vr	40	2019-12-19	gas_1	00062	10	00027.ppm	766	802	0	219	359
vr	40	2019-12-19	gas_1	00063	10	00027.ppm	767	801	0	219	359
vr	40	2019-12-19	gas_1	00064	10	00028.ppm	766	801	0	219	359
vr	40	2019-12-19	gas_1	00065	10	00029.ppm	766	800	0	219	359
vr	40	2019-12-19	gas_1	00066	10	00029.ppm	766	800	0	219	359
vr	40	2019-12-19	gas_1	00067	10	00030.ppm	766	801	0	219	359
vr	40	2019-12-19	gas_1	00068	10	00030.ppm	767	801	0	219	359
vr	40	2019-12-19	gas_1	00069	10	00031.ppm	768	802	0	219	359
vr	40	2019-12-19	gas_1	00070	10	00031.ppm	769	802	0	219	359
vr	40	2019-12-19	gas_1	00071	10	00032.ppm	768	803	0	219	359
vr	40	2019-12-19	gas_1	00072	10	00033.ppm	768	803	0	219	359
vr	40	2019-12-19	gas_1	00073	10	00033.ppm	767	802	0	219	359
vr	40	2019-12-19	gas_1	00074	10	00034.ppm	766	801	0	219	359
vr	40	2019-12-19	gas_1	00075	10	00035.ppm	766	800	0	219	359
vr	40	2019-12-19	gas_1	00076	10	00035.ppm	767	800	0	219	359
vr	40	2019-12-19	gas_1	00077	10	00035.ppm	767	800	0	219	359
vr	40	2019-12-19	gas_1	00078	10	00036.ppm	769	801	0	219	359
vr	40	2019-12-19	gas_1	00079	10	00036.ppm	771	802	0	219	359
vr	40	2019-12-19	gas_1	00080	10	00037.ppm	772	802	0	219	359
vr	40	2019-12-19	gas_1	00081	10	00037.ppm	772	803	0	219	359
vr	40	2019-12-19	gas_1	00082	10	00038.ppm	771	802	0	219	359
vr	40	2019-12-19	gas_1	00083	10	00039.ppm	771	803	0	219	359
vr	40	2019-12-19	gas_1	00084	10	00039.ppm	771	803	0	219	359
vr	40	2019-12-19	gas_1	00085	10	00040.ppm	772	803	0	219	359
vr	40	2019-12-19	gas_1	00086	10	00040.ppm	773	803	0	219	359
vr	40	2019-12-19	gas_1	00087	10	00041.ppm	773	804	0	219	359
vr	40	2019-12-19	gas_1	00088	10	00041.ppm	773	804	0	219	359
vr	40	2019-12-19	gas_1	00089	10	00042.ppm	774	804	0	219	359
vr	40	2019-12-19	gas_1	00090	10	00043.ppm	774	805	0	219	359
vr	40	2019-12-19	gas_1	00091	10	00043.ppm	774	804	0	219	359
vr	40	2019-12-19	gas_1	00092	10	00044.ppm	773	803	0	219	359
vr	40	2019-12-19	gas_1	00093	10	00045.ppm	770	803	0	218	359
vr	40	2019-12-19	gas_1	00094	10	00045.ppm	770	802	0	218	359
vr	40	2019-12-19	gas_1	00095	10	00045.ppm	768	803	0	218	359
vr	40	2019-12-19	gas_1	00096	10	00046.ppm	767	802	0	218	359
vr	40	2019-12-19	gas_1	00097	10	00047.ppm	767	802	0	218	359
vr	40	2019-12-19	gas_1	00098	10	00047.ppm	767	801	0	218	359
vr	40	2019-12-19	gas_1	00099	10	00048.ppm	767	801	0	218	359
vr	40	2019-12-19	gas_1	00100	10	00048.ppm	768	800	1	218	359
vr	40	2019-12-19	gas_1	00101	10	00049.ppm	767	801	1	218	359
vr	40	2019-12-19	gas_1	00102	10	00049.ppm	768	801	1	218	359
vr	40	2019-12-19	gas_1	00103	10	00050.ppm	769	802	1	218	359
vr	40	2019-12-19	gas_1	00104	10	00050.ppm	769	803	1	218	359
vr	40	2019-12-19	gas_1	00105	10	00051.ppm	771	803	1	218	359
vr	40	2019-12-19	gas_1	00106	10	00051.ppm	771	804	1	218	359
vr	40	2019-12-19	gas_1	00107	10	00052.ppm	770	804	1	218	359
vr	40	2019-12-19	gas_1	00108	10	00053.ppm	769	804	1	218	359
vr	40	2019-12-19	gas_1	00109	10	00053.ppm	768	804	1	218	359
vr	40	2019-12-19	gas_1	00110	10	00054.ppm	767	803	1	218	359
vr	40	2019-12-19	gas_1	00111	10	00054.ppm	766	804	1	218	359
vr	40	2019-12-19	gas_1	00112	10	00055.ppm	768	804	1	218	359
vr	40	2019-12-19	gas_1	00113	10	00055.ppm	767	805	1	217	359
vr	40	2019-12-19	gas_1	00114	10	00056.ppm	769	805	1	217	359
vr	40	2019-12-19	gas_1	00115	10	00057.ppm	769	805	1	217	359
vr	40	2019-12-19	gas_1	00116	10	00057.ppm	769	805	1	217	359
vr	40	2019-12-19	gas_1	00117	10	00058.ppm	769	804	1	217	359
vr	40	2019-12-19	gas_1	00118	10	00058.ppm	769	804	1	217	359
vr	40	2019-12-19	gas_1	00119	10	00059.ppm	768	804	1	217	359
vr	40	2019-12-19	gas_1	00120	10	00059.ppm	768	804	1	217	359
vr	40	2019-12-19	gas_1	00121	10	00060.ppm	769	804	1	217	359
vr	40	2019-12-19	gas_1	00122	10	00060.ppm	770	806	1	217	359
vr	40	2019-12-19	gas_1	00123	10	00061.ppm	771	809	1	217	359
vr	40	2019-12-19	gas_1	00124	10	00062.ppm	767	816	1	217	359
vr	40	2019-12-19	gas_1	00125	10	00062.ppm	768	820	1	217	359
vr	40	2019-12-19	gas_1	00126	10	00063.ppm	767	826	1	217	359
vr	40	2019-12-19	gas_1	00127	10	00064.ppm	767	829	1	217	359
vr	40	2019-12-19	gas_1	00128	10	00064.ppm	768	830	1	217	359
vr	40	2019-12-19	gas_1	00129	10	00064.ppm	767	831	1	217	359
vr	40	2019-12-19	gas_1	00130	10	00065.ppm	766	831	1	217	359
vr	40	2019-12-19	gas_1	00131	10	00065.ppm	766	833	1	217	359
vr	40	2019-12-19	gas_1	00132	10	00066.ppm	766	839	1	217	359
vr	40	2019-12-19	gas_1	00133	10	00067.ppm	769	850	1	217	359
vr	40	2019-12-19	gas_1	00134	10	00067.ppm	770	858	1	217	359
vr	40	2019-12-19	gas_1	00135	10	00068.ppm	770	860	1	217	359
vr	40	2019-12-19	gas_1	00136	10	00068.ppm	769	865	1	217	359
vr	40	2019-12-19	gas_1	00137	10	00069.ppm	770	866	1	217	359
vr	40	2019-12-19	gas_1	00138	10	00069.ppm	770	866	1	217	359
vr	40	2019-12-19	gas_1	00139	10	00070.ppm	771	866	1	217	359
vr	40	2019-12-19	gas_1	00140	10	00070.ppm	771	867	1	217	359
vr	40	2019-12-19	gas_1	00141	10	00071.ppm	771	867	1	217	359
vr	40	2019-12-19	gas_1	00142	10	00072.ppm	771	867	1	217	359
vr	40	2019-12-19	gas_1	00143	10	00072.ppm	771	867	1	217	359
vr	40	2019-12-19	gas_1	00144	10	00073.ppm	772	867	1	216	359
vr	40	2019-12-19	gas_1	00145	10	00073.ppm	770	866	1	216	359
vr	40	2019-12-19	gas_1	00146	10	00074.ppm	770	866	1	216	359
vr	40	2019-12-19	gas_1	00147	10	00074.ppm	0	0	1	216	359
vr	40	2019-12-19	gas_1	00148	10	00075.ppm	0	0	1	216	358
vr	40	2019-12-19	gas_1	00149	10	00075.ppm	0	0	1	216	358
vr	40	2019-12-19	gas_1	00150	10	00076.ppm	0	0	1	216	358
vr	40	2019-12-19	gas_1	00151	10	00077.ppm	0	0	1	216	358
vr	40	2019-12-19	gas_1	00152	10	00077.ppm	0	0	1	216	358
vr	40	2019-12-19	gas_1	00153	10	00078.ppm	0	0	1	216	358
vr	40	2019-12-19	gas_1	00154	10	00078.ppm	0	0	1	216	358
vr	40	2019-12-19	gas_1	00155	10	00079.ppm	879	867	1	216	358
vr	40	2019-12-19	gas_1	00156	10	00079.ppm	855	866	1	216	358
vr	40	2019-12-19	gas_1	00157	10	00080.ppm	852	868	1	216	358
vr	40	2019-12-19	gas_1	00158	10	00080.ppm	853	873	1	216	358
vr	40	2019-12-19	gas_1	00159	10	00081.ppm	858	878	1	216	358
vr	40	2019-12-19	gas_1	00160	10	00082.ppm	861	882	1	216	358
vr	40	2019-12-19	gas_1	00161	10	00083.ppm	864	884	1	216	358
vr	40	2019-12-19	gas_1	00162	10	00083.ppm	865	883	1	216	358
vr	40	2019-12-19	gas_1	00163	10	00083.ppm	865	882	1	216	358
vr	40	2019-12-19	gas_1	00164	10	00084.ppm	864	881	1	216	358
vr	40	2019-12-19	gas_1	00165	10	00084.ppm	864	880	1	216	358
vr	40	2019-12-19	gas_1	00166	10	00085.ppm	864	879	1	216	358
vr	40	2019-12-19	gas_1	00167	10	00086.ppm	864	880	1	216	358
vr	40	2019-12-19	gas_1	00168	10	00086.ppm	864	880	1	216	358
vr	40	2019-12-19	gas_1	00169	10	00087.ppm	865	880	1	216	358
vr	40	2019-12-19	gas_1	00170	10	00088.ppm	866	880	1	216	358
vr	40	2019-12-19	gas_1	00171	10	00088.ppm	866	880	1	216	358
vr	40	2019-12-19	gas_1	00172	10	00088.ppm	866	880	1	216	358
vr	40	2019-12-19	gas_1	00173	10	00089.ppm	865	880	1	216	358
vr	40	2019-12-19	gas_1	00174	10	00089.ppm	865	880	1	216	358
vr	40	2019-12-19	gas_1	00175	10	00090.ppm	865	880	1	216	358
vr	40	2019-12-19	gas_1	00176	10	00091.ppm	867	879	1	215	358
vr	40	2019-12-19	gas_1	00177	10	00091.ppm	874	879	1	215	358
vr	40	2019-12-19	gas_1	00178	10	00092.ppm	895	878	1	215	358
vr	40	2019-12-19	gas_1	00179	10	00093.ppm	908	877	1	215	358
vr	40	2019-12-19	gas_1	00180	10	00093.ppm	911	877	1	215	358
vr	40	2019-12-19	gas_1	00181	10	00093.ppm	911	877	1	215	358
vr	40	2019-12-19	gas_1	00182	10	00094.ppm	914	877	1	215	358
vr	40	2019-12-19	gas_1	00183	10	00094.ppm	915	877	1	215	358
vr	40	2019-12-19	gas_1	00184	10	00095.ppm	915	877	1	215	358
vr	40	2019-12-19	gas_1	00185	10	00096.ppm	915	876	1	215	358
vr	40	2019-12-19	gas_1	00186	10	00096.ppm	915	875	1	215	358
vr	40	2019-12-19	gas_1	00187	10	00097.ppm	915	876	1	215	358
vr	40	2019-12-19	gas_1	00188	10	00097.ppm	915	876	1	215	358
vr	40	2019-12-19	gas_1	00189	10	00098.ppm	915	876	1	215	358
vr	40	2019-12-19	gas_1	00190	10	00098.ppm	913	875	1	215	358
vr	40	2019-12-19	gas_1	00191	10	00099.ppm	906	875	1	215	358
vr	40	2019-12-19	gas_1	00192	10	00099.ppm	0	0	1	215	358
vr	40	2019-12-19	gas_1	00193	10	00100.ppm	0	0	1	215	358
vr	40	2019-12-19	gas_1	00194	10	00101.ppm	0	0	1	215	358
vr	40	2019-12-19	gas_1	00195	10	00102.ppm	0	0	1	215	358
vr	40	2019-12-19	gas_1	00196	10	00102.ppm	0	0	1	215	358
vr	40	2019-12-19	gas_1	00197	10	00102.ppm	0	0	1	215	358
vr	40	2019-12-19	gas_1	00198	10	00103.ppm	0	0	1	215	358
vr	40	2019-12-19	gas_1	00199	10	00103.ppm	0	0	1	215	358
vr	40	2019-12-19	gas_1	00200	10	00104.ppm	0	0	1	215	358
vr	40	2019-12-19	gas_1	00201	10	00105.ppm	0	0	1	215	358
vr	40	2019-12-19	gas_1	00202	10	00105.ppm	845	869	1	215	358
vr	40	2019-12-19	gas_1	00203	10	00106.ppm	0	0	1	215	358
vr	40	2019-12-19	gas_1	00204	10	00106.ppm	852	857	1	215	358
vr	40	2019-12-19	gas_1	00205	10	00107.ppm	830	868	1	215	358
vr	40	2019-12-19	gas_1	00206	10	00107.ppm	835	867	1	215	358
vr	40	2019-12-19	gas_1	00207	10	00108.ppm	839	870	1	215	358
vr	40	2019-12-19	gas_1	00208	10	00108.ppm	842	870	1	215	358
vr	40	2019-12-19	gas_1	00209	10	00109.ppm	851	873	1	215	358
vr	40	2019-12-19	gas_1	00210	10	00110.ppm	856	877	1	215	358
vr	40	2019-12-19	gas_1	00211	10	00110.ppm	858	879	1	215	358
vr	40	2019-12-19	gas_1	00212	10	00111.ppm	858	879	1	215	359
vr	40	2019-12-19	gas_1	00213	10	00111.ppm	858	879	1	215	359
vr	40	2019-12-19	gas_1	00214	10	00112.ppm	855	877	1	215	359
vr	40	2019-12-19	gas_1	00215	10	00112.ppm	853	875	1	215	359
vr	40	2019-12-19	gas_1	00216	10	00113.ppm	852	875	1	215	359
vr	40	2019-12-19	gas_1	00217	10	00114.ppm	851	875	1	215	359
vr	40	2019-12-19	gas_1	00218	10	00114.ppm	851	875	0	215	359
vr	40	2019-12-19	gas_1	00219	10	00115.ppm	852	875	0	215	359
vr	40	2019-12-19	gas_1	00220	10	00116.ppm	852	876	0	215	359
vr	40	2019-12-19	gas_1	00221	10	00116.ppm	852	876	0	215	359
vr	40	2019-12-19	gas_1	00222	10	00116.ppm	851	875	0	215	359
vr	40	2019-12-19	gas_1	00223	10	00117.ppm	851	875	0	215	359
vr	40	2019-12-19	gas_1	00224	10	00117.ppm	852	876	0	215	359
vr	40	2019-12-19	gas_1	00225	10	00118.ppm	853	876	0	215	359
vr	40	2019-12-19	gas_1	00226	10	00119.ppm	853	877	0	215	359
vr	40	2019-12-19	gas_1	00227	10	00119.ppm	854	877	0	215	359
vr	40	2019-12-19	gas_1	00228	10	00120.ppm	854	877	0	215	359
vr	40	2019-12-19	gas_1	00229	10	00121.ppm	854	876	0	215	359
vr	40	2019-12-19	gas_1	00230	10	00121.ppm	853	876	0	215	359
vr	40	2019-12-19	gas_1	00231	10	00121.ppm	853	876	0	215	359
vr	40	2019-12-19	gas_1	00232	10	00122.ppm	853	875	0	215	359
vr	40	2019-12-19	gas_1	00233	10	00122.ppm	853	875	0	215	359
vr	40	2019-12-19	gas_1	00234	10	00123.ppm	853	874	0	215	359
vr	40	2019-12-19	gas_1	00235	10	00124.ppm	853	874	0	215	359
vr	40	2019-12-19	gas_1	00236	10	00124.ppm	854	874	0	215	359
vr	40	2019-12-19	gas_1	00237	10	00125.ppm	854	874	0	215	359
vr	40	2019-12-19	gas_1	00238	10	00125.ppm	856	876	0	215	359
vr	40	2019-12-19	gas_1	00239	10	00126.ppm	856	876	0	215	358
vr	40	2019-12-19	gas_1	00240	10	00126.ppm	856	876	0	215	358
vr	40	2019-12-19	gas_1	00241	10	00127.ppm	856	876	0	215	359
vr	40	2019-12-19	gas_1	00242	10	00128.ppm	855	875	0	214	359
vr	40	2019-12-19	gas_1	00243	10	00128.ppm	855	875	0	214	359
vr	40	2019-12-19	gas_1	00244	10	00129.ppm	856	875	0	214	359
vr	40	2019-12-19	gas_1	00245	10	00130.ppm	856	876	0	214	359
vr	40	2019-12-19	gas_1	00246	10	00130.ppm	856	876	0	214	359
vr	40	2019-12-19	gas_1	00247	10	00130.ppm	855	875	0	214	359
vr	40	2019-12-19	gas_1	00248	10	00131.ppm	855	875	0	214	359
vr	40	2019-12-19	gas_1	00249	10	00131.ppm	855	875	0	214	359
vr	40	2019-12-19	gas_1	00250	10	00132.ppm	856	875	0	214	359
vr	40	2019-12-19	gas_1	00251	10	00133.ppm	856	875	0	214	359
vr	40	2019-12-19	gas_1	00252	10	00133.ppm	856	874	0	214	359
vr	40	2019-12-19	gas_1	00253	10	00134.ppm	856	873	0	214	359
vr	40	2019-12-19	gas_1	00254	10	00135.ppm	856	873	0	214	359
vr	40	2019-12-19	gas_1	00255	10	00135.ppm	856	873	0	214	359
vr	40	2019-12-19	gas_1	00256	10	00135.ppm	856	873	0	214	359
vr	40	2019-12-19	gas_1	00257	10	00136.ppm	855	874	0	214	359
vr	40	2019-12-19	gas_1	00258	10	00137.ppm	851	873	0	214	359
vr	40	2019-12-19	gas_1	00259	10	00138.ppm	0	0	0	214	359
vr	40	2019-12-19	gas_1	00260	10	00139.ppm	0	0	0	214	359
vr	40	2019-12-19	gas_1	00261	10	00139.ppm	0	0	0	214	359
vr	40	2019-12-19	gas_1	00262	10	00140.ppm	809	551	0	214	359
vr	40	2019-12-19	gas_1	00263	10	00140.ppm	0	0	0	214	359
vr	40	2019-12-19	gas_1	00264	10	00141.ppm	0	0	0	214	359
vr	40	2019-12-19	gas_1	00265	10	00141.ppm	0	0	0	214	359
vr	40	2019-12-19	gas_1	00266	10	00142.ppm	0	0	0	214	359
vr	40	2019-12-19	gas_1	00267	10	00143.ppm	0	0	0	214	359
vr	40	2019-12-19	gas_1	00268	10	00143.ppm	0	0	0	214	359
vr	40	2019-12-19	gas_1	00269	10	00144.ppm	0	0	0	214	359
vr	40	2019-12-19	gas_1	00270	10	00144.ppm	0	0	0	214	359
vr	40	2019-12-19	gas_1	00271	10	00145.ppm	0	0	0	214	359
vr	40	2019-12-19	gas_1	00272	10	00145.ppm	0	0	0	214	359
vr	40	2019-12-19	gas_1	00273	10	00146.ppm	0	0	0	214	359
vr	40	2019-12-19	gas_1	00274	10	00147.ppm	811	770	0	214	359
vr	40	2019-12-19	gas_1	00275	10	00147.ppm	825	828	0	214	359
vr	40	2019-12-19	gas_1	00276	10	00148.ppm	782	833	0	214	359
vr	40	2019-12-19	gas_1	00277	10	00148.ppm	776	828	0	214	359
vr	40	2019-12-19	gas_1	00278	10	00149.ppm	788	829	0	214	359
vr	40	2019-12-19	gas_1	00279	10	00149.ppm	793	832	0	214	359
vr	40	2019-12-19	gas_1	00280	10	00150.ppm	793	833	0	214	359
vr	40	2019-12-19	gas_1	00281	10	00150.ppm	793	834	0	214	359
vr	40	2019-12-19	gas_1	00282	10	00151.ppm	794	832	0	214	359
vr	40	2019-12-19	gas_1	00283	10	00151.ppm	791	831	0	214	359
vr	40	2019-12-19	gas_1	00284	10	00152.ppm	786	830	0	214	359
vr	40	2019-12-19	gas_1	00285	10	00153.ppm	785	830	0	214	359
vr	40	2019-12-19	gas_1	00286	10	00153.ppm	783	831	0	214	359
vr	40	2019-12-19	gas_1	00287	10	00154.ppm	783	831	0	214	359
vr	40	2019-12-19	gas_1	00288	10	00154.ppm	784	832	0	214	359
vr	40	2019-12-19	gas_1	00289	10	00155.ppm	786	832	0	214	359
vr	40	2019-12-19	gas_1	00290	10	00155.ppm	783	829	0	214	359
vr	40	2019-12-19	gas_1	00291	10	00156.ppm	777	826	0	214	359
vr	40	2019-12-19	gas_1	00292	10	00157.ppm	775	820	0	214	359
vr	40	2019-12-19	gas_1	00293	10	00157.ppm	772	816	0	214	359
vr	40	2019-12-19	gas_1	00294	10	00158.ppm	769	812	0	214	359
vr	40	2019-12-19	gas_1	00295	10	00158.ppm	769	811	0	214	359
vr	40	2019-12-19	gas_1	00296	10	00159.ppm	769	811	0	214	359
vr	40	2019-12-19	gas_1	00297	10	00159.ppm	768	811	0	213	359
vr	40	2019-12-19	gas_1	00298	10	00160.ppm	769	812	0	213	359
vr	40	2019-12-19	gas_1	00299	10	00160.ppm	769	811	0	213	359
vr	40	2019-12-19	gas_1	00300	10	00161.ppm	769	811	0	213	359
vr	40	2019-12-19	gas_1	00301	10	00162.ppm	769	811	0	213	359
vr	40	2019-12-19	gas_1	00302	10	00163.ppm	769	812	0	213	359
vr	40	2019-12-19	gas_1	00303	10	00163.ppm	769	812	0	213	359
vr	40	2019-12-19	gas_1	00304	10	00163.ppm	769	811	0	213	359
vr	40	2019-12-19	gas_1	00305	10	00164.ppm	770	811	0	213	359
vr	40	2019-12-19	gas_1	00306	10	00164.ppm	769	811	0	213	359
vr	40	2019-12-19	gas_1	00307	10	00165.ppm	770	811	0	213	359
vr	40	2019-12-19	gas_1	00308	10	00166.ppm	770	810	0	213	359
vr	40	2019-12-19	gas_1	00309	10	00166.ppm	770	809	0	213	359
vr	40	2019-12-19	gas_1	00310	10	00167.ppm	771	806	0	213	359
vr	40	2019-12-19	gas_1	00311	10	00167.ppm	770	801	0	213	359
vr	40	2019-12-19	gas_1	00312	10	00168.ppm	768	798	0	213	359
vr	40	2019-12-19	gas_1	00313	10	00168.ppm	768	797	0	213	359
vr	40	2019-12-19	gas_1	00314	10	00169.ppm	767	794	0	213	359
vr	40	2019-12-19	gas_1	00315	10	00169.ppm	767	794	0	213	359
vr	40	2019-12-19	gas_1	00316	10	00170.ppm	768	794	0	213	359
vr	40	2019-12-19	gas_1	00317	10	00171.ppm	768	796	0	213	359
vr	40	2019-12-19	gas_1	00318	10	00171.ppm	770	796	0	213	359
vr	40	2019-12-19	gas_1	00319	10	00172.ppm	771	797	0	213	359
vr	40	2019-12-19	gas_1	00320	10	00172.ppm	772	798	0	213	359
vr	40	2019-12-19	gas_1	00321	10	00173.ppm	773	798	0	213	359
vr	40	2019-12-19	gas_1	00322	10	00173.ppm	773	798	0	213	359
vr	40	2019-12-19	gas_1	00323	10	00174.ppm	773	797	0	213	359
vr	40	2019-12-19	gas_1	00324	10	00174.ppm	774	796	0	213	359
vr	40	2019-12-19	gas_1	00325	10	00175.ppm	787	793	0	213	359
vr	40	2019-12-19	gas_1	00326	10	00175.ppm	830	769	360	213	359
vr	40	2019-12-19	gas_1	00327	10	00176.ppm	873	719	360	213	359
vr	40	2019-12-19	gas_1	00328	10	00177.ppm	887	694	360	213	359
vr	40	2019-12-19	gas_1	00329	10	00177.ppm	904	683	360	213	359
vr	40	2019-12-19	gas_1	00330	10	00178.ppm	904	683	0	213	359
vr	40	2019-12-19	gas_1	00331	10	00178.ppm	905	679	0	213	359
vr	40	2019-12-19	gas_1	00332	10	00179.ppm	906	678	0	213	359
vr	40	2019-12-19	gas_1	00333	10	00179.ppm	908	675	0	213	359
vr	40	2019-12-19	gas_1	00334	10	00180.ppm	908	675	0	213	359
vr	40	2019-12-19	gas_1	00335	10	00181.ppm	909	675	0	213	359
vr	40	2019-12-19	gas_1	00336	10	00181.ppm	908	675	0	213	359
vr	40	2019-12-19	gas_1	00337	10	00182.ppm	908	675	0	213	359
vr	40	2019-12-19	gas_1	00338	10	00184.ppm	907	676	0	213	359
vr	40	2019-12-19	gas_1	00339	10	00185.ppm	906	676	0	213	359
vr	40	2019-12-19	gas_1	00340	10	00186.ppm	906	676	0	213	359
vr	40	2019-12-19	gas_1	00341	10	00187.ppm	906	676	0	213	359
vr	40	2019-12-19	gas_1	00342	10	00187.ppm	906	676	0	213	359
vr	40	2019-12-19	gas_1	00343	10	00189.ppm	824	757	0	213	359
vr	40	2019-12-19	gas_1	00344	10	00190.ppm	918	672	0	213	359
vr	40	2019-12-19	gas_1	00345	10	00191.ppm	928	663	0	213	359
vr	40	2019-12-19	gas_1	00346	10	00191.ppm	928	663	0	213	359
vr	40	2019-12-19	gas_1	00347	10	00192.ppm	928	663	0	213	359
vr	40	2019-12-19	gas_1	00348	10	00193.ppm	933	650	0	213	359
vr	40	2019-12-19	gas_1	00349	10	00194.ppm	935	651	0	213	359
vr	40	2019-12-19	gas_1	00350	10	00195.ppm	934	652	0	213	359
vr	40	2019-12-19	gas_1	00351	10	00195.ppm	934	652	0	213	359
vr	40	2019-12-19	gas_1	00352	10	00196.ppm	934	652	0	213	359
vr	40	2019-12-19	gas_1	00353	10	00196.ppm	933	652	0	213	359
vr	40	2019-12-19	gas_1	00354	10	00197.ppm	932	651	0	213	359
vr	40	2019-12-19	gas_1	00355	10	00198.ppm	931	652	0	213	359
vr	40	2019-12-19	gas_1	00356	10	00199.ppm	931	655	0	213	359
vr	40	2019-12-19	gas_1	00357	10	00200.ppm	931	656	0	213	359
vr	40	2019-12-19	gas_1	00358	10	00201.ppm	930	658	0	213	359
vr	40	2019-12-19	gas_1	00359	10	00201.ppm	930	658	0	213	359
vr	40	2019-12-19	gas_1	00360	10	00201.ppm	930	657	0	213	359
vr	40	2019-12-19	gas_1	00361	10	00203.ppm	929	661	0	213	359
vr	40	2019-12-19	gas_1	00362	10	00204.ppm	930	662	0	213	359
vr	40	2019-12-19	gas_1	00363	10	00204.ppm	930	662	0	213	359
vr	40	2019-12-19	gas_1	00364	10	00204.ppm	929	662	0	213	359
vr	40	2019-12-19	gas_1	00365	10	00205.ppm	929	662	0	213	359
vr	40	2019-12-19	gas_1	00366	10	00206.ppm	928	663	0	213	359
vr	40	2019-12-19	gas_1	00367	10	00206.ppm	928	663	0	213	359
vr	40	2019-12-19	gas_1	00368	10	00207.ppm	928	663	0	213	359
vr	40	2019-12-19	gas_1	00369	10	00207.ppm	928	663	0	213	359
vr	40	2019-12-19	gas_1	00370	10	00208.ppm	928	664	0	213	359
vr	40	2019-12-19	gas_1	00371	10	00208.ppm	963	645	0	213	359
vr	40	2019-12-19	gas_1	00372	10	00209.ppm	928	661	0	213	359
vr	40	2019-12-19	gas_1	00373	10	00209.ppm	929	658	0	213	359
vr	40	2019-12-19	gas_1	00374	10	00210.ppm	929	654	0	213	359
vr	40	2019-12-19	gas_1	00375	10	00211.ppm	929	651	0	213	359
vr	40	2019-12-19	gas_1	00376	10	00212.ppm	929	649	0	213	359
vr	40	2019-12-19	gas_1	00377	10	00212.ppm	929	648	0	213	359
vr	40	2019-12-19	gas_1	00378	10	00212.ppm	929	647	0	213	359
vr	40	2019-12-19	gas_1	00379	10	00213.ppm	929	646	0	213	359
vr	40	2019-12-19	gas_1	00380	10	00213.ppm	930	644	1	213	359
vr	40	2019-12-19	gas_1	00381	10	00214.ppm	929	643	1	213	359
vr	40	2019-12-19	gas_1	00382	10	00214.ppm	929	642	1	213	359
vr	40	2019-12-19	gas_1	00383	10	00215.ppm	928	642	1	213	359
vr	40	2019-12-19	gas_1	00384	10	00216.ppm	927	642	1	213	359
vr	40	2019-12-19	gas_1	00385	10	00217.ppm	926	641	1	213	359
vr	40	2019-12-19	gas_1	00386	10	00217.ppm	925	642	1	213	359
vr	40	2019-12-19	gas_1	00387	10	00217.ppm	925	641	1	213	359
vr	40	2019-12-19	gas_1	00388	10	00218.ppm	924	640	1	213	359
vr	40	2019-12-19	gas_1	00389	10	00218.ppm	925	639	1	213	359
vr	40	2019-12-19	gas_1	00390	10	00219.ppm	924	638	1	213	359
vr	40	2019-12-19	gas_1	00391	10	00220.ppm	925	630	1	213	359
vr	40	2019-12-19	gas_1	00392	10	00220.ppm	924	644	1	213	359
vr	40	2019-12-19	gas_1	00393	10	00221.ppm	924	644	1	213	359
vr	40	2019-12-19	gas_1	00394	10	00221.ppm	923	650	1	213	359
vr	40	2019-12-19	gas_1	00395	10	00222.ppm	921	654	1	213	359
vr	40	2019-12-19	gas_1	00396	10	00222.ppm	919	656	1	213	359
vr	40	2019-12-19	gas_1	00397	10	00223.ppm	917	660	1	213	359
vr	40	2019-12-19	gas_1	00398	10	00223.ppm	916	662	1	213	359
vr	40	2019-12-19	gas_1	00399	10	00224.ppm	951	649	1	213	359
vr	40	2019-12-19	gas_1	00400	10	00225.ppm	915	659	1	213	359
vr	40	2019-12-19	gas_1	00401	10	00225.ppm	950	634	1	213	359
vr	40	2019-12-19	gas_1	00402	10	00226.ppm	893	670	1	213	359
vr	40	2019-12-19	gas_1	00403	10	00226.ppm	0	0	1	213	359
vr	40	2019-12-19	gas_1	00404	10	00227.ppm	0	0	1	213	359
vr	40	2019-12-19	gas_1	00405	10	00227.ppm	0	0	1	213	359
vr	40	2019-12-19	gas_1	00406	10	00228.ppm	0	0	1	213	359
vr	40	2019-12-19	gas_1	00407	10	00228.ppm	0	0	1	213	359
vr	40	2019-12-19	gas_1	00408	10	00229.ppm	0	0	1	213	359
vr	40	2019-12-19	gas_1	00409	10	00230.ppm	0	0	1	213	359
vr	40	2019-12-19	gas_1	00410	10	00231.ppm	0	0	1	213	359
vr	40	2019-12-19	gas_1	00411	10	00231.ppm	0	0	1	213	359
vr	40	2019-12-19	gas_1	00412	10	00232.ppm	0	0	1	213	359
vr	40	2019-12-19	gas_1	00413	10	00232.ppm	0	0	1	213	359
vr	40	2019-12-19	gas_1	00414	10	00233.ppm	0	0	1	213	359
vr	40	2019-12-19	gas_1	00415	10	00234.ppm	0	0	1	213	359
vr	40	2019-12-19	gas_1	00416	10	00236.ppm	0	0	1	213	359
vr	40	2019-12-19	gas_1	00417	10	00236.ppm	826	762	1	213	359
vr	40	2019-12-19	gas_1	00418	10	00237.ppm	834	777	1	213	359
vr	40	2019-12-19	gas_1	00419	10	00237.ppm	831	810	1	213	359
vr	40	2019-12-19	gas_1	00420	10	00237.ppm	773	797	1	213	359
vr	40	2019-12-19	gas_1	00421	10	00238.ppm	770	811	1	213	359
vr	40	2019-12-19	gas_1	00422	10	00239.ppm	769	815	1	213	359
vr	40	2019-12-19	gas_1	00423	10	00240.ppm	767	822	1	213	359
vr	40	2019-12-19	gas_1	00424	10	00240.ppm	768	825	1	213	359
vr	40	2019-12-19	gas_1	00425	10	00242.ppm	768	827	1	213	359
vr	40	2019-12-19	gas_1	00426	10	00242.ppm	765	829	1	213	359
vr	40	2019-12-19	gas_1	00427	10	00243.ppm	764	831	1	213	359
vr	40	2019-12-19	gas_1	00428	10	00244.ppm	765	834	1	213	359
vr	40	2019-12-19	gas_1	00429	10	00245.ppm	767	838	1	213	359
vr	40	2019-12-19	gas_1	00430	10	00246.ppm	767	838	1	213	359
vr	40	2019-12-19	gas_1	00431	10	00246.ppm	767	838	1	213	359
vr	40	2019-12-19	gas_1	00432	10	00247.ppm	767	838	1	213	359
vr	40	2019-12-19	gas_1	00433	10	00247.ppm	767	839	1	213	359
vr	40	2019-12-19	gas_1	00434	10	00248.ppm	767	839	1	213	359
vr	40	2019-12-19	gas_1	00435	10	00248.ppm	767	841	1	213	359
vr	40	2019-12-19	gas_1	00436	10	00249.ppm	767	842	1	213	359
vr	40	2019-12-19	gas_1	00437	10	00250.ppm	767	842	1	213	359
vr	40	2019-12-19	gas_1	00438	10	00251.ppm	766	843	1	213	359
vr	40	2019-12-19	gas_1	00439	10	00251.ppm	765	844	1	213	359
vr	40	2019-12-19	gas_1	00440	10	00251.ppm	768	844	1	213	359
vr	40	2019-12-19	gas_1	00441	10	00252.ppm	797	838	1	213	359
vr	40	2019-12-19	gas_1	00442	10	00254.ppm	809	833	2	213	359
vr	40	2019-12-19	gas_1	00443	10	00255.ppm	809	833	2	213	359
vr	40	2019-12-19	gas_1	00444	10	00256.ppm	809	833	2	213	359
vr	40	2019-12-19	gas_1	00445	10	00257.ppm	809	833	2	213	359
vr	40	2019-12-19	gas_1	00446	10	00258.ppm	844	813	2	213	359
vr	40	2019-12-19	gas_1	00447	10	00259.ppm	885	739	2	213	359
vr	40	2019-12-19	gas_1	00448	10	00261.ppm	919	736	2	213	359
vr	40	2019-12-19	gas_1	00449	10	00262.ppm	947	673	2	213	359
vr	40	2019-12-19	gas_1	00450	10	00262.ppm	947	671	2	213	359
vr	40	2019-12-19	gas_1	00451	10	00263.ppm	947	671	2	213	359
vr	40	2019-12-19	gas_1	00452	10	00263.ppm	942	668	2	213	359
vr	40	2019-12-19	gas_1	00453	10	00264.ppm	887	722	2	213	359
vr	40	2019-12-19	gas_1	00454	10	00264.ppm	883	726	2	213	359
vr	40	2019-12-19	gas_1	00455	10	00265.ppm	806	773	2	213	359
vr	40	2019-12-19	gas_1	00456	10	00265.ppm	790	777	2	213	359
vr	40	2019-12-19	gas_1	00457	10	00266.ppm	794	784	2	213	359
vr	40	2019-12-19	gas_1	00458	10	00267.ppm	791	788	2	213	359
vr	40	2019-12-19	gas_1	00459	10	00267.ppm	791	790	2	213	359
vr	40	2019-12-19	gas_1	00460	10	00268.ppm	787	792	2	213	359
vr	40	2019-12-19	gas_1	00461	10	00269.ppm	783	793	2	213	359
vr	40	2019-12-19	gas_1	00462	10	00269.ppm	783	793	2	213	359
vr	40	2019-12-19	gas_1	00463	10	00269.ppm	780	794	2	213	359
vr	40	2019-12-19	gas_1	00464	10	00270.ppm	780	794	2	213	359
vr	40	2019-12-19	gas_1	00465	10	00271.ppm	782	796	2	213	359
vr	40	2019-12-19	gas_1	00466	10	00272.ppm	784	798	2	213	359
vr	40	2019-12-19	gas_1	00467	10	00272.ppm	784	798	2	213	359
vr	40	2019-12-19	gas_1	00468	10	00273.ppm	785	799	2	213	359
vr	40	2019-12-19	gas_1	00469	10	00273.ppm	789	800	2	213	359
vr	40	2019-12-19	gas_1	00470	10	00274.ppm	792	799	2	213	359
vr	40	2019-12-19	gas_1	00471	10	00274.ppm	793	799	2	213	359
vr	40	2019-12-19	gas_1	00472	10	00275.ppm	794	799	2	213	359
vr	40	2019-12-19	gas_1	00473	10	00275.ppm	794	800	2	213	359
vr	40	2019-12-19	gas_1	00474	10	00276.ppm	794	799	2	212	359
vr	40	2019-12-19	gas_1	00475	10	00277.ppm	794	800	2	212	359
vr	40	2019-12-19	gas_1	00476	10	00278.ppm	794	800	2	212	359
vr	40	2019-12-19	gas_1	00477	10	00278.ppm	791	799	2	212	359
vr	40	2019-12-19	gas_1	00478	10	00278.ppm	727	800	2	212	359
vr	40	2019-12-19	gas_1	00479	10	00279.ppm	667	804	2	212	359
vr	40	2019-12-19	gas_1	00480	10	00279.ppm	636	806	2	212	359
vr	40	2019-12-19	gas_1	00481	10	00280.ppm	627	806	2	212	359
vr	40	2019-12-19	gas_1	00482	10	00281.ppm	603	803	2	212	359
vr	40	2019-12-19	gas_1	00483	10	00282.ppm	600	801	2	212	359
vr	40	2019-12-19	gas_1	00484	10	00283.ppm	591	801	2	212	359
vr	40	2019-12-19	gas_1	00485	10	00284.ppm	590	800	2	212	359
vr	40	2019-12-19	gas_1	00486	10	00285.ppm	592	800	2	212	359
vr	40	2019-12-19	gas_1	00487	10	00286.ppm	595	800	2	212	359
vr	40	2019-12-19	gas_1	00488	10	00287.ppm	597	801	2	212	359
vr	40	2019-12-19	gas_1	00489	10	00287.ppm	597	801	2	212	359
vr	40	2019-12-19	gas_1	00490	10	00287.ppm	597	801	2	212	359
vr	40	2019-12-19	gas_1	00491	10	00288.ppm	597	802	2	212	359
vr	40	2019-12-19	gas_1	00492	10	00290.ppm	601	805	2	212	359
vr	40	2019-12-19	gas_1	00493	10	00290.ppm	603	806	2	211	359
vr	40	2019-12-19	gas_1	00494	10	00291.ppm	605	808	2	211	359
vr	40	2019-12-19	gas_1	00495	10	00292.ppm	606	808	2	211	359
vr	40	2019-12-19	gas_1	00496	10	00292.ppm	608	810	2	211	359
vr	40	2019-12-19	gas_1	00497	10	00294.ppm	612	812	2	211	359
vr	40	2019-12-19	gas_1	00498	10	00295.ppm	615	813	2	211	359
vr	40	2019-12-19	gas_1	00499	10	00296.ppm	619	814	2	210	359
vr	40	2019-12-19	gas_1	00500	10	00296.ppm	619	815	2	210	359
vr	40	2019-12-19	gas_1	00501	10	00297.ppm	619	815	3	210	359
vr	40	2019-12-19	gas_1	00502	10	00297.ppm	620	815	3	210	359
vr	40	2019-12-19	gas_1	00503	10	00298.ppm	622	815	3	210	359
vr	40	2019-12-19	gas_1	00504	10	00299.ppm	622	815	3	210	359
vr	40	2019-12-19	gas_1	00505	10	00299.ppm	624	815	3	210	359
vr	40	2019-12-19	gas_1	00506	10	00299.ppm	624	814	3	210	359
vr	40	2019-12-19	gas_1	00507	10	00300.ppm	624	814	2	210	359
vr	40	2019-12-19	gas_1	00508	10	00304.ppm	622	815	2	211	359
vr	40	2019-12-19	gas_1	00509	10	00305.ppm	622	815	2	213	359
vr	40	2019-12-19	gas_1	00510	10	00306.ppm	621	815	2	213	359
vr	40	2019-12-19	gas_1	00511	10	00307.ppm	621	815	2	215	360
vr	40	2019-12-19	gas_1	00512	10	00307.ppm	621	815	2	217	360
vr	40	2019-12-19	gas_1	00513	10	00308.ppm	619	815	2	219	360
vr	40	2019-12-19	gas_1	00514	10	00308.ppm	0	0	1	223	0
vr	40	2019-12-19	gas_1	00515	10	00309.ppm	0	0	1	224	0
vr	40	2019-12-19	gas_1	00516	10	00310.ppm	0	0	1	229	1
vr	40	2019-12-19	gas_1	00517	10	00312.ppm	0	0	1	231	1
vr	40	2019-12-19	gas_1	00518	10	00313.ppm	808	686	1	235	1
vr	40	2019-12-19	gas_1	00519	10	00313.ppm	1065	759	1	237	1
vr	40	2019-12-19	gas_1	00520	10	00314.ppm	1065	759	1	239	1
vr	40	2019-12-19	gas_1	00521	10	00314.ppm	1069	756	1	242	1
vr	40	2019-12-19	gas_1	00522	10	00315.ppm	1094	757	1	244	1
vr	40	2019-12-19	gas_1	00523	10	00315.ppm	1131	719	0	246	1
vr	40	2019-12-19	gas_1	00524	10	00316.ppm	1161	740	0	248	1
vr	40	2019-12-19	gas_1	00525	10	00317.ppm	1092	782	0	250	1
vr	40	2019-12-19	gas_1	00526	10	00317.ppm	1077	785	0	253	1
vr	40	2019-12-19	gas_1	00527	10	00317.ppm	1061	786	0	254	1
vr	40	2019-12-19	gas_1	00528	10	00318.ppm	1018	791	0	256	1
vr	40	2019-12-19	gas_1	00529	10	00318.ppm	968	793	0	258	1
vr	40	2019-12-19	gas_1	00530	10	00319.ppm	950	793	0	260	1
vr	40	2019-12-19	gas_1	00531	10	00320.ppm	924	790	0	261	1
vr	40	2019-12-19	gas_1	00532	10	00321.ppm	905	793	0	263	1
vr	40	2019-12-19	gas_1	00533	10	00322.ppm	921	793	360	265	1
vr	40	2019-12-19	gas_1	00534	10	00322.ppm	921	793	360	266	1
vr	40	2019-12-19	gas_1	00535	10	00322.ppm	921	793	360	267	0
vr	40	2019-12-19	gas_1	00536	10	00323.ppm	1043	747	360	268	0
vr	40	2019-12-19	gas_1	00537	10	00323.ppm	941	722	360	269	0
vr	40	2019-12-19	gas_1	00538	10	00324.ppm	1043	735	360	270	0
vr	40	2019-12-19	gas_1	00539	10	00325.ppm	1034	735	360	271	360
vr	40	2019-12-19	gas_1	00540	10	00326.ppm	1091	745	360	271	360
vr	40	2019-12-19	gas_1	00541	10	00326.ppm	1022	735	360	272	360
vr	40	2019-12-19	gas_1	00542	10	00326.ppm	1006	759	360	272	360
vr	40	2019-12-19	gas_1	00543	10	00327.ppm	998	758	360	273	360
vr	40	2019-12-19	gas_1	00544	10	00327.ppm	992	762	360	273	360
vr	40	2019-12-19	gas_1	00545	10	00328.ppm	985	763	0	274	360
vr	40	2019-12-19	gas_1	00546	10	00328.ppm	981	764	0	274	359
vr	40	2019-12-19	gas_1	00547	10	00329.ppm	976	765	0	274	359
vr	40	2019-12-19	gas_1	00548	10	00330.ppm	971	767	0	274	359
vr	40	2019-12-19	gas_1	00549	10	00331.ppm	963	770	0	275	359
vr	40	2019-12-19	gas_1	00550	10	00332.ppm	961	770	0	275	359
vr	40	2019-12-19	gas_1	00551	10	00332.ppm	961	770	0	275	359
vr	40	2019-12-19	gas_1	00552	10	00332.ppm	958	771	0	275	359
vr	40	2019-12-19	gas_1	00553	10	00334.ppm	940	772	0	276	359
vr	40	2019-12-19	gas_1	00554	10	00335.ppm	934	772	0	276	359
vr	40	2019-12-19	gas_1	00555	10	00336.ppm	934	772	0	276	359
vr	40	2019-12-19	gas_1	00556	10	00336.ppm	934	772	1	276	359
vr	40	2019-12-19	gas_1	00557	10	00336.ppm	931	775	1	276	359
vr	40	2019-12-19	gas_1	00558	10	00338.ppm	1022	751	1	277	359
vr	40	2019-12-19	gas_1	00559	10	00338.ppm	1035	748	1	277	359
vr	40	2019-12-19	gas_1	00560	10	00339.ppm	1050	747	1	277	359
vr	40	2019-12-19	gas_1	00561	10	00339.ppm	1060	752	1	278	359
vr	40	2019-12-19	gas_1	00562	10	00340.ppm	1061	744	1	278	359
vr	40	2019-12-19	gas_1	00563	10	00341.ppm	1054	745	1	278	359
vr	40	2019-12-19	gas_1	00564	10	00341.ppm	1053	745	1	278	359
vr	40	2019-12-19	gas_1	00565	10	00342.ppm	1048	744	1	279	359
vr	40	2019-12-19	gas_1	00566	10	00342.ppm	1044	743	1	279	359
vr	40	2019-12-19	gas_1	00567	10	00343.ppm	1039	744	1	279	359
vr	40	2019-12-19	gas_1	00568	10	00344.ppm	1036	745	1	279	359
vr	40	2019-12-19	gas_1	00569	10	00345.ppm	1102	743	1	280	359
vr	40	2019-12-19	gas_1	00570	10	00345.ppm	1101	744	1	280	359
vr	40	2019-12-19	gas_1	00571	10	00345.ppm	1029	747	1	280	359
vr	40	2019-12-19	gas_1	00572	10	00346.ppm	1027	747	1	280	359
vr	40	2019-12-19	gas_1	00573	10	00346.ppm	1025	745	1	280	359
vr	40	2019-12-19	gas_1	00574	10	00347.ppm	1021	744	1	280	359
vr	40	2019-12-19	gas_1	00575	10	00348.ppm	1091	743	1	280	359
vr	40	2019-12-19	gas_1	00576	10	00348.ppm	1088	743	1	281	359
vr	40	2019-12-19	gas_1	00577	10	00349.ppm	1085	745	1	281	359
vr	40	2019-12-19	gas_1	00578	10	00350.ppm	1078	748	1	281	359
vr	40	2019-12-19	gas_1	00579	10	00350.ppm	1075	751	1	281	359
vr	40	2019-12-19	gas_1	00580	10	00351.ppm	1067	755	1	281	359
vr	40	2019-12-19	gas_1	00581	10	00352.ppm	999	751	1	281	359
vr	40	2019-12-19	gas_1	00582	10	00352.ppm	999	751	1	281	359
vr	40	2019-12-19	gas_1	00583	10	00353.ppm	980	767	2	281	359
vr	40	2019-12-19	gas_1	00584	10	00354.ppm	1052	760	2	281	359
vr	40	2019-12-19	gas_1	00585	10	00355.ppm	974	770	2	281	359
vr	40	2019-12-19	gas_1	00586	10	00355.ppm	954	781	2	282	359
vr	40	2019-12-19	gas_1	00587	10	00356.ppm	921	779	2	282	359
vr	40	2019-12-19	gas_1	00588	10	00357.ppm	901	776	2	282	359
vr	40	2019-12-19	gas_1	00589	10	00357.ppm	885	772	2	282	359
vr	40	2019-12-19	gas_1	00590	10	00358.ppm	800	767	2	282	359
vr	40	2019-12-19	gas_1	00591	10	00358.ppm	737	762	2	282	359
vr	40	2019-12-19	gas_1	00592	10	00359.ppm	743	762	2	282	359
vr	40	2019-12-19	gas_1	00593	10	00359.ppm	739	761	2	282	359
vr	40	2019-12-19	gas_1	00594	10	00360.ppm	740	761	2	282	359
vr	40	2019-12-19	gas_1	00595	10	00361.ppm	738	762	2	282	359
vr	40	2019-12-19	gas_1	00596	10	00361.ppm	738	762	2	282	359
vr	40	2019-12-19	gas_1	00597	10	00362.ppm	738	762	2	282	359
vr	40	2019-12-19	gas_1	00598	10	00362.ppm	736	763	2	282	359
vr	40	2019-12-19	gas_1	00599	10	00363.ppm	727	761	2	282	359
vr	40	2019-12-19	gas_1	00600	10	00365.ppm	721	759	2	282	359
vr	40	2019-12-19	gas_1	00601	10	00365.ppm	721	758	2	282	359
vr	40	2019-12-19	gas_1	00602	10	00365.ppm	724	758	2	282	359
vr	40	2019-12-19	gas_1	00603	10	00366.ppm	727	758	2	282	359
vr	40	2019-12-19	gas_1	00604	10	00367.ppm	721	758	2	282	359
vr	40	2019-12-19	gas_1	00605	10	00367.ppm	722	758	2	282	359
vr	40	2019-12-19	gas_1	00606	10	00368.ppm	724	758	2	282	359
vr	40	2019-12-19	gas_1	00607	10	00369.ppm	726	758	2	282	359
vr	40	2019-12-19	gas_1	00608	10	00369.ppm	728	758	2	282	359
vr	40	2019-12-19	gas_1	00609	10	00369.ppm	727	759	2	282	359
vr	40	2019-12-19	gas_1	00610	10	00370.ppm	729	760	2	282	359
vr	40	2019-12-19	gas_1	00611	10	00371.ppm	731	762	2	282	359
vr	40	2019-12-19	gas_1	00612	10	00372.ppm	730	762	2	282	359
vr	40	2019-12-19	gas_1	00613	10	00372.ppm	733	762	2	282	359
vr	40	2019-12-19	gas_1	00614	10	00374.ppm	735	761	2	282	359
vr	40	2019-12-19	gas_1	00615	10	00374.ppm	735	758	2	282	359
vr	40	2019-12-19	gas_1	00616	10	00374.ppm	754	724	2	282	359
vr	40	2019-12-19	gas_1	00617	10	00375.ppm	764	697	2	282	359
vr	40	2019-12-19	gas_1	00618	10	00375.ppm	762	695	2	282	359
vr	40	2019-12-19	gas_1	00619	10	00376.ppm	764	692	2	282	359
vr	40	2019-12-19	gas_1	00620	10	00377.ppm	764	688	2	282	359
vr	40	2019-12-19	gas_1	00621	10	00377.ppm	763	687	2	282	359
vr	40	2019-12-19	gas_1	00622	10	00378.ppm	763	684	2	282	359
vr	40	2019-12-19	gas_1	00623	10	00379.ppm	761	684	2	282	359
vr	40	2019-12-19	gas_1	00624	10	00379.ppm	760	684	2	282	359
vr	40	2019-12-19	gas_1	00625	10	00379.ppm	760	684	2	282	359
vr	40	2019-12-19	gas_1	00626	10	00380.ppm	760	684	2	282	359
vr	40	2019-12-19	gas_1	00627	10	00382.ppm	763	685	2	282	359
vr	40	2019-12-19	gas_1	00628	10	00382.ppm	763	685	2	282	359
vr	40	2019-12-19	gas_1	00629	10	00383.ppm	763	684	2	282	359
vr	40	2019-12-19	gas_1	00630	10	00384.ppm	763	683	2	282	359
vr	40	2019-12-19	gas_1	00631	10	00384.ppm	763	683	2	282	359
vr	40	2019-12-19	gas_1	00632	10	00384.ppm	762	684	2	282	359
vr	40	2019-12-19	gas_1	00633	10	00385.ppm	762	684	2	282	359
vr	40	2019-12-19	gas_1	00634	10	00386.ppm	762	684	2	282	359
vr	40	2019-12-19	gas_1	00635	10	00386.ppm	762	684	2	282	359
vr	40	2019-12-19	gas_1	00636	10	00387.ppm	760	684	2	282	359
vr	40	2019-12-19	gas_1	00637	10	00387.ppm	759	684	2	282	359
vr	40	2019-12-19	gas_1	00638	10	00388.ppm	759	684	2	282	359
vr	40	2019-12-19	gas_1	00639	10	00389.ppm	759	684	2	282	359
vr	40	2019-12-19	gas_1	00640	10	00389.ppm	758	684	2	282	359
vr	40	2019-12-19	gas_1	00641	10	00389.ppm	757	684	2	282	359
vr	40	2019-12-19	gas_1	00642	10	00390.ppm	756	683	2	282	359
vr	40	2019-12-19	gas_1	00643	10	00391.ppm	758	684	2	282	359
vr	40	2019-12-19	gas_1	00644	10	00391.ppm	757	683	2	282	359
vr	40	2019-12-19	gas_1	00645	10	00392.ppm	756	684	2	282	359
vr	40	2019-12-19	gas_1	00646	10	00392.ppm	764	685	1	282	359
vr	40	2019-12-19	gas_1	00647	10	00393.ppm	758	684	1	282	359
vr	40	2019-12-19	gas_1	00648	10	00393.ppm	758	682	1	282	359
vr	40	2019-12-19	gas_1	00649	10	00394.ppm	758	680	1	282	359
vr	40	2019-12-19	gas_1	00650	10	00394.ppm	758	678	1	282	359
vr	40	2019-12-19	gas_1	00651	10	00395.ppm	757	678	1	281	359
vr	40	2019-12-19	gas_1	00652	10	00396.ppm	758	678	1	281	359
vr	40	2019-12-19	gas_1	00653	10	00396.ppm	758	679	1	281	359
vr	40	2019-12-19	gas_1	00654	10	00397.ppm	759	679	1	281	358
vr	40	2019-12-19	gas_1	00655	10	00398.ppm	760	679	1	281	358
vr	40	2019-12-19	gas_1	00656	10	00398.ppm	760	679	1	281	358
vr	40	2019-12-19	gas_1	00657	10	00398.ppm	760	679	1	281	358
vr	40	2019-12-19	gas_1	00658	10	00399.ppm	761	678	1	281	358
vr	40	2019-12-19	gas_1	00659	10	00399.ppm	761	677	1	281	358
vr	40	2019-12-19	gas_1	00660	10	00400.ppm	762	678	1	281	358
vr	40	2019-12-19	gas_1	00661	10	00401.ppm	768	677	1	281	358
vr	40	2019-12-19	gas_1	00662	10	00401.ppm	813	678	1	281	358
vr	40	2019-12-19	gas_1	00663	10	00402.ppm	827	679	1	281	358
vr	40	2019-12-19	gas_1	00664	10	00403.ppm	876	707	1	281	358
vr	40	2019-12-19	gas_1	00665	10	00403.ppm	906	729	1	281	358
vr	40	2019-12-19	gas_1	00666	10	00403.ppm	950	743	1	281	358
vr	40	2019-12-19	gas_1	00667	10	00404.ppm	976	743	1	281	358
vr	40	2019-12-19	gas_1	00668	10	00405.ppm	984	746	1	281	358
vr	40	2019-12-19	gas_1	00669	10	00405.ppm	983	751	1	282	358
vr	40	2019-12-19	gas_1	00670	10	00406.ppm	974	779	1	282	358
vr	40	2019-12-19	gas_1	00671	10	00406.ppm	948	774	1	282	358
vr	40	2019-12-19	gas_1	00672	10	00407.ppm	979	749	1	282	358
vr	40	2019-12-19	gas_1	00673	10	00408.ppm	975	748	1	283	358
vr	40	2019-12-19	gas_1	00674	10	00408.ppm	972	747	1	283	358
vr	40	2019-12-19	gas_1	00675	10	00408.ppm	970	747	1	283	358
vr	40	2019-12-19	gas_1	00676	10	00409.ppm	967	746	1	283	358
vr	40	2019-12-19	gas_1	00677	10	00409.ppm	965	746	1	284	359
vr	40	2019-12-19	gas_1	00678	10	00410.ppm	963	746	1	284	359
vr	40	2019-12-19	gas_1	00679	10	00411.ppm	956	747	1	284	359
vr	40	2019-12-19	gas_1	00680	10	00412.ppm	956	747	1	285	359
vr	40	2019-12-19	gas_1	00681	10	00412.ppm	955	747	1	285	359
vr	40	2019-12-19	gas_1	00682	10	00412.ppm	953	747	1	285	359
vr	40	2019-12-19	gas_1	00683	10	00413.ppm	948	747	1	286	359
vr	40	2019-12-19	gas_1	00684	10	00413.ppm	946	747	1	286	359
vr	40	2019-12-19	gas_1	00685	10	00414.ppm	944	748	1	286	359
vr	40	2019-12-19	gas_1	00686	10	00415.ppm	941	750	1	287	359
vr	40	2019-12-19	gas_1	00687	10	00415.ppm	938	752	1	287	359
vr	40	2019-12-19	gas_1	00688	10	00416.ppm	933	754	1	287	359
vr	40	2019-12-19	gas_1	00689	10	00417.ppm	929	758	1	288	359
vr	40	2019-12-19	gas_1	00690	10	00417.ppm	929	758	1	288	359
vr	40	2019-12-19	gas_1	00691	10	00417.ppm	927	760	1	288	359
vr	40	2019-12-19	gas_1	00692	10	00418.ppm	925	762	1	288	359
vr	40	2019-12-19	gas_1	00693	10	00418.ppm	923	763	1	289	359
vr	40	2019-12-19	gas_1	00694	10	00419.ppm	920	764	1	289	359
vr	40	2019-12-19	gas_1	00695	10	00420.ppm	904	763	1	289	359
vr	40	2019-12-19	gas_1	00696	10	00421.ppm	886	759	1	290	359
vr	40	2019-12-19	gas_1	00697	10	00421.ppm	884	759	1	290	359
vr	40	2019-12-19	gas_1	00698	10	00421.ppm	883	758	1	290	359
vr	40	2019-12-19	gas_1	00699	10	00422.ppm	881	757	1	290	359
vr	40	2019-12-19	gas_1	00700	10	00423.ppm	877	757	1	291	359
vr	40	2019-12-19	gas_1	00701	10	00424.ppm	911	756	1	292	359
vr	40	2019-12-19	gas_1	00702	10	00425.ppm	945	755	1	292	359
vr	40	2019-12-19	gas_1	00703	10	00425.ppm	960	754	1	292	359
vr	40	2019-12-19	gas_1	00704	10	00426.ppm	1005	752	1	293	359
vr	40	2019-12-19	gas_1	00705	10	00427.ppm	1133	745	1	293	359
vr	40	2019-12-19	gas_1	00706	10	00427.ppm	1135	746	1	293	359
vr	40	2019-12-19	gas_1	00707	10	00427.ppm	1139	746	1	294	359
vr	40	2019-12-19	gas_1	00708	10	00428.ppm	1136	744	1	294	359
vr	40	2019-12-19	gas_1	00709	10	00428.ppm	1138	743	1	295	359
vr	40	2019-12-19	gas_1	00710	10	00429.ppm	997	743	1	295	359
vr	40	2019-12-19	gas_1	00711	10	00430.ppm	996	743	1	296	359
vr	40	2019-12-19	gas_1	00712	10	00432.ppm	983	746	1	296	359
vr	40	2019-12-19	gas_1	00713	10	00432.ppm	981	746	1	298	359
vr	40	2019-12-19	gas_1	00714	10	00432.ppm	979	747	1	298	359
vr	40	2019-12-19	gas_1	00715	10	00433.ppm	978	747	1	299	359
vr	40	2019-12-19	gas_1	00716	10	00434.ppm	1028	749	1	299	359
vr	40	2019-12-19	gas_1	00717	10	00434.ppm	1022	750	1	300	359
vr	40	2019-12-19	gas_1	00718	10	00435.ppm	965	750	2	300	359
vr	40	2019-12-19	gas_1	00719	10	00436.ppm	955	748	2	301	359
vr	40	2019-12-19	gas_1	00720	10	00436.ppm	955	748	2	301	359
vr	40	2019-12-19	gas_1	00721	10	00436.ppm	952	748	2	302	359
vr	40	2019-12-19	gas_1	00722	10	00437.ppm	941	746	2	302	359
vr	40	2019-12-19	gas_1	00723	10	00437.ppm	937	745	2	303	359
vr	40	2019-12-19	gas_1	00724	10	00438.ppm	927	743	2	303	359
vr	40	2019-12-19	gas_1	00725	10	00439.ppm	923	742	2	304	359
vr	40	2019-12-19	gas_1	00726	10	00439.ppm	918	740	2	304	359
vr	40	2019-12-19	gas_1	00727	10	00440.ppm	909	739	2	305	359
vr	40	2019-12-19	gas_1	00728	10	00441.ppm	899	738	2	305	359
vr	40	2019-12-19	gas_1	00729	10	00442.ppm	910	739	2	307	359
vr	40	2019-12-19	gas_1	00730	10	00442.ppm	970	740	2	307	360
vr	40	2019-12-19	gas_1	00731	10	00443.ppm	1153	748	2	308	360
vr	40	2019-12-19	gas_1	00732	10	00444.ppm	1312	769	2	309	360
vr	40	2019-12-19	gas_1	00733	10	00445.ppm	1310	773	2	310	360
vr	40	2019-12-19	gas_1	00734	10	00445.ppm	1309	781	2	310	360
vr	40	2019-12-19	gas_1	00735	10	00446.ppm	1292	783	2	311	360
vr	40	2019-12-19	gas_1	00736	10	00446.ppm	1329	788	2	311	360
vr	40	2019-12-19	gas_1	00737	10	00447.ppm	1325	794	2	312	360
vr	40	2019-12-19	gas_1	00738	10	00447.ppm	1065	716	2	312	360
vr	40	2019-12-19	gas_1	00739	10	00450.ppm	1262	791	2	312	360
vr	40	2019-12-19	gas_1	00740	10	00453.ppm	0	0	2	313	0
vr	40	2019-12-19	gas_1	00741	10	00454.ppm	0	0	2	316	0
vr	40	2019-12-19	gas_1	00742	10	00455.ppm	1136	807	3	316	0
vr	40	2019-12-19	gas_1	00743	10	00456.ppm	0	0	3	317	1
vr	40	2019-12-19	gas_1	00744	10	00457.ppm	1166	806	3	318	1
vr	40	2019-12-19	gas_1	00745	10	00458.ppm	1147	809	3	318	1
vr	40	2019-12-19	gas_1	00746	10	00459.ppm	1070	816	3	319	2
vr	40	2019-12-19	gas_1	00747	10	00459.ppm	1068	816	3	319	2
vr	40	2019-12-19	gas_1	00748	10	00460.ppm	1067	817	3	319	2
vr	40	2019-12-19	gas_1	00749	10	00461.ppm	1059	815	3	319	2
vr	40	2019-12-19	gas_1	00750	10	00462.ppm	1009	809	3	319	2
vr	40	2019-12-19	gas_1	00751	10	00462.ppm	1009	809	3	319	3
vr	40	2019-12-19	gas_1	00752	10	00463.ppm	989	803	3	319	3
vr	40	2019-12-19	gas_1	00753	10	00464.ppm	974	793	3	319	3
vr	40	2019-12-19	gas_1	00754	10	00465.ppm	972	792	3	319	3
vr	40	2019-12-19	gas_1	00755	10	00466.ppm	972	792	3	319	3
vr	40	2019-12-19	gas_1	00756	10	00466.ppm	972	792	3	319	3
vr	40	2019-12-19	gas_1	00757	10	00466.ppm	971	791	3	318	2
vr	40	2019-12-19	gas_1	00758	10	00467.ppm	971	790	3	318	2
vr	40	2019-12-19	gas_1	00759	10	00468.ppm	971	790	3	318	2
vr	40	2019-12-19	gas_1	00760	10	00468.ppm	971	790	3	318	2
vr	40	2019-12-19	gas_1	00761	10	00469.ppm	973	790	3	318	2
vr	40	2019-12-19	gas_1	00762	10	00471.ppm	974	791	3	317	2
vr	40	2019-12-19	gas_1	00763	10	00472.ppm	974	791	3	317	1
vr	40	2019-12-19	gas_1	00764	10	00473.ppm	974	791	3	316	1
vr	40	2019-12-19	gas_1	00765	10	00474.ppm	974	791	3	316	0
vr	40	2019-12-19	gas_1	00766	10	00475.ppm	974	790	3	315	360
vr	40	2019-12-19	gas_1	00767	10	00476.ppm	828	801	3	314	359
vr	40	2019-12-19	gas_1	00768	10	00477.ppm	754	846	3	314	359
vr	40	2019-12-19	gas_1	00769	10	00478.ppm	754	849	3	314	359
vr	40	2019-12-19	gas_1	00770	10	00479.ppm	757	855	3	314	359
vr	40	2019-12-19	gas_1	00771	10	00479.ppm	758	856	3	313	359
vr	40	2019-12-19	gas_1	00772	10	00479.ppm	759	857	3	313	359
vr	40	2019-12-19	gas_1	00773	10	00480.ppm	763	857	3	313	359
vr	40	2019-12-19	gas_1	00774	10	00481.ppm	768	857	3	313	359
vr	40	2019-12-19	gas_1	00775	10	00482.ppm	771	856	3	313	359
vr	40	2019-12-19	gas_1	00776	10	00482.ppm	772	856	3	313	358
vr	40	2019-12-19	gas_1	00777	10	00483.ppm	774	855	3	313	358
vr	40	2019-12-19	gas_1	00778	10	00483.ppm	777	853	3	312	358
vr	40	2019-12-19	gas_1	00779	10	00484.ppm	781	851	2	312	358
vr	40	2019-12-19	gas_1	00780	10	00484.ppm	782	850	2	312	358
vr	40	2019-12-19	gas_1	00781	10	00485.ppm	783	850	2	312	358
vr	40	2019-12-19	gas_1	00782	10	00485.ppm	785	849	2	312	358
vr	40	2019-12-19	gas_1	00783	10	00486.ppm	787	849	2	312	358
vr	40	2019-12-19	gas_1	00784	10	00487.ppm	787	849	2	312	358
vr	40	2019-12-19	gas_1	00785	10	00487.ppm	788	848	2	312	358
vr	40	2019-12-19	gas_1	00786	10	00488.ppm	790	847	2	312	358
vr	40	2019-12-19	gas_1	00787	10	00488.ppm	792	846	2	312	358
vr	40	2019-12-19	gas_1	00788	10	00489.ppm	793	845	2	312	358
vr	40	2019-12-19	gas_1	00789	10	00489.ppm	769	846	2	312	358
vr	40	2019-12-19	gas_1	00790	10	00490.ppm	756	847	2	312	358
vr	40	2019-12-19	gas_1	00791	10	00491.ppm	753	855	2	312	358
vr	40	2019-12-19	gas_1	00792	10	00492.ppm	753	857	2	311	358
vr	40	2019-12-19	gas_1	00793	10	00492.ppm	752	858	2	311	358
vr	40	2019-12-19	gas_1	00794	10	00493.ppm	752	859	2	311	358
vr	40	2019-12-19	gas_1	00795	10	00493.ppm	753	860	2	311	359
vr	40	2019-12-19	gas_1	00796	10	00494.ppm	754	860	2	311	359
vr	40	2019-12-19	gas_1	00797	10	00494.ppm	754	860	2	311	359
vr	40	2019-12-19	gas_1	00798	10	00495.ppm	755	861	2	311	359
vr	40	2019-12-19	gas_1	00799	10	00495.ppm	755	862	2	311	359
vr	40	2019-12-19	gas_1	00800	10	00496.ppm	755	862	2	311	359
vr	40	2019-12-19	gas_1	00801	10	00497.ppm	755	862	2	311	359
vr	40	2019-12-19	gas_1	00802	10	00498.ppm	755	861	2	311	359
vr	40	2019-12-19	gas_1	00803	10	00498.ppm	755	861	2	311	359
vr	40	2019-12-19	gas_1	00804	10	00498.ppm	755	861	2	311	359
vr	40	2019-12-19	gas_1	00805	10	00499.ppm	756	861	2	311	359
vr	40	2019-12-19	gas_1	00806	10	00499.ppm	756	861	2	311	359
vr	40	2019-12-19	gas_1	00807	10	00500.ppm	756	861	2	311	359
vr	40	2019-12-19	gas_1	00808	10	00501.ppm	756	861	2	311	359
vr	40	2019-12-19	gas_1	00809	10	00501.ppm	756	861	2	311	359
vr	40	2019-12-19	gas_1	00810	10	00502.ppm	756	861	2	311	359
vr	40	2019-12-19	gas_1	00811	10	00502.ppm	755	860	2	312	359
vr	40	2019-12-19	gas_1	00812	10	00503.ppm	754	860	2	312	359
vr	40	2019-12-19	gas_1	00813	10	00503.ppm	754	859	1	312	359
vr	40	2019-12-19	gas_1	00814	10	00504.ppm	753	859	1	312	359
vr	40	2019-12-19	gas_1	00815	10	00504.ppm	752	859	1	312	359
vr	40	2019-12-19	gas_1	00816	10	00505.ppm	752	857	1	312	359
vr	40	2019-12-19	gas_1	00817	10	00506.ppm	760	857	1	313	358
vr	40	2019-12-19	gas_1	00818	10	00506.ppm	840	855	1	313	358
vr	40	2019-12-19	gas_1	00819	10	00507.ppm	908	855	1	314	358
vr	40	2019-12-19	gas_1	00820	10	00508.ppm	961	855	0	314	358
vr	40	2019-12-19	gas_1	00821	10	00508.ppm	1013	856	0	315	358
vr	40	2019-12-19	gas_1	00822	10	00508.ppm	1043	854	0	316	358
vr	40	2019-12-19	gas_1	00823	10	00509.ppm	1168	841	0	317	359
vr	40	2019-12-19	gas_1	00824	10	00509.ppm	1204	835	0	318	359
vr	40	2019-12-19	gas_1	00825	10	00510.ppm	1232	821	360	320	359
vr	40	2019-12-19	gas_1	00826	10	00511.ppm	1289	794	360	321	359
vr	40	2019-12-19	gas_1	00827	10	00512.ppm	1323	784	360	323	360
vr	40	2019-12-19	gas_1	00828	10	00513.ppm	1323	784	360	324	360
vr	40	2019-12-19	gas_1	00829	10	00513.ppm	1299	773	360	325	360
vr	40	2019-12-19	gas_1	00830	10	00513.ppm	1290	769	360	326	360
vr	40	2019-12-19	gas_1	00831	10	00514.ppm	1265	766	0	327	360
vr	40	2019-12-19	gas_1	00832	10	00515.ppm	1243	771	0	328	360
vr	40	2019-12-19	gas_1	00833	10	00515.ppm	1221	776	0	329	360
vr	40	2019-12-19	gas_1	00834	10	00516.ppm	1108	807	0	330	360
vr	40	2019-12-19	gas_1	00835	10	00517.ppm	1193	783	0	330	360
vr	40	2019-12-19	gas_1	00836	10	00517.ppm	1184	783	0	331	359
vr	40	2019-12-19	gas_1	00837	10	00517.ppm	1071	803	1	332	359
vr	40	2019-12-19	gas_1	00838	10	00518.ppm	1164	784	1	332	359
vr	40	2019-12-19	gas_1	00839	10	00518.ppm	1156	785	1	333	359
vr	40	2019-12-19	gas_1	00840	10	00519.ppm	1140	786	1	333	359
vr	40	2019-12-19	gas_1	00841	10	00519.ppm	1038	800	1	334	359
vr	40	2019-12-19	gas_1	00842	10	00520.ppm	1033	801	1	334	359
vr	40	2019-12-19	gas_1	00843	10	00521.ppm	1020	802	1	335	359
vr	40	2019-12-19	gas_1	00844	10	00522.ppm	1018	802	1	335	359
vr	40	2019-12-19	gas_1	00845	10	00522.ppm	1018	802	1	336	359
vr	40	2019-12-19	gas_1	00846	10	00524.ppm	1008	803	0	337	359
vr	40	2019-12-19	gas_1	00847	10	00526.ppm	1008	803	0	338	359
vr	40	2019-12-19	gas_1	00848	10	00528.ppm	1005	803	360	340	359
vr	40	2019-12-19	gas_1	00849	10	00528.ppm	993	804	360	341	359
vr	40	2019-12-19	gas_1	00850	10	00529.ppm	983	804	360	342	359
vr	40	2019-12-19	gas_1	00851	10	00530.ppm	982	804	360	343	359
vr	40	2019-12-19	gas_1	00852	10	00532.ppm	935	803	359	344	359
vr	40	2019-12-19	gas_1	00853	10	00532.ppm	935	803	359	345	359
vr	40	2019-12-19	gas_1	00854	10	00532.ppm	935	803	359	345	359
vr	40	2019-12-19	gas_1	00855	10	00533.ppm	920	802	359	346	359
vr	40	2019-12-19	gas_1	00856	10	00533.ppm	908	801	359	346	359
vr	40	2019-12-19	gas_1	00857	10	00534.ppm	900	797	359	347	359
vr	40	2019-12-19	gas_1	00858	10	00535.ppm	897	795	359	347	359
vr	40	2019-12-19	gas_1	00859	10	00535.ppm	890	799	359	348	359
vr	40	2019-12-19	gas_1	00860	10	00536.ppm	882	802	359	348	359
vr	40	2019-12-19	gas_1	00861	10	00536.ppm	879	802	359	348	359
vr	40	2019-12-19	gas_1	00862	10	00537.ppm	879	802	359	349	359
vr	40	2019-12-19	gas_1	00863	10	00538.ppm	900	803	359	349	359
vr	40	2019-12-19	gas_1	00864	10	00538.ppm	905	803	359	350	359
vr	40	2019-12-19	gas_1	00865	10	00539.ppm	904	805	359	350	359
vr	40	2019-12-19	gas_1	00866	10	00539.ppm	904	806	359	351	359
vr	40	2019-12-19	gas_1	00867	10	00540.ppm	903	809	359	351	359
vr	40	2019-12-19	gas_1	00868	10	00541.ppm	897	811	359	352	359
vr	40	2019-12-19	gas_1	00869	10	00542.ppm	894	811	359	353	358
vr	40	2019-12-19	gas_1	00870	10	00543.ppm	889	810	359	353	358
vr	40	2019-12-19	gas_1	00871	10	00543.ppm	887	811	359	353	358
vr	40	2019-12-19	gas_1	00872	10	00544.ppm	886	811	359	353	358
vr	40	2019-12-19	gas_1	00873	10	00544.ppm	882	812	359	354	358
vr	40	2019-12-19	gas_1	00874	10	00545.ppm	881	813	359	354	358
vr	40	2019-12-19	gas_1	00875	10	00545.ppm	877	815	359	354	358
vr	40	2019-12-19	gas_1	00876	10	00546.ppm	876	815	359	354	358
vr	40	2019-12-19	gas_1	00877	10	00546.ppm	871	816	359	355	358
vr	40	2019-12-19	gas_1	00878	10	00547.ppm	867	817	359	355	358
vr	40	2019-12-19	gas_1	00879	10	00547.ppm	861	816	359	355	358
vr	40	2019-12-19	gas_1	00880	10	00548.ppm	860	815	359	355	358
vr	40	2019-12-19	gas_1	00881	10	00549.ppm	854	812	359	355	358
vr	40	2019-12-19	gas_1	00882	10	00550.ppm	851	812	359	355	358
vr	40	2019-12-19	gas_1	00883	10	00551.ppm	849	811	359	355	357
vr	40	2019-12-19	gas_1	00884	10	00552.ppm	847	810	359	355	357
vr	40	2019-12-19	gas_1	00885	10	00552.ppm	847	810	359	355	357
vr	40	2019-12-19	gas_1	00886	10	00552.ppm	844	810	359	355	357
vr	40	2019-12-19	gas_1	00887	10	00553.ppm	843	809	359	355	357
vr	40	2019-12-19	gas_1	00888	10	00554.ppm	842	810	359	355	357
vr	40	2019-12-19	gas_1	00889	10	00554.ppm	841	811	359	355	357
vr	40	2019-12-19	gas_1	00890	10	00555.ppm	840	811	359	355	357
vr	40	2019-12-19	gas_1	00891	10	00555.ppm	841	811	359	355	357
vr	40	2019-12-19	gas_1	00892	10	00556.ppm	840	811	359	355	357
vr	40	2019-12-19	gas_1	00893	10	00556.ppm	840	812	359	355	357
vr	40	2019-12-19	gas_1	00894	10	00557.ppm	840	812	359	355	357
vr	40	2019-12-19	gas_1	00895	10	00558.ppm	839	812	359	355	357
vr	40	2019-12-19	gas_1	00896	10	00558.ppm	840	812	359	355	357
vr	40	2019-12-19	gas_1	00897	10	00559.ppm	840	813	359	355	357
vr	40	2019-12-19	gas_1	00898	10	00560.ppm	841	813	359	355	357
vr	40	2019-12-19	gas_1	00899	10	00561.ppm	841	813	359	355	357
vr	40	2019-12-19	gas_1	00900	10	00561.ppm	841	813	359	355	358
vr	40	2019-12-19	gas_1	00901	10	00561.ppm	841	812	359	355	358
vr	40	2019-12-19	gas_1	00902	10	00562.ppm	845	813	359	354	358
vr	40	2019-12-19	gas_1	00903	10	00563.ppm	856	813	359	354	358
vr	40	2019-12-19	gas_1	00904	10	00563.ppm	882	825	359	354	358
vr	40	2019-12-19	gas_1	00905	10	00564.ppm	883	826	359	353	358
vr	40	2019-12-19	gas_1	00906	10	00564.ppm	885	830	359	353	358
vr	40	2019-12-19	gas_1	00907	10	00565.ppm	887	831	359	353	358
vr	40	2019-12-19	gas_1	00908	10	00565.ppm	890	831	359	352	358
vr	40	2019-12-19	gas_1	00909	10	00566.ppm	893	832	359	352	358
vr	40	2019-12-19	gas_1	00910	10	00566.ppm	893	832	359	351	358
vr	40	2019-12-19	gas_1	00911	10	00567.ppm	898	832	359	351	358
vr	40	2019-12-19	gas_1	00912	10	00568.ppm	899	831	359	351	358
vr	40	2019-12-19	gas_1	00913	10	00568.ppm	902	831	359	350	358
vr	40	2019-12-19	gas_1	00914	10	00569.ppm	906	829	359	350	358
vr	40	2019-12-19	gas_1	00915	10	00570.ppm	911	826	359	349	359
vr	40	2019-12-19	gas_1	00916	10	00570.ppm	911	805	359	349	359
vr	40	2019-12-19	gas_1	00917	10	00572.ppm	916	808	359	348	359
vr	40	2019-12-19	gas_1	00918	10	00572.ppm	919	808	359	347	359
vr	40	2019-12-19	gas_1	00919	10	00573.ppm	924	811	359	347	359
vr	40	2019-12-19	gas_1	00920	10	00574.ppm	934	813	360	346	359
vr	40	2019-12-19	gas_1	00921	10	00575.ppm	940	813	360	346	359
vr	40	2019-12-19	gas_1	00922	10	00576.ppm	942	814	360	346	359
vr	40	2019-12-19	gas_1	00923	10	00576.ppm	942	814	360	346	359
vr	40	2019-12-19	gas_1	00924	10	00577.ppm	949	815	360	345	360
vr	40	2019-12-19	gas_1	00925	10	00578.ppm	958	816	360	345	360
vr	40	2019-12-19	gas_1	00926	10	00578.ppm	961	816	360	345	360
vr	40	2019-12-19	gas_1	00927	10	00579.ppm	966	816	360	345	360
vr	40	2019-12-19	gas_1	00928	10	00580.ppm	977	815	360	345	360
vr	40	2019-12-19	gas_1	00929	10	00581.ppm	983	814	360	345	360
vr	40	2019-12-19	gas_1	00930	10	00581.ppm	984	812	0	345	360
vr	40	2019-12-19	gas_1	00931	10	00582.ppm	984	812	0	345	0
vr	40	2019-12-19	gas_1	00932	10	00582.ppm	985	812	0	345	0
vr	40	2019-12-19	gas_1	00933	10	00583.ppm	985	813	0	345	0
vr	40	2019-12-19	gas_1	00934	10	00584.ppm	986	812	0	345	0
vr	40	2019-12-19	gas_1	00935	10	00584.ppm	986	813	0	345	0
vr	40	2019-12-19	gas_1	00936	10	00585.ppm	987	813	0	345	0
vr	40	2019-12-19	gas_1	00937	10	00587.ppm	987	813	0	345	0
vr	40	2019-12-19	gas_1	00938	10	00588.ppm	987	813	1	345	0
vr	40	2019-12-19	gas_1	00939	10	00589.ppm	987	813	1	345	1
vr	40	2019-12-19	gas_1	00940	10	00590.ppm	987	814	1	345	1
vr	40	2019-12-19	gas_1	00941	10	00592.ppm	987	814	1	345	1
vr	40	2019-12-19	gas_1	00942	10	00593.ppm	987	814	1	345	1
vr	40	2019-12-19	gas_1	00943	10	00593.ppm	987	814	1	345	1
vr	40	2019-12-19	gas_1	00944	10	00595.ppm	988	816	1	345	1
vr	40	2019-12-19	gas_1	00945	10	00596.ppm	988	818	1	345	1
vr	40	2019-12-19	gas_1	00946	10	00596.ppm	988	818	1	345	1
vr	40	2019-12-19	gas_1	00947	10	00597.ppm	988	818	1	345	1
vr	40	2019-12-19	gas_1	00948	10	00597.ppm	989	819	1	346	1
vr	40	2019-12-19	gas_1	00949	10	00598.ppm	989	819	1	346	1
vr	40	2019-12-19	gas_1	00950	10	00598.ppm	988	821	1	346	1
vr	40	2019-12-19	gas_1	00951	10	00599.ppm	987	822	1	346	1
vr	40	2019-12-19	gas_1	00952	10	00600.ppm	987	822	1	346	1
vr	40	2019-12-19	gas_1	00953	10	00601.ppm	984	823	1	347	1
vr	40	2019-12-19	gas_1	00954	10	00601.ppm	984	823	1	347	1
vr	40	2019-12-19	gas_1	00955	10	00602.ppm	1026	823	1	347	1
vr	40	2019-12-19	gas_1	00956	10	00602.ppm	1033	822	1	348	1
vr	40	2019-12-19	gas_1	00957	10	00603.ppm	1028	824	1	348	1
vr	40	2019-12-19	gas_1	00958	10	00604.ppm	1019	826	1	349	1
vr	40	2019-12-19	gas_1	00959	10	00604.ppm	1014	827	1	349	1
vr	40	2019-12-19	gas_1	00960	10	00605.ppm	1008	826	1	349	1
vr	40	2019-12-19	gas_1	00961	10	00606.ppm	1007	826	1	350	1
vr	40	2019-12-19	gas_1	00962	10	00606.ppm	1004	825	1	350	1
vr	40	2019-12-19	gas_1	00963	10	00607.ppm	1001	824	1	350	1
vr	40	2019-12-19	gas_1	00964	10	00607.ppm	997	823	1	350	1
vr	40	2019-12-19	gas_1	00965	10	00608.ppm	996	823	1	351	1
vr	40	2019-12-19	gas_1	00966	10	00608.ppm	994	822	1	351	1
vr	40	2019-12-19	gas_1	00967	10	00609.ppm	992	821	0	351	1
vr	40	2019-12-19	gas_1	00968	10	00609.ppm	989	820	0	351	1
vr	40	2019-12-19	gas_1	00969	10	00610.ppm	987	820	0	351	1
vr	40	2019-12-19	gas_1	00970	10	00611.ppm	981	820	0	352	1
vr	40	2019-12-19	gas_1	00971	10	00612.ppm	971	820	0	352	1
vr	40	2019-12-19	gas_1	00972	10	00612.ppm	970	820	0	352	1
vr	40	2019-12-19	gas_1	00973	10	00613.ppm	984	819	0	353	1
vr	40	2019-12-19	gas_1	00974	10	00613.ppm	1026	817	0	353	1
vr	40	2019-12-19	gas_1	00975	10	00614.ppm	1180	803	360	353	1
vr	40	2019-12-19	gas_1	00976	10	00614.ppm	1176	800	360	354	1
vr	40	2019-12-19	gas_1	00977	10	00615.ppm	1176	798	360	354	1
vr	40	2019-12-19	gas_1	00978	10	00616.ppm	1171	800	360	354	1
vr	40	2019-12-19	gas_1	00979	10	00616.ppm	1071	809	360	355	1
vr	40	2019-12-19	gas_1	00980	10	00617.ppm	1069	808	360	355	1
vr	40	2019-12-19	gas_1	00981	10	00618.ppm	1149	804	360	355	1
vr	40	2019-12-19	gas_1	00982	10	00618.ppm	1058	809	360	356	1
vr	40	2019-12-19	gas_1	00983	10	00618.ppm	1054	809	360	356	1
vr	40	2019-12-19	gas_1	00984	10	00619.ppm	1125	806	360	357	1
vr	40	2019-12-19	gas_1	00985	10	00619.ppm	1052	807	359	357	1
vr	40	2019-12-19	gas_1	00986	10	00620.ppm	1050	804	359	357	1
vr	40	2019-12-19	gas_1	00987	10	00621.ppm	1044	801	359	358	1
vr	40	2019-12-19	gas_1	00988	10	00621.ppm	1038	799	359	358	1
vr	40	2019-12-19	gas_1	00989	10	00622.ppm	1038	799	359	358	1
vr	40	2019-12-19	gas_1	00990	10	00622.ppm	1031	799	359	359	2
vr	40	2019-12-19	gas_1	00991	10	00623.ppm	1026	799	359	359	2
vr	40	2019-12-19	gas_1	00992	10	00623.ppm	1019	799	359	359	2
vr	40	2019-12-19	gas_1	00993	10	00624.ppm	1013	798	359	359	2
vr	40	2019-12-19	gas_1	00994	10	00625.ppm	1011	798	359	360	2
vr	40	2019-12-19	gas_1	00995	10	00625.ppm	1007	796	360	360	2
vr	40	2019-12-19	gas_1	00996	10	00626.ppm	1004	797	360	360	2
vr	40	2019-12-19	gas_1	00997	10	00627.ppm	990	799	360	360	2
vr	40	2019-12-19	gas_1	00998	10	00627.ppm	990	799	360	0	2
vr	40	2019-12-19	gas_1	00999	10	00627.ppm	989	799	360	0	2
vr	40	2019-12-19	gas_1	01000	10	00628.ppm	986	800	360	0	2
vr	40	2019-12-19	gas_1	01001	10	00628.ppm	983	800	0	0	2
vr	40	2019-12-19	gas_1	01002	10	00629.ppm	982	800	0	0	2
vr	40	2019-12-19	gas_1	01003	10	00630.ppm	980	801	0	1	2
vr	40	2019-12-19	gas_1	01004	10	00631.ppm	978	804	0	1	2
vr	40	2019-12-19	gas_1	01005	10	00632.ppm	1009	802	1	2	1
vr	40	2019-12-19	gas_1	01006	10	00632.ppm	1104	798	1	2	1
vr	40	2019-12-19	gas_1	01007	10	00633.ppm	1103	795	1	3	1
vr	40	2019-12-19	gas_1	01008	10	00633.ppm	1030	796	1	3	1
vr	40	2019-12-19	gas_1	01009	10	00634.ppm	1030	796	1	3	1
vr	40	2019-12-19	gas_1	01010	10	00635.ppm	1029	797	1	4	1
vr	40	2019-12-19	gas_1	01011	10	00635.ppm	1022	797	1	4	1
vr	40	2019-12-19	gas_1	01012	10	00636.ppm	1016	798	1	5	1
vr	40	2019-12-19	gas_1	01013	10	00636.ppm	1008	800	1	5	1
vr	40	2019-12-19	gas_1	01014	10	00637.ppm	1002	802	1	6	1
vr	40	2019-12-19	gas_1	01015	10	00637.ppm	999	804	1	6	1
vr	40	2019-12-19	gas_1	01016	10	00638.ppm	989	808	1	7	1
vr	40	2019-12-19	gas_1	01017	10	00638.ppm	989	808	1	7	1
vr	40	2019-12-19	gas_1	01018	10	00639.ppm	984	809	1	8	1
vr	40	2019-12-19	gas_1	01019	10	00640.ppm	980	809	1	8	1
vr	40	2019-12-19	gas_1	01020	10	00641.ppm	962	809	1	9	1
vr	40	2019-12-19	gas_1	01021	10	00641.ppm	956	809	1	9	1
vr	40	2019-12-19	gas_1	01022	10	00641.ppm	953	809	0	10	1
vr	40	2019-12-19	gas_1	01023	10	00642.ppm	947	808	0	10	1
vr	40	2019-12-19	gas_1	01024	10	00642.ppm	943	808	0	11	1
vr	40	2019-12-19	gas_1	01025	10	00643.ppm	940	807	360	11	1
vr	40	2019-12-19	gas_1	01026	10	00643.ppm	934	807	360	12	1
vr	40	2019-12-19	gas_1	01027	10	00644.ppm	929	808	360	12	1
vr	40	2019-12-19	gas_1	01028	10	00645.ppm	929	809	360	12	1
vr	40	2019-12-19	gas_1	01029	10	00645.ppm	917	806	360	13	1
vr	40	2019-12-19	gas_1	01030	10	00646.ppm	917	806	359	13	1
vr	40	2019-12-19	gas_1	01031	10	00646.ppm	911	804	359	13	1
vr	40	2019-12-19	gas_1	01032	10	00647.ppm	907	801	359	14	1
vr	40	2019-12-19	gas_1	01033	10	00647.ppm	903	802	359	14	0
vr	40	2019-12-19	gas_1	01034	10	00648.ppm	903	802	359	14	0
vr	40	2019-12-19	gas_1	01035	10	00648.ppm	902	806	359	14	0
vr	40	2019-12-19	gas_1	01036	10	00649.ppm	904	810	359	14	0
vr	40	2019-12-19	gas_1	01037	10	00650.ppm	900	811	359	15	0
vr	40	2019-12-19	gas_1	01038	10	00651.ppm	898	810	359	15	360
vr	40	2019-12-19	gas_1	01039	10	00652.ppm	890	807	359	15	360
vr	40	2019-12-19	gas_1	01040	10	00652.ppm	890	807	358	15	360
vr	40	2019-12-19	gas_1	01041	10	00653.ppm	886	805	358	16	360
vr	40	2019-12-19	gas_1	01042	10	00653.ppm	885	806	358	16	360
vr	40	2019-12-19	gas_1	01043	10	00654.ppm	885	806	358	16	360
vr	40	2019-12-19	gas_1	01044	10	00654.ppm	884	808	358	16	360
vr	40	2019-12-19	gas_1	01045	10	00655.ppm	882	808	358	16	360
vr	40	2019-12-19	gas_1	01046	10	00655.ppm	900	807	358	16	360
vr	40	2019-12-19	gas_1	01047	10	00656.ppm	911	806	358	17	360
vr	40	2019-12-19	gas_1	01048	10	00656.ppm	921	803	358	17	360
vr	40	2019-12-19	gas_1	01049	10	00657.ppm	921	803	358	17	360
vr	40	2019-12-19	gas_1	01050	10	00657.ppm	921	801	358	17	360
vr	40	2019-12-19	gas_1	01051	10	00658.ppm	922	801	358	18	360
vr	40	2019-12-19	gas_1	01052	10	00659.ppm	922	801	358	18	360
vr	40	2019-12-19	gas_1	01053	10	00659.ppm	918	801	358	18	360
vr	40	2019-12-19	gas_1	01054	10	00660.ppm	918	801	358	18	360
vr	40	2019-12-19	gas_1	01055	10	00661.ppm	912	800	358	18	360
vr	40	2019-12-19	gas_1	01056	10	00661.ppm	910	799	358	19	360
vr	40	2019-12-19	gas_1	01057	10	00661.ppm	907	799	358	19	360
vr	40	2019-12-19	gas_1	01058	10	00662.ppm	905	799	358	19	360
vr	40	2019-12-19	gas_1	01059	10	00662.ppm	904	798	358	19	360
vr	40	2019-12-19	gas_1	01060	10	00663.ppm	903	799	358	20	360
vr	40	2019-12-19	gas_1	01061	10	00664.ppm	903	799	358	20	360
vr	40	2019-12-19	gas_1	01062	10	00665.ppm	904	801	358	20	360
vr	40	2019-12-19	gas_1	01063	10	00665.ppm	903	801	358	21	360
vr	40	2019-12-19	gas_1	01064	10	00665.ppm	904	802	358	21	360
vr	40	2019-12-19	gas_1	01065	10	00666.ppm	903	802	358	21	360
vr	40	2019-12-19	gas_1	01066	10	00666.ppm	900	802	358	21	360
vr	40	2019-12-19	gas_1	01067	10	00667.ppm	888	800	358	22	360
vr	40	2019-12-19	gas_1	01068	10	00667.ppm	884	799	358	22	360
vr	40	2019-12-19	gas_1	01069	10	00668.ppm	882	798	358	22	360
vr	40	2019-12-19	gas_1	01070	10	00669.ppm	882	798	358	22	360
vr	40	2019-12-19	gas_1	01071	10	00669.ppm	880	798	358	22	360
vr	40	2019-12-19	gas_1	01072	10	00670.ppm	878	798	358	23	360
vr	40	2019-12-19	gas_1	01073	10	00671.ppm	875	797	358	23	360
vr	40	2019-12-19	gas_1	01074	10	00671.ppm	874	797	358	23	0
vr	40	2019-12-19	gas_1	01075	10	00671.ppm	872	796	358	23	0
vr	40	2019-12-19	gas_1	01076	10	00672.ppm	895	796	358	24	0
vr	40	2019-12-19	gas_1	01077	10	00673.ppm	917	793	358	24	0
vr	40	2019-12-19	gas_1	01078	10	00673.ppm	958	790	358	24	0
vr	40	2019-12-19	gas_1	01079	10	00674.ppm	1019	787	358	25	0
vr	40	2019-12-19	gas_1	01080	10	00674.ppm	1134	777	358	25	0
vr	40	2019-12-19	gas_1	01081	10	00675.ppm	1148	772	358	25	360
vr	40	2019-12-19	gas_1	01082	10	00675.ppm	1150	768	358	25	360
vr	40	2019-12-19	gas_1	01083	10	00676.ppm	1155	763	358	26	360
vr	40	2019-12-19	gas_1	01084	10	00676.ppm	1155	760	358	26	360
vr	40	2019-12-19	gas_1	01085	10	00677.ppm	1157	760	358	26	360
vr	40	2019-12-19	gas_1	01086	10	00678.ppm	1069	772	358	27	360
vr	40	2019-12-19	gas_1	01087	10	00678.ppm	1067	769	358	27	360
vr	40	2019-12-19	gas_1	01088	10	00679.ppm	1009	766	358	27	360
vr	40	2019-12-19	gas_1	01089	10	00680.ppm	1006	766	358	27	360
vr	40	2019-12-19	gas_1	01090	10	00681.ppm	998	765	358	27	359
vr	40	2019-12-19	gas_1	01091	10	00681.ppm	995	766	358	28	359
vr	40	2019-12-19	gas_1	01092	10	00682.ppm	994	765	358	28	359
vr	40	2019-12-19	gas_1	01093	10	00682.ppm	994	765	358	28	359
vr	40	2019-12-19	gas_1	01094	10	00683.ppm	988	765	358	28	359
vr	40	2019-12-19	gas_1	01095	10	00684.ppm	985	765	358	28	359
vr	40	2019-12-19	gas_1	01096	10	00685.ppm	985	765	358	28	359
vr	40	2019-12-19	gas_1	01097	10	00685.ppm	985	765	358	28	359
vr	40	2019-12-19	gas_1	01098	10	00686.ppm	982	763	358	28	359
vr	40	2019-12-19	gas_1	01099	10	00687.ppm	980	764	358	28	359
vr	40	2019-12-19	gas_1	01100	10	00687.ppm	980	766	358	28	359
vr	40	2019-12-19	gas_1	01101	10	00688.ppm	979	765	358	28	359
vr	40	2019-12-19	gas_1	01102	10	00689.ppm	978	769	358	28	359
vr	40	2019-12-19	gas_1	01103	10	00689.ppm	977	770	358	28	359
vr	40	2019-12-19	gas_1	01104	10	00689.ppm	974	770	358	28	359
vr	40	2019-12-19	gas_1	01105	10	00690.ppm	880	769	358	27	359
vr	40	2019-12-19	gas_1	01106	10	00691.ppm	845	766	358	27	359
vr	40	2019-12-19	gas_1	01107	10	00691.ppm	844	768	358	27	359
vr	40	2019-12-19	gas_1	01108	10	00692.ppm	843	769	358	27	359
vr	40	2019-12-19	gas_1	01109	10	00692.ppm	946	791	358	27	359
vr	40	2019-12-19	gas_1	01110	10	00693.ppm	947	792	358	27	359
vr	40	2019-12-19	gas_1	01111	10	00694.ppm	946	793	358	27	359
vr	40	2019-12-19	gas_1	01112	10	00694.ppm	947	793	358	26	359
vr	40	2019-12-19	gas_1	01113	10	00694.ppm	948	793	358	26	359
vr	40	2019-12-19	gas_1	01114	10	00695.ppm	949	792	358	26	359
vr	40	2019-12-19	gas_1	01115	10	00695.ppm	850	774	358	26	359
vr	40	2019-12-19	gas_1	01116	10	00696.ppm	953	789	358	25	359
vr	40	2019-12-19	gas_1	01117	10	00697.ppm	848	771	358	25	359
vr	40	2019-12-19	gas_1	01118	10	00697.ppm	853	767	358	24	359
vr	40	2019-12-19	gas_1	01119	10	00698.ppm	917	787	358	24	359
vr	40	2019-12-19	gas_1	01120	10	00699.ppm	883	785	358	23	359
vr	40	2019-12-19	gas_1	01121	10	00699.ppm	867	784	358	22	359
vr	40	2019-12-19	gas_1	01122	10	00700.ppm	785	670	358	21	359
vr	40	2019-12-19	gas_1	01123	10	00700.ppm	683	580	358	21	359
vr	40	2019-12-19	gas_1	01124	10	00701.ppm	695	665	358	19	360
vr	40	2019-12-19	gas_1	01125	10	00702.ppm	720	788	358	18	360
vr	40	2019-12-19	gas_1	01126	10	00702.ppm	722	790	358	17	360
vr	40	2019-12-19	gas_1	01127	10	00703.ppm	669	738	358	16	360
vr	40	2019-12-19	gas_1	01128	10	00703.ppm	667	739	358	15	360
vr	40	2019-12-19	gas_1	01129	10	00704.ppm	664	768	358	14	359
vr	40	2019-12-19	gas_1	01130	10	00704.ppm	636	744	358	13	359
vr	40	2019-12-19	gas_1	01131	10	00705.ppm	671	787	358	12	359
vr	40	2019-12-19	gas_1	01132	10	00705.ppm	690	797	358	11	359
vr	40	2019-12-19	gas_1	01133	10	00706.ppm	746	813	358	11	359
vr	40	2019-12-19	gas_1	01134	10	00707.ppm	757	811	358	10	359
vr	40	2019-12-19	gas_1	01135	10	00708.ppm	774	809	358	9	359
vr	40	2019-12-19	gas_1	01136	10	00708.ppm	713	779	358	8	359
vr	40	2019-12-19	gas_1	01137	10	00708.ppm	790	808	358	7	359
vr	40	2019-12-19	gas_1	01138	10	00709.ppm	797	808	358	7	359
vr	40	2019-12-19	gas_1	01139	10	00709.ppm	809	808	358	6	359
vr	40	2019-12-19	gas_1	01140	10	00710.ppm	769	803	358	5	359
vr	40	2019-12-19	gas_1	01141	10	00711.ppm	787	805	358	4	359
vr	40	2019-12-19	gas_1	01142	10	00711.ppm	789	805	358	4	359
vr	40	2019-12-19	gas_1	01143	10	00712.ppm	793	806	358	3	359
vr	40	2019-12-19	gas_1	01144	10	00712.ppm	795	806	358	2	359
vr	40	2019-12-19	gas_1	01145	10	00713.ppm	806	806	358	2	359
vr	40	2019-12-19	gas_1	01146	10	00713.ppm	819	809	358	1	359
vr	40	2019-12-19	gas_1	01147	10	00714.ppm	833	811	358	0	359
vr	40	2019-12-19	gas_1	01148	10	00714.ppm	837	811	358	360	359
vr	40	2019-12-19	gas_1	01149	10	00715.ppm	843	810	358	359	359
vr	40	2019-12-19	gas_1	01150	10	00715.ppm	850	809	358	359	359
vr	40	2019-12-19	gas_1	01151	10	00716.ppm	858	809	358	358	359
vr	40	2019-12-19	gas_1	01152	10	00717.ppm	864	808	358	358	359
vr	40	2019-12-19	gas_1	01153	10	00718.ppm	869	808	359	357	359
vr	40	2019-12-19	gas_1	01154	10	00718.ppm	870	807	359	356	359
vr	40	2019-12-19	gas_1	01155	10	00718.ppm	827	808	359	356	359
vr	40	2019-12-19	gas_1	01156	10	00719.ppm	789	808	359	355	360
vr	40	2019-12-19	gas_1	01157	10	00719.ppm	736	809	359	355	360
vr	40	2019-12-19	gas_1	01158	10	00720.ppm	720	809	359	354	360
vr	40	2019-12-19	gas_1	01159	10	00722.ppm	676	796	359	353	360
vr	40	2019-12-19	gas_1	01160	10	00722.ppm	681	794	359	352	360
vr	40	2019-12-19	gas_1	01161	10	00722.ppm	686	792	359	351	360
vr	40	2019-12-19	gas_1	01162	10	00723.ppm	686	791	359	350	360
vr	40	2019-12-19	gas_1	01163	10	00723.ppm	696	790	359	349	360
vr	40	2019-12-19	gas_1	01164	10	00724.ppm	698	794	359	349	360
vr	40	2019-12-19	gas_1	01165	10	00724.ppm	703	795	359	348	360
vr	40	2019-12-19	gas_1	01166	10	00725.ppm	710	798	359	347	360
vr	40	2019-12-19	gas_1	01167	10	00726.ppm	719	798	359	346	360
vr	40	2019-12-19	gas_1	01168	10	00726.ppm	727	796	359	345	360
vr	40	2019-12-19	gas_1	01169	10	00727.ppm	732	797	360	344	360
vr	40	2019-12-19	gas_1	01170	10	00727.ppm	735	797	360	344	360
vr	40	2019-12-19	gas_1	01171	10	00728.ppm	726	796	360	343	360
vr	40	2019-12-19	gas_1	01172	10	00728.ppm	690	791	360	342	360
vr	40	2019-12-19	gas_1	01173	10	00729.ppm	668	785	360	341	360
vr	40	2019-12-19	gas_1	01174	10	00730.ppm	651	779	360	340	0
vr	40	2019-12-19	gas_1	01175	10	00731.ppm	635	769	360	339	0
vr	40	2019-12-19	gas_1	01176	10	00732.ppm	644	764	360	337	0
vr	40	2019-12-19	gas_1	01177	10	00732.ppm	647	764	0	337	360
vr	40	2019-12-19	gas_1	01178	10	00732.ppm	652	764	0	336	360
vr	40	2019-12-19	gas_1	01179	10	00733.ppm	658	765	0	335	360
vr	40	2019-12-19	gas_1	01180	10	00733.ppm	677	768	0	334	360
vr	40	2019-12-19	gas_1	01181	10	00734.ppm	683	770	0	333	360
vr	40	2019-12-19	gas_1	01182	10	00735.ppm	687	771	0	333	360
vr	40	2019-12-19	gas_1	01183	10	00735.ppm	695	773	0	332	360
vr	40	2019-12-19	gas_1	01184	10	00736.ppm	701	774	0	331	360
vr	40	2019-12-19	gas_1	01185	10	00737.ppm	711	776	0	331	360
vr	40	2019-12-19	gas_1	01186	10	00737.ppm	713	776	0	330	360
vr	40	2019-12-19	gas_1	01187	10	00737.ppm	718	778	0	329	360
vr	40	2019-12-19	gas_1	01188	10	00738.ppm	726	778	0	329	360
vr	40	2019-12-19	gas_1	01189	10	00738.ppm	735	778	0	328	360
vr	40	2019-12-19	gas_1	01190	10	00739.ppm	743	777	0	327	360
vr	40	2019-12-19	gas_1	01191	10	00741.ppm	750	778	1	327	360
vr	40	2019-12-19	gas_1	01192	10	00743.ppm	756	779	1	326	360
vr	40	2019-12-19	gas_1	01193	10	00744.ppm	756	779	1	323	360
vr	40	2019-12-19	gas_1	01194	10	00744.ppm	756	779	1	322	360
vr	40	2019-12-19	gas_1	01195	10	00746.ppm	619	780	1	319	360
vr	40	2019-12-19	gas_1	01196	10	00746.ppm	619	780	1	318	360
vr	40	2019-12-19	gas_1	01197	10	00747.ppm	619	780	1	318	360
vr	40	2019-12-19	gas_1	01198	10	00747.ppm	619	781	1	317	360
vr	40	2019-12-19	gas_1	01199	10	00747.ppm	659	785	1	316	359
vr	40	2019-12-19	gas_1	01200	10	00748.ppm	664	787	1	315	359
vr	40	2019-12-19	gas_1	01201	10	00749.ppm	630	787	1	314	359
vr	40	2019-12-19	gas_1	01202	10	00749.ppm	688	791	1	313	359
vr	40	2019-12-19	gas_1	01203	10	00750.ppm	704	800	1	312	359
vr	40	2019-12-19	gas_1	01204	10	00751.ppm	711	806	1	311	359
vr	40	2019-12-19	gas_1	01205	10	00751.ppm	713	806	1	310	359
vr	40	2019-12-19	gas_1	01206	10	00752.ppm	713	805	1	309	359
vr	40	2019-12-19	gas_1	01207	10	00752.ppm	713	805	1	308	359
vr	40	2019-12-19	gas_1	01208	10	00753.ppm	718	805	1	307	359
vr	40	2019-12-19	gas_1	01209	10	00754.ppm	684	805	1	306	359
vr	40	2019-12-19	gas_1	01210	10	00754.ppm	646	805	1	305	360
vr	40	2019-12-19	gas_1	01211	10	00755.ppm	596	799	1	304	360
vr	40	2019-12-19	gas_1	01212	10	00756.ppm	488	780	1	303	360
vr	40	2019-12-19	gas_1	01213	10	00756.ppm	513	782	1	302	360
vr	40	2019-12-19	gas_1	01214	10	00756.ppm	530	776	1	301	360
vr	40	2019-12-19	gas_1	01215	10	00757.ppm	554	776	1	299	360
vr	40	2019-12-19	gas_1	01216	10	00757.ppm	562	776	1	298	360
vr	40	2019-12-19	gas_1	01217	10	00758.ppm	579	777	1	297	360
vr	40	2019-12-19	gas_1	01218	10	00759.ppm	583	777	1	296	359
vr	40	2019-12-19	gas_1	01219	10	00759.ppm	603	779	1	295	359
vr	40	2019-12-19	gas_1	01220	10	00760.ppm	613	784	1	295	359
vr	40	2019-12-19	gas_1	01221	10	00761.ppm	625	789	1	294	360
vr	40	2019-12-19	gas_1	01222	10	00761.ppm	625	789	1	293	360
vr	40	2019-12-19	gas_1	01223	10	00761.ppm	629	790	1	292	360
vr	40	2019-12-19	gas_1	01224	10	00762.ppm	647	791	1	291	360
vr	40	2019-12-19	gas_1	01225	10	00762.ppm	654	792	1	290	360
vr	40	2019-12-19	gas_1	01226	10	00763.ppm	665	792	1	290	360
vr	40	2019-12-19	gas_1	01227	10	00764.ppm	677	792	1	289	360
vr	40	2019-12-19	gas_1	01228	10	00764.ppm	689	792	1	288	360
vr	40	2019-12-19	gas_1	01229	10	00765.ppm	695	791	1	288	360
vr	40	2019-12-19	gas_1	01230	10	00766.ppm	700	792	1	287	360
vr	40	2019-12-19	gas_1	01231	10	00766.ppm	704	794	1	286	360
vr	40	2019-12-19	gas_1	01232	10	00766.ppm	713	795	1	286	360
vr	40	2019-12-19	gas_1	01233	10	00767.ppm	724	795	1	285	360
vr	40	2019-12-19	gas_1	01234	10	00767.ppm	727	794	1	285	360
vr	40	2019-12-19	gas_1	01235	10	00768.ppm	728	793	1	284	360
vr	40	2019-12-19	gas_1	01236	10	00769.ppm	734	793	1	283	360
vr	40	2019-12-19	gas_1	01237	10	00769.ppm	744	794	1	283	360
vr	40	2019-12-19	gas_1	01238	10	00770.ppm	747	794	1	282	360
vr	40	2019-12-19	gas_1	01239	10	00771.ppm	759	795	1	282	360
vr	40	2019-12-19	gas_1	01240	10	00771.ppm	759	795	1	282	360
vr	40	2019-12-19	gas_1	01241	10	00771.ppm	768	795	1	281	360
vr	40	2019-12-19	gas_1	01242	10	00772.ppm	772	795	1	281	360
vr	40	2019-12-19	gas_1	01243	10	00773.ppm	777	795	1	280	360
vr	40	2019-12-19	gas_1	01244	10	00773.ppm	781	796	1	280	360
vr	40	2019-12-19	gas_1	01245	10	00774.ppm	784	796	1	280	360
vr	40	2019-12-19	gas_1	01246	10	00774.ppm	793	797	1	279	360
vr	40	2019-12-19	gas_1	01247	10	00775.ppm	796	797	1	279	0
vr	40	2019-12-19	gas_1	01248	10	00775.ppm	802	796	1	279	0
vr	40	2019-12-19	gas_1	01249	10	00776.ppm	805	796	1	279	0
vr	40	2019-12-19	gas_1	01250	10	00776.ppm	811	795	1	278	0
vr	40	2019-12-19	gas_1	01251	10	00777.ppm	815	795	1	278	0
vr	40	2019-12-19	gas_1	01252	10	00778.ppm	817	796	1	278	0
vr	40	2019-12-19	gas_1	01253	10	00778.ppm	822	797	1	278	0
vr	40	2019-12-19	gas_1	01254	10	00779.ppm	825	797	1	278	0
vr	40	2019-12-19	gas_1	01255	10	00780.ppm	833	798	2	277	0
vr	40	2019-12-19	gas_1	01256	10	00781.ppm	862	800	2	277	0
vr	40	2019-12-19	gas_1	01257	10	00783.ppm	867	800	2	277	0
vr	40	2019-12-19	gas_1	01258	10	00785.ppm	867	800	2	277	0
vr	40	2019-12-19	gas_1	01259	10	00786.ppm	870	801	2	276	0
vr	40	2019-12-19	gas_1	01260	10	00787.ppm	831	806	2	276	0
vr	40	2019-12-19	gas_1	01261	10	00787.ppm	831	806	1	276	0
vr	40	2019-12-19	gas_1	01262	10	00788.ppm	876	801	0	275	0
vr	40	2019-12-19	gas_1	01263	10	00789.ppm	882	797	360	275	0
vr	40	2019-12-19	gas_1	01264	10	00791.ppm	885	795	359	274	0
vr	40	2019-12-19	gas_1	01265	10	00792.ppm	889	791	359	274	0
vr	40	2019-12-19	gas_1	01266	10	00792.ppm	889	789	359	274	0
vr	40	2019-12-19	gas_1	01267	10	00793.ppm	889	789	359	273	0
vr	40	2019-12-19	gas_1	01268	10	00793.ppm	893	787	359	273	0
vr	40	2019-12-19	gas_1	01269	10	00794.ppm	895	786	358	273	0
vr	40	2019-12-19	gas_1	01270	10	00794.ppm	896	781	358	273	0
vr	40	2019-12-19	gas_1	01271	10	00795.ppm	898	778	358	272	0
vr	40	2019-12-19	gas_1	01272	10	00795.ppm	901	773	358	272	0
vr	40	2019-12-19	gas_1	01273	10	00796.ppm	902	771	358	272	0
vr	40	2019-12-19	gas_1	01274	10	00796.ppm	903	768	358	272	0
vr	40	2019-12-19	gas_1	01275	10	00797.ppm	904	765	358	272	0
vr	40	2019-12-19	gas_1	01276	10	00798.ppm	905	765	358	272	0
vr	40	2019-12-19	gas_1	01277	10	00799.ppm	906	763	358	271	0
vr	40	2019-12-19	gas_1	01278	10	00799.ppm	907	762	357	271	0
vr	40	2019-12-19	gas_1	01279	10	00799.ppm	909	761	357	271	360
vr	40	2019-12-19	gas_1	01280	10	00800.ppm	912	760	357	271	360
vr	40	2019-12-19	gas_1	01281	10	00801.ppm	917	758	357	271	0
vr	40	2019-12-19	gas_1	01282	10	00801.ppm	919	758	357	271	0
vr	40	2019-12-19	gas_1	01283	10	00802.ppm	919	758	357	271	0
vr	40	2019-12-19	gas_1	01284	10	00802.ppm	919	758	357	271	0
vr	40	2019-12-19	gas_1	01285	10	00803.ppm	925	755	357	270	0
vr	40	2019-12-19	gas_1	01286	10	00804.ppm	926	755	357	270	0
vr	40	2019-12-19	gas_1	01287	10	00804.ppm	927	754	357	270	0
vr	40	2019-12-19	gas_1	01288	10	00804.ppm	928	753	357	270	0
vr	40	2019-12-19	gas_1	01289	10	00805.ppm	900	754	356	270	1
vr	40	2019-12-19	gas_1	01290	10	00805.ppm	853	837	356	269	1
vr	40	2019-12-19	gas_1	01291	10	00806.ppm	820	891	356	269	1
vr	40	2019-12-19	gas_1	01292	10	00807.ppm	800	916	355	269	1
vr	40	2019-12-19	gas_1	01293	10	00807.ppm	796	921	355	269	1
vr	40	2019-12-19	gas_1	01294	10	00808.ppm	795	926	354	268	1
vr	40	2019-12-19	gas_1	01295	10	00809.ppm	852	893	353	268	1
vr	40	2019-12-19	gas_1	01296	10	00809.ppm	852	893	353	268	1
vr	40	2019-12-19	gas_1	01297	10	00809.ppm	852	893	352	267	1
vr	40	2019-12-19	gas_1	01298	10	00810.ppm	807	917	352	267	1
vr	40	2019-12-19	gas_1	01299	10	00811.ppm	811	909	352	267	1
vr	40	2019-12-19	gas_1	01300	10	00812.ppm	813	905	351	266	1
vr	40	2019-12-19	gas_1	01301	10	00812.ppm	813	905	351	266	0
vr	40	2019-12-19	gas_1	01302	10	00812.ppm	816	901	350	266	0
vr	40	2019-12-19	gas_1	01303	10	00813.ppm	821	893	350	265	0
vr	40	2019-12-19	gas_1	01304	10	00813.ppm	823	889	349	265	0
vr	40	2019-12-19	gas_1	01305	10	00814.ppm	825	887	349	265	0
vr	40	2019-12-19	gas_1	01306	10	00814.ppm	828	885	349	264	0
vr	40	2019-12-19	gas_1	01307	10	00815.ppm	831	883	348	264	360
vr	40	2019-12-19	gas_1	01308	10	00815.ppm	832	882	348	263	360
vr	40	2019-12-19	gas_1	01309	10	00816.ppm	837	875	347	263	360
vr	40	2019-12-19	gas_1	01310	10	00817.ppm	818	872	347	263	360
vr	40	2019-12-19	gas_1	01311	10	00817.ppm	766	869	347	262	359
vr	40	2019-12-19	gas_1	01312	10	00818.ppm	759	868	347	262	359
vr	40	2019-12-19	gas_1	01313	10	00818.ppm	759	866	347	261	359
vr	40	2019-12-19	gas_1	01314	10	00819.ppm	762	865	346	261	359
vr	40	2019-12-19	gas_1	01315	10	00819.ppm	762	861	346	260	359
vr	40	2019-12-19	gas_1	01316	10	00820.ppm	764	860	346	260	359
vr	40	2019-12-19	gas_1	01317	10	00825.ppm	775	857	346	259	359
vr	40	2019-12-19	gas_1	01318	10	00826.ppm	775	857	346	256	359
vr	40	2019-12-19	gas_1	01319	10	00827.ppm	745	858	346	256	359
vr	40	2019-12-19	gas_1	01320	10	00828.ppm	745	858	346	255	359
vr	40	2019-12-19	gas_1	01321	10	00829.ppm	815	855	345	254	359
vr	40	2019-12-19	gas_1	01322	10	00830.ppm	961	855	345	254	359
vr	40	2019-12-19	gas_1	01323	10	00831.ppm	962	854	345	254	360
vr	40	2019-12-19	gas_1	01324	10	00832.ppm	963	853	345	254	360
vr	40	2019-12-19	gas_1	01325	10	00832.ppm	964	852	345	254	360
vr	40	2019-12-19	gas_1	01326	10	00833.ppm	967	850	344	254	360
vr	40	2019-12-19	gas_1	01327	10	00833.ppm	970	847	344	254	360
vr	40	2019-12-19	gas_1	01328	10	00834.ppm	970	845	344	254	360
vr	40	2019-12-19	gas_1	01329	10	00834.ppm	973	843	344	254	0
vr	40	2019-12-19	gas_1	01330	10	00836.ppm	974	842	344	254	0
vr	40	2019-12-19	gas_1	01331	10	00836.ppm	974	842	344	254	0
vr	40	2019-12-19	gas_1	01332	10	00836.ppm	974	842	344	254	0
vr	40	2019-12-19	gas_1	01333	10	00837.ppm	975	841	344	254	0
vr	40	2019-12-19	gas_1	01334	10	00837.ppm	975	840	344	255	0
vr	40	2019-12-19	gas_1	01335	10	00838.ppm	993	833	344	255	0
vr	40	2019-12-19	gas_1	01336	10	00839.ppm	991	830	344	255	0
vr	40	2019-12-19	gas_1	01337	10	00839.ppm	994	828	344	255	0
vr	40	2019-12-19	gas_1	01338	10	00840.ppm	997	823	344	255	0
vr	40	2019-12-19	gas_1	01339	10	00841.ppm	997	821	344	255	0
vr	40	2019-12-19	gas_1	01340	10	00842.ppm	997	821	344	255	0
vr	40	2019-12-19	gas_1	01341	10	00842.ppm	997	821	344	256	0
vr	40	2019-12-19	gas_1	01342	10	00843.ppm	998	821	344	256	360
vr	40	2019-12-19	gas_1	01343	10	00843.ppm	996	821	344	257	360
vr	40	2019-12-19	gas_1	01344	10	00845.ppm	993	821	344	257	360
vr	40	2019-12-19	gas_1	01345	10	00845.ppm	993	821	344	258	360
vr	40	2019-12-19	gas_1	01346	10	00846.ppm	993	821	344	258	359
vr	40	2019-12-19	gas_1	01347	10	00846.ppm	989	820	344	259	359
vr	40	2019-12-19	gas_1	01348	10	00847.ppm	988	820	344	260	359
vr	40	2019-12-19	gas_1	01349	10	00847.ppm	986	819	344	260	359
vr	40	2019-12-19	gas_1	01350	10	00848.ppm	1002	816	344	261	359
vr	40	2019-12-19	gas_1	01351	10	00848.ppm	1086	797	344	261	359
vr	40	2019-12-19	gas_1	01352	10	00849.ppm	1211	750	345	262	359
vr	40	2019-12-19	gas_1	01353	10	00850.ppm	1238	728	345	263	359
vr	40	2019-12-19	gas_1	01354	10	00851.ppm	1270	695	345	264	359
vr	40	2019-12-19	gas_1	01355	10	00852.ppm	1068	658	346	265	359
vr	40	2019-12-19	gas_1	01356	10	00852.ppm	1284	682	346	266	359
vr	40	2019-12-19	gas_1	01357	10	00852.ppm	1276	678	346	267	359
vr	40	2019-12-19	gas_1	01358	10	00853.ppm	1041	656	346	267	358
vr	40	2019-12-19	gas_1	01359	10	00853.ppm	1255	682	346	268	358
vr	40	2019-12-19	gas_1	01360	10	00854.ppm	1229	685	347	269	358
vr	40	2019-12-19	gas_1	01361	10	00855.ppm	1039	663	347	270	358
vr	40	2019-12-19	gas_1	01362	10	00856.ppm	990	664	347	271	358
vr	40	2019-12-19	gas_1	01363	10	00856.ppm	1202	692	347	271	358
vr	40	2019-12-19	gas_1	01364	10	00856.ppm	1193	694	347	272	358
vr	40	2019-12-19	gas_1	01365	10	00857.ppm	1185	695	348	272	358
vr	40	2019-12-19	gas_1	01366	10	00857.ppm	1104	720	348	273	358
vr	40	2019-12-19	gas_1	01367	10	00858.ppm	1098	673	348	274	357
vr	40	2019-12-19	gas_1	01368	10	00858.ppm	1086	720	348	274	357
vr	40	2019-12-19	gas_1	01369	10	00859.ppm	1073	721	348	275	357
vr	40	2019-12-19	gas_1	01370	10	00860.ppm	1070	722	348	275	357
vr	40	2019-12-19	gas_1	01371	10	00861.ppm	1062	727	349	275	357
vr	40	2019-12-19	gas_1	01372	10	00862.ppm	1055	730	349	276	357
vr	40	2019-12-19	gas_1	01373	10	00862.ppm	1055	730	349	277	357
vr	40	2019-12-19	gas_1	01374	10	00862.ppm	1048	733	349	277	357
vr	40	2019-12-19	gas_1	01375	10	00863.ppm	1040	734	349	277	357
vr	40	2019-12-19	gas_1	01376	10	00864.ppm	1034	734	349	278	357
vr	40	2019-12-19	gas_1	01377	10	00864.ppm	1030	734	349	278	357
vr	40	2019-12-19	gas_1	01378	10	00865.ppm	1028	733	349	278	357
vr	40	2019-12-19	gas_1	01379	10	00866.ppm	1018	734	349	278	357
vr	40	2019-12-19	gas_1	01380	10	00866.ppm	1018	734	350	278	357
vr	40	2019-12-19	gas_1	01381	10	00866.ppm	1011	734	350	279	357
vr	40	2019-12-19	gas_1	01382	10	00867.ppm	1006	735	350	279	357
vr	40	2019-12-19	gas_1	01383	10	00867.ppm	1003	736	350	279	357
vr	40	2019-12-19	gas_1	01384	10	00868.ppm	1000	737	350	279	357
vr	40	2019-12-19	gas_1	01385	10	00869.ppm	1024	735	350	279	357
vr	40	2019-12-19	gas_1	01386	10	00869.ppm	1059	735	350	279	357
vr	40	2019-12-19	gas_1	01387	10	00870.ppm	1070	735	350	280	357
vr	40	2019-12-19	gas_1	01388	10	00871.ppm	1067	738	350	280	357
vr	40	2019-12-19	gas_1	01389	10	00871.ppm	1067	738	350	280	357
vr	40	2019-12-19	gas_1	01390	10	00871.ppm	1067	739	350	280	357
vr	40	2019-12-19	gas_1	01391	10	00872.ppm	1065	740	351	280	357
vr	40	2019-12-19	gas_1	01392	10	00872.ppm	1062	740	351	280	357
vr	40	2019-12-19	gas_1	01393	10	00873.ppm	1060	741	351	280	357
vr	40	2019-12-19	gas_1	01394	10	00874.ppm	1060	741	351	281	357
vr	40	2019-12-19	gas_1	01395	10	00874.ppm	1059	741	351	281	357
vr	40	2019-12-19	gas_1	01396	10	00875.ppm	1059	740	351	281	357
vr	40	2019-12-19	gas_1	01397	10	00876.ppm	1045	740	351	281	357
vr	40	2019-12-19	gas_1	01398	10	00876.ppm	1060	720	351	281	357
vr	40	2019-12-19	gas_1	01399	10	00876.ppm	913	729	352	281	357
vr	40	2019-12-19	gas_1	01400	10	00877.ppm	864	716	352	281	357
vr	40	2019-12-19	gas_1	01401	10	00877.ppm	822	706	352	281	357
vr	40	2019-12-19	gas_1	01402	10	00878.ppm	817	701	352	281	357
vr	40	2019-12-19	gas_1	01403	10	00879.ppm	822	698	352	281	357
vr	40	2019-12-19	gas_1	01404	10	00880.ppm	821	696	352	281	356
vr	40	2019-12-19	gas_1	01405	10	00880.ppm	820	697	352	281	356
vr	40	2019-12-19	gas_1	01406	10	00882.ppm	823	706	352	280	356
vr	40	2019-12-19	gas_1	01407	10	00882.ppm	824	707	352	280	356
vr	40	2019-12-19	gas_1	01408	10	00883.ppm	827	710	353	280	356
vr	40	2019-12-19	gas_1	01409	10	00884.ppm	829	708	353	279	356
vr	40	2019-12-19	gas_1	01410	10	00886.ppm	832	712	353	279	356
vr	40	2019-12-19	gas_1	01411	10	00886.ppm	832	714	353	279	356
vr	40	2019-12-19	gas_1	01412	10	00887.ppm	833	714	353	279	355
vr	40	2019-12-19	gas_1	01413	10	00888.ppm	833	716	353	278	356
vr	40	2019-12-19	gas_1	01414	10	00888.ppm	835	717	353	278	356
vr	40	2019-12-19	gas_1	01415	10	00889.ppm	836	718	353	278	356
vr	40	2019-12-19	gas_1	01416	10	00890.ppm	838	719	353	278	356
vr	40	2019-12-19	gas_1	01417	10	00890.ppm	839	720	353	278	356
vr	40	2019-12-19	gas_1	01418	10	00891.ppm	840	721	353	278	355
vr	40	2019-12-19	gas_1	01419	10	00891.ppm	841	721	353	277	356
vr	40	2019-12-19	gas_1	01420	10	00891.ppm	842	720	353	277	355
vr	40	2019-12-19	gas_1	01421	10	00892.ppm	845	719	353	277	356
vr	40	2019-12-19	gas_1	01422	10	00893.ppm	850	719	353	277	356
vr	40	2019-12-19	gas_1	01423	10	00893.ppm	856	719	353	277	356
vr	40	2019-12-19	gas_1	01424	10	00894.ppm	857	721	353	277	356
vr	40	2019-12-19	gas_1	01425	10	00895.ppm	858	722	353	276	356
vr	40	2019-12-19	gas_1	01426	10	00895.ppm	858	722	353	276	356
vr	40	2019-12-19	gas_1	01427	10	00895.ppm	856	722	353	276	356
vr	40	2019-12-19	gas_1	01428	10	00896.ppm	858	721	353	276	356
vr	40	2019-12-19	gas_1	01429	10	00896.ppm	862	719	353	275	356
vr	40	2019-12-19	gas_1	01430	10	00897.ppm	865	717	353	275	356
vr	40	2019-12-19	gas_1	01431	10	00898.ppm	869	714	353	275	356
vr	40	2019-12-19	gas_1	01432	10	00898.ppm	877	710	353	275	356
vr	40	2019-12-19	gas_1	01433	10	00899.ppm	878	710	353	274	356
vr	40	2019-12-19	gas_1	01434	10	00899.ppm	881	709	353	274	356
vr	40	2019-12-19	gas_1	01435	10	00900.ppm	884	709	353	274	356
vr	40	2019-12-19	gas_1	01436	10	00901.ppm	879	709	353	273	356
vr	40	2019-12-19	gas_1	01437	10	00902.ppm	872	709	353	272	356
vr	40	2019-12-19	gas_1	01438	10	00902.ppm	873	708	353	272	356
vr	40	2019-12-19	gas_1	01439	10	00903.ppm	875	707	353	272	356
vr	40	2019-12-19	gas_1	01440	10	00904.ppm	878	705	353	271	356
vr	40	2019-12-19	gas_1	01441	10	00904.ppm	954	705	353	271	356
vr	40	2019-12-19	gas_1	01442	10	00904.ppm	954	705	353	270	356
vr	40	2019-12-19	gas_1	01443	10	00905.ppm	881	705	353	269	356
vr	40	2019-12-19	gas_1	01444	10	00905.ppm	883	706	353	268	356
vr	40	2019-12-19	gas_1	01445	10	00906.ppm	886	706	354	268	356
vr	40	2019-12-19	gas_1	01446	10	00906.ppm	895	706	354	267	356
vr	40	2019-12-19	gas_1	01447	10	00907.ppm	910	707	354	266	356
vr	40	2019-12-19	gas_1	01448	10	00908.ppm	918	708	354	264	356
vr	40	2019-12-19	gas_1	01449	10	00909.ppm	1031	715	354	263	356
vr	40	2019-12-19	gas_1	01450	10	00909.ppm	930	709	354	262	356
vr	40	2019-12-19	gas_1	01451	10	00909.ppm	908	709	354	260	356
vr	40	2019-12-19	gas_1	01452	10	00910.ppm	846	714	354	258	356
vr	40	2019-12-19	gas_1	01453	10	00911.ppm	0	0	354	257	356
vr	40	2019-12-19	gas_1	01454	10	00911.ppm	0	0	354	255	356
vr	40	2019-12-19	gas_1	01455	10	00912.ppm	0	0	354	253	356
vr	40	2019-12-19	gas_1	01456	10	00912.ppm	0	0	355	250	357
vr	40	2019-12-19	gas_1	01457	10	00913.ppm	0	0	355	244	357
vr	40	2019-12-19	gas_1	01458	10	00915.ppm	615	670	355	241	357
vr	40	2019-12-19	gas_1	01459	10	00915.ppm	615	670	356	239	357
vr	40	2019-12-19	gas_1	01460	10	00916.ppm	636	731	356	237	357
vr	40	2019-12-19	gas_1	01461	10	00916.ppm	608	718	356	234	357
vr	40	2019-12-19	gas_1	01462	10	00917.ppm	526	698	356	232	357
vr	40	2019-12-19	gas_1	01463	10	00918.ppm	532	696	356	230	357
vr	40	2019-12-19	gas_1	01464	10	00918.ppm	521	701	356	227	357
vr	40	2019-12-19	gas_1	01465	10	00918.ppm	498	686	356	225	357
vr	40	2019-12-19	gas_1	01466	10	00919.ppm	493	689	357	223	358
vr	40	2019-12-19	gas_1	01467	10	00919.ppm	487	689	357	221	358
vr	40	2019-12-19	gas_1	01468	10	00920.ppm	476	693	357	219	358
vr	40	2019-12-19	gas_1	01469	10	00921.ppm	474	710	357	217	358
vr	40	2019-12-19	gas_1	01470	10	00922.ppm	478	712	357	213	358
vr	40	2019-12-19	gas_1	01471	10	00922.ppm	503	714	357	212	359
vr	40	2019-12-19	gas_1	01472	10	00923.ppm	532	716	357	210	359
vr	40	2019-12-19	gas_1	01473	10	00923.ppm	551	723	357	209	359
vr	40	2019-12-19	gas_1	01474	10	00924.ppm	561	729	357	208	359
vr	40	2019-12-19	gas_1	01475	10	00924.ppm	574	730	357	206	359
vr	40	2019-12-19	gas_1	01476	10	00925.ppm	598	735	357	205	359
vr	40	2019-12-19	gas_1	01477	10	00926.ppm	617	738	357	204	359
vr	40	2019-12-19	gas_1	01478	10	00926.ppm	629	740	357	203	359
vr	40	2019-12-19	gas_1	01479	10	00927.ppm	636	744	357	202	359
vr	40	2019-12-19	gas_1	01480	10	00928.ppm	657	746	357	201	359
vr	40	2019-12-19	gas_1	01481	10	00928.ppm	662	746	357	200	359
vr	40	2019-12-19	gas_1	01482	10	00929.ppm	665	746	357	199	359
vr	40	2019-12-19	gas_1	01483	10	00929.ppm	675	748	357	198	359
vr	40	2019-12-19	gas_1	01484	10	00930.ppm	694	752	357	197	359
vr	40	2019-12-19	gas_1	01485	10	00931.ppm	705	756	357	196	359
vr	40	2019-12-19	gas_1	01486	10	00932.ppm	717	757	357	194	359
vr	40	2019-12-19	gas_1	01487	10	00932.ppm	658	751	357	193	360
vr	40	2019-12-19	gas_1	01488	10	00933.ppm	652	750	357	192	360
vr	40	2019-12-19	gas_1	01489	10	00934.ppm	650	747	356	189	360
vr	40	2019-12-19	gas_1	01490	10	00935.ppm	669	748	356	188	360
vr	40	2019-12-19	gas_1	01491	10	00936.ppm	669	748	356	187	360
vr	40	2019-12-19	gas_1	01492	10	00936.ppm	671	748	356	187	360
vr	40	2019-12-19	gas_1	01493	10	00937.ppm	683	749	356	186	360
vr	40	2019-12-19	gas_1	01494	10	00937.ppm	699	751	356	185	360
vr	40	2019-12-19	gas_1	01495	10	00938.ppm	711	752	356	184	360
vr	40	2019-12-19	gas_1	01496	10	00938.ppm	718	754	356	183	360
vr	40	2019-12-19	gas_1	01497	10	00939.ppm	727	755	356	183	360
vr	40	2019-12-19	gas_1	01498	10	00939.ppm	737	756	356	182	359
vr	40	2019-12-19	gas_1	01499	10	00940.ppm	741	756	356	181	359
vr	40	2019-12-19	gas_1	01500	10	00941.ppm	751	756	356	181	359
vr	40	2019-12-19	gas_1	01501	10	00942.ppm	757	754	356	180	359
vr	40	2019-12-19	gas_1	01502	10	00942.ppm	761	754	356	179	359
vr	40	2019-12-19	gas_1	01503	10	00942.ppm	771	752	356	179	359
vr	40	2019-12-19	gas_1	01504	10	00943.ppm	778	752	356	178	359
vr	40	2019-12-19	gas_1	01505	10	00943.ppm	785	752	356	178	359
vr	40	2019-12-19	gas_1	01506	10	00944.ppm	791	752	356	178	360
vr	40	2019-12-19	gas_1	01507	10	00945.ppm	794	751	356	177	360
vr	40	2019-12-19	gas_1	01508	10	00945.ppm	802	749	356	177	360
vr	40	2019-12-19	gas_1	01509	10	00946.ppm	806	749	356	177	360
vr	40	2019-12-19	gas_1	01510	10	00946.ppm	813	748	356	177	360
vr	40	2019-12-19	gas_1	01511	10	00947.ppm	815	748	356	176	360
vr	40	2019-12-19	gas_1	01512	10	00947.ppm	819	749	356	176	360
vr	40	2019-12-19	gas_1	01513	10	00948.ppm	821	749	356	176	360
vr	40	2019-12-19	gas_1	01514	10	00948.ppm	826	749	356	176	360
vr	40	2019-12-19	gas_1	01515	10	00949.ppm	827	749	356	176	360
vr	40	2019-12-19	gas_1	01516	10	00950.ppm	830	749	356	175	360
vr	40	2019-12-19	gas_1	01517	10	00951.ppm	835	749	356	175	360
vr	40	2019-12-19	gas_1	01518	10	00951.ppm	835	749	356	175	360
vr	40	2019-12-19	gas_1	01519	10	00951.ppm	836	749	356	175	0
vr	40	2019-12-19	gas_1	01520	10	00952.ppm	838	749	356	175	0
vr	40	2019-12-19	gas_1	01521	10	00953.ppm	841	755	356	174	0
vr	40	2019-12-19	gas_1	01522	10	00954.ppm	848	766	356	174	0
vr	40	2019-12-19	gas_1	01523	10	00955.ppm	849	767	356	173	0
vr	40	2019-12-19	gas_1	01524	10	00955.ppm	850	767	356	173	0
vr	40	2019-12-19	gas_1	01525	10	00956.ppm	850	767	356	173	1
vr	40	2019-12-19	gas_1	01526	10	00956.ppm	854	766	356	172	1
vr	40	2019-12-19	gas_1	01527	10	00957.ppm	856	765	356	172	1
vr	40	2019-12-19	gas_1	01528	10	00957.ppm	859	766	356	172	1
vr	40	2019-12-19	gas_1	01529	10	00958.ppm	862	765	356	172	1
vr	40	2019-12-19	gas_1	01530	10	00958.ppm	866	765	356	171	1
vr	40	2019-12-19	gas_1	01531	10	00959.ppm	868	766	356	171	1
vr	40	2019-12-19	gas_1	01532	10	00960.ppm	871	767	356	171	1
vr	40	2019-12-19	gas_1	01533	10	00961.ppm	873	768	356	171	1
vr	40	2019-12-19	gas_1	01534	10	00962.ppm	875	769	356	170	1
vr	40	2019-12-19	gas_1	01535	10	00962.ppm	876	769	356	170	1
vr	40	2019-12-19	gas_1	01536	10	00963.ppm	876	769	356	170	1
vr	40	2019-12-19	gas_1	01537	10	00963.ppm	879	769	356	170	1
vr	40	2019-12-19	gas_1	01538	10	00964.ppm	883	769	356	169	1
vr	40	2019-12-19	gas_1	01539	10	00964.ppm	886	768	356	169	2
vr	40	2019-12-19	gas_1	01540	10	00965.ppm	890	767	356	169	2
vr	40	2019-12-19	gas_1	01541	10	00966.ppm	893	767	356	168	2
vr	40	2019-12-19	gas_1	01542	10	00966.ppm	894	767	356	168	2
vr	40	2019-12-19	gas_1	01543	10	00966.ppm	895	767	356	168	2
vr	40	2019-12-19	gas_1	01544	10	00967.ppm	898	767	356	167	2
vr	40	2019-12-19	gas_1	01545	10	00967.ppm	901	767	356	167	2
vr	40	2019-12-19	gas_1	01546	10	00968.ppm	907	767	356	167	2
vr	40	2019-12-19	gas_1	01547	10	00968.ppm	910	767	356	166	2
vr	40	2019-12-19	gas_1	01548	10	00969.ppm	912	767	357	166	2
vr	40	2019-12-19	gas_1	01549	10	00970.ppm	915	767	357	165	2
vr	40	2019-12-19	gas_1	01550	10	00971.ppm	923	766	357	165	2
vr	40	2019-12-19	gas_1	01551	10	00972.ppm	926	766	357	164	2
vr	40	2019-12-19	gas_1	01552	10	00972.ppm	926	766	357	163	2
vr	40	2019-12-19	gas_1	01553	10	00972.ppm	932	766	357	163	2
vr	40	2019-12-19	gas_1	01554	10	00973.ppm	938	766	358	162	2
vr	40	2019-12-19	gas_1	01555	10	00974.ppm	963	768	358	162	2
vr	40	2019-12-19	gas_1	01556	10	00974.ppm	966	769	358	161	1
vr	40	2019-12-19	gas_1	01557	10	00975.ppm	971	770	358	160	1
vr	40	2019-12-19	gas_1	01558	10	00976.ppm	974	771	358	159	1
vr	40	2019-12-19	gas_1	01559	10	00976.ppm	972	772	358	158	1
vr	40	2019-12-19	gas_1	01560	10	00976.ppm	935	776	359	157	1
vr	40	2019-12-19	gas_1	01561	10	00977.ppm	780	788	359	155	1
vr	40	2019-12-19	gas_1	01562	10	00977.ppm	741	787	359	154	1
vr	40	2019-12-19	gas_1	01563	10	00978.ppm	697	783	359	152	1
vr	40	2019-12-19	gas_1	01564	10	00979.ppm	659	775	360	150	1
vr	40	2019-12-19	gas_1	01565	10	00979.ppm	606	756	0	149	0
vr	40	2019-12-19	gas_1	01566	10	00980.ppm	596	745	1	147	0
vr	40	2019-12-19	gas_1	01567	10	00981.ppm	553	708	1	145	360
vr	40	2019-12-19	gas_1	01568	10	00981.ppm	542	693	2	143	359
vr	40	2019-12-19	gas_1	01569	10	00981.ppm	547	691	2	141	359
vr	40	2019-12-19	gas_1	01570	10	00982.ppm	573	701	3	139	359
vr	40	2019-12-19	gas_1	01571	10	00983.ppm	604	702	3	137	359
vr	40	2019-12-19	gas_1	01572	10	00983.ppm	615	703	4	135	359
vr	40	2019-12-19	gas_1	01573	10	00984.ppm	637	706	4	134	359
vr	40	2019-12-19	gas_1	01574	10	00985.ppm	657	715	4	133	359
vr	40	2019-12-19	gas_1	01575	10	00985.ppm	663	718	5	131	359
vr	40	2019-12-19	gas_1	01576	10	00985.ppm	685	729	5	130	360
vr	40	2019-12-19	gas_1	01577	10	00986.ppm	712	735	5	129	360
vr	40	2019-12-19	gas_1	01578	10	00988.ppm	709	740	5	128	360
vr	40	2019-12-19	gas_1	01579	10	00989.ppm	697	742	5	127	359
vr	40	2019-12-19	gas_1	01580	10	00990.ppm	697	742	5	125	359
vr	40	2019-12-19	gas_1	01581	10	00992.ppm	646	748	5	123	360
vr	40	2019-12-19	gas_1	01582	10	00993.ppm	646	748	5	123	360
vr	40	2019-12-19	gas_1	01583	10	00993.ppm	658	765	5	123	360
vr	40	2019-12-19	gas_1	01584	10	00994.ppm	510	722	5	122	0
vr	40	2019-12-19	gas_1	01585	10	00996.ppm	750	791	5	122	0
vr	40	2019-12-19	gas_1	01586	10	00997.ppm	761	800	5	121	1
vr	40	2019-12-19	gas_1	01587	10	00998.ppm	770	801	5	121	1
vr	40	2019-12-19	gas_1	01588	10	00999.ppm	779	801	5	120	1
vr	40	2019-12-19	gas_1	01589	10	01000.ppm	802	799	5	120	1
vr	40	2019-12-19	gas_1	01590	10	01001.ppm	813	798	5	120	1
vr	40	2019-12-19	gas_1	01591	10	01002.ppm	821	799	5	119	1
vr	40	2019-12-19	gas_1	01592	10	01002.ppm	824	799	6	119	1
vr	40	2019-12-19	gas_1	01593	10	01004.ppm	838	802	6	119	1
vr	40	2019-12-19	gas_1	01594	10	01004.ppm	844	804	6	119	1
vr	40	2019-12-19	gas_1	01595	10	01006.ppm	852	804	6	119	1
vr	40	2019-12-19	gas_1	01596	10	01006.ppm	856	804	7	119	1
vr	40	2019-12-19	gas_1	01597	10	01007.ppm	857	805	7	119	1
vr	40	2019-12-19	gas_1	01598	10	01007.ppm	864	807	7	119	1
vr	40	2019-12-19	gas_1	01599	10	01008.ppm	870	810	7	119	1
vr	40	2019-12-19	gas_1	01600	10	01009.ppm	875	813	7	119	1
vr	40	2019-12-19	gas_1	01601	10	01009.ppm	875	813	7	119	1
vr	40	2019-12-19	gas_1	01602	10	01009.ppm	878	815	7	120	1
vr	40	2019-12-19	gas_1	01603	10	01010.ppm	882	817	7	120	1
vr	40	2019-12-19	gas_1	01604	10	01011.ppm	884	820	7	120	1
vr	40	2019-12-19	gas_1	01605	10	01011.ppm	883	820	8	121	1
vr	40	2019-12-19	gas_1	01606	10	01012.ppm	883	822	8	121	1
vr	40	2019-12-19	gas_1	01607	10	01012.ppm	883	823	8	121	1
vr	40	2019-12-19	gas_1	01608	10	01013.ppm	883	825	8	122	1
vr	40	2019-12-19	gas_1	01609	10	01013.ppm	884	827	8	122	1
vr	40	2019-12-19	gas_1	01610	10	01014.ppm	884	828	8	122	1
vr	40	2019-12-19	gas_1	01611	10	01014.ppm	881	827	8	123	1
vr	40	2019-12-19	gas_1	01612	10	01015.ppm	878	828	8	123	1
vr	40	2019-12-19	gas_1	01613	10	01015.ppm	876	830	8	124	1
vr	40	2019-12-19	gas_1	01614	10	01016.ppm	874	834	8	124	1
vr	40	2019-12-19	gas_1	01615	10	01017.ppm	872	836	8	124	1
vr	40	2019-12-19	gas_1	01616	10	01017.ppm	884	831	8	125	1
vr	40	2019-12-19	gas_1	01617	10	01018.ppm	891	821	8	125	1
vr	40	2019-12-19	gas_1	01618	10	01018.ppm	904	785	8	126	1
vr	40	2019-12-19	gas_1	01619	10	01019.ppm	899	775	8	126	1
vr	40	2019-12-19	gas_1	01620	10	01019.ppm	903	763	8	126	1
vr	40	2019-12-19	gas_1	01621	10	01020.ppm	902	759	8	126	1
vr	40	2019-12-19	gas_1	01622	10	01021.ppm	898	751	8	126	1
vr	40	2019-12-19	gas_1	01623	10	01021.ppm	908	753	8	127	1
vr	40	2019-12-19	gas_1	01624	10	01022.ppm	919	759	8	127	1
vr	40	2019-12-19	gas_1	01625	10	01023.ppm	918	763	8	127	1
vr	40	2019-12-19	gas_1	01626	10	01023.ppm	917	766	8	127	1
vr	40	2019-12-19	gas_1	01627	10	01024.ppm	919	768	8	127	1
vr	40	2019-12-19	gas_1	01628	10	01024.ppm	921	769	8	126	1
vr	40	2019-12-19	gas_1	01629	10	01025.ppm	922	770	8	126	1
vr	40	2019-12-19	gas_1	01630	10	01026.ppm	926	769	8	126	1
vr	40	2019-12-19	gas_1	01631	10	01030.ppm	927	767	8	126	1
vr	40	2019-12-19	gas_1	01632	10	01032.ppm	942	742	9	125	1
vr	40	2019-12-19	gas_1	01633	10	01032.ppm	942	742	8	124	0
vr	40	2019-12-19	gas_1	01634	10	01034.ppm	944	732	8	124	0
vr	40	2019-12-19	gas_1	01635	10	01034.ppm	944	732	8	123	360
vr	40	2019-12-19	gas_1	01636	10	01035.ppm	953	728	8	122	360
vr	40	2019-12-19	gas_1	01637	10	01037.ppm	975	720	8	121	360
vr	40	2019-12-19	gas_1	01638	10	01037.ppm	979	720	8	121	360
vr	40	2019-12-19	gas_1	01639	10	01038.ppm	982	719	8	120	360
vr	40	2019-12-19	gas_1	01640	10	01039.ppm	986	717	8	120	359
vr	40	2019-12-19	gas_1	01641	10	01039.ppm	986	717	8	119	359
vr	40	2019-12-19	gas_1	01642	10	01040.ppm	994	712	8	119	359
