	subject_location	subject_id	date	daytime	setting_id	trial_id	sample_id	sample_n	sample_rate	sample_time_smi	frame_id	frame_n	frame_rate	frame_time_smi	fix_pos_x	fix_pos_y
0	35_gas	35	10-12-2019	17:47:14:462	rl	gas	845	845	60	2874324	00017.png	1.0	25	2874320.0	1015	1277
1	35_gas	35	10-12-2019	17:47:14:661	rl	gas	857	857	60	2874523	00022.png	6.0	25	2874520.0	1600	6166
2	35_gas	35	10-12-2019	17:47:14:860	rl	gas	869	869	60	2874722	00027.png	11.0	25	2874720.0	1400	3568
3	35_gas	35	10-12-2019	17:47:15:059	rl	gas	881	881	60	2874921	00032.png	16.0	25	2874920.0	1325	2626
4	35_gas	35	10-12-2019	17:47:15:258	rl	gas	891	891	60	2875121	00037.png	21.0	25	2875120.0	1100	1738
5	35_gas	35	10-12-2019	17:47:15:457	rl	gas	903	903	60	2875319	00042.png	26.0	25	2875320.0	1018	1501
6	35_gas	35	10-12-2019	17:47:15:657	rl	gas	915	915	60	2875519	00047.png	31.0	25	2875520.0	1116	1714
7	35_gas	35	10-12-2019	17:47:15:856	rl	gas	927	927	60	2875718	00052.png	36.0	25	2875720.0	1158	1778
8	35_gas	35	10-12-2019	17:47:16:055	rl	gas	939	939	60	2875917	00057.png	41.0	25	2875920.0	1195	1785
9	35_gas	35	10-12-2019	17:47:16:254	rl	gas	951	951	60	2876116	00062.png	46.0	25	2876120.0	1226	1729
10	35_gas	35	10-12-2019	17:47:16:454	rl	gas	963	963	60	2876316	00067.png	51.0	25	2876320.0	1292	1909
11	35_gas	35	10-12-2019	17:47:16:653	rl	gas	975	975	60	2876515	00072.png	56.0	25	2876520.0	1294	2061
12	35_gas	35	10-12-2019	17:47:16:852	rl	gas	987	987	60	2876714	00077.png	61.0	25	2876720.0	1329	2095
13	35_gas	35	10-12-2019	17:47:17:051	rl	gas	999	999	60	2876913	00082.png	66.0	25	2876920.0	536	896
14	35_gas	35	10-12-2019	17:47:17:250	rl	gas	1011	1011	60	2877112	00087.png	71.0	25	2877120.0	741	968
15	35_gas	35	10-12-2019	17:47:17:465	rl	gas	1024	1024	60	2877328	00092.png	76.0	25	2877320.0	1213	3564
16	35_gas	35	10-12-2019	17:47:17:665	rl	gas	1036	1036	60	2877527	00097.png	81.0	25	2877520.0	1249	3995
17	35_gas	35	10-12-2019	17:47:17:864	rl	gas	1048	1048	60	2877726	00102.png	86.0	25	2877720.0	1061	1443
18	35_gas	35	10-12-2019	17:47:18:063	rl	gas	1060	1060	60	2877925	00107.png	91.0	25	2877920.0	1330	1957
19	35_gas	35	10-12-2019	17:47:18:262	rl	gas	1072	1072	60	2878124	00112.png	96.0	25	2878120.0	1236	1831
20	35_gas	35	10-12-2019	17:47:18:462	rl	gas	1084	1084	60	2878324	00117.png	101.0	25	2878320.0	804	1079
21	35_gas	35	10-12-2019	17:47:18:661	rl	gas	1096	1096	60	2878523	00122.png	106.0	25	2878520.0	-317	586
22	35_gas	35	10-12-2019	17:47:18:860	rl	gas	1108	1108	60	2878722	00127.png	111.0	25	2878720.0	88	568
23	35_gas	35	10-12-2019	17:47:19:059	rl	gas	1118	1118	60	2878921	00132.png	116.0	25	2878920.0	189	575
24	35_gas	35	10-12-2019	17:47:19:258	rl	gas	1130	1130	60	2879120	00137.png	121.0	25	2879120.0	956	941
25	35_gas	35	10-12-2019	17:47:19:457	rl	gas	1142	1142	60	2879319	00142.png	126.0	25	2879320.0	983	972
26	35_gas	35	10-12-2019	17:47:19:656	rl	gas	1154	1154	60	2879518	00147.png	131.0	25	2879520.0	545	746
27	35_gas	35	10-12-2019	17:47:19:855	rl	gas	1166	1166	60	2879718	00152.png	136.0	25	2879720.0	526	737
28	35_gas	35	10-12-2019	17:47:20:055	rl	gas	1178	1178	60	2879917	00157.png	141.0	25	2879920.0	523	729
29	35_gas	35	10-12-2019	17:47:20:254	rl	gas	1190	1190	60	2880116	00162.png	146.0	25	2880120.0	511	721
30	35_gas	35	10-12-2019	17:47:20:453	rl	gas	1202	1202	60	2880315	00167.png	151.0	25	2880320.0	637	536
31	35_gas	35	10-12-2019	17:47:20:652	rl	gas	1214	1214	60	2880514	00172.png	156.0	25	2880520.0	734	482
32	35_gas	35	10-12-2019	17:47:20:851	rl	gas	1226	1226	60	2880713	00177.png	161.0	25	2880720.0	715	479
33	35_gas	35	10-12-2019	17:47:21:050	rl	gas	1238	1238	60	2880912	00182.png	166.0	25	2880920.0	707	456
34	35_gas	35	10-12-2019	17:47:21:266	rl	gas	1251	1251	60	2881128	00187.png	171.0	25	2881120.0	678	320
35	35_gas	35	10-12-2019	17:47:21:465	rl	gas	1263	1263	60	2881327	00192.png	176.0	25	2881320.0	675	439
36	35_gas	35	10-12-2019	17:47:21:664	rl	gas	1275	1275	60	2881526	00197.png	181.0	25	2881520.0	491	164
37	35_gas	35	10-12-2019	17:47:21:863	rl	gas	1287	1287	60	2881726	00202.png	186.0	25	2881720.0	607	428
38	35_gas	35	10-12-2019	17:47:22:063	rl	gas	1299	1299	60	2881925	00207.png	191.0	25	2881920.0	846	863
39	35_gas	35	10-12-2019	17:47:22:262	rl	gas	1311	1311	60	2882124	00212.png	196.0	25	2882120.0	1444	-1167
40	35_gas	35	10-12-2019	17:47:22:461	rl	gas	1323	1323	60	2882323	00217.png	201.0	25	2882320.0	1104	32488
41	35_gas	35	10-12-2019	17:47:22:660	rl	gas	1335	1335	60	2882522	00222.png	206.0	25	2882520.0	2064	3353
42	35_gas	35	10-12-2019	17:47:22:859	rl	gas	1347	1347	60	2882722	00227.png	211.0	25	2882720.0	1537	1749
43	35_gas	35	10-12-2019	17:47:23:058	rl	gas	1357	1357	60	2882920	00232.png	216.0	25	2882920.0	1154	1045
44	35_gas	35	10-12-2019	17:47:23:258	rl	gas	1369	1369	60	2883120	00237.png	221.0	25	2883120.0	1182	1072
45	35_gas	35	10-12-2019	17:47:23:457	rl	gas	1381	1381	60	2883319	00242.png	226.0	25	2883320.0	1237	1123
46	35_gas	35	10-12-2019	17:47:23:656	rl	gas	1393	1393	60	2883518	00247.png	231.0	25	2883520.0	1253	1114
47	35_gas	35	10-12-2019	17:47:23:855	rl	gas	1405	1405	60	2883717	00252.png	236.0	25	2883720.0	1361	1272
48	35_gas	35	10-12-2019	17:47:24:054	rl	gas	1417	1417	60	2883916	00257.png	241.0	25	2883920.0	1326	1197
49	35_gas	35	10-12-2019	17:47:24:253	rl	gas	1429	1429	60	2884115	00262.png	246.0	25	2884120.0	1265	1128
50	35_gas	35	10-12-2019	17:47:24:452	rl	gas	1441	1441	60	2884314	00267.png	251.0	25	2884320.0	1243	1108
51	35_gas	35	10-12-2019	17:47:24:651	rl	gas	1453	1453	60	2884514	00272.png	256.0	25	2884520.0	1229	1094
52	35_gas	35	10-12-2019	17:47:24:851	rl	gas	1465	1465	60	2884713	00277.png	261.0	25	2884720.0	1214	1094
53	35_gas	35	10-12-2019	17:47:25:050	rl	gas	1477	1477	60	2884912	00282.png	266.0	25	2884920.0	4238	3004
54	35_gas	35	10-12-2019	17:47:25:266	rl	gas	1490	1490	60	2885128	00287.png	271.0	25	2885120.0	-4202	6681
55	35_gas	35	10-12-2019	17:47:25:464	rl	gas	1502	1502	60	2885327	00292.png	276.0	25	2885320.0	-7394	5995
56	35_gas	35	10-12-2019	17:47:25:664	rl	gas	1514	1514	60	2885526	00297.png	281.0	25	2885520.0	5813	-8548
57	35_gas	35	10-12-2019	17:47:25:863	rl	gas	1526	1526	60	2885725	00302.png	286.0	25	2885720.0	4703	-11631
58	35_gas	35	10-12-2019	17:47:26:062	rl	gas	1538	1538	60	2885924	00307.png	291.0	25	2885920.0	5011	-10660
59	35_gas	35	10-12-2019	17:47:26:261	rl	gas	1550	1550	60	2886123	00312.png	296.0	25	2886120.0	3733	-13887
60	35_gas	35	10-12-2019	17:47:26:461	rl	gas	1562	1562	60	2886323	00317.png	301.0	25	2886320.0	5513	-21970
61	35_gas	35	10-12-2019	17:47:26:659	rl	gas	1574	1574	60	2886521	00322.png	306.0	25	2886520.0	4236	-10259
62	35_gas	35	10-12-2019	17:47:26:859	rl	gas	1585	1585	60	2886721	00327.png	311.0	25	2886720.0	5051	-15738
63	35_gas	35	10-12-2019	17:47:27:058	rl	gas	1597	1597	60	2886920	00332.png	316.0	25	2886920.0	4596	-11616
64	35_gas	35	10-12-2019	17:47:27:257	rl	gas	1609	1609	60	2887119	00337.png	321.0	25	2887120.0	4345	-12514
65	35_gas	35	10-12-2019	17:47:27:456	rl	gas	1621	1621	60	2887318	00342.png	326.0	25	2887320.0	1913	1442
66	35_gas	35	10-12-2019	17:47:27:655	rl	gas	1633	1633	60	2887517	00347.png	331.0	25	2887520.0	1836	1367
67	35_gas	35	10-12-2019	17:47:27:854	rl	gas	1645	1645	60	2887717	00352.png	336.0	25	2887720.0	2038	1331
68	35_gas	35	10-12-2019	17:47:28:054	rl	gas	1657	1657	60	2887916	00357.png	341.0	25	2887920.0	1782	1164
69	35_gas	35	10-12-2019	17:47:28:253	rl	gas	1669	1669	60	2888115	00362.png	346.0	25	2888120.0	1177	691
70	35_gas	35	10-12-2019	17:47:28:452	rl	gas	1681	1681	60	2888314	00367.png	351.0	25	2888320.0	975	560
71	35_gas	35	10-12-2019	17:47:28:651	rl	gas	1693	1693	60	2888513	00372.png	356.0	25	2888520.0	835	460
72	35_gas	35	10-12-2019	17:47:28:850	rl	gas	1705	1705	60	2888713	00377.png	361.0	25	2888720.0	937	524
73	35_gas	35	10-12-2019	17:47:29:050	rl	gas	1717	1717	60	2888912	00382.png	366.0	25	2888920.0	1019	568
74	35_gas	35	10-12-2019	17:47:29:265	rl	gas	1730	1730	60	2889127	00387.png	371.0	25	2889120.0	1093	610
75	35_gas	35	10-12-2019	17:47:29:464	rl	gas	1742	1742	60	2889326	00392.png	376.0	25	2889320.0	1146	644
76	35_gas	35	10-12-2019	17:47:29:663	rl	gas	1754	1754	60	2889525	00397.png	381.0	25	2889520.0	1195	673
77	35_gas	35	10-12-2019	17:47:29:863	rl	gas	1766	1766	60	2889725	00402.png	386.0	25	2889720.0	1222	696
78	35_gas	35	10-12-2019	17:47:30:062	rl	gas	1778	1778	60	2889924	00407.png	391.0	25	2889920.0	1217	702
79	35_gas	35	10-12-2019	17:47:30:261	rl	gas	1790	1790	60	2890123	00412.png	396.0	25	2890120.0	1209	697
80	35_gas	35	10-12-2019	17:47:30:443	rl	gas	1801	1801	60	2890305	00417.png	401.0	25	2890320.0	1239	728
81	35_gas	35	10-12-2019	17:47:30:642	rl	gas	1810	1810	60	2890505	00422.png	406.0	25	2890520.0	1310	771
82	35_gas	35	10-12-2019	17:47:30:858	rl	gas	1822	1822	60	2890721	00427.png	411.0	25	2890720.0	1367	806
83	35_gas	35	10-12-2019	17:47:31:057	rl	gas	1834	1834	60	2890919	00432.png	416.0	25	2890920.0	1374	820
84	35_gas	35	10-12-2019	17:47:31:256	rl	gas	1846	1846	60	2891118	00437.png	421.0	25	2891120.0	1405	848
85	35_gas	35	10-12-2019	17:47:31:456	rl	gas	1858	1858	60	2891318	00442.png	426.0	25	2891320.0	1454	872
86	35_gas	35	10-12-2019	17:47:31:655	rl	gas	1870	1870	60	2891517	00447.png	431.0	25	2891520.0	438	434
87	35_gas	35	10-12-2019	17:47:31:854	rl	gas	1882	1882	60	2891716	00452.png	436.0	25	2891720.0	176	316
88	35_gas	35	10-12-2019	17:47:32:053	rl	gas	1894	1894	60	2891915	00457.png	441.0	25	2891920.0	378	398
89	35_gas	35	10-12-2019	17:47:32:252	rl	gas	1906	1906	60	2892114	00462.png	446.0	25	2892120.0	494	442
90	35_gas	35	10-12-2019	17:47:32:451	rl	gas	1918	1918	60	2892313	00467.png	451.0	25	2892320.0	599	494
91	35_gas	35	10-12-2019	17:47:32:651	rl	gas	1930	1930	60	2892513	00472.png	456.0	25	2892520.0	446	45
92	35_gas	35	10-12-2019	17:47:32:849	rl	gas	1942	1942	60	2892712	00477.png	461.0	25	2892720.0	3	-616
93	35_gas	35	10-12-2019	17:47:33:066	rl	gas	1955	1955	60	2892928	00482.png	466.0	25	2892920.0	76	-529
94	35_gas	35	10-12-2019	17:47:33:265	rl	gas	1967	1967	60	2893127	00487.png	471.0	25	2893120.0	179	-252
95	35_gas	35	10-12-2019	17:47:33:464	rl	gas	1979	1979	60	2893326	00492.png	476.0	25	2893320.0	254	87
96	35_gas	35	10-12-2019	17:47:33:663	rl	gas	1991	1991	60	2893525	00497.png	481.0	25	2893520.0	92	-1044
97	35_gas	35	10-12-2019	17:47:33:862	rl	gas	2003	2003	60	2893724	00502.png	486.0	25	2893720.0	1774	510
98	35_gas	35	10-12-2019	17:47:34:061	rl	gas	2015	2015	60	2893923	00507.png	491.0	25	2893920.0	470	24
99	35_gas	35	10-12-2019	17:47:34:260	rl	gas	2027	2027	60	2894122	00512.png	496.0	25	2894120.0	877	175
100	35_gas	35	10-12-2019	17:47:34:459	rl	gas	2039	2039	60	2894322	00517.png	501.0	25	2894320.0	7372	46174
101	35_gas	35	10-12-2019	17:47:34:659	rl	gas	2048	2048	60	2894521	00522.png	506.0	25	2894520.0	4287	23306
102	35_gas	35	10-12-2019	17:47:34:858	rl	gas	2060	2060	60	2894720	00527.png	511.0	25	2894720.0	29	2161
103	35_gas	35	10-12-2019	17:47:35:057	rl	gas	2072	2072	60	2894919	00532.png	516.0	25	2894920.0	4900	-9861
104	35_gas	35	10-12-2019	17:47:35:256	rl	gas	2084	2084	60	2895118	00537.png	521.0	25	2895120.0	1202	439
105	35_gas	35	10-12-2019	17:47:35:455	rl	gas	2096	2096	60	2895317	00542.png	526.0	25	2895320.0	268	2498
106	35_gas	35	10-12-2019	17:47:35:654	rl	gas	2108	2108	60	2895516	00547.png	531.0	25	2895520.0	0	0
107	35_gas	35	10-12-2019	17:47:35:853	rl	gas	2120	2120	60	2895716	00552.png	536.0	25	2895720.0	641	1178
108	35_gas	35	10-12-2019	17:47:36:053	rl	gas	2132	2132	60	2895915	00557.png	541.0	25	2895920.0	-937	2660
109	35_gas	35	10-12-2019	17:47:36:252	rl	gas	2144	2144	60	2896114	00562.png	546.0	25	2896120.0	201	620
110	35_gas	35	10-12-2019	17:47:36:451	rl	gas	2156	2156	60	2896313	00567.png	551.0	25	2896320.0	-3060	7150
111	35_gas	35	10-12-2019	17:47:36:650	rl	gas	2168	2168	60	2896512	00572.png	556.0	25	2896520.0	-315	2468
112	35_gas	35	10-12-2019	17:47:36:866	rl	gas	2181	2181	60	2896728	00577.png	561.0	25	2896720.0	-5004	1389
113	35_gas	35	10-12-2019	17:47:37:065	rl	gas	2193	2193	60	2896927	00582.png	566.0	25	2896920.0	1028	-375
114	35_gas	35	10-12-2019	17:47:37:264	rl	gas	2205	2205	60	2897126	00587.png	571.0	25	2897120.0	102	676
115	35_gas	35	10-12-2019	17:47:37:463	rl	gas	2217	2217	60	2897325	00592.png	576.0	25	2897320.0	785	688
116	35_gas	35	10-12-2019	17:47:37:662	rl	gas	2229	2229	60	2897524	00597.png	581.0	25	2897520.0	1282	753
117	35_gas	35	10-12-2019	17:47:37:862	rl	gas	2241	2241	60	2897724	00602.png	586.0	25	2897720.0	938	1206
118	35_gas	35	10-12-2019	17:47:38:060	rl	gas	2253	2253	60	2897922	00607.png	591.0	25	2897920.0	1038	1154
119	35_gas	35	10-12-2019	17:47:38:260	rl	gas	2265	2265	60	2898122	00612.png	596.0	25	2898120.0	1217	1233
120	35_gas	35	10-12-2019	17:47:38:459	rl	gas	2276	2276	60	2898321	00617.png	601.0	25	2898320.0	1608	2915
121	35_gas	35	10-12-2019	17:47:38:658	rl	gas	2288	2288	60	2898520	00622.png	606.0	25	2898520.0	1004	814
122	35_gas	35	10-12-2019	17:47:38:857	rl	gas	2300	2300	60	2898719	00627.png	611.0	25	2898720.0	1164	1079
123	35_gas	35	10-12-2019	17:47:39:056	rl	gas	2312	2312	60	2898918	00632.png	616.0	25	2898920.0	1104	1342
124	35_gas	35	10-12-2019	17:47:39:256	rl	gas	2324	2324	60	2899118	00637.png	621.0	25	2899120.0	1048	1202
125	35_gas	35	10-12-2019	17:47:39:455	rl	gas	2336	2336	60	2899317	00642.png	626.0	25	2899320.0	1831	4207
126	35_gas	35	10-12-2019	17:47:39:654	rl	gas	2348	2348	60	2899516	00647.png	631.0	25	2899520.0	1598	2134
127	35_gas	35	10-12-2019	17:47:39:853	rl	gas	2360	2360	60	2899715	00652.png	636.0	25	2899720.0	1969	10589
128	35_gas	35	10-12-2019	17:47:40:052	rl	gas	2372	2372	60	2899914	00657.png	641.0	25	2899920.0	-16764	125180
129	35_gas	35	10-12-2019	17:47:40:251	rl	gas	2384	2384	60	2900113	00662.png	646.0	25	2900120.0	1726	13601
130	35_gas	35	10-12-2019	17:47:40:451	rl	gas	2396	2396	60	2900313	00667.png	651.0	25	2900320.0	2936	3537
131	35_gas	35	10-12-2019	17:47:40:666	rl	gas	2409	2409	60	2900528	00672.png	656.0	25	2900520.0	3195	5037
132	35_gas	35	10-12-2019	17:47:40:865	rl	gas	2421	2421	60	2900727	00677.png	661.0	25	2900720.0	1285	1032
133	35_gas	35	10-12-2019	17:47:41:064	rl	gas	2433	2433	60	2900926	00682.png	666.0	25	2900920.0	1406	1652
134	35_gas	35	10-12-2019	17:47:41:263	rl	gas	2445	2445	60	2901125	00687.png	671.0	25	2901120.0	1445	1948
135	35_gas	35	10-12-2019	17:47:41:462	rl	gas	2457	2457	60	2901325	00692.png	676.0	25	2901320.0	1482	1990
136	35_gas	35	10-12-2019	17:47:41:662	rl	gas	2469	2469	60	2901524	00697.png	681.0	25	2901520.0	3640	1935
137	35_gas	35	10-12-2019	17:47:41:861	rl	gas	2481	2481	60	2901723	00702.png	686.0	25	2901720.0	2451	1746
138	35_gas	35	10-12-2019	17:47:42:060	rl	gas	2493	2493	60	2901922	00707.png	691.0	25	2901920.0	2109	1876
139	35_gas	35	10-12-2019	17:47:42:259	rl	gas	2505	2505	60	2902121	00712.png	696.0	25	2902120.0	1746	1721
140	35_gas	35	10-12-2019	17:47:42:458	rl	gas	2515	2515	60	2902321	00717.png	701.0	25	2902320.0	1590	1906
141	35_gas	35	10-12-2019	17:47:42:657	rl	gas	2527	2527	60	2902519	00722.png	706.0	25	2902520.0	1273	1368
142	35_gas	35	10-12-2019	17:47:42:857	rl	gas	2539	2539	60	2902719	00727.png	711.0	25	2902720.0	1740	1493
143	35_gas	35	10-12-2019	17:47:43:056	rl	gas	2551	2551	60	2902918	00732.png	716.0	25	2902920.0	1542	1368
144	35_gas	35	10-12-2019	17:47:43:255	rl	gas	2563	2563	60	2903117	00737.png	721.0	25	2903120.0	920	780
145	35_gas	35	10-12-2019	17:47:43:454	rl	gas	2575	2575	60	2903317	00742.png	726.0	25	2903320.0	968	829
146	35_gas	35	10-12-2019	17:47:43:653	rl	gas	2587	2587	60	2903515	00747.png	731.0	25	2903520.0	2399	1841
147	35_gas	35	10-12-2019	17:47:43:853	rl	gas	2599	2599	60	2903715	00752.png	736.0	25	2903720.0	2348	1853
148	35_gas	35	10-12-2019	17:47:44:052	rl	gas	2611	2611	60	2903914	00757.png	741.0	25	2903920.0	1580	1096
149	35_gas	35	10-12-2019	17:47:44:251	rl	gas	2623	2623	60	2904113	00762.png	746.0	25	2904120.0	2048	1615
