	setting_id	subject_id	date	trial_id	sample_id	frame_rate	frame_id	fix_pos_x_old	fix_pos_y_old	cam_angle_x	cam_angle_y	cam_angle_z	fix_pos_x	fix_pos_y	fix_pos_avrgd	fix_pos_diff_x	fix_pos_diff_y
0	vr	32	2019-12-10	rat_2	470	10	00260.png	368.0	383.0	1	178	357	368.0	383.0	0	0.0	0.0
1	vr	32	2019-12-10	rat_2	484	10	00270.png	404.0	407.0	1	178	357	404.0	407.0	0	0.0	0.0
2	vr	32	2019-12-10	rat_2	498	10	00280.png	408.0	406.0	1	178	357	408.0	406.0	0	0.0	0.0
3	vr	32	2019-12-10	rat_2	516	10	00290.png	403.0	410.0	2	181	357	403.0	410.0	0	0.0	0.0
4	vr	32	2019-12-10	rat_2	533	10	00300.png	449.5	405.5	4	187	356	449.5	405.5	0	0.0	0.0
5	vr	32	2019-12-10	rat_2	551	10	00310.png	438.0	411.0	5	192	355	438.0	411.0	0	0.0	0.0
6	vr	32	2019-12-10	rat_2	569	10	00320.png	480.0	391.5	5	196	354	480.0	391.5	0	0.0	0.0
7	vr	32	2019-12-10	rat_2	586	10	00330.png	462.5	385.5	6	199	354	462.5	385.5	0	0.0	0.0
8	vr	32	2019-12-10	rat_2	599	10	00340.png	436.5	385.0	7	202	355	436.5	385.0	0	0.0	0.0
9	vr	32	2019-12-10	rat_2	616	10	00350.png	425.0	413.5	7	202	355	425.0	413.5	0	0.0	0.0
10	vr	32	2019-12-10	rat_2	631	10	00360.png	446.0	422.0	8	203	356	445.5	425.5	1	0.5	-3.5
11	vr	32	2019-12-10	rat_2	632	10	00360.png	445.0	429.0	7	203	356	445.5	425.5	1	-0.5	3.5
12	vr	32	2019-12-10	rat_2	646	10	00370.png	425.0	429.0	9	209	357	425.0	429.0	0	0.0	0.0
13	vr	32	2019-12-10	rat_2	659	10	00380.png	458.0	440.5	8	212	356	458.0	440.5	0	0.0	0.0
14	vr	32	2019-12-10	rat_2	677	10	00390.png	513.5	414.0	9	217	355	513.5	414.0	0	0.0	0.0
15	vr	32	2019-12-10	rat_2	694	10	00400.png	495.0	395.5	10	226	354	495.0	395.5	0	0.0	0.0
16	vr	32	2019-12-10	rat_2	711	10	00410.png	462.5	398.5	9	228	354	462.5	398.5	0	0.0	0.0
17	vr	32	2019-12-10	rat_2	728	10	00420.png	447.0	398.0	10	230	355	447.0	398.0	0	0.0	0.0
18	vr	32	2019-12-10	rat_2	744	10	00430.png	439.0	390.0	11	231	358	439.0	390.0	0	0.0	0.0
19	vr	32	2019-12-10	rat_2	761	10	00440.png	450.5	397.5	10	230	359	450.5	397.5	0	0.0	0.0
20	vr	32	2019-12-10	rat_2	779	10	00450.png	507.5	414.0	8	229	1	507.5	414.0	0	0.0	0.0
21	vr	32	2019-12-10	rat_2	795	10	00460.png	563.5	407.5	8	235	360	563.5	407.5	0	0.0	0.0
22	vr	32	2019-12-10	rat_2	812	10	00470.png	506.5	402.0	7	242	358	506.5	402.0	0	0.0	0.0
23	vr	32	2019-12-10	rat_2	825	10	00480.png	540.5	375.5	5	251	356	538.5	376.25	1	2.0	-0.75
24	vr	32	2019-12-10	rat_2	826	10	00480.png	536.5	377.0	5	251	356	538.5	376.25	1	-2.0	0.75
25	vr	32	2019-12-10	rat_2	840	10	00490.png	596.0	410.5	5	261	356	596.0	410.5	0	0.0	0.0
26	vr	32	2019-12-10	rat_2	858	10	00500.png	551.0	409.0	5	266	356	551.0	409.0	0	0.0	0.0
27	vr	32	2019-12-10	rat_2	876	10	00510.png	512.0	415.5	5	271	357	512.0	415.5	0	0.0	0.0
28	vr	32	2019-12-10	rat_2	893	10	00520.png	469.0	359.0	5	270	358	469.0	359.0	0	0.0	0.0
29	vr	32	2019-12-10	rat_2	911	10	00530.png	392.0	326.0	5	259	358	392.0	326.0	0	0.0	0.0
30	vr	32	2019-12-10	rat_2	929	10	00540.png	348.0	360.5	4	243	358	348.0	360.5	0	0.0	0.0
31	vr	32	2019-12-10	rat_2	946	10	00550.png	413.0	362.5	5	234	358	413.0	362.5	0	0.0	0.0
32	vr	32	2019-12-10	rat_2	961	10	00560.png	351.5	339.0	6	231	358	351.5	339.0	0	0.0	0.0
33	vr	32	2019-12-10	rat_2	977	10	00570.png	296.0	395.0	6	228	358	297.5	395.0	1	-1.5	0.0
34	vr	32	2019-12-10	rat_2	978	10	00570.png	299.0	395.0	6	228	358	297.5	395.0	1	1.5	0.0
35	vr	32	2019-12-10	rat_2	992	10	00580.png	411.5	406.5	6	227	358	411.5	406.5	0	0.0	0.0
36	vr	32	2019-12-10	rat_2	1010	10	00590.png	511.0	406.5	5	237	358	511.0	406.5	0	0.0	0.0
37	vr	32	2019-12-10	rat_2	1028	10	00600.png	463.5	408.0	6	245	356	463.5	408.0	0	0.0	0.0
38	vr	32	2019-12-10	rat_2	1045	10	00610.png	505.0	294.0	3	250	357	505.0	294.0	0	0.0	0.0
39	vr	32	2019-12-10	rat_2	1063	10	00620.png	518.0	297.0	360	255	356	518.0	297.0	0	0.0	0.0
40	vr	32	2019-12-10	rat_2	1081	10	00630.png	475.5	315.5	356	269	356	475.5	315.5	0	0.0	0.0
41	vr	32	2019-12-10	rat_2	1099	10	00640.png	0.0	840.0	348	279	358	0.0	840.0	0	0.0	0.0
42	vr	32	2019-12-10	rat_2	1116	10	00650.png	448.0	275.0	340	284	359	448.0	275.0	0	0.0	0.0
43	vr	32	2019-12-10	rat_2	1133	10	00660.png	437.5	241.0	333	284	0	437.5	241.0	0	0.0	0.0
44	vr	32	2019-12-10	rat_2	1149	10	00670.png	473.0	275.0	330	288	1	473.0	275.0	0	0.0	0.0
45	vr	32	2019-12-10	rat_2	1166	10	00680.png	479.0	290.5	328	297	360	478.0	291.0	1	1.0	-0.5
46	vr	32	2019-12-10	rat_2	1167	10	00680.png	477.0	291.5	328	297	360	478.0	291.0	1	-1.0	0.5
47	vr	32	2019-12-10	rat_2	1179	10	00690.png	515.0	310.5	326	306	358	515.0	310.5	0	0.0	0.0
48	vr	32	2019-12-10	rat_2	1196	10	00700.png	565.5	322.5	326	312	357	565.5	322.5	0	0.0	0.0
49	vr	32	2019-12-10	rat_2	1214	10	00710.png	469.5	366.5	327	312	357	469.5	366.5	0	0.0	0.0
50	vr	32	2019-12-10	rat_2	1232	10	00720.png	474.0	411.5	333	298	1	474.0	411.5	0	0.0	0.0
51	vr	32	2019-12-10	rat_2	1265	10	00740.png	501.5	488.5	346	270	1	503.75	487.75	1	-2.25	0.75
52	vr	32	2019-12-10	rat_2	1266	10	00740.png	506.0	487.0	346	269	1	503.75	487.75	1	2.25	-0.75
53	vr	32	2019-12-10	rat_2	1280	10	00750.png	364.0	461.5	353	254	1	364.0	461.5	0	0.0	0.0
54	vr	32	2019-12-10	rat_2	1297	10	00760.png	285.0	406.0	360	237	0	285.0	406.0	0	0.0	0.0
55	vr	32	2019-12-10	rat_2	1314	10	00770.png	336.5	389.0	4	219	360	336.5	389.0	0	0.0	0.0
56	vr	32	2019-12-10	rat_2	1331	10	00780.png	310.0	383.0	7	204	358	310.0	383.0	0	0.0	0.0
57	vr	32	2019-12-10	rat_2	1347	10	00790.png	452.0	461.0	8	195	357	452.0	461.0	0	0.0	0.0
58	vr	32	2019-12-10	rat_2	1364	10	00800.png	458.5	464.5	9	190	357	458.5	464.5	0	0.0	0.0
59	vr	32	2019-12-10	rat_2	1382	10	00810.png	425.5	388.5	7	180	356	425.5	388.5	0	0.0	0.0
60	vr	32	2019-12-10	rat_2	1400	10	00820.png	369.0	367.5	7	173	356	369.0	367.5	0	0.0	0.0
61	vr	32	2019-12-10	rat_2	1417	10	00830.png	392.0	368.5	6	171	356	392.0	368.5	0	0.0	0.0
62	vr	32	2019-12-10	rat_2	1430	10	00840.png	319.0	411.5	6	169	356	319.0	411.5	0	0.0	0.0
63	vr	32	2019-12-10	rat_2	1446	10	00850.png	243.0	418.0	6	168	356	243.0	418.0	0	0.0	0.0
64	vr	32	2019-12-10	rat_2	1463	10	00860.png	252.0	364.0	5	164	356	252.0	364.0	0	0.0	0.0
65	vr	32	2019-12-10	rat_2	1479	10	00870.png	374.0	273.5	2	160	357	374.0	273.5	0	0.0	0.0
66	vr	32	2019-12-10	rat_2	1495	10	00880.png	479.5	372.0	0	161	356	479.25	373.25	1	0.25	-1.25
67	vr	32	2019-12-10	rat_2	1496	10	00880.png	479.0	374.5	0	161	356	479.25	373.25	1	-0.25	1.25
68	vr	32	2019-12-10	rat_2	1508	10	00890.png	477.0	378.0	1	169	355	477.0	378.0	0	0.0	0.0
69	vr	32	2019-12-10	rat_2	1525	10	00900.png	433.5	373.0	3	177	355	433.25	373.25	1	0.25	-0.25
70	vr	32	2019-12-10	rat_2	1526	10	00900.png	433.0	373.5	3	177	355	433.25	373.25	1	-0.25	0.25
71	vr	32	2019-12-10	rat_2	1540	10	00910.png	496.0	401.0	5	185	354	496.0	401.0	0	0.0	0.0
72	vr	32	2019-12-10	rat_2	1558	10	00920.png	461.0	397.0	6	191	354	461.0	397.0	0	0.0	0.0
73	vr	32	2019-12-10	rat_2	1575	10	00930.png	488.5	394.5	7	198	354	488.5	394.5	0	0.0	0.0
74	vr	32	2019-12-10	rat_2	1593	10	00940.png	502.5	390.5	7	203	354	502.5	390.5	0	0.0	0.0
75	vr	32	2019-12-10	rat_2	1610	10	00950.png	484.0	389.5	8	207	355	484.0	389.5	0	0.0	0.0
76	vr	32	2019-12-10	rat_2	1629	10	00960.png	466.5	349.5	7	210	355	466.5	349.5	0	0.0	0.0
77	vr	32	2019-12-10	rat_2	1646	10	00970.png	408.5	381.5	7	211	355	408.5	381.5	0	0.0	0.0
78	vr	32	2019-12-10	rat_2	1661	10	00980.png	400.5	381.0	7	211	355	400.5	381.0	0	0.0	0.0
79	vr	32	2019-12-10	rat_2	1675	10	00990.png	390.5	366.5	7	211	356	390.5	366.5	0	0.0	0.0
80	vr	32	2019-12-10	rat_2	1692	10	01000.png	365.5	338.5	6	210	356	365.5	338.5	0	0.0	0.0
81	vr	32	2019-12-10	rat_2	1693	10	01000.png	365.5	338.5	6	210	356	365.5	338.5	0	0.0	0.0
