	setting_id	subject_id	date	trial_id	sample_id	frame_rate	frame_id	fix_pos_x_old	fix_pos_y_old	cam_angle_x	cam_angle_y	cam_angle_z	fix_pos_x	fix_pos_y	fix_pos_avrgd	fix_pos_diff_x	fix_pos_diff_y
0	vr	32	2019-12-10	loc_2	474	10	00260.png	409.5	351.0	7	180	359	409.5	351.0	0	0.0	0.0
1	vr	32	2019-12-10	loc_2	491	10	00270.png	346.0	378.5	7	180	359	346.0	378.5	0	0.0	0.0
2	vr	32	2019-12-10	loc_2	508	10	00280.png	345.5	377.0	8	180	359	345.5	377.0	0	0.0	0.0
3	vr	32	2019-12-10	loc_2	526	10	00290.png	313.5	355.5	8	180	359	313.5	355.5	0	0.0	0.0
4	vr	32	2019-12-10	loc_2	544	10	00300.png	316.0	356.0	8	178	359	316.0	356.0	0	0.0	0.0
5	vr	32	2019-12-10	loc_2	561	10	00310.png	270.5	352.0	9	164	359	270.5	352.0	0	0.0	0.0
6	vr	32	2019-12-10	loc_2	578	10	00320.png	235.5	365.0	9	146	359	235.5	365.0	0	0.0	0.0
7	vr	32	2019-12-10	loc_2	595	10	00330.png	281.0	374.0	8	131	1	281.0	374.0	0	0.0	0.0
8	vr	32	2019-12-10	loc_2	609	10	00340.png	281.5	375.0	7	118	1	281.5	375.0	0	0.0	0.0
9	vr	32	2019-12-10	loc_2	626	10	00350.png	281.0	380.5	7	112	0	281.0	380.5	0	0.0	0.0
10	vr	32	2019-12-10	loc_2	642	10	00360.png	259.5	373.0	7	110	360	259.0	371.5	1	0.5	1.5
11	vr	32	2019-12-10	loc_2	643	10	00360.png	258.5	370.0	7	110	360	259.0	371.5	1	-0.5	-1.5
12	vr	32	2019-12-10	loc_2	655	10	00370.png	255.5	372.5	6	110	359	255.5	372.5	0	0.0	0.0
13	vr	32	2019-12-10	loc_2	669	10	00380.png	387.0	344.0	6	111	359	388.5	343.5	1	-1.5	0.5
14	vr	32	2019-12-10	loc_2	670	10	00380.png	390.0	343.0	6	111	359	388.5	343.5	1	1.5	-0.5
15	vr	32	2019-12-10	loc_2	683	10	00390.png	414.5	383.0	6	114	359	414.5	383.0	0	0.0	0.0
16	vr	32	2019-12-10	loc_2	700	10	00400.png	391.5	386.0	6	121	359	391.5	386.0	0	0.0	0.0
17	vr	32	2019-12-10	loc_2	718	10	00410.png	475.0	333.5	6	143	360	475.0	333.5	0	0.0	0.0
18	vr	32	2019-12-10	loc_2	735	10	00420.png	434.0	329.5	6	154	359	434.0	329.5	0	0.0	0.0
19	vr	32	2019-12-10	loc_2	752	10	00430.png	473.0	362.0	7	162	359	473.0	362.0	0	0.0	0.0
20	vr	32	2019-12-10	loc_2	771	10	00440.png	514.0	355.5	8	176	359	514.0	355.5	0	0.0	0.0
21	vr	32	2019-12-10	loc_2	787	10	00450.png	512.0	374.0	8	193	358	512.0	374.0	0	0.0	0.0
22	vr	32	2019-12-10	loc_2	805	10	00460.png	518.5	377.0	7	207	357	518.5	377.0	0	0.0	0.0
23	vr	32	2019-12-10	loc_2	823	10	00470.png	477.5	364.5	8	216	358	477.5	364.5	0	0.0	0.0
24	vr	32	2019-12-10	loc_2	840	10	00480.png	454.5	345.5	7	225	358	454.5	345.5	0	0.0	0.0
25	vr	32	2019-12-10	loc_2	856	10	00490.png	476.5	447.0	14	227	358	476.5	447.0	0	0.0	0.0
26	vr	32	2019-12-10	loc_2	871	10	00500.png	473.0	463.5	21	232	357	470.0	464.25	1	3.0	-0.75
27	vr	32	2019-12-10	loc_2	872	10	00500.png	467.0	465.0	22	233	357	470.0	464.25	1	-3.0	0.75
28	vr	32	2019-12-10	loc_2	888	10	00510.png	462.0	419.5	25	240	357	462.0	419.5	0	0.0	0.0
29	vr	32	2019-12-10	loc_2	906	10	00520.png	473.5	342.0	22	253	359	473.5	342.0	0	0.0	0.0
30	vr	32	2019-12-10	loc_2	922	10	00530.png	434.0	342.5	20	259	359	434.0	342.5	0	0.0	0.0
31	vr	32	2019-12-10	loc_2	937	10	00540.png	381.5	342.5	19	262	360	381.5	342.5	0	0.0	0.0
32	vr	32	2019-12-10	loc_2	953	10	00550.png	370.0	355.5	17	264	359	370.0	355.5	0	0.0	0.0
33	vr	32	2019-12-10	loc_2	970	10	00560.png	467.5	315.5	13	269	359	467.5	315.5	0	0.0	0.0
34	vr	32	2019-12-10	loc_2	986	10	00570.png	528.5	316.0	12	280	358	528.5	316.0	0	0.0	0.0
35	vr	32	2019-12-10	loc_2	1002	10	00580.png	514.5	329.0	11	292	356	528.25	331.25	1	-13.75	-2.25
36	vr	32	2019-12-10	loc_2	1003	10	00580.png	542.0	333.5	11	293	355	528.25	331.25	1	13.75	2.25
37	vr	32	2019-12-10	loc_2	1016	10	00590.png	498.5	340.5	11	301	354	498.5	340.5	0	0.0	0.0
38	vr	32	2019-12-10	loc_2	1034	10	00600.png	495.5	348.0	10	312	355	495.5	348.0	0	0.0	0.0
39	vr	32	2019-12-10	loc_2	1051	10	00610.png	576.0	355.5	10	321	356	576.0	355.5	0	0.0	0.0
40	vr	32	2019-12-10	loc_2	1069	10	00620.png	533.0	355.0	10	329	357	533.0	355.0	0	0.0	0.0
41	vr	32	2019-12-10	loc_2	1086	10	00630.png	544.5	361.5	9	333	356	544.5	361.5	0	0.0	0.0
42	vr	32	2019-12-10	loc_2	1104	10	00640.png	519.5	332.5	9	334	356	519.5	332.5	0	0.0	0.0
43	vr	32	2019-12-10	loc_2	1121	10	00650.png	486.5	248.5	3	337	357	486.5	248.5	0	0.0	0.0
44	vr	32	2019-12-10	loc_2	1137	10	00660.png	469.0	250.0	357	337	356	468.75	251.25	1	0.25	-1.25
45	vr	32	2019-12-10	loc_2	1138	10	00660.png	468.5	252.5	357	337	356	468.75	251.25	1	-0.25	1.25
46	vr	32	2019-12-10	loc_2	1153	10	00670.png	465.0	292.5	351	335	357	463.75	292.5	1	1.25	0.0
47	vr	32	2019-12-10	loc_2	1154	10	00670.png	462.5	292.5	351	335	356	463.75	292.5	1	-1.25	0.0
48	vr	32	2019-12-10	loc_2	1167	10	00680.png	367.5	296.5	348	333	355	368.0	297.75	1	-0.5	-1.25
49	vr	32	2019-12-10	loc_2	1168	10	00680.png	368.5	299.0	348	333	355	368.0	297.75	1	0.5	1.25
50	vr	32	2019-12-10	loc_2	1179	10	00690.png	343.0	312.0	348	320	355	346.75	312.0	1	-3.75	0.0
51	vr	32	2019-12-10	loc_2	1180	10	00690.png	350.5	312.0	348	319	355	346.75	312.0	1	3.75	0.0
52	vr	32	2019-12-10	loc_2	1196	10	00700.png	379.0	296.5	351	299	355	379.0	296.5	0	0.0	0.0
53	vr	32	2019-12-10	loc_2	1214	10	00710.png	336.0	316.5	352	282	356	336.0	316.5	0	0.0	0.0
54	vr	32	2019-12-10	loc_2	1232	10	00720.png	360.5	311.0	354	256	357	360.5	311.0	0	0.0	0.0
55	vr	32	2019-12-10	loc_2	1249	10	00730.png	310.5	320.5	2	210	358	310.5	320.5	0	0.0	0.0
56	vr	32	2019-12-10	loc_2	1267	10	00740.png	344.0	333.5	4	170	359	344.0	333.5	0	0.0	0.0
57	vr	32	2019-12-10	loc_2	1284	10	00750.png	389.5	343.0	6	159	359	389.5	343.0	0	0.0	0.0
58	vr	32	2019-12-10	loc_2	1300	10	00760.png	372.5	347.0	7	154	358	372.5	347.0	0	0.0	0.0
59	vr	32	2019-12-10	loc_2	1316	10	00770.png	404.0	390.0	9	154	357	404.0	390.0	0	0.0	0.0
60	vr	32	2019-12-10	loc_2	1333	10	00780.png	397.0	381.5	12	156	357	397.5	380.5	1	-0.5	1.0
61	vr	32	2019-12-10	loc_2	1334	10	00780.png	398.0	379.5	12	156	357	397.5	380.5	1	0.5	-1.0
62	vr	32	2019-12-10	loc_2	1346	10	00790.png	370.0	376.0	14	149	359	368.0	378.5	1	2.0	-2.5
63	vr	32	2019-12-10	loc_2	1347	10	00790.png	366.0	381.0	15	149	359	368.0	378.5	1	-2.0	2.5
64	vr	32	2019-12-10	loc_2	1364	10	00800.png	414.5	383.0	15	137	360	405.25	382.75	1	9.25	0.25
65	vr	32	2019-12-10	loc_2	1365	10	00800.png	396.0	382.5	15	136	360	405.25	382.75	1	-9.25	-0.25
66	vr	32	2019-12-10	loc_2	1379	10	00810.png	349.5	359.0	14	111	359	349.5	359.0	0	0.0	0.0
67	vr	32	2019-12-10	loc_2	1397	10	00820.png	314.0	354.0	12	95	356	314.0	354.0	0	0.0	0.0
68	vr	32	2019-12-10	loc_2	1414	10	00830.png	224.0	370.5	10	81	356	224.0	370.5	0	0.0	0.0
69	vr	32	2019-12-10	loc_2	1432	10	00840.png	304.0	370.0	10	71	358	304.0	370.0	0	0.0	0.0
70	vr	32	2019-12-10	loc_2	1449	10	00850.png	233.5	366.5	9	61	357	233.5	366.5	0	0.0	0.0
71	vr	32	2019-12-10	loc_2	1466	10	00860.png	263.5	366.0	10	57	356	263.5	366.0	0	0.0	0.0
72	vr	32	2019-12-10	loc_2	1482	10	00870.png	380.0	376.0	11	63	356	380.0	376.0	0	0.0	0.0
73	vr	32	2019-12-10	loc_2	1498	10	00880.png	367.5	355.5	10	69	356	367.5	355.5	0	0.0	0.0
74	vr	32	2019-12-10	loc_2	1513	10	00890.png	352.0	357.0	10	71	356	351.5	356.75	1	0.5	0.25
75	vr	32	2019-12-10	loc_2	1514	10	00890.png	351.0	356.5	10	71	356	351.5	356.75	1	-0.5	-0.25
76	vr	32	2019-12-10	loc_2	1528	10	00900.png	258.5	366.0	9	67	356	258.5	366.0	0	0.0	0.0
77	vr	32	2019-12-10	loc_2	1545	10	00910.png	265.0	329.0	9	59	356	267.0	329.0	1	-2.0	0.0
78	vr	32	2019-12-10	loc_2	1546	10	00910.png	269.0	329.0	9	58	356	267.0	329.0	1	2.0	0.0
79	vr	32	2019-12-10	loc_2	1561	10	00920.png	301.5	337.5	9	55	357	301.5	337.5	0	0.0	0.0
80	vr	32	2019-12-10	loc_2	1578	10	00930.png	506.5	359.0	9	61	358	506.5	359.0	0	0.0	0.0
81	vr	32	2019-12-10	loc_2	1596	10	00940.png	493.5	357.5	9	75	358	493.5	357.5	0	0.0	0.0
82	vr	32	2019-12-10	loc_2	1614	10	00950.png	440.5	359.5	8	85	359	440.5	359.5	0	0.0	0.0
83	vr	32	2019-12-10	loc_2	1631	10	00960.png	437.0	352.5	8	93	359	437.0	352.5	0	0.0	0.0
84	vr	32	2019-12-10	loc_2	1649	10	00970.png	433.5	340.0	7	108	359	433.5	340.0	0	0.0	0.0
85	vr	32	2019-12-10	loc_2	1663	10	00980.png	440.0	337.0	6	118	357	440.0	337.0	0	0.0	0.0
86	vr	32	2019-12-10	loc_2	1681	10	00990.png	0.0	840.0	4	120	357	0.0	840.0	0	0.0	0.0
87	vr	32	2019-12-10	loc_2	1698	10	01000.png	400.5	332.5	358	121	357	400.25	333.5	1	0.25	-1.0
88	vr	32	2019-12-10	loc_2	1699	10	01000.png	400.0	334.5	358	121	357	400.25	333.5	1	-0.25	1.0
