	setting_id	subject_id	date	trial_id	sample_id	frame_rate	frame_id	fix_pos_x_old	fix_pos_y_old	cam_angle_x	cam_angle_y	cam_angle_z	fix_pos_x	fix_pos_y	fix_pos_avrgd	fix_pos_diff_x	fix_pos_diff_y
0	vr	32	2019-12-10	reg_1	478	10	00260.png	387.5	386.5	2	155	357	387.5	386.5	0	0.0	0.0
1	vr	32	2019-12-10	reg_1	496	10	00270.png	370.5	394.5	2	155	357	370.5	394.5	0	0.0	0.0
2	vr	32	2019-12-10	reg_1	512	10	00280.png	453.0	398.5	3	155	357	453.0	398.5	0	0.0	0.0
3	vr	32	2019-12-10	reg_1	530	10	00290.png	449.5	397.0	3	155	357	449.5	397.0	0	0.0	0.0
4	vr	32	2019-12-10	reg_1	548	10	00300.png	525.5	387.0	4	164	357	525.5	387.0	0	0.0	0.0
5	vr	32	2019-12-10	reg_1	564	10	00310.png	470.0	385.0	4	171	356	470.0	385.0	0	0.0	0.0
6	vr	32	2019-12-10	reg_1	579	10	00320.png	469.5	444.5	4	172	356	469.5	444.5	0	0.0	0.0
7	vr	32	2019-12-10	reg_1	596	10	00330.png	451.0	380.0	4	173	356	451.0	380.0	0	0.0	0.0
8	vr	32	2019-12-10	reg_1	627	10	00350.png	504.0	290.0	2	179	357	504.0	289.75	1	0.0	0.25
9	vr	32	2019-12-10	reg_1	628	10	00350.png	504.0	289.5	2	180	357	504.0	289.75	1	0.0	-0.25
10	vr	32	2019-12-10	reg_1	641	10	00360.png	473.5	299.5	1	184	357	471.75	300.5	1	1.75	-1.0
11	vr	32	2019-12-10	reg_1	642	10	00360.png	470.0	301.5	1	184	357	471.75	300.5	1	-1.75	1.0
12	vr	32	2019-12-10	reg_1	655	10	00370.png	465.0	350.5	1	189	357	465.0	350.5	0	0.0	0.0
13	vr	32	2019-12-10	reg_1	673	10	00380.png	442.5	356.0	360	193	357	442.5	356.0	0	0.0	0.0
14	vr	32	2019-12-10	reg_1	690	10	00390.png	475.5	356.5	359	198	358	475.5	356.5	0	0.0	0.0
15	vr	32	2019-12-10	reg_1	708	10	00400.png	460.5	360.0	359	200	358	460.5	360.0	0	0.0	0.0
16	vr	32	2019-12-10	reg_1	726	10	00410.png	346.5	401.0	359	201	358	346.5	401.0	0	0.0	0.0
17	vr	32	2019-12-10	reg_1	744	10	00420.png	258.0	391.0	359	197	358	258.0	391.0	0	0.0	0.0
18	vr	32	2019-12-10	reg_1	760	10	00430.png	296.0	375.5	359	184	358	296.0	375.5	0	0.0	0.0
19	vr	32	2019-12-10	reg_1	777	10	00440.png	344.0	377.5	360	174	358	344.0	377.5	0	0.0	0.0
20	vr	32	2019-12-10	reg_1	794	10	00450.png	273.5	385.0	1	163	358	273.5	385.0	0	0.0	0.0
21	vr	32	2019-12-10	reg_1	811	10	00460.png	293.5	367.0	2	147	358	293.5	367.0	0	0.0	0.0
22	vr	32	2019-12-10	reg_1	827	10	00470.png	284.0	381.0	2	140	358	271.5	386.75	1	12.5	-5.75
23	vr	32	2019-12-10	reg_1	828	10	00470.png	259.0	392.5	2	140	358	271.5	386.75	1	-12.5	5.75
24	vr	32	2019-12-10	reg_1	842	10	00480.png	292.0	401.0	3	132	358	292.0	401.0	0	0.0	0.0
25	vr	32	2019-12-10	reg_1	854	10	00490.png	345.5	408.5	3	130	357	345.5	408.5	0	0.0	0.0
26	vr	32	2019-12-10	reg_1	869	10	00500.png	384.0	414.0	4	129	357	384.0	414.0	0	0.0	0.0
27	vr	32	2019-12-10	reg_1	887	10	00510.png	382.0	350.5	6	126	357	382.0	350.5	0	0.0	0.0
28	vr	32	2019-12-10	reg_1	902	10	00520.png	395.0	342.5	5	121	357	395.0	342.5	0	0.0	0.0
29	vr	32	2019-12-10	reg_1	916	10	00530.png	317.5	324.5	4	117	356	317.5	324.5	0	0.0	0.0
30	vr	32	2019-12-10	reg_1	933	10	00540.png	221.0	385.0	4	108	357	221.0	385.0	0	0.0	0.0
31	vr	32	2019-12-10	reg_1	950	10	00550.png	246.5	390.0	4	106	356	246.5	390.0	0	0.0	0.0
32	vr	32	2019-12-10	reg_1	967	10	00560.png	274.5	386.5	4	102	356	274.5	386.5	0	0.0	0.0
33	vr	32	2019-12-10	reg_1	984	10	00570.png	228.0	393.5	4	99	356	228.0	393.5	0	0.0	0.0
34	vr	32	2019-12-10	reg_1	1000	10	00580.png	231.0	398.0	4	95	356	231.0	398.0	0	0.0	0.0
35	vr	32	2019-12-10	reg_1	1018	10	00590.png	254.5	399.0	4	92	357	254.5	399.0	0	0.0	0.0
36	vr	32	2019-12-10	reg_1	1034	10	00600.png	258.5	399.0	4	92	357	258.5	399.0	0	0.0	0.0
37	vr	32	2019-12-10	reg_1	1052	10	00610.png	289.0	379.5	4	91	357	289.0	379.5	0	0.0	0.0
38	vr	32	2019-12-10	reg_1	1069	10	00620.png	353.5	349.5	3	93	358	353.5	349.5	0	0.0	0.0
39	vr	32	2019-12-10	reg_1	1086	10	00630.png	393.5	332.5	0	97	359	393.5	332.5	0	0.0	0.0
40	vr	32	2019-12-10	reg_1	1100	10	00640.png	466.0	332.5	358	103	360	464.25	332.75	1	1.75	-0.25
41	vr	32	2019-12-10	reg_1	1101	10	00640.png	462.5	333.0	358	104	360	464.25	332.75	1	-1.75	0.25
42	vr	32	2019-12-10	reg_1	1114	10	00650.png	514.5	333.5	355	119	360	514.5	333.5	0	0.0	0.0
43	vr	32	2019-12-10	reg_1	1130	10	00660.png	495.0	347.5	354	133	359	495.0	347.5	0	0.0	0.0
44	vr	32	2019-12-10	reg_1	1145	10	00670.png	460.5	355.5	353	142	358	460.25	355.0	1	0.25	0.5
45	vr	32	2019-12-10	reg_1	1146	10	00670.png	460.0	354.5	353	143	358	460.25	355.0	1	-0.25	-0.5
46	vr	32	2019-12-10	reg_1	1158	10	00680.png	396.5	446.5	353	148	358	398.25	451.0	1	-1.75	-4.5
47	vr	32	2019-12-10	reg_1	1159	10	00680.png	400.0	455.5	353	148	358	398.25	451.0	1	1.75	4.5
48	vr	32	2019-12-10	reg_1	1171	10	00690.png	438.5	445.5	354	150	359	438.25	445.5	1	0.25	0.0
49	vr	32	2019-12-10	reg_1	1172	10	00690.png	438.0	445.5	354	151	359	438.25	445.5	1	-0.25	0.0
50	vr	32	2019-12-10	reg_1	1187	10	00700.png	463.0	473.5	355	153	359	463.0	473.5	0	0.0	0.0
51	vr	32	2019-12-10	reg_1	1204	10	00710.png	561.5	339.5	356	166	358	561.5	339.5	0	0.0	0.0
52	vr	32	2019-12-10	reg_1	1222	10	00720.png	476.5	330.0	356	176	357	476.5	330.0	0	0.0	0.0
53	vr	32	2019-12-10	reg_1	1240	10	00730.png	484.5	334.5	356	180	358	484.5	334.5	0	0.0	0.0
54	vr	32	2019-12-10	reg_1	1258	10	00740.png	538.5	320.0	354	184	358	538.5	320.0	0	0.0	0.0
55	vr	32	2019-12-10	reg_1	1276	10	00750.png	519.5	318.5	354	191	358	519.5	318.5	0	0.0	0.0
56	vr	32	2019-12-10	reg_1	1292	10	00760.png	407.0	441.0	355	197	358	407.0	441.0	0	0.0	0.0
57	vr	32	2019-12-10	reg_1	1310	10	00770.png	370.5	447.5	357	201	358	370.5	447.5	0	0.0	0.0
58	vr	32	2019-12-10	reg_1	1328	10	00780.png	407.0	445.0	358	205	358	407.0	445.0	0	0.0	0.0
59	vr	32	2019-12-10	reg_1	1341	10	00790.png	471.5	365.0	359	212	358	474.5	356.5	1	-3.0	8.5
60	vr	32	2019-12-10	reg_1	1342	10	00790.png	477.5	348.0	359	213	358	474.5	356.5	1	3.0	-8.5
61	vr	32	2019-12-10	reg_1	1355	10	00800.png	447.5	345.5	358	219	358	447.5	345.5	0	0.0	0.0
62	vr	32	2019-12-10	reg_1	1373	10	00810.png	462.5	309.5	358	220	358	462.5	309.5	0	0.0	0.0
63	vr	32	2019-12-10	reg_1	1390	10	00820.png	544.0	330.0	357	221	358	544.0	330.0	0	0.0	0.0
64	vr	32	2019-12-10	reg_1	1408	10	00830.png	515.0	337.5	357	227	357	515.0	337.5	0	0.0	0.0
65	vr	32	2019-12-10	reg_1	1426	10	00840.png	562.0	387.5	357	234	357	562.0	387.5	0	0.0	0.0
66	vr	32	2019-12-10	reg_1	1442	10	00850.png	463.0	291.0	356	236	358	463.0	291.0	0	0.0	0.0
67	vr	32	2019-12-10	reg_1	1460	10	00860.png	425.0	298.5	354	237	358	425.0	298.5	0	0.0	0.0
68	vr	32	2019-12-10	reg_1	1478	10	00870.png	428.0	307.5	353	236	358	428.0	307.5	0	0.0	0.0
69	vr	32	2019-12-10	reg_1	1494	10	00880.png	536.5	408.0	354	238	357	536.5	408.0	0	0.0	0.0
70	vr	32	2019-12-10	reg_1	1506	10	00890.png	497.5	431.0	355	241	356	497.5	431.0	0	0.0	0.0
71	vr	32	2019-12-10	reg_1	1523	10	00900.png	488.5	428.5	357	242	357	488.5	428.25	1	0.0	0.25
72	vr	32	2019-12-10	reg_1	1524	10	00900.png	488.5	428.0	357	243	357	488.5	428.25	1	0.0	-0.25
73	vr	32	2019-12-10	reg_1	1539	10	00910.png	495.5	432.5	358	245	356	495.5	432.5	0	0.0	0.0
74	vr	32	2019-12-10	reg_1	1556	10	00920.png	542.0	479.0	359	247	355	542.0	479.0	0	0.0	0.0
75	vr	32	2019-12-10	reg_1	1572	10	00930.png	615.5	430.5	359	248	355	615.5	430.5	0	0.0	0.0
76	vr	32	2019-12-10	reg_1	1590	10	00940.png	601.5	411.0	359	249	355	601.5	411.0	0	0.0	0.0
77	vr	32	2019-12-10	reg_1	1608	10	00950.png	592.0	410.0	359	251	355	592.0	410.0	0	0.0	0.0
78	vr	32	2019-12-10	reg_1	1625	10	00960.png	619.5	406.0	360	253	355	619.5	406.0	0	0.0	0.0
79	vr	32	2019-12-10	reg_1	1642	10	00970.png	607.5	407.5	0	254	356	607.5	407.5	0	0.0	0.0
80	vr	32	2019-12-10	reg_1	1659	10	00980.png	599.5	407.5	1	259	356	599.5	407.5	0	0.0	0.0
81	vr	32	2019-12-10	reg_1	1677	10	00990.png	610.5	391.5	2	266	357	610.5	391.5	0	0.0	0.0
82	vr	32	2019-12-10	reg_1	1692	10	01000.png	536.5	389.5	4	275	357	536.5	389.5	0	0.0	0.0
