	setting_id	subject_id	date	trial_id	sample_id	frame_rate	frame_id	fix_pos_x_old	fix_pos_y_old	cam_angle_x	cam_angle_y	cam_angle_z	fix_pos_x	fix_pos_y	fix_pos_avrgd	fix_pos_diff_x	fix_pos_diff_y
0	vr	16	2019-10-29	loc_1	472	10	00260.png	409.0	426.0	1	186	356	409.0	426.0	0	0.0	0.0
1	vr	16	2019-10-29	loc_1	489	10	00270.png	402.5	425.5	1	186	356	402.5	425.5	0	0.0	0.0
2	vr	16	2019-10-29	loc_1	507	10	00280.png	309.5	426.5	1	186	356	309.5	426.5	0	0.0	0.0
3	vr	16	2019-10-29	loc_1	525	10	00290.png	396.5	359.0	1	186	356	396.5	359.0	0	0.0	0.0
4	vr	16	2019-10-29	loc_1	542	10	00300.png	395.5	345.5	1	186	356	395.5	345.5	0	0.0	0.0
5	vr	16	2019-10-29	loc_1	560	10	00310.png	448.0	364.5	1	186	356	448.0	364.5	0	0.0	0.0
6	vr	16	2019-10-29	loc_1	578	10	00320.png	474.5	406.5	1	193	355	474.5	406.5	0	0.0	0.0
7	vr	16	2019-10-29	loc_1	596	10	00330.png	505.5	438.0	2	205	355	505.5	438.0	0	0.0	0.0
8	vr	16	2019-10-29	loc_1	614	10	00340.png	448.5	433.5	3	213	355	448.5	433.5	0	0.0	0.0
9	vr	16	2019-10-29	loc_1	630	10	00350.png	489.5	396.5	3	218	355	489.5	396.5	0	0.0	0.0
10	vr	16	2019-10-29	loc_1	648	10	00360.png	478.5	381.0	3	222	355	478.5	381.0	0	0.0	0.0
11	vr	16	2019-10-29	loc_1	666	10	00370.png	431.0	384.0	3	224	355	431.0	384.0	0	0.0	0.0
12	vr	16	2019-10-29	loc_1	682	10	00380.png	427.0	385.5	3	225	354	427.0	385.5	0	0.0	0.0
13	vr	16	2019-10-29	loc_1	700	10	00390.png	423.0	386.5	3	225	354	423.0	386.5	0	0.0	0.0
14	vr	16	2019-10-29	loc_1	718	10	00400.png	452.0	381.5	3	225	354	452.0	381.5	0	0.0	0.0
15	vr	16	2019-10-29	loc_1	736	10	00410.png	451.0	381.0	3	225	354	451.0	381.0	0	0.0	0.0
16	vr	16	2019-10-29	loc_1	754	10	00420.png	448.0	382.0	3	226	354	448.0	382.0	0	0.0	0.0
17	vr	16	2019-10-29	loc_1	771	10	00430.png	570.5	429.5	4	232	352	570.5	429.5	0	0.0	0.0
18	vr	16	2019-10-29	loc_1	789	10	00440.png	593.5	397.5	4	236	352	593.5	397.5	0	0.0	0.0
19	vr	16	2019-10-29	loc_1	805	10	00450.png	602.5	385.5	4	237	352	602.5	385.5	0	0.0	0.0
20	vr	16	2019-10-29	loc_1	822	10	00460.png	592.0	369.5	5	240	353	592.0	369.5	0	0.0	0.0
21	vr	16	2019-10-29	loc_1	840	10	00470.png	510.0	399.5	4	245	354	510.0	399.5	0	0.0	0.0
22	vr	16	2019-10-29	loc_1	852	10	00480.png	430.0	338.0	4	248	354	430.0	338.0	0	0.0	0.0
23	vr	16	2019-10-29	loc_1	869	10	00490.png	404.0	327.5	2	248	354	404.0	327.5	0	0.0	0.0
24	vr	16	2019-10-29	loc_1	880	10	00500.png	347.5	341.0	2	246	354	347.5	341.0	0	0.0	0.0
25	vr	16	2019-10-29	loc_1	898	10	00510.png	274.0	361.5	1	238	354	274.0	361.5	0	0.0	0.0
26	vr	16	2019-10-29	loc_1	916	10	00520.png	267.0	372.5	0	227	354	267.0	372.5	0	0.0	0.0
27	vr	16	2019-10-29	loc_1	934	10	00530.png	216.0	367.5	1	218	354	216.0	367.5	0	0.0	0.0
28	vr	16	2019-10-29	loc_1	952	10	00540.png	275.0	369.0	1	210	354	275.0	369.0	0	0.0	0.0
29	vr	16	2019-10-29	loc_1	968	10	00550.png	334.5	391.5	1	202	355	336.25	393.0	1	-1.75	-1.5
30	vr	16	2019-10-29	loc_1	969	10	00550.png	338.0	394.5	1	202	355	336.25	393.0	1	1.75	1.5
31	vr	16	2019-10-29	loc_1	986	10	00560.png	383.5	391.5	0	196	355	383.5	391.5	0	0.0	0.0
32	vr	16	2019-10-29	loc_1	1003	10	00570.png	331.0	397.0	1	193	356	331.0	397.0	0	0.0	0.0
33	vr	16	2019-10-29	loc_1	1021	10	00580.png	352.0	395.5	1	190	356	352.0	395.5	0	0.0	0.0
34	vr	16	2019-10-29	loc_1	1037	10	00590.png	235.5	436.5	1	186	356	237.0	436.5	1	-1.5	0.0
35	vr	16	2019-10-29	loc_1	1038	10	00590.png	238.5	436.5	1	185	356	237.0	436.5	1	1.5	0.0
36	vr	16	2019-10-29	loc_1	1053	10	00600.png	267.5	436.0	1	181	355	269.5	435.75	1	-2.0	0.25
37	vr	16	2019-10-29	loc_1	1054	10	00600.png	271.5	435.5	1	180	355	269.5	435.75	1	2.0	-0.25
38	vr	16	2019-10-29	loc_1	1069	10	00610.png	244.5	449.0	2	174	355	244.5	449.0	0	0.0	0.0
39	vr	16	2019-10-29	loc_1	1086	10	00620.png	211.5	443.5	3	166	356	211.5	443.5	0	0.0	0.0
40	vr	16	2019-10-29	loc_1	1104	10	00630.png	261.5	444.5	4	154	357	261.5	444.5	0	0.0	0.0
41	vr	16	2019-10-29	loc_1	1122	10	00640.png	233.0	449.5	4	144	357	233.0	449.5	0	0.0	0.0
42	vr	16	2019-10-29	loc_1	1139	10	00650.png	259.0	445.0	4	137	358	259.0	445.0	0	0.0	0.0
43	vr	16	2019-10-29	loc_1	1156	10	00660.png	243.5	426.5	4	131	359	243.5	426.5	0	0.0	0.0
44	vr	16	2019-10-29	loc_1	1173	10	00670.png	289.0	428.0	4	124	359	289.0	428.0	0	0.0	0.0
45	vr	16	2019-10-29	loc_1	1190	10	00680.png	213.5	424.5	4	116	359	216.0	424.5	1	-2.5	0.0
46	vr	16	2019-10-29	loc_1	1191	10	00680.png	218.5	424.5	4	116	359	216.0	424.5	1	2.5	0.0
47	vr	16	2019-10-29	loc_1	1203	10	00690.png	324.0	395.0	3	113	360	324.25	395.25	1	-0.25	-0.25
48	vr	16	2019-10-29	loc_1	1204	10	00690.png	324.5	395.5	3	113	360	324.25	395.25	1	0.25	0.25
49	vr	16	2019-10-29	loc_1	1219	10	00700.png	403.5	377.5	3	114	360	403.5	377.5	0	0.0	0.0
50	vr	16	2019-10-29	loc_1	1237	10	00710.png	387.0	380.0	3	114	360	387.0	380.0	0	0.0	0.0
51	vr	16	2019-10-29	loc_1	1255	10	00720.png	385.0	383.0	2	114	360	385.0	383.0	0	0.0	0.0
52	vr	16	2019-10-29	loc_1	1273	10	00730.png	384.5	384.0	2	114	360	384.5	384.0	0	0.0	0.0
53	vr	16	2019-10-29	loc_1	1291	10	00740.png	282.5	389.0	2	112	360	282.5	389.0	0	0.0	0.0
54	vr	16	2019-10-29	loc_1	1308	10	00750.png	294.0	390.5	2	110	359	294.0	390.5	0	0.0	0.0
55	vr	16	2019-10-29	loc_1	1325	10	00760.png	260.0	362.5	1	110	360	260.75	363.0	1	-0.75	-0.5
56	vr	16	2019-10-29	loc_1	1326	10	00760.png	261.5	363.5	1	110	360	260.75	363.0	1	0.75	0.5
57	vr	16	2019-10-29	loc_1	1342	10	00770.png	343.0	362.5	1	110	360	343.0	362.5	0	0.0	0.0
58	vr	16	2019-10-29	loc_1	1359	10	00780.png	299.0	339.0	0	111	359	299.0	339.0	0	0.0	0.0
59	vr	16	2019-10-29	loc_1	1376	10	00790.png	444.5	353.5	360	113	359	445.0	354.5	1	-0.5	-1.0
60	vr	16	2019-10-29	loc_1	1377	10	00790.png	445.5	355.5	360	114	360	445.0	354.5	1	0.5	1.0
61	vr	16	2019-10-29	loc_1	1393	10	00800.png	427.5	364.5	359	118	0	427.5	364.5	0	0.0	0.0
62	vr	16	2019-10-29	loc_1	1411	10	00810.png	459.5	360.5	359	125	1	459.5	360.5	0	0.0	0.0
63	vr	16	2019-10-29	loc_1	1429	10	00820.png	466.5	472.5	359	131	1	466.5	472.5	0	0.0	0.0
64	vr	16	2019-10-29	loc_1	1446	10	00830.png	441.0	469.0	359	133	1	441.0	469.0	0	0.0	0.0
65	vr	16	2019-10-29	loc_1	1480	10	00850.png	332.0	460.5	1	134	360	332.0	460.5	0	0.0	0.0
66	vr	16	2019-10-29	loc_1	1498	10	00860.png	301.5	464.5	1	133	359	301.5	464.5	0	0.0	0.0
67	vr	16	2019-10-29	loc_1	1515	10	00870.png	304.5	462.5	2	133	359	304.5	462.5	0	0.0	0.0
68	vr	16	2019-10-29	loc_1	1530	10	00880.png	435.0	435.5	3	134	359	435.0	435.5	0	0.0	0.0
69	vr	16	2019-10-29	loc_1	1548	10	00890.png	426.5	431.0	3	136	359	426.5	431.0	0	0.0	0.0
70	vr	16	2019-10-29	loc_1	1566	10	00900.png	438.0	434.0	4	137	359	438.0	434.0	0	0.0	0.0
71	vr	16	2019-10-29	loc_1	1584	10	00910.png	433.5	431.5	4	138	359	433.5	431.5	0	0.0	0.0
72	vr	16	2019-10-29	loc_1	1602	10	00920.png	456.0	425.5	4	139	359	456.0	425.5	0	0.0	0.0
73	vr	16	2019-10-29	loc_1	1620	10	00930.png	340.0	419.0	4	139	359	340.0	419.0	0	0.0	0.0
74	vr	16	2019-10-29	loc_1	1638	10	00940.png	342.0	418.5	4	139	359	342.0	418.5	0	0.0	0.0
75	vr	16	2019-10-29	loc_1	1656	10	00950.png	341.0	419.0	4	139	359	341.0	419.0	0	0.0	0.0
76	vr	16	2019-10-29	loc_1	1674	10	00960.png	274.0	442.0	4	139	359	274.0	442.0	0	0.0	0.0
77	vr	16	2019-10-29	loc_1	1692	10	00970.png	277.0	445.5	4	139	359	277.0	445.5	0	0.0	0.0
78	vr	16	2019-10-29	loc_1	1708	10	00980.png	430.5	436.5	4	140	359	430.5	436.5	0	0.0	0.0
79	vr	16	2019-10-29	loc_1	1725	10	00990.png	482.0	426.0	4	144	359	479.75	425.5	1	2.25	0.5
80	vr	16	2019-10-29	loc_1	1726	10	00990.png	477.5	425.0	4	144	359	479.75	425.5	1	-2.25	-0.5
81	vr	16	2019-10-29	loc_1	1743	10	01000.png	472.0	419.5	4	150	360	472.0	419.5	0	0.0	0.0
