	setting_id	subject_id	date	trial_id	sample_id	frame_rate	frame_id	fix_pos_x_old	fix_pos_y_old	cam_angle_x	cam_angle_y	cam_angle_z	fix_pos_x	fix_pos_y	fix_pos_avrgd	fix_pos_diff_x	fix_pos_diff_y
0	vr	12	2019-10-28	rat_2	482	10	00260.png	395.5	457.5	1	206	355	395.5	457.5	0	0.0	0.0
1	vr	12	2019-10-28	rat_2	515	10	00280.png	316.0	455.0	1	206	355	316.0	455.0	0	0.0	0.0
2	vr	12	2019-10-28	rat_2	533	10	00290.png	267.0	440.5	1	205	355	261.75	443.0	1	5.25	-2.5
3	vr	12	2019-10-28	rat_2	534	10	00290.png	256.5	445.5	1	205	355	261.75	443.0	1	-5.25	2.5
4	vr	12	2019-10-28	rat_2	549	10	00300.png	269.5	447.5	1	205	355	273.0	443.75	1	-3.5	3.75
5	vr	12	2019-10-28	rat_2	550	10	00300.png	276.5	440.0	1	205	355	273.0	443.75	1	3.5	-3.75
6	vr	12	2019-10-28	rat_2	563	10	00310.png	265.5	444.0	2	205	355	272.5	440.75	1	-7.0	3.25
7	vr	12	2019-10-28	rat_2	564	10	00310.png	279.5	437.5	2	205	355	272.5	440.75	1	7.0	-3.25
8	vr	12	2019-10-28	rat_2	577	10	00320.png	284.5	440.0	2	205	355	284.5	440.0	0	0.0	0.0
9	vr	12	2019-10-28	rat_2	594	10	00330.png	286.5	427.5	2	205	354	286.5	427.5	0	0.0	0.0
10	vr	12	2019-10-28	rat_2	612	10	00340.png	267.0	418.0	2	205	354	267.0	418.0	0	0.0	0.0
11	vr	12	2019-10-28	rat_2	630	10	00350.png	272.0	417.0	2	205	354	272.0	417.0	0	0.0	0.0
12	vr	12	2019-10-28	rat_2	648	10	00360.png	315.0	435.5	2	205	354	315.0	435.5	0	0.0	0.0
13	vr	12	2019-10-28	rat_2	665	10	00370.png	317.5	449.5	2	205	354	317.5	449.5	0	0.0	0.0
14	vr	12	2019-10-28	rat_2	682	10	00380.png	326.0	454.5	2	204	354	326.0	454.5	0	0.0	0.0
15	vr	12	2019-10-28	rat_2	699	10	00390.png	333.0	460.5	2	205	354	333.0	460.5	0	0.0	0.0
16	vr	12	2019-10-28	rat_2	715	10	00400.png	388.5	452.5	2	205	354	388.5	452.5	0	0.0	0.0
17	vr	12	2019-10-28	rat_2	732	10	00410.png	444.0	440.0	2	205	354	444.0	440.0	0	0.0	0.0
18	vr	12	2019-10-28	rat_2	733	10	00410.png	444.0	440.0	2	205	354	444.0	440.0	0	0.0	0.0
19	vr	12	2019-10-28	rat_2	750	10	00420.png	425.0	447.0	2	205	354	425.0	447.0	0	0.0	0.0
20	vr	12	2019-10-28	rat_2	765	10	00430.png	373.5	457.5	2	206	354	373.5	457.5	0	0.0	0.0
21	vr	12	2019-10-28	rat_2	783	10	00440.png	378.0	458.0	2	206	354	378.0	458.0	0	0.0	0.0
22	vr	12	2019-10-28	rat_2	801	10	00450.png	366.5	463.0	2	206	354	366.5	463.0	0	0.0	0.0
23	vr	12	2019-10-28	rat_2	819	10	00460.png	375.5	457.5	2	206	354	375.5	457.5	0	0.0	0.0
24	vr	12	2019-10-28	rat_2	837	10	00470.png	469.0	452.5	2	206	354	469.0	452.5	0	0.0	0.0
25	vr	12	2019-10-28	rat_2	854	10	00480.png	470.0	454.0	2	206	354	470.0	454.0	0	0.0	0.0
26	vr	12	2019-10-28	rat_2	872	10	00490.png	615.0	465.5	2	207	354	615.0	465.5	0	0.0	0.0
27	vr	12	2019-10-28	rat_2	889	10	00500.png	561.5	458.5	2	207	354	560.5	458.5	1	1.0	0.0
28	vr	12	2019-10-28	rat_2	890	10	00500.png	559.5	458.5	2	207	354	560.5	458.5	1	-1.0	0.0
29	vr	12	2019-10-28	rat_2	906	10	00510.png	550.0	458.0	2	207	354	550.0	458.0	0	0.0	0.0
30	vr	12	2019-10-28	rat_2	924	10	00520.png	538.5	457.5	2	207	354	538.5	457.5	0	0.0	0.0
31	vr	12	2019-10-28	rat_2	940	10	00530.png	550.5	458.5	1	207	354	550.5	458.5	0	0.0	0.0
32	vr	12	2019-10-28	rat_2	958	10	00540.png	633.0	475.0	2	207	354	633.0	475.0	0	0.0	0.0
33	vr	12	2019-10-28	rat_2	976	10	00550.png	613.5	468.5	2	207	354	613.5	468.5	0	0.0	0.0
34	vr	12	2019-10-28	rat_2	994	10	00560.png	555.0	464.5	2	207	354	555.0	464.5	0	0.0	0.0
35	vr	12	2019-10-28	rat_2	1011	10	00570.png	593.5	476.5	2	207	354	593.5	476.5	0	0.0	0.0
36	vr	12	2019-10-28	rat_2	1028	10	00580.png	530.0	482.5	1	207	354	530.0	482.5	0	0.0	0.0
37	vr	12	2019-10-28	rat_2	1047	10	00590.png	371.0	454.5	1	207	354	371.0	454.5	0	0.0	0.0
38	vr	12	2019-10-28	rat_2	1064	10	00600.png	372.0	439.5	1	207	354	372.0	439.5	0	0.0	0.0
39	vr	12	2019-10-28	rat_2	1082	10	00610.png	372.5	443.5	1	207	354	372.5	443.5	0	0.0	0.0
40	vr	12	2019-10-28	rat_2	1100	10	00620.png	342.0	452.0	1	206	354	342.0	452.0	0	0.0	0.0
41	vr	12	2019-10-28	rat_2	1117	10	00630.png	344.0	453.0	1	206	354	344.25	453.0	1	-0.25	0.0
42	vr	12	2019-10-28	rat_2	1118	10	00630.png	344.5	453.0	1	206	354	344.25	453.0	1	0.25	0.0
43	vr	12	2019-10-28	rat_2	1134	10	00640.png	319.0	440.5	1	206	354	319.25	440.5	1	-0.25	0.0
44	vr	12	2019-10-28	rat_2	1135	10	00640.png	319.5	440.5	1	206	354	319.25	440.5	1	0.25	0.0
45	vr	12	2019-10-28	rat_2	1153	10	00650.png	296.5	436.0	1	206	354	296.5	436.0	0	0.0	0.0
46	vr	12	2019-10-28	rat_2	1171	10	00660.png	293.0	443.0	1	206	354	293.0	443.0	0	0.0	0.0
47	vr	12	2019-10-28	rat_2	1188	10	00670.png	297.5	447.5	1	206	354	297.5	447.5	0	0.0	0.0
48	vr	12	2019-10-28	rat_2	1206	10	00680.png	310.5	433.5	1	206	354	310.5	433.5	0	0.0	0.0
49	vr	12	2019-10-28	rat_2	1224	10	00690.png	320.5	446.5	1	206	354	320.5	446.5	0	0.0	0.0
50	vr	12	2019-10-28	rat_2	1241	10	00700.png	310.0	457.5	1	206	354	310.0	457.5	0	0.0	0.0
51	vr	12	2019-10-28	rat_2	1259	10	00710.png	322.5	414.0	2	205	354	322.5	414.0	0	0.0	0.0
52	vr	12	2019-10-28	rat_2	1274	10	00720.png	329.0	408.0	2	205	354	329.0	408.0	0	0.0	0.0
53	vr	12	2019-10-28	rat_2	1292	10	00730.png	374.5	450.5	2	205	354	374.5	450.5	0	0.0	0.0
54	vr	12	2019-10-28	rat_2	1309	10	00740.png	373.0	456.0	2	205	354	373.0	456.0	0	0.0	0.0
55	vr	12	2019-10-28	rat_2	1310	10	00740.png	373.0	456.0	2	205	354	373.0	456.0	0	0.0	0.0
56	vr	12	2019-10-28	rat_2	1326	10	00750.png	359.0	455.5	2	205	354	359.0	455.5	0	0.0	0.0
57	vr	12	2019-10-28	rat_2	1327	10	00750.png	359.0	455.5	2	205	354	359.0	455.5	0	0.0	0.0
58	vr	12	2019-10-28	rat_2	1341	10	00760.png	355.0	458.0	2	205	354	355.0	458.0	0	0.0	0.0
59	vr	12	2019-10-28	rat_2	1359	10	00770.png	357.5	458.0	2	206	354	357.5	458.0	0	0.0	0.0
60	vr	12	2019-10-28	rat_2	1376	10	00780.png	340.0	419.5	2	205	354	340.0	419.5	0	0.0	0.0
61	vr	12	2019-10-28	rat_2	1394	10	00790.png	341.5	417.5	2	205	354	341.5	417.5	0	0.0	0.0
62	vr	12	2019-10-28	rat_2	1411	10	00800.png	391.0	400.5	2	205	354	391.0	400.5	0	0.0	0.0
63	vr	12	2019-10-28	rat_2	1428	10	00810.png	435.0	405.0	2	204	354	435.0	405.0	0	0.0	0.0
64	vr	12	2019-10-28	rat_2	1446	10	00820.png	420.5	444.0	2	205	354	420.5	444.0	0	0.0	0.0
65	vr	12	2019-10-28	rat_2	1463	10	00830.png	414.0	447.0	2	205	354	414.0	447.0	0	0.0	0.0
66	vr	12	2019-10-28	rat_2	1479	10	00840.png	432.0	448.0	2	205	354	431.75	448.0	1	0.25	0.0
67	vr	12	2019-10-28	rat_2	1480	10	00840.png	431.5	448.0	2	205	354	431.75	448.0	1	-0.25	0.0
68	vr	12	2019-10-28	rat_2	1493	10	00850.png	428.5	448.5	2	205	354	428.5	448.5	0	0.0	0.0
69	vr	12	2019-10-28	rat_2	1508	10	00860.png	422.0	448.5	2	206	354	421.75	448.5	1	0.25	0.0
70	vr	12	2019-10-28	rat_2	1509	10	00860.png	421.5	448.5	2	206	354	421.75	448.5	1	-0.25	0.0
71	vr	12	2019-10-28	rat_2	1526	10	00870.png	412.5	448.5	2	206	354	412.5	448.5	0	0.0	0.0
72	vr	12	2019-10-28	rat_2	1544	10	00880.png	405.0	448.0	2	207	354	405.0	448.0	0	0.0	0.0
73	vr	12	2019-10-28	rat_2	1562	10	00890.png	600.5	456.5	2	208	354	600.5	456.5	0	0.0	0.0
74	vr	12	2019-10-28	rat_2	1580	10	00900.png	651.5	460.5	2	208	354	651.5	460.5	0	0.0	0.0
75	vr	12	2019-10-28	rat_2	1596	10	00910.png	650.5	465.0	2	208	354	650.5	465.0	0	0.0	0.0
76	vr	12	2019-10-28	rat_2	1614	10	00920.png	647.0	463.0	2	208	354	647.0	463.0	0	0.0	0.0
77	vr	12	2019-10-28	rat_2	1631	10	00930.png	649.5	463.5	2	208	354	649.5	463.5	0	0.0	0.0
78	vr	12	2019-10-28	rat_2	1648	10	00940.png	658.0	466.0	3	208	354	658.0	465.75	1	0.0	0.25
79	vr	12	2019-10-28	rat_2	1649	10	00940.png	658.0	465.5	3	208	354	658.0	465.75	1	0.0	-0.25
80	vr	12	2019-10-28	rat_2	1666	10	00950.png	657.5	466.0	2	208	354	658.25	466.0	1	-0.75	0.0
81	vr	12	2019-10-28	rat_2	1667	10	00950.png	659.0	466.0	2	208	354	658.25	466.0	1	0.75	0.0
82	vr	12	2019-10-28	rat_2	1682	10	00960.png	669.5	466.5	2	208	354	669.5	466.5	0	0.0	0.0
83	vr	12	2019-10-28	rat_2	1700	10	00970.png	376.5	443.5	2	208	354	376.5	443.5	0	0.0	0.0
84	vr	12	2019-10-28	rat_2	1717	10	00980.png	379.0	445.5	2	208	354	379.0	445.5	0	0.0	0.0
85	vr	12	2019-10-28	rat_2	1735	10	00990.png	369.0	449.0	3	207	354	369.0	449.0	0	0.0	0.0
86	vr	12	2019-10-28	rat_2	1753	10	01000.png	378.0	443.0	3	205	354	378.0	443.0	0	0.0	0.0
