	setting_id	subject_id	date	trial_id	sample_id	frame_rate	frame_id	fix_pos_x_old	fix_pos_y_old	cam_angle_x	cam_angle_y	cam_angle_z	fix_pos_x	fix_pos_y	fix_pos_avrgd	fix_pos_diff_x	fix_pos_diff_y
0	vr	12	2019-10-28	bac_2	475	10	00260.png	380.5	452.5	359	210	355	380.5	452.5	0	0.0	0.0
1	vr	12	2019-10-28	bac_2	493	10	00270.png	379.5	456.0	359	210	355	379.5	456.0	0	0.0	0.0
2	vr	12	2019-10-28	bac_2	511	10	00280.png	383.5	458.5	359	210	355	383.5	458.5	0	0.0	0.0
3	vr	12	2019-10-28	bac_2	529	10	00290.png	384.5	460.0	359	209	355	384.5	460.0	0	0.0	0.0
4	vr	12	2019-10-28	bac_2	546	10	00300.png	398.0	457.5	360	207	356	398.0	457.5	0	0.0	0.0
5	vr	12	2019-10-28	bac_2	564	10	00310.png	404.5	455.5	360	206	356	404.5	455.5	0	0.0	0.0
6	vr	12	2019-10-28	bac_2	581	10	00320.png	418.5	452.0	360	203	356	418.5	452.0	0	0.0	0.0
7	vr	12	2019-10-28	bac_2	598	10	00330.png	424.5	446.0	0	200	356	424.5	446.0	0	0.0	0.0
8	vr	12	2019-10-28	bac_2	615	10	00340.png	442.5	447.0	360	198	356	442.75	447.0	1	-0.25	0.0
9	vr	12	2019-10-28	bac_2	616	10	00340.png	443.0	447.0	360	198	356	442.75	447.0	1	0.25	0.0
10	vr	12	2019-10-28	bac_2	634	10	00350.png	454.5	448.0	359	195	356	454.5	448.0	0	0.0	0.0
11	vr	12	2019-10-28	bac_2	652	10	00360.png	358.0	430.5	358	192	354	358.0	430.5	0	0.0	0.0
12	vr	12	2019-10-28	bac_2	669	10	00370.png	333.5	438.5	357	188	354	333.5	438.5	0	0.0	0.0
13	vr	12	2019-10-28	bac_2	687	10	00380.png	350.0	433.5	356	186	354	350.0	433.5	0	0.0	0.0
14	vr	12	2019-10-28	bac_2	705	10	00390.png	280.5	376.0	354	180	354	280.5	376.0	0	0.0	0.0
15	vr	12	2019-10-28	bac_2	723	10	00400.png	282.5	352.0	352	177	353	282.5	352.0	0	0.0	0.0
16	vr	12	2019-10-28	bac_2	739	10	00410.png	292.5	357.5	351	175	353	292.5	357.5	0	0.0	0.0
17	vr	12	2019-10-28	bac_2	756	10	00420.png	298.5	362.5	350	173	353	298.5	362.5	0	0.0	0.0
18	vr	12	2019-10-28	bac_2	773	10	00430.png	0.0	840.0	350	172	352	0.0	840.0	0	0.0	0.0
19	vr	12	2019-10-28	bac_2	790	10	00440.png	214.5	504.0	351	170	353	214.5	504.0	0	0.0	0.0
20	vr	12	2019-10-28	bac_2	791	10	00440.png	214.5	504.0	352	170	353	214.5	504.0	0	0.0	0.0
21	vr	12	2019-10-28	bac_2	807	10	00450.png	228.0	458.5	351	169	353	228.0	458.5	0	0.0	0.0
22	vr	12	2019-10-28	bac_2	824	10	00460.png	233.5	462.5	350	169	353	233.5	462.5	0	0.0	0.0
23	vr	12	2019-10-28	bac_2	841	10	00470.png	335.5	348.5	349	169	353	335.5	348.5	0	0.0	0.0
24	vr	12	2019-10-28	bac_2	858	10	00480.png	330.0	359.0	347	170	354	330.0	359.0	0	0.0	0.0
25	vr	12	2019-10-28	bac_2	876	10	00490.png	191.0	391.5	348	168	354	191.0	391.5	0	0.0	0.0
26	vr	12	2019-10-28	bac_2	894	10	00500.png	84.0	516.0	350	166	354	84.0	516.0	0	0.0	0.0
27	vr	12	2019-10-28	bac_2	912	10	00510.png	45.0	511.0	353	160	353	45.0	511.0	0	0.0	0.0
28	vr	12	2019-10-28	bac_2	930	10	00520.png	79.5	493.5	354	151	354	79.5	493.5	0	0.0	0.0
29	vr	12	2019-10-28	bac_2	946	10	00530.png	153.0	476.0	356	144	353	153.0	476.0	0	0.0	0.0
30	vr	12	2019-10-28	bac_2	964	10	00540.png	126.5	463.0	357	140	353	126.5	463.0	0	0.0	0.0
31	vr	12	2019-10-28	bac_2	981	10	00550.png	115.0	470.5	357	138	354	115.0	470.5	0	0.0	0.0
32	vr	12	2019-10-28	bac_2	999	10	00560.png	126.0	469.5	357	137	353	126.0	469.5	0	0.0	0.0
33	vr	12	2019-10-28	bac_2	1017	10	00570.png	128.0	469.0	358	137	353	128.0	469.0	0	0.0	0.0
34	vr	12	2019-10-28	bac_2	1035	10	00580.png	171.5	471.5	358	136	352	171.5	471.5	0	0.0	0.0
35	vr	12	2019-10-28	bac_2	1053	10	00590.png	161.0	471.5	358	136	352	161.0	471.5	0	0.0	0.0
36	vr	12	2019-10-28	bac_2	1071	10	00600.png	137.0	441.5	358	136	352	137.0	441.5	0	0.0	0.0
37	vr	12	2019-10-28	bac_2	1088	10	00610.png	151.5	433.0	357	137	351	151.5	433.25	1	0.0	-0.25
38	vr	12	2019-10-28	bac_2	1089	10	00610.png	151.5	433.5	357	137	351	151.5	433.25	1	0.0	0.25
39	vr	12	2019-10-28	bac_2	1105	10	00620.png	88.5	433.0	357	137	351	88.5	433.0	0	0.0	0.0
40	vr	12	2019-10-28	bac_2	1122	10	00630.png	7.0	515.0	357	133	350	7.0	515.0	0	0.0	0.0
41	vr	12	2019-10-28	bac_2	1138	10	00640.png	20.5	518.5	358	128	350	20.5	518.5	0	0.0	0.0
42	vr	12	2019-10-28	bac_2	1155	10	00650.png	95.0	502.0	359	125	350	95.0	502.0	0	0.0	0.0
43	vr	12	2019-10-28	bac_2	1173	10	00660.png	369.0	347.5	358	128	352	369.0	347.5	0	0.0	0.0
44	vr	12	2019-10-28	bac_2	1191	10	00670.png	387.5	388.0	355	133	353	387.5	388.0	0	0.0	0.0
45	vr	12	2019-10-28	bac_2	1208	10	00680.png	426.0	356.5	354	138	353	422.75	356.25	1	3.25	0.25
46	vr	12	2019-10-28	bac_2	1209	10	00680.png	419.5	356.0	354	139	352	422.75	356.25	1	-3.25	-0.25
47	vr	12	2019-10-28	bac_2	1222	10	00690.png	230.5	449.5	353	148	352	224.5	451.0	1	6.0	-1.5
48	vr	12	2019-10-28	bac_2	1223	10	00690.png	218.5	452.5	352	148	352	224.5	451.0	1	-6.0	1.5
49	vr	12	2019-10-28	bac_2	1239	10	00700.png	265.0	382.0	352	149	352	265.0	382.0	0	0.0	0.0
50	vr	12	2019-10-28	bac_2	1257	10	00710.png	229.0	392.0	351	151	351	229.0	392.0	0	0.0	0.0
51	vr	12	2019-10-28	bac_2	1274	10	00720.png	211.0	395.0	350	151	352	211.0	395.0	0	0.0	0.0
52	vr	12	2019-10-28	bac_2	1292	10	00730.png	190.5	402.5	351	154	351	190.5	402.5	0	0.0	0.0
53	vr	12	2019-10-28	bac_2	1309	10	00740.png	178.0	403.0	350	155	351	178.0	403.0	0	0.0	0.0
54	vr	12	2019-10-28	bac_2	1326	10	00750.png	267.0	386.5	350	158	351	267.0	386.5	0	0.0	0.0
55	vr	12	2019-10-28	bac_2	1344	10	00760.png	646.5	597.0	351	164	351	646.5	597.0	0	0.0	0.0
56	vr	12	2019-10-28	bac_2	1362	10	00770.png	541.5	450.5	353	170	351	541.5	450.5	0	0.0	0.0
57	vr	12	2019-10-28	bac_2	1379	10	00780.png	505.0	472.0	355	174	351	505.0	472.0	0	0.0	0.0
58	vr	12	2019-10-28	bac_2	1397	10	00790.png	581.0	483.0	357	179	352	581.0	483.0	0	0.0	0.0
59	vr	12	2019-10-28	bac_2	1415	10	00800.png	505.5	474.0	1	185	352	505.5	474.0	0	0.0	0.0
60	vr	12	2019-10-28	bac_2	1432	10	00810.png	509.5	467.5	4	190	353	509.5	467.5	0	0.0	0.0
61	vr	12	2019-10-28	bac_2	1450	10	00820.png	507.5	425.5	5	196	353	507.5	425.5	0	0.0	0.0
62	vr	12	2019-10-28	bac_2	1468	10	00830.png	466.5	414.5	6	201	353	466.5	414.5	0	0.0	0.0
63	vr	12	2019-10-28	bac_2	1486	10	00840.png	445.0	412.5	6	203	353	445.0	412.5	0	0.0	0.0
64	vr	12	2019-10-28	bac_2	1504	10	00850.png	460.5	403.0	6	204	353	460.5	403.0	0	0.0	0.0
65	vr	12	2019-10-28	bac_2	1521	10	00860.png	447.5	395.0	6	206	353	447.0	395.5	1	0.5	-0.5
66	vr	12	2019-10-28	bac_2	1522	10	00860.png	446.5	396.0	6	207	354	447.0	395.5	1	-0.5	0.5
67	vr	12	2019-10-28	bac_2	1534	10	00870.png	443.5	396.5	6	207	354	443.5	396.5	0	0.0	0.0
68	vr	12	2019-10-28	bac_2	1551	10	00880.png	456.0	405.0	6	207	354	456.25	405.0	1	-0.25	0.0
69	vr	12	2019-10-28	bac_2	1552	10	00880.png	456.5	405.0	6	207	354	456.25	405.0	1	0.25	0.0
70	vr	12	2019-10-28	bac_2	1567	10	00890.png	457.5	406.5	6	208	355	457.5	406.5	0	0.0	0.0
71	vr	12	2019-10-28	bac_2	1585	10	00900.png	429.5	346.0	4	210	355	429.5	346.0	0	0.0	0.0
72	vr	12	2019-10-28	bac_2	1603	10	00910.png	426.5	352.5	4	210	356	426.5	352.5	0	0.0	0.0
73	vr	12	2019-10-28	bac_2	1620	10	00920.png	405.0	409.5	4	209	356	405.0	409.5	0	0.0	0.0
74	vr	12	2019-10-28	bac_2	1653	10	00940.png	388.5	346.5	3	208	356	389.0	348.75	1	-0.5	-2.25
75	vr	12	2019-10-28	bac_2	1654	10	00940.png	389.5	351.0	3	208	356	389.0	348.75	1	0.5	2.25
76	vr	12	2019-10-28	bac_2	1671	10	00950.png	370.5	390.0	3	208	356	370.5	390.0	0	0.0	0.0
77	vr	12	2019-10-28	bac_2	1689	10	00960.png	342.5	387.0	4	208	356	342.5	387.0	0	0.0	0.0
78	vr	12	2019-10-28	bac_2	1706	10	00970.png	351.5	384.0	3	207	356	351.5	384.0	0	0.0	0.0
79	vr	12	2019-10-28	bac_2	1724	10	00980.png	364.5	386.5	3	207	356	364.5	386.5	0	0.0	0.0
80	vr	12	2019-10-28	bac_2	1741	10	00990.png	341.0	423.5	3	206	356	341.0	423.75	1	0.0	-0.25
81	vr	12	2019-10-28	bac_2	1742	10	00990.png	341.0	424.0	3	206	356	341.0	423.75	1	0.0	0.25
82	vr	12	2019-10-28	bac_2	1760	10	01000.png	324.5	417.5	3	206	356	324.5	417.5	0	0.0	0.0
