	setting_id	subject_id	date	trial_id	sample_id	frame_rate	frame_id	fix_pos_x_old	fix_pos_y_old	cam_angle_x	cam_angle_y	cam_angle_z	fix_pos_x	fix_pos_y	fix_pos_avrgd	fix_pos_diff_x	fix_pos_diff_y
0	vr	12	2019-10-28	gas_1	473	10	00260.png	417.5	416.0	1	199	352	417.5	416.0	0	0.0	0.0
1	vr	12	2019-10-28	gas_1	490	10	00270.png	353.5	431.5	1	199	352	353.5	431.5	0	0.0	0.0
2	vr	12	2019-10-28	gas_1	507	10	00280.png	358.5	436.5	1	199	352	358.5	436.5	0	0.0	0.0
3	vr	12	2019-10-28	gas_1	524	10	00290.png	341.5	435.0	1	199	352	341.5	435.25	1	0.0	-0.25
4	vr	12	2019-10-28	gas_1	525	10	00290.png	341.5	435.5	1	199	352	341.5	435.25	1	0.0	0.25
5	vr	12	2019-10-28	gas_1	539	10	00300.png	283.5	424.0	1	198	352	283.5	424.0	0	0.0	0.0
6	vr	12	2019-10-28	gas_1	557	10	00310.png	160.5	454.0	1	198	352	160.5	454.0	0	0.0	0.0
7	vr	12	2019-10-28	gas_1	575	10	00320.png	187.0	479.0	1	197	352	187.0	479.0	0	0.0	0.0
8	vr	12	2019-10-28	gas_1	593	10	00330.png	286.0	452.5	1	196	352	286.0	452.5	0	0.0	0.0
9	vr	12	2019-10-28	gas_1	611	10	00340.png	305.5	447.0	1	195	352	305.5	447.0	0	0.0	0.0
10	vr	12	2019-10-28	gas_1	626	10	00350.png	288.5	425.5	1	194	352	288.5	425.5	0	0.0	0.0
11	vr	12	2019-10-28	gas_1	644	10	00360.png	298.5	412.0	1	193	352	298.5	412.0	0	0.0	0.0
12	vr	12	2019-10-28	gas_1	662	10	00370.png	299.5	410.5	1	193	352	299.5	410.5	0	0.0	0.0
13	vr	12	2019-10-28	gas_1	680	10	00380.png	310.5	404.0	1	192	352	310.5	404.0	0	0.0	0.0
14	vr	12	2019-10-28	gas_1	695	10	00390.png	309.0	411.0	1	191	352	309.0	411.0	0	0.0	0.0
15	vr	12	2019-10-28	gas_1	712	10	00400.png	310.5	407.5	1	189	352	310.5	407.5	0	0.0	0.0
16	vr	12	2019-10-28	gas_1	730	10	00410.png	322.0	399.5	1	188	352	322.0	399.5	0	0.0	0.0
17	vr	12	2019-10-28	gas_1	747	10	00420.png	203.5	432.5	1	184	352	203.5	432.5	0	0.0	0.0
18	vr	12	2019-10-28	gas_1	765	10	00430.png	230.0	402.5	1	178	352	230.0	402.5	0	0.0	0.0
19	vr	12	2019-10-28	gas_1	782	10	00440.png	164.0	477.0	0	175	352	166.0	476.75	1	-2.0	0.25
20	vr	12	2019-10-28	gas_1	783	10	00440.png	168.0	476.5	0	175	352	166.0	476.75	1	2.0	-0.25
21	vr	12	2019-10-28	gas_1	799	10	00450.png	134.5	488.0	1	172	352	118.5	500.5	1	16.0	-12.5
22	vr	12	2019-10-28	gas_1	800	10	00450.png	102.5	513.0	1	172	352	118.5	500.5	1	-16.0	12.5
23	vr	12	2019-10-28	gas_1	817	10	00460.png	112.0	527.0	1	169	352	112.0	527.0	0	0.0	0.0
24	vr	12	2019-10-28	gas_1	835	10	00470.png	166.5	439.0	1	168	352	166.5	439.0	0	0.0	0.0
25	vr	12	2019-10-28	gas_1	853	10	00480.png	197.5	432.0	0	168	352	197.5	432.0	0	0.0	0.0
26	vr	12	2019-10-28	gas_1	870	10	00490.png	167.0	431.5	1	168	352	167.0	431.5	0	0.0	0.0
27	vr	12	2019-10-28	gas_1	887	10	00500.png	186.5	451.5	0	169	352	186.5	451.5	0	0.0	0.0
28	vr	12	2019-10-28	gas_1	903	10	00510.png	163.5	458.5	360	169	352	163.5	458.5	0	0.0	0.0
29	vr	12	2019-10-28	gas_1	921	10	00520.png	189.5	475.0	360	169	352	189.5	475.0	0	0.0	0.0
30	vr	12	2019-10-28	gas_1	939	10	00530.png	274.0	458.5	360	170	353	274.0	458.5	0	0.0	0.0
31	vr	12	2019-10-28	gas_1	955	10	00540.png	339.0	449.0	359	170	353	339.0	449.0	0	0.0	0.0
32	vr	12	2019-10-28	gas_1	956	10	00540.png	339.0	449.0	359	170	353	339.0	449.0	0	0.0	0.0
33	vr	12	2019-10-28	gas_1	973	10	00550.png	286.5	378.5	359	170	353	288.75	359.25	1	-2.25	19.25
34	vr	12	2019-10-28	gas_1	974	10	00550.png	291.0	340.0	359	170	353	288.75	359.25	1	2.25	-19.25
35	vr	12	2019-10-28	gas_1	990	10	00560.png	313.5	330.5	358	170	352	313.5	330.5	0	0.0	0.0
36	vr	12	2019-10-28	gas_1	1008	10	00570.png	308.5	342.0	358	171	352	308.5	342.0	0	0.0	0.0
37	vr	12	2019-10-28	gas_1	1025	10	00580.png	362.5	352.0	358	171	352	362.5	352.0	0	0.0	0.0
38	vr	12	2019-10-28	gas_1	1042	10	00590.png	356.0	349.0	358	172	352	356.0	349.25	1	0.0	-0.25
39	vr	12	2019-10-28	gas_1	1043	10	00590.png	356.0	349.5	358	172	352	356.0	349.25	1	0.0	0.25
40	vr	12	2019-10-28	gas_1	1058	10	00600.png	430.0	360.5	358	172	352	430.0	360.5	0	0.0	0.0
41	vr	12	2019-10-28	gas_1	1076	10	00610.png	449.0	356.0	357	174	352	449.0	356.0	0	0.0	0.0
42	vr	12	2019-10-28	gas_1	1094	10	00620.png	469.5	437.0	357	177	353	469.5	437.0	0	0.0	0.0
43	vr	12	2019-10-28	gas_1	1111	10	00630.png	443.5	435.0	357	180	354	443.5	435.0	0	0.0	0.0
44	vr	12	2019-10-28	gas_1	1129	10	00640.png	374.5	465.0	357	182	354	374.5	465.0	0	0.0	0.0
45	vr	12	2019-10-28	gas_1	1146	10	00650.png	407.0	455.0	357	184	354	407.0	455.0	0	0.0	0.0
46	vr	12	2019-10-28	gas_1	1163	10	00660.png	380.0	461.0	357	186	354	380.0	461.0	0	0.0	0.0
47	vr	12	2019-10-28	gas_1	1181	10	00670.png	436.0	440.0	358	188	354	436.0	440.0	0	0.0	0.0
48	vr	12	2019-10-28	gas_1	1197	10	00680.png	434.5	440.0	358	189	354	434.5	440.0	0	0.0	0.0
49	vr	12	2019-10-28	gas_1	1214	10	00690.png	417.0	440.5	358	190	354	416.75	440.25	1	0.25	0.25
50	vr	12	2019-10-28	gas_1	1215	10	00690.png	416.5	440.0	358	190	354	416.75	440.25	1	-0.25	-0.25
51	vr	12	2019-10-28	gas_1	1232	10	00700.png	402.5	438.0	359	192	354	402.5	438.0	0	0.0	0.0
52	vr	12	2019-10-28	gas_1	1249	10	00710.png	385.5	441.0	358	195	354	385.5	441.0	0	0.0	0.0
53	vr	12	2019-10-28	gas_1	1267	10	00720.png	479.5	460.5	359	199	354	479.5	460.5	0	0.0	0.0
54	vr	12	2019-10-28	gas_1	1284	10	00730.png	660.5	469.0	359	202	354	659.75	468.75	1	0.75	0.25
55	vr	12	2019-10-28	gas_1	1285	10	00730.png	659.0	468.5	359	203	354	659.75	468.75	1	-0.75	-0.25
56	vr	12	2019-10-28	gas_1	1299	10	00740.png	616.0	466.0	359	208	355	616.0	466.0	0	0.0	0.0
57	vr	12	2019-10-28	gas_1	1317	10	00750.png	616.0	462.0	360	214	356	616.0	462.0	0	0.0	0.0
58	vr	12	2019-10-28	gas_1	1335	10	00760.png	462.0	381.0	358	217	357	462.0	381.0	0	0.0	0.0
59	vr	12	2019-10-28	gas_1	1352	10	00770.png	434.5	438.5	358	219	356	434.5	438.5	0	0.0	0.0
60	vr	12	2019-10-28	gas_1	1369	10	00780.png	382.5	385.0	358	220	356	382.5	385.0	0	0.0	0.0
61	vr	12	2019-10-28	gas_1	1386	10	00790.png	375.0	387.0	358	219	356	375.0	387.0	0	0.0	0.0
62	vr	12	2019-10-28	gas_1	1404	10	00800.png	476.5	482.5	358	218	356	476.5	482.5	0	0.0	0.0
63	vr	12	2019-10-28	gas_1	1421	10	00810.png	264.0	480.5	358	217	355	260.75	483.25	1	3.25	-2.75
64	vr	12	2019-10-28	gas_1	1422	10	00810.png	257.5	486.0	358	217	355	260.75	483.25	1	-3.25	2.75
65	vr	12	2019-10-28	gas_1	1435	10	00820.png	289.5	472.0	358	214	354	289.5	472.0	0	0.0	0.0
66	vr	12	2019-10-28	gas_1	1452	10	00830.png	306.0	468.0	358	212	354	306.0	468.0	0	0.0	0.0
67	vr	12	2019-10-28	gas_1	1470	10	00840.png	455.0	512.5	358	208	354	455.0	512.5	0	0.0	0.0
68	vr	12	2019-10-28	gas_1	1486	10	00850.png	334.0	450.0	358	205	354	334.0	450.0	0	0.0	0.0
69	vr	12	2019-10-28	gas_1	1504	10	00860.png	340.0	446.5	358	203	354	340.0	446.5	0	0.0	0.0
70	vr	12	2019-10-28	gas_1	1521	10	00870.png	316.0	437.0	358	201	354	316.0	437.0	0	0.0	0.0
71	vr	12	2019-10-28	gas_1	1538	10	00880.png	311.5	445.0	358	197	353	311.5	445.0	0	0.0	0.0
72	vr	12	2019-10-28	gas_1	1556	10	00890.png	320.0	438.5	357	197	354	320.0	438.5	0	0.0	0.0
73	vr	12	2019-10-28	gas_1	1573	10	00900.png	319.0	454.5	356	196	353	319.0	454.5	0	0.0	0.0
74	vr	12	2019-10-28	gas_1	1591	10	00910.png	317.0	462.5	356	196	353	317.0	462.5	0	0.0	0.0
75	vr	12	2019-10-28	gas_1	1609	10	00920.png	316.5	445.0	356	196	353	316.5	445.0	0	0.0	0.0
76	vr	12	2019-10-28	gas_1	1621	10	00930.png	309.5	461.0	356	197	353	309.5	461.0	0	0.0	0.0
77	vr	12	2019-10-28	gas_1	1636	10	00940.png	350.5	441.5	356	197	353	350.5	441.5	0	0.0	0.0
78	vr	12	2019-10-28	gas_1	1654	10	00950.png	358.0	436.0	357	196	353	358.0	436.0	0	0.0	0.0
79	vr	12	2019-10-28	gas_1	1672	10	00960.png	312.0	457.5	357	197	353	312.0	457.5	0	0.0	0.0
80	vr	12	2019-10-28	gas_1	1690	10	00970.png	308.0	457.0	356	197	353	308.0	457.0	0	0.0	0.0
81	vr	12	2019-10-28	gas_1	1706	10	00980.png	310.0	436.5	357	197	353	310.0	436.5	0	0.0	0.0
82	vr	12	2019-10-28	gas_1	1721	10	00990.png	315.0	423.0	356	196	353	315.0	423.0	0	0.0	0.0
83	vr	12	2019-10-28	gas_1	1738	10	01000.png	313.0	430.5	356	197	354	313.0	430.5	0	0.0	0.0
