subject_id	setting_id	trial_id	first_frame_n	first_frame_time	first_frame_id
14	rl	bac	557	2211528.0	00557.png
14	rl	gas	488	1496673.0	00488.png
14	rl	loc	560	1035960.0	00560.png
14	rl	rat	582	1936445.0	00582.png
14	rl	reg	506	2818789.0	00506.png
14	rl	valpre	5	86383.0	00005.png
14	rl	valpost	5	4077802	00005.png
