	setting_id	subject_id	date	trial_id	sample_id	frame_rate	frame_id	fix_pos_x_old	fix_pos_y_old	cam_angle_x	cam_angle_y	cam_angle_z	fix_pos_x	fix_pos_y	fix_pos_avrgd	fix_pos_diff_x	fix_pos_diff_y
0	vr	21	2019-10-30	rat_2	477	10	00260.png	431.5	404.5	2	199	358	431.5	404.5	0	0.0	0.0
1	vr	21	2019-10-30	rat_2	494	10	00270.png	429.0	403.5	2	200	358	429.0	403.5	0	0.0	0.0
2	vr	21	2019-10-30	rat_2	512	10	00280.png	368.5	426.0	2	200	358	368.5	426.0	0	0.0	0.0
3	vr	21	2019-10-30	rat_2	530	10	00290.png	321.0	415.5	2	199	358	321.0	415.5	0	0.0	0.0
4	vr	21	2019-10-30	rat_2	546	10	00300.png	317.0	385.0	2	200	358	317.0	385.0	0	0.0	0.0
5	vr	21	2019-10-30	rat_2	563	10	00310.png	311.5	383.5	2	200	358	311.5	383.5	0	0.0	0.0
6	vr	21	2019-10-30	rat_2	581	10	00320.png	368.5	380.0	2	200	358	368.5	380.0	0	0.0	0.0
7	vr	21	2019-10-30	rat_2	599	10	00330.png	415.0	389.0	2	200	358	415.0	389.0	0	0.0	0.0
8	vr	21	2019-10-30	rat_2	617	10	00340.png	411.0	388.5	2	201	358	411.0	388.5	0	0.0	0.0
9	vr	21	2019-10-30	rat_2	634	10	00350.png	400.5	424.5	2	201	358	400.5	424.5	0	0.0	0.0
10	vr	21	2019-10-30	rat_2	652	10	00360.png	394.5	425.5	2	202	358	394.25	425.25	1	0.25	0.25
11	vr	21	2019-10-30	rat_2	653	10	00360.png	394.0	425.0	2	202	358	394.25	425.25	1	-0.25	-0.25
12	vr	21	2019-10-30	rat_2	669	10	00370.png	385.0	425.0	2	205	358	385.0	425.0	0	0.0	0.0
13	vr	21	2019-10-30	rat_2	686	10	00380.png	333.0	429.0	2	211	358	333.0	429.0	0	0.0	0.0
14	vr	21	2019-10-30	rat_2	703	10	00390.png	308.5	431.5	2	215	358	308.5	431.5	0	0.0	0.0
15	vr	21	2019-10-30	rat_2	720	10	00400.png	294.0	437.5	2	218	357	294.0	437.5	0	0.0	0.0
16	vr	21	2019-10-30	rat_2	737	10	00410.png	476.5	438.0	2	221	357	476.75	438.5	1	-0.25	-0.5
17	vr	21	2019-10-30	rat_2	738	10	00410.png	477.0	439.0	2	221	357	476.75	438.5	1	0.25	0.5
18	vr	21	2019-10-30	rat_2	755	10	00420.png	450.5	439.0	2	225	357	450.5	439.0	0	0.0	0.0
19	vr	21	2019-10-30	rat_2	771	10	00430.png	474.0	448.5	2	229	357	472.75	448.0	1	1.25	0.5
20	vr	21	2019-10-30	rat_2	772	10	00430.png	471.5	447.5	2	229	357	472.75	448.0	1	-1.25	-0.5
21	vr	21	2019-10-30	rat_2	789	10	00440.png	457.0	448.0	2	230	357	457.0	448.0	0	0.0	0.0
22	vr	21	2019-10-30	rat_2	807	10	00450.png	440.5	444.5	2	231	358	440.5	444.5	0	0.0	0.0
23	vr	21	2019-10-30	rat_2	824	10	00460.png	428.5	443.5	2	231	358	428.5	443.5	0	0.0	0.0
24	vr	21	2019-10-30	rat_2	840	10	00470.png	422.5	441.5	3	231	358	422.5	441.5	0	0.0	0.0
25	vr	21	2019-10-30	rat_2	858	10	00480.png	479.0	470.0	3	231	358	479.0	470.0	0	0.0	0.0
26	vr	21	2019-10-30	rat_2	875	10	00490.png	468.5	440.0	3	234	358	468.5	440.0	0	0.0	0.0
27	vr	21	2019-10-30	rat_2	892	10	00500.png	498.5	410.5	2	237	359	453.25	420.0	1	45.25	-9.5
28	vr	21	2019-10-30	rat_2	893	10	00500.png	408.0	429.5	2	237	359	453.25	420.0	1	-45.25	9.5
29	vr	21	2019-10-30	rat_2	907	10	00510.png	467.0	412.0	1	241	359	467.0	412.0	0	0.0	0.0
30	vr	21	2019-10-30	rat_2	925	10	00520.png	558.0	446.5	1	246	359	558.0	446.5	0	0.0	0.0
31	vr	21	2019-10-30	rat_2	943	10	00530.png	578.0	494.0	1	254	358	578.0	494.0	0	0.0	0.0
32	vr	21	2019-10-30	rat_2	961	10	00540.png	520.0	474.5	1	263	358	520.0	474.5	0	0.0	0.0
33	vr	21	2019-10-30	rat_2	979	10	00550.png	538.5	471.0	1	267	358	538.5	471.0	0	0.0	0.0
34	vr	21	2019-10-30	rat_2	996	10	00560.png	526.0	472.5	1	268	358	526.0	472.5	0	0.0	0.0
35	vr	21	2019-10-30	rat_2	1013	10	00570.png	551.0	473.0	1	270	358	551.0	473.0	0	0.0	0.0
36	vr	21	2019-10-30	rat_2	1032	10	00580.png	532.0	472.5	1	274	358	532.0	472.5	0	0.0	0.0
37	vr	21	2019-10-30	rat_2	1049	10	00590.png	505.0	472.0	1	278	358	505.0	472.0	0	0.0	0.0
38	vr	21	2019-10-30	rat_2	1067	10	00600.png	455.5	448.5	1	280	358	455.5	448.5	0	0.0	0.0
39	vr	21	2019-10-30	rat_2	1084	10	00610.png	453.5	449.5	1	280	358	453.5	449.5	0	0.0	0.0
40	vr	21	2019-10-30	rat_2	1085	10	00610.png	453.5	449.5	1	280	358	453.5	449.5	0	0.0	0.0
41	vr	21	2019-10-30	rat_2	1101	10	00620.png	454.0	449.5	1	280	358	454.0	449.5	0	0.0	0.0
42	vr	21	2019-10-30	rat_2	1119	10	00630.png	492.0	474.0	1	281	358	492.0	474.0	0	0.0	0.0
43	vr	21	2019-10-30	rat_2	1137	10	00640.png	489.0	473.5	1	281	359	489.0	473.5	0	0.0	0.0
44	vr	21	2019-10-30	rat_2	1155	10	00650.png	504.5	479.0	2	281	359	504.5	479.0	0	0.0	0.0
45	vr	21	2019-10-30	rat_2	1173	10	00660.png	504.5	479.5	2	282	358	504.5	479.5	0	0.0	0.0
46	vr	21	2019-10-30	rat_2	1191	10	00670.png	482.0	455.5	1	282	358	482.0	455.5	0	0.0	0.0
47	vr	21	2019-10-30	rat_2	1208	10	00680.png	482.5	454.5	2	282	358	482.5	454.5	0	0.0	0.0
48	vr	21	2019-10-30	rat_2	1224	10	00690.png	434.0	449.0	2	282	358	434.0	449.0	0	0.0	0.0
49	vr	21	2019-10-30	rat_2	1241	10	00700.png	434.0	450.5	2	282	358	434.0	450.5	0	0.0	0.0
50	vr	21	2019-10-30	rat_2	1258	10	00710.png	437.5	447.5	2	281	358	434.5	447.75	1	3.0	-0.25
51	vr	21	2019-10-30	rat_2	1259	10	00710.png	431.5	448.0	2	281	358	434.5	447.75	1	-3.0	0.25
52	vr	21	2019-10-30	rat_2	1273	10	00720.png	341.5	475.0	2	280	358	341.5	475.0	0	0.0	0.0
53	vr	21	2019-10-30	rat_2	1291	10	00730.png	344.0	469.5	2	278	358	344.0	469.5	0	0.0	0.0
54	vr	21	2019-10-30	rat_2	1308	10	00740.png	301.5	485.0	2	278	358	301.5	485.0	0	0.0	0.0
55	vr	21	2019-10-30	rat_2	1325	10	00750.png	314.0	445.0	2	276	358	315.0	441.5	1	-1.0	3.5
56	vr	21	2019-10-30	rat_2	1326	10	00750.png	316.0	438.0	2	276	358	315.0	441.5	1	1.0	-3.5
57	vr	21	2019-10-30	rat_2	1340	10	00760.png	329.0	421.0	2	275	358	329.25	421.25	1	-0.25	-0.25
58	vr	21	2019-10-30	rat_2	1341	10	00760.png	329.5	421.5	2	275	358	329.25	421.25	1	0.25	0.25
59	vr	21	2019-10-30	rat_2	1358	10	00770.png	334.5	420.5	2	273	357	334.5	420.5	0	0.0	0.0
60	vr	21	2019-10-30	rat_2	1376	10	00780.png	316.0	445.0	2	269	357	316.0	445.0	0	0.0	0.0
61	vr	21	2019-10-30	rat_2	1394	10	00790.png	295.0	459.5	2	263	356	295.0	459.5	0	0.0	0.0
62	vr	21	2019-10-30	rat_2	1412	10	00800.png	308.5	449.0	2	257	356	308.5	449.0	0	0.0	0.0
63	vr	21	2019-10-30	rat_2	1430	10	00810.png	336.5	446.0	2	252	356	336.5	446.0	0	0.0	0.0
64	vr	21	2019-10-30	rat_2	1446	10	00820.png	351.0	445.0	1	247	356	351.0	445.0	0	0.0	0.0
65	vr	21	2019-10-30	rat_2	1464	10	00830.png	299.0	461.0	2	243	356	299.0	461.0	0	0.0	0.0
66	vr	21	2019-10-30	rat_2	1481	10	00840.png	319.0	439.5	2	239	356	319.25	439.75	1	-0.25	-0.25
67	vr	21	2019-10-30	rat_2	1482	10	00840.png	319.5	440.0	2	239	356	319.25	439.75	1	0.25	0.25
68	vr	21	2019-10-30	rat_2	1499	10	00850.png	414.5	425.5	2	237	356	414.5	425.5	0	0.0	0.0
69	vr	21	2019-10-30	rat_2	1516	10	00860.png	416.5	428.5	1	237	355	416.5	428.5	0	0.0	0.0
70	vr	21	2019-10-30	rat_2	1534	10	00870.png	454.0	450.5	1	237	355	454.0	450.5	0	0.0	0.0
71	vr	21	2019-10-30	rat_2	1552	10	00880.png	485.5	463.5	0	237	356	485.5	463.5	0	0.0	0.0
72	vr	21	2019-10-30	rat_2	1570	10	00890.png	509.5	470.0	0	237	356	509.5	470.0	0	0.0	0.0
73	vr	21	2019-10-30	rat_2	1587	10	00900.png	511.5	472.0	360	237	357	511.5	472.0	0	0.0	0.0
74	vr	21	2019-10-30	rat_2	1604	10	00910.png	528.5	461.0	360	237	357	488.25	463.5	1	40.25	-2.5
75	vr	21	2019-10-30	rat_2	1605	10	00910.png	448.0	466.0	360	237	357	488.25	463.5	1	-40.25	2.5
76	vr	21	2019-10-30	rat_2	1622	10	00920.png	526.0	464.5	359	237	357	526.0	464.5	0	0.0	0.0
77	vr	21	2019-10-30	rat_2	1640	10	00930.png	526.5	465.5	359	237	357	526.5	465.5	0	0.0	0.0
78	vr	21	2019-10-30	rat_2	1658	10	00940.png	427.5	452.5	359	236	357	427.5	452.5	0	0.0	0.0
79	vr	21	2019-10-30	rat_2	1676	10	00950.png	433.5	451.5	359	234	357	433.5	451.5	0	0.0	0.0
80	vr	21	2019-10-30	rat_2	1694	10	00960.png	436.5	452.5	359	233	357	436.5	452.5	0	0.0	0.0
81	vr	21	2019-10-30	rat_2	1712	10	00970.png	420.0	454.0	359	232	357	420.0	454.0	0	0.0	0.0
82	vr	21	2019-10-30	rat_2	1730	10	00980.png	426.5	452.5	359	231	357	426.5	452.5	0	0.0	0.0
83	vr	21	2019-10-30	rat_2	1748	10	00990.png	442.0	463.5	359	230	357	442.0	463.5	0	0.0	0.0
84	vr	21	2019-10-30	rat_2	1765	10	01000.png	517.0	461.5	359	230	357	517.0	461.5	0	0.0	0.0
