	subject_location	subject_id	date	daytime	setting_id	trial_id	sample_id	sample_n	sample_rate	sample_time_smi	frame_id	frame_n	frame_rate	frame_time_smi	fix_pos_x	fix_pos_y
0	13_rat	13	22-10-2019	16:19:37:219	rl	rat	1097	1097	60	1930370	00460.png	1.0	25	1930365.0	-9354	-2742
1	13_rat	13	22-10-2019	16:19:37:418	rl	rat	1109	1109	60	1930570	00465.png	6.0	25	1930565.0	941	-1774
2	13_rat	13	22-10-2019	16:19:37:617	rl	rat	1121	1121	60	1930769	00470.png	11.0	25	1930765.0	-2075	-31
3	13_rat	13	22-10-2019	16:19:37:816	rl	rat	1133	1133	60	1930968	00475.png	16.0	25	1930965.0	-514	499
4	13_rat	13	22-10-2019	16:19:38:016	rl	rat	1142	1142	60	1931167	00480.png	21.0	25	1931165.0	-948	2729
5	13_rat	13	22-10-2019	16:19:38:214	rl	rat	1153	1153	60	1931366	00485.png	26.0	25	1931365.0	1286	1133
6	13_rat	13	22-10-2019	16:19:38:414	rl	rat	1165	1165	60	1931565	00490.png	31.0	25	1931565.0	0	0
7	13_rat	13	22-10-2019	16:19:38:613	rl	rat	1177	1177	60	1931764	00495.png	36.0	25	1931765.0	-3031	-240
8	13_rat	13	22-10-2019	16:19:38:812	rl	rat	1189	1189	60	1931963	00500.png	41.0	25	1931965.0	0	0
9	13_rat	13	22-10-2019	16:19:39:011	rl	rat	1201	1201	60	1932163	00505.png	46.0	25	1932165.0	1879	-2077
10	13_rat	13	22-10-2019	16:19:39:210	rl	rat	1213	1213	60	1932362	00510.png	51.0	25	1932365.0	0	0
11	13_rat	13	22-10-2019	16:19:39:409	rl	rat	1225	1225	60	1932561	00515.png	56.0	25	1932565.0	-900	-1543
12	13_rat	13	22-10-2019	16:19:39:609	rl	rat	1237	1237	60	1932760	00520.png	61.0	25	1932765.0	-98	331
13	13_rat	13	22-10-2019	16:19:39:808	rl	rat	1249	1249	60	1932959	00525.png	66.0	25	1932965.0	1817	-1933
14	13_rat	13	22-10-2019	16:19:40:007	rl	rat	1261	1261	60	1933159	00530.png	71.0	25	1933165.0	0	0
15	13_rat	13	22-10-2019	16:19:40:206	rl	rat	1273	1273	60	1933357	00535.png	76.0	25	1933365.0	0	0
16	13_rat	13	22-10-2019	16:19:40:405	rl	rat	1285	1285	60	1933557	00540.png	81.0	25	1933565.0	0	0
17	13_rat	13	22-10-2019	16:19:40:621	rl	rat	1298	1298	60	1933773	00545.png	86.0	25	1933765.0	637	-1377
18	13_rat	13	22-10-2019	16:19:40:820	rl	rat	1310	1310	60	1933972	00550.png	91.0	25	1933965.0	0	0
19	13_rat	13	22-10-2019	16:19:41:019	rl	rat	1322	1322	60	1934170	00555.png	96.0	25	1934165.0	-2177	2487
20	13_rat	13	22-10-2019	16:19:41:218	rl	rat	1334	1334	60	1934370	00560.png	101.0	25	1934365.0	2381	1416
21	13_rat	13	22-10-2019	16:19:41:417	rl	rat	1346	1346	60	1934569	00565.png	106.0	25	1934565.0	0	0
22	13_rat	13	22-10-2019	16:19:41:617	rl	rat	1358	1358	60	1934768	00570.png	111.0	25	1934765.0	1985	1308
23	13_rat	13	22-10-2019	16:19:41:815	rl	rat	1369	1369	60	1934967	00575.png	116.0	25	1934965.0	887	1232
24	13_rat	13	22-10-2019	16:19:42:015	rl	rat	1381	1381	60	1935167	00580.png	121.0	25	1935165.0	884	944
25	13_rat	13	22-10-2019	16:19:42:214	rl	rat	1393	1393	60	1935365	00585.png	126.0	25	1935365.0	1761	1236
26	13_rat	13	22-10-2019	16:19:42:413	rl	rat	1405	1405	60	1935565	00590.png	131.0	25	1935565.0	0	0
27	13_rat	13	22-10-2019	16:19:42:612	rl	rat	1417	1417	60	1935764	00595.png	136.0	25	1935765.0	-1714	623
28	13_rat	13	22-10-2019	16:19:42:811	rl	rat	1429	1429	60	1935963	00600.png	141.0	25	1935965.0	0	0
29	13_rat	13	22-10-2019	16:19:43:010	rl	rat	1441	1441	60	1936162	00605.png	146.0	25	1936165.0	-204	137
30	13_rat	13	22-10-2019	16:19:43:210	rl	rat	1453	1453	60	1936361	00610.png	151.0	25	1936365.0	386	398
31	13_rat	13	22-10-2019	16:19:43:409	rl	rat	1465	1465	60	1936560	00615.png	156.0	25	1936565.0	364	375
32	13_rat	13	22-10-2019	16:19:43:608	rl	rat	1477	1477	60	1936759	00620.png	161.0	25	1936765.0	-1161	-72
33	13_rat	13	22-10-2019	16:19:43:807	rl	rat	1489	1489	60	1936959	00625.png	166.0	25	1936965.0	0	0
34	13_rat	13	22-10-2019	16:19:44:006	rl	rat	1501	1501	60	1937157	00630.png	171.0	25	1937165.0	0	0
35	13_rat	13	22-10-2019	16:19:44:205	rl	rat	1513	1513	60	1937357	00635.png	176.0	25	1937365.0	1662	63
36	13_rat	13	22-10-2019	16:19:44:421	rl	rat	1526	1526	60	1937573	00640.png	181.0	25	1937565.0	-1161	-72
37	13_rat	13	22-10-2019	16:19:44:620	rl	rat	1538	1538	60	1937772	00645.png	186.0	25	1937765.0	143	5796
38	13_rat	13	22-10-2019	16:19:44:820	rl	rat	1550	1550	60	1937971	00650.png	191.0	25	1937965.0	1180	339
39	13_rat	13	22-10-2019	16:19:45:018	rl	rat	1562	1562	60	1938170	00655.png	196.0	25	1938165.0	7	7016
40	13_rat	13	22-10-2019	16:19:45:218	rl	rat	1574	1574	60	1938369	00660.png	201.0	25	1938365.0	0	0
41	13_rat	13	22-10-2019	16:19:45:417	rl	rat	1586	1586	60	1938568	00665.png	206.0	25	1938565.0	0	0
42	13_rat	13	22-10-2019	16:19:45:616	rl	rat	1597	1597	60	1938767	00670.png	211.0	25	1938765.0	-4645	-2145
43	13_rat	13	22-10-2019	16:19:45:815	rl	rat	1607	1607	60	1938967	00675.png	216.0	25	1938965.0	0	0
44	13_rat	13	22-10-2019	16:19:46:014	rl	rat	1619	1619	60	1939166	00680.png	221.0	25	1939165.0	2713	880
45	13_rat	13	22-10-2019	16:19:46:213	rl	rat	1631	1631	60	1939365	00685.png	226.0	25	1939365.0	0	0
46	13_rat	13	22-10-2019	16:19:46:412	rl	rat	1643	1643	60	1939564	00690.png	231.0	25	1939565.0	0	0
47	13_rat	13	22-10-2019	16:19:46:612	rl	rat	1655	1655	60	1939763	00695.png	236.0	25	1939765.0	2076	747
48	13_rat	13	22-10-2019	16:19:46:811	rl	rat	1667	1667	60	1939962	00700.png	241.0	25	1939965.0	401	-323
49	13_rat	13	22-10-2019	16:19:47:010	rl	rat	1679	1679	60	1940162	00705.png	246.0	25	1940165.0	0	0
50	13_rat	13	22-10-2019	16:19:47:209	rl	rat	1691	1691	60	1940361	00710.png	251.0	25	1940365.0	1347	146
51	13_rat	13	22-10-2019	16:19:47:408	rl	rat	1703	1703	60	1940560	00715.png	256.0	25	1940565.0	40222	18996
52	13_rat	13	22-10-2019	16:19:47:607	rl	rat	1715	1715	60	1940759	00720.png	261.0	25	1940765.0	0	0
53	13_rat	13	22-10-2019	16:19:47:806	rl	rat	1727	1727	60	1940958	00725.png	266.0	25	1940965.0	-86	-1052
54	13_rat	13	22-10-2019	16:19:48:005	rl	rat	1739	1739	60	1941157	00730.png	271.0	25	1941165.0	378	48
55	13_rat	13	22-10-2019	16:19:48:221	rl	rat	1752	1752	60	1941373	00735.png	276.0	25	1941365.0	302	237
56	13_rat	13	22-10-2019	16:19:48:421	rl	rat	1764	1764	60	1941572	00740.png	281.0	25	1941565.0	-171	112
57	13_rat	13	22-10-2019	16:19:48:620	rl	rat	1776	1776	60	1941771	00745.png	286.0	25	1941765.0	40	149
58	13_rat	13	22-10-2019	16:19:48:819	rl	rat	1788	1788	60	1941970	00750.png	291.0	25	1941965.0	-1527	-154
59	13_rat	13	22-10-2019	16:19:49:018	rl	rat	1800	1800	60	1942170	00755.png	296.0	25	1942165.0	0	0
60	13_rat	13	22-10-2019	16:19:49:217	rl	rat	1812	1812	60	1942369	00760.png	301.0	25	1942365.0	0	0
61	13_rat	13	22-10-2019	16:19:49:417	rl	rat	1824	1824	60	1942568	00765.png	306.0	25	1942565.0	-7170	-1999
62	13_rat	13	22-10-2019	16:19:49:599	rl	rat	1835	1835	60	1942751	00770.png	311.0	25	1942765.0	0	0
63	13_rat	13	22-10-2019	16:19:49:815	rl	rat	1847	1847	60	1942966	00775.png	316.0	25	1942965.0	0	0
64	13_rat	13	22-10-2019	16:19:50:014	rl	rat	1859	1859	60	1943165	00780.png	321.0	25	1943165.0	0	0
65	13_rat	13	22-10-2019	16:19:50:213	rl	rat	1871	1871	60	1943365	00785.png	326.0	25	1943365.0	-234	291
66	13_rat	13	22-10-2019	16:19:50:412	rl	rat	1883	1883	60	1943564	00790.png	331.0	25	1943565.0	-234	291
67	13_rat	13	22-10-2019	16:19:50:611	rl	rat	1895	1895	60	1943763	00795.png	336.0	25	1943765.0	0	0
68	13_rat	13	22-10-2019	16:19:50:810	rl	rat	1907	1907	60	1943962	00800.png	341.0	25	1943965.0	0	0
69	13_rat	13	22-10-2019	16:19:51:010	rl	rat	1919	1919	60	1944161	00805.png	346.0	25	1944165.0	-15685	-9213
70	13_rat	13	22-10-2019	16:19:51:208	rl	rat	1931	1931	60	1944360	00810.png	351.0	25	1944365.0	7823	3310
71	13_rat	13	22-10-2019	16:19:51:408	rl	rat	1943	1943	60	1944559	00815.png	356.0	25	1944565.0	16150	-35293
72	13_rat	13	22-10-2019	16:19:51:607	rl	rat	1955	1955	60	1944758	00820.png	361.0	25	1944765.0	0	0
73	13_rat	13	22-10-2019	16:19:51:806	rl	rat	1967	1967	60	1944958	00825.png	366.0	25	1944965.0	1006	7197
74	13_rat	13	22-10-2019	16:19:52:005	rl	rat	1979	1979	60	1945157	00830.png	371.0	25	1945165.0	678	-1706
75	13_rat	13	22-10-2019	16:19:52:221	rl	rat	1992	1992	60	1945372	00835.png	376.0	25	1945365.0	0	0
76	13_rat	13	22-10-2019	16:19:52:420	rl	rat	2004	2004	60	1945572	00840.png	381.0	25	1945565.0	0	0
77	13_rat	13	22-10-2019	16:19:52:619	rl	rat	2016	2016	60	1945771	00845.png	386.0	25	1945765.0	7016	3744
78	13_rat	13	22-10-2019	16:19:52:818	rl	rat	2028	2028	60	1945970	00850.png	391.0	25	1945965.0	5124	-23030
79	13_rat	13	22-10-2019	16:19:53:018	rl	rat	2040	2040	60	1946169	00855.png	396.0	25	1946165.0	-490	178
80	13_rat	13	22-10-2019	16:19:53:216	rl	rat	2052	2052	60	1946368	00860.png	401.0	25	1946365.0	0	0
81	13_rat	13	22-10-2019	16:19:53:416	rl	rat	2064	2064	60	1946567	00865.png	406.0	25	1946565.0	0	0
82	13_rat	13	22-10-2019	16:19:53:615	rl	rat	2073	2073	60	1946766	00870.png	411.0	25	1946765.0	644	276
83	13_rat	13	22-10-2019	16:19:53:814	rl	rat	2084	2084	60	1946966	00875.png	416.0	25	1946965.0	0	0
84	13_rat	13	22-10-2019	16:19:54:013	rl	rat	2096	2096	60	1947165	00880.png	421.0	25	1947165.0	776	4644
85	13_rat	13	22-10-2019	16:19:54:212	rl	rat	2108	2108	60	1947364	00885.png	426.0	25	1947365.0	337	561
86	13_rat	13	22-10-2019	16:19:54:412	rl	rat	2120	2120	60	1947563	00890.png	431.0	25	1947565.0	169	475
87	13_rat	13	22-10-2019	16:19:54:611	rl	rat	2132	2132	60	1947762	00895.png	436.0	25	1947765.0	0	0
88	13_rat	13	22-10-2019	16:19:54:810	rl	rat	2144	2144	60	1947961	00900.png	441.0	25	1947965.0	0	0
89	13_rat	13	22-10-2019	16:19:55:009	rl	rat	2156	2156	60	1948161	00905.png	446.0	25	1948165.0	502	-242
90	13_rat	13	22-10-2019	16:19:55:208	rl	rat	2168	2168	60	1948360	00910.png	451.0	25	1948365.0	116	435
91	13_rat	13	22-10-2019	16:19:55:407	rl	rat	2180	2180	60	1948559	00915.png	456.0	25	1948565.0	261	493
92	13_rat	13	22-10-2019	16:19:55:606	rl	rat	2192	2192	60	1948758	00920.png	461.0	25	1948765.0	0	0
93	13_rat	13	22-10-2019	16:19:55:805	rl	rat	2204	2204	60	1948957	00925.png	466.0	25	1948965.0	1428	385
94	13_rat	13	22-10-2019	16:19:56:021	rl	rat	2217	2217	60	1949173	00930.png	471.0	25	1949165.0	0	0
95	13_rat	13	22-10-2019	16:19:56:221	rl	rat	2229	2229	60	1949372	00935.png	476.0	25	1949365.0	882	806
96	13_rat	13	22-10-2019	16:19:56:420	rl	rat	2241	2241	60	1949571	00940.png	481.0	25	1949565.0	2559	-3463
97	13_rat	13	22-10-2019	16:19:56:619	rl	rat	2253	2253	60	1949771	00945.png	486.0	25	1949765.0	-46	468
98	13_rat	13	22-10-2019	16:19:56:818	rl	rat	2265	2265	60	1949970	00950.png	491.0	25	1949965.0	36	262
99	13_rat	13	22-10-2019	16:19:57:017	rl	rat	2277	2277	60	1950169	00955.png	496.0	25	1950165.0	-800	853
100	13_rat	13	22-10-2019	16:19:57:216	rl	rat	2289	2289	60	1950367	00960.png	501.0	25	1950365.0	0	0
101	13_rat	13	22-10-2019	16:19:57:415	rl	rat	2300	2300	60	1950567	00965.png	506.0	25	1950565.0	0	0
102	13_rat	13	22-10-2019	16:19:57:614	rl	rat	2312	2312	60	1950766	00970.png	511.0	25	1950765.0	941	364
103	13_rat	13	22-10-2019	16:19:57:813	rl	rat	2324	2324	60	1950965	00975.png	516.0	25	1950965.0	27	170
104	13_rat	13	22-10-2019	16:19:58:013	rl	rat	2336	2336	60	1951164	00980.png	521.0	25	1951165.0	0	0
105	13_rat	13	22-10-2019	16:19:58:212	rl	rat	2348	2348	60	1951364	00985.png	526.0	25	1951365.0	0	0
106	13_rat	13	22-10-2019	16:19:58:411	rl	rat	2360	2360	60	1951563	00990.png	531.0	25	1951565.0	478	6571
107	13_rat	13	22-10-2019	16:19:58:610	rl	rat	2372	2372	60	1951762	00995.png	536.0	25	1951765.0	0	0
108	13_rat	13	22-10-2019	16:19:58:809	rl	rat	2384	2384	60	1951961	01000.png	541.0	25	1951965.0	-578	-279
109	13_rat	13	22-10-2019	16:19:59:009	rl	rat	2396	2396	60	1952160	01005.png	546.0	25	1952165.0	-184	-106
110	13_rat	13	22-10-2019	16:19:59:208	rl	rat	2408	2408	60	1952359	01010.png	551.0	25	1952365.0	146	-1148
111	13_rat	13	22-10-2019	16:19:59:407	rl	rat	2420	2420	60	1952558	01015.png	556.0	25	1952565.0	-980	318
112	13_rat	13	22-10-2019	16:19:59:606	rl	rat	2432	2432	60	1952758	01020.png	561.0	25	1952765.0	2137	-255
113	13_rat	13	22-10-2019	16:19:59:805	rl	rat	2444	2444	60	1952957	01025.png	566.0	25	1952965.0	27	170
114	13_rat	13	22-10-2019	16:20:00:021	rl	rat	2457	2457	60	1953172	01030.png	571.0	25	1953165.0	0	0
115	13_rat	13	22-10-2019	16:20:00:220	rl	rat	2469	2469	60	1953372	01035.png	576.0	25	1953365.0	0	0
116	13_rat	13	22-10-2019	16:20:00:419	rl	rat	2481	2481	60	1953571	01040.png	581.0	25	1953565.0	0	0
117	13_rat	13	22-10-2019	16:20:00:618	rl	rat	2493	2493	60	1953770	01045.png	586.0	25	1953765.0	0	0
118	13_rat	13	22-10-2019	16:20:00:817	rl	rat	2505	2505	60	1953969	01050.png	591.0	25	1953965.0	-937	457
119	13_rat	13	22-10-2019	16:20:01:016	rl	rat	2517	2517	60	1954168	01055.png	596.0	25	1954165.0	3438	-10713
120	13_rat	13	22-10-2019	16:20:01:215	rl	rat	2528	2528	60	1954367	01060.png	601.0	25	1954365.0	-190	4798
121	13_rat	13	22-10-2019	16:20:01:415	rl	rat	2538	2538	60	1954566	01065.png	606.0	25	1954565.0	0	0
122	13_rat	13	22-10-2019	16:20:01:614	rl	rat	2550	2550	60	1954765	01070.png	611.0	25	1954765.0	0	0
123	13_rat	13	22-10-2019	16:20:01:813	rl	rat	2562	2562	60	1954965	01075.png	616.0	25	1954965.0	0	0
124	13_rat	13	22-10-2019	16:20:02:012	rl	rat	2574	2574	60	1955164	01080.png	621.0	25	1955165.0	-4299	-2275
125	13_rat	13	22-10-2019	16:20:02:211	rl	rat	2586	2586	60	1955363	01085.png	626.0	25	1955365.0	-1558	426
126	13_rat	13	22-10-2019	16:20:02:411	rl	rat	2598	2598	60	1955562	01090.png	631.0	25	1955565.0	125	-967
127	13_rat	13	22-10-2019	16:20:02:610	rl	rat	2610	2610	60	1955761	01095.png	636.0	25	1955765.0	-406	370
128	13_rat	13	22-10-2019	16:20:02:809	rl	rat	2622	2622	60	1955960	01100.png	641.0	25	1955965.0	18745	-125128
129	13_rat	13	22-10-2019	16:20:03:008	rl	rat	2634	2634	60	1956160	01105.png	646.0	25	1956165.0	0	0
130	13_rat	13	22-10-2019	16:20:03:207	rl	rat	2646	2646	60	1956359	01110.png	651.0	25	1956365.0	0	0
131	13_rat	13	22-10-2019	16:20:03:406	rl	rat	2658	2658	60	1956558	01115.png	656.0	25	1956565.0	0	0
132	13_rat	13	22-10-2019	16:20:03:605	rl	rat	2670	2670	60	1956757	01120.png	661.0	25	1956765.0	626	8325
133	13_rat	13	22-10-2019	16:20:03:821	rl	rat	2683	2683	60	1956972	01125.png	666.0	25	1956965.0	0	0
134	13_rat	13	22-10-2019	16:20:04:020	rl	rat	2695	2695	60	1957172	01130.png	671.0	25	1957165.0	181	48
135	13_rat	13	22-10-2019	16:20:04:219	rl	rat	2707	2707	60	1957371	01135.png	676.0	25	1957365.0	0	0
136	13_rat	13	22-10-2019	16:20:04:419	rl	rat	2719	2719	60	1957570	01140.png	681.0	25	1957565.0	-4048	-1932
137	13_rat	13	22-10-2019	16:20:04:618	rl	rat	2731	2731	60	1957769	01145.png	686.0	25	1957765.0	1155	821
138	13_rat	13	22-10-2019	16:20:04:817	rl	rat	2743	2743	60	1957968	01150.png	691.0	25	1957965.0	0	0
139	13_rat	13	22-10-2019	16:20:05:016	rl	rat	2755	2755	60	1958168	01155.png	696.0	25	1958165.0	4505	1541
140	13_rat	13	22-10-2019	16:20:05:215	rl	rat	2765	2765	60	1958367	01160.png	701.0	25	1958365.0	-13980	-2212
141	13_rat	13	22-10-2019	16:20:05:414	rl	rat	2776	2776	60	1958566	01165.png	706.0	25	1958565.0	0	0
142	13_rat	13	22-10-2019	16:20:05:614	rl	rat	2788	2788	60	1958765	01170.png	711.0	25	1958765.0	0	0
143	13_rat	13	22-10-2019	16:20:05:812	rl	rat	2800	2800	60	1958964	01175.png	716.0	25	1958965.0	0	0
144	13_rat	13	22-10-2019	16:20:06:012	rl	rat	2812	2812	60	1959164	01180.png	721.0	25	1959165.0	-4782	-322
145	13_rat	13	22-10-2019	16:20:06:211	rl	rat	2824	2824	60	1959362	01185.png	726.0	25	1959365.0	725	4681
146	13_rat	13	22-10-2019	16:20:06:410	rl	rat	2836	2836	60	1959561	01190.png	731.0	25	1959565.0	0	0
147	13_rat	13	22-10-2019	16:20:06:609	rl	rat	2848	2848	60	1959761	01195.png	736.0	25	1959765.0	906	473
148	13_rat	13	22-10-2019	16:20:06:808	rl	rat	2860	2860	60	1959960	01200.png	741.0	25	1959965.0	1968	-3518
149	13_rat	13	22-10-2019	16:20:07:008	rl	rat	2872	2872	60	1960159	01205.png	746.0	25	1960165.0	1120	530
