	setting_id	subject_id	date	trial_id	sample_id	frame_rate	frame_id	fix_pos_x_old	fix_pos_y_old	cam_angle_x	cam_angle_y	cam_angle_z	fix_pos_x	fix_pos_y	fix_pos_avrgd	fix_pos_diff_x	fix_pos_diff_y
0	vr	06	2019-10-24	bac_2	470	10	00260.png	404.0	395.0	358	215	358	404.0	395.0	0	0.0	0.0
1	vr	06	2019-10-24	bac_2	484	10	00270.png	362.0	440.5	358	215	358	362.0	440.5	0	0.0	0.0
2	vr	06	2019-10-24	bac_2	500	10	00280.png	339.0	457.0	358	215	358	339.0	457.0	0	0.0	0.0
3	vr	06	2019-10-24	bac_2	517	10	00290.png	343.0	456.5	358	215	358	343.0	456.5	0	0.0	0.0
4	vr	06	2019-10-24	bac_2	535	10	00300.png	412.5	425.5	358	216	358	412.5	425.5	0	0.0	0.0
5	vr	06	2019-10-24	bac_2	553	10	00310.png	414.5	388.0	358	216	358	414.5	388.0	0	0.0	0.0
6	vr	06	2019-10-24	bac_2	571	10	00320.png	413.5	389.0	358	216	358	413.5	389.0	0	0.0	0.0
7	vr	06	2019-10-24	bac_2	587	10	00330.png	413.5	389.5	358	216	358	413.5	389.5	0	0.0	0.0
8	vr	06	2019-10-24	bac_2	605	10	00340.png	359.0	451.0	358	217	358	359.0	451.0	0	0.0	0.0
9	vr	06	2019-10-24	bac_2	621	10	00350.png	351.5	448.5	358	219	358	351.5	448.5	0	0.0	0.0
10	vr	06	2019-10-24	bac_2	638	10	00360.png	456.0	363.0	356	222	360	456.0	363.0	0	0.0	0.0
11	vr	06	2019-10-24	bac_2	656	10	00370.png	400.0	368.5	354	229	0	400.0	368.5	0	0.0	0.0
12	vr	06	2019-10-24	bac_2	672	10	00380.png	298.0	490.5	354	230	360	298.0	490.5	0	0.0	0.0
13	vr	06	2019-10-24	bac_2	687	10	00390.png	302.0	488.5	355	229	359	302.0	488.5	0	0.0	0.0
14	vr	06	2019-10-24	bac_2	704	10	00400.png	364.5	490.5	354	235	359	364.5	490.5	0	0.0	0.0
15	vr	06	2019-10-24	bac_2	722	10	00410.png	465.5	482.0	355	250	359	465.5	482.0	0	0.0	0.0
16	vr	06	2019-10-24	bac_2	740	10	00420.png	441.5	483.5	355	272	359	441.5	483.5	0	0.0	0.0
17	vr	06	2019-10-24	bac_2	757	10	00430.png	444.5	459.0	356	293	358	444.5	459.0	0	0.0	0.0
18	vr	06	2019-10-24	bac_2	775	10	00440.png	553.5	450.0	357	312	358	553.5	450.0	0	0.0	0.0
19	vr	06	2019-10-24	bac_2	791	10	00450.png	593.0	455.5	359	327	358	593.0	455.5	0	0.0	0.0
20	vr	06	2019-10-24	bac_2	808	10	00460.png	509.5	443.5	360	338	357	509.5	443.5	0	0.0	0.0
21	vr	06	2019-10-24	bac_2	822	10	00470.png	460.0	437.5	360	341	357	460.0	437.5	0	0.0	0.0
22	vr	06	2019-10-24	bac_2	836	10	00480.png	476.0	443.0	358	339	357	476.0	443.0	0	0.0	0.0
23	vr	06	2019-10-24	bac_2	849	10	00490.png	491.0	446.0	357	336	357	491.0	446.0	0	0.0	0.0
24	vr	06	2019-10-24	bac_2	865	10	00500.png	495.0	449.5	357	335	356	495.25	449.5	1	-0.25	0.0
25	vr	06	2019-10-24	bac_2	866	10	00500.png	495.5	449.5	357	335	356	495.25	449.5	1	0.25	0.0
26	vr	06	2019-10-24	bac_2	880	10	00510.png	546.5	360.5	355	336	356	546.5	360.5	0	0.0	0.0
27	vr	06	2019-10-24	bac_2	898	10	00520.png	502.0	464.0	354	337	356	502.0	464.0	0	0.0	0.0
28	vr	06	2019-10-24	bac_2	914	10	00530.png	502.5	468.0	354	337	356	502.5	468.0	0	0.0	0.0
29	vr	06	2019-10-24	bac_2	931	10	00540.png	462.5	464.5	354	336	356	462.5	464.5	0	0.0	0.0
30	vr	06	2019-10-24	bac_2	948	10	00550.png	463.0	465.0	354	335	356	463.0	465.0	0	0.0	0.0
31	vr	06	2019-10-24	bac_2	966	10	00560.png	472.5	469.0	354	334	356	472.5	469.0	0	0.0	0.0
32	vr	06	2019-10-24	bac_2	983	10	00570.png	488.0	466.5	354	333	356	488.0	466.5	0	0.0	0.0
33	vr	06	2019-10-24	bac_2	1000	10	00580.png	489.5	461.0	354	332	356	489.5	461.0	0	0.0	0.0
34	vr	06	2019-10-24	bac_2	1016	10	00590.png	495.0	459.5	354	330	355	495.5	459.5	1	-0.5	0.0
35	vr	06	2019-10-24	bac_2	1017	10	00590.png	496.0	459.5	354	330	355	495.5	459.5	1	0.5	0.0
36	vr	06	2019-10-24	bac_2	1032	10	00600.png	502.5	458.0	354	329	355	503.0	458.0	1	-0.5	0.0
37	vr	06	2019-10-24	bac_2	1033	10	00600.png	503.5	458.0	354	329	355	503.0	458.0	1	0.5	0.0
38	vr	06	2019-10-24	bac_2	1047	10	00610.png	505.5	458.5	354	328	355	505.5	458.5	0	0.0	0.0
39	vr	06	2019-10-24	bac_2	1065	10	00620.png	485.0	461.5	355	328	355	485.0	461.5	0	0.0	0.0
40	vr	06	2019-10-24	bac_2	1080	10	00630.png	481.5	463.0	354	328	355	481.5	463.0	0	0.0	0.0
41	vr	06	2019-10-24	bac_2	1098	10	00640.png	399.0	353.5	352	325	355	399.0	353.5	0	0.0	0.0
42	vr	06	2019-10-24	bac_2	1116	10	00650.png	513.5	471.0	351	323	355	513.5	471.0	0	0.0	0.0
43	vr	06	2019-10-24	bac_2	1132	10	00660.png	518.0	476.5	351	323	355	518.0	476.5	0	0.0	0.0
44	vr	06	2019-10-24	bac_2	1148	10	00670.png	510.0	471.5	352	323	354	510.0	471.5	0	0.0	0.0
45	vr	06	2019-10-24	bac_2	1165	10	00680.png	490.5	457.5	353	322	354	490.5	457.5	0	0.0	0.0
46	vr	06	2019-10-24	bac_2	1182	10	00690.png	373.5	306.5	352	320	354	373.5	306.5	0	0.0	0.0
47	vr	06	2019-10-24	bac_2	1200	10	00700.png	328.0	298.5	351	314	355	328.0	298.5	0	0.0	0.0
48	vr	06	2019-10-24	bac_2	1218	10	00710.png	342.5	330.5	348	303	356	342.5	330.5	0	0.0	0.0
49	vr	06	2019-10-24	bac_2	1235	10	00720.png	359.5	486.5	347	294	357	359.5	486.5	0	0.0	0.0
50	vr	06	2019-10-24	bac_2	1253	10	00730.png	403.5	480.5	349	287	356	403.5	480.5	0	0.0	0.0
51	vr	06	2019-10-24	bac_2	1271	10	00740.png	322.5	491.0	352	281	356	322.5	491.0	0	0.0	0.0
52	vr	06	2019-10-24	bac_2	1289	10	00750.png	265.0	472.0	354	266	356	265.0	472.0	0	0.0	0.0
53	vr	06	2019-10-24	bac_2	1307	10	00760.png	247.0	467.5	356	249	357	247.0	467.5	0	0.0	0.0
54	vr	06	2019-10-24	bac_2	1324	10	00770.png	220.5	465.5	356	235	358	220.5	465.5	0	0.0	0.0
55	vr	06	2019-10-24	bac_2	1336	10	00780.png	281.5	461.5	356	226	359	283.0	462.0	1	-1.5	-0.5
56	vr	06	2019-10-24	bac_2	1337	10	00780.png	284.5	462.5	356	225	359	283.0	462.0	1	1.5	0.5
57	vr	06	2019-10-24	bac_2	1350	10	00790.png	331.5	456.5	357	220	359	331.5	456.5	0	0.0	0.0
58	vr	06	2019-10-24	bac_2	1368	10	00800.png	343.5	458.5	357	218	358	343.5	458.5	0	0.0	0.0
59	vr	06	2019-10-24	bac_2	1382	10	00810.png	348.0	459.5	357	217	358	348.5	459.5	1	-0.5	0.0
60	vr	06	2019-10-24	bac_2	1383	10	00810.png	349.0	459.5	357	217	358	348.5	459.5	1	0.5	0.0
61	vr	06	2019-10-24	bac_2	1395	10	00820.png	353.0	464.0	356	217	358	352.75	464.5	1	0.25	-0.5
62	vr	06	2019-10-24	bac_2	1396	10	00820.png	352.5	465.0	355	217	358	352.75	464.5	1	-0.25	0.5
63	vr	06	2019-10-24	bac_2	1409	10	00830.png	362.5	393.0	354	218	357	362.5	393.0	0	0.0	0.0
64	vr	06	2019-10-24	bac_2	1426	10	00840.png	377.0	371.5	354	216	357	377.0	371.5	0	0.0	0.0
65	vr	06	2019-10-24	bac_2	1444	10	00850.png	301.5	358.5	355	211	357	301.5	358.5	0	0.0	0.0
66	vr	06	2019-10-24	bac_2	1461	10	00860.png	330.0	356.0	355	203	356	330.0	356.0	0	0.0	0.0
67	vr	06	2019-10-24	bac_2	1470	10	00870.png	325.0	351.5	354	195	355	312.5	350.75	1	12.5	0.75
68	vr	06	2019-10-24	bac_2	1471	10	00870.png	300.0	350.0	354	195	355	312.5	350.75	1	-12.5	-0.75
69	vr	06	2019-10-24	bac_2	1482	10	00880.png	271.5	353.0	352	180	356	271.5	353.0	0	0.0	0.0
70	vr	06	2019-10-24	bac_2	1499	10	00890.png	258.0	381.5	350	157	358	258.0	381.5	0	0.0	0.0
71	vr	06	2019-10-24	bac_2	1517	10	00900.png	185.0	478.0	354	137	1	185.0	478.0	0	0.0	0.0
72	vr	06	2019-10-24	bac_2	1533	10	00910.png	263.0	450.0	357	118	1	263.5	449.75	1	-0.5	0.25
73	vr	06	2019-10-24	bac_2	1534	10	00910.png	264.0	449.5	358	118	1	263.5	449.75	1	0.5	-0.25
74	vr	06	2019-10-24	bac_2	1549	10	00920.png	249.5	445.5	359	109	1	248.75	446.75	1	0.75	-1.25
75	vr	06	2019-10-24	bac_2	1550	10	00920.png	248.0	448.0	359	109	1	248.75	446.75	1	-0.75	1.25
76	vr	06	2019-10-24	bac_2	1565	10	00930.png	289.5	445.5	357	108	1	289.5	445.5	0	0.0	0.0
77	vr	06	2019-10-24	bac_2	1583	10	00940.png	345.0	421.5	355	112	360	345.0	421.5	0	0.0	0.0
78	vr	06	2019-10-24	bac_2	1601	10	00950.png	340.5	432.0	354	116	360	340.5	432.0	0	0.0	0.0
79	vr	06	2019-10-24	bac_2	1618	10	00960.png	332.0	440.5	355	118	360	332.0	440.5	0	0.0	0.0
80	vr	06	2019-10-24	bac_2	1636	10	00970.png	336.5	465.5	355	122	360	336.5	465.5	0	0.0	0.0
81	vr	06	2019-10-24	bac_2	1654	10	00980.png	381.0	467.0	356	124	360	381.0	467.0	0	0.0	0.0
82	vr	06	2019-10-24	bac_2	1671	10	00990.png	493.5	461.0	356	124	0	493.5	461.0	0	0.0	0.0
83	vr	06	2019-10-24	bac_2	1689	10	01000.png	480.5	511.5	357	127	1	480.5	511.5	0	0.0	0.0
