	setting_id	subject_id	date	trial_id	sample_id	frame_rate	frame_id	fix_pos_x_old	fix_pos_y_old	cam_angle_x	cam_angle_y	cam_angle_z	fix_pos_x	fix_pos_y	fix_pos_avrgd	fix_pos_diff_x	fix_pos_diff_y
0	vr	04	2019-10-23	valpre	469	10	00260.png	385.5	378.0	358	220	5	385.5	378.0	0	0.0	0.0
1	vr	04	2019-10-23	valpre	487	10	00270.png	248.0	408.0	355	218	5	248.0	408.0	0	0.0	0.0
2	vr	04	2019-10-23	valpre	505	10	00280.png	282.5	415.5	355	209	5	282.5	415.5	0	0.0	0.0
3	vr	04	2019-10-23	valpre	522	10	00290.png	267.5	449.0	357	196	6	267.5	449.0	0	0.0	0.0
4	vr	04	2019-10-23	valpre	540	10	00300.png	225.5	486.5	359	182	5	225.5	486.5	0	0.0	0.0
5	vr	04	2019-10-23	valpre	557	10	00310.png	309.0	475.0	2	169	4	309.0	475.0	0	0.0	0.0
6	vr	04	2019-10-23	valpre	574	10	00320.png	364.5	448.5	7	164	1	364.5	448.5	0	0.0	0.0
7	vr	04	2019-10-23	valpre	590	10	00330.png	505.5	469.5	1	172	3	505.5	469.5	0	0.0	0.0
8	vr	04	2019-10-23	valpre	608	10	00340.png	496.0	492.0	1	181	6	496.0	492.0	0	0.0	0.0
9	vr	04	2019-10-23	valpre	626	10	00350.png	492.0	502.5	1	181	9	492.0	502.5	0	0.0	0.0
10	vr	04	2019-10-23	valpre	643	10	00360.png	491.0	509.0	360	181	9	490.75	508.5	1	0.25	0.5
11	vr	04	2019-10-23	valpre	644	10	00360.png	490.5	508.0	360	181	9	490.75	508.5	1	-0.25	-0.5
12	vr	04	2019-10-23	valpre	661	10	00370.png	395.5	394.5	359	180	8	395.5	394.5	0	0.0	0.0
13	vr	04	2019-10-23	valpre	679	10	00380.png	389.5	383.0	358	180	7	389.5	383.0	0	0.0	0.0
14	vr	04	2019-10-23	valpre	697	10	00390.png	395.0	381.0	358	180	6	395.0	381.0	0	0.0	0.0
15	vr	04	2019-10-23	valpre	714	10	00400.png	398.0	381.0	358	179	6	398.0	381.0	0	0.0	0.0
16	vr	04	2019-10-23	valpre	730	10	00410.png	400.5	377.5	358	179	5	400.5	377.5	0	0.0	0.0
17	vr	04	2019-10-23	valpre	748	10	00420.png	396.0	385.5	357	179	5	396.0	385.5	0	0.0	0.0
18	vr	04	2019-10-23	valpre	766	10	00430.png	396.5	386.5	357	179	5	396.5	386.5	0	0.0	0.0
19	vr	04	2019-10-23	valpre	784	10	00440.png	400.0	380.0	358	179	5	400.0	380.0	0	0.0	0.0
20	vr	04	2019-10-23	valpre	802	10	00450.png	397.0	385.5	357	179	5	397.0	385.5	0	0.0	0.0
21	vr	04	2019-10-23	valpre	820	10	00460.png	399.0	384.5	357	178	5	399.0	384.5	0	0.0	0.0
22	vr	04	2019-10-23	valpre	838	10	00470.png	404.0	381.5	358	178	5	404.0	381.5	0	0.0	0.0
23	vr	04	2019-10-23	valpre	856	10	00480.png	406.5	384.0	357	178	5	406.5	384.0	0	0.0	0.0
24	vr	04	2019-10-23	valpre	874	10	00490.png	405.5	384.5	357	178	5	405.5	384.5	0	0.0	0.0
25	vr	04	2019-10-23	valpre	892	10	00500.png	406.5	384.5	358	177	5	406.5	384.5	0	0.0	0.0
26	vr	04	2019-10-23	valpre	909	10	00510.png	407.5	383.0	358	177	5	407.5	383.0	0	0.0	0.0
27	vr	04	2019-10-23	valpre	927	10	00520.png	271.0	477.5	359	177	5	271.0	477.5	0	0.0	0.0
28	vr	04	2019-10-23	valpre	945	10	00530.png	272.5	486.5	360	176	5	272.5	486.5	0	0.0	0.0
29	vr	04	2019-10-23	valpre	963	10	00540.png	277.5	478.5	360	175	5	277.5	478.5	0	0.0	0.0
30	vr	04	2019-10-23	valpre	981	10	00550.png	283.5	482.5	360	174	5	283.5	482.5	0	0.0	0.0
31	vr	04	2019-10-23	valpre	999	10	00560.png	283.5	481.5	360	174	5	283.5	481.5	0	0.0	0.0
32	vr	04	2019-10-23	valpre	1017	10	00570.png	288.5	484.5	360	173	5	288.5	484.5	0	0.0	0.0
33	vr	04	2019-10-23	valpre	1035	10	00580.png	292.5	484.0	0	173	5	292.5	484.0	0	0.0	0.0
34	vr	04	2019-10-23	valpre	1051	10	00590.png	303.5	481.0	0	173	5	303.5	481.0	0	0.0	0.0
35	vr	04	2019-10-23	valpre	1069	10	00600.png	314.5	477.0	0	172	5	314.5	477.0	0	0.0	0.0
36	vr	04	2019-10-23	valpre	1086	10	00610.png	331.5	480.5	0	172	5	331.5	480.75	1	0.0	-0.25
37	vr	04	2019-10-23	valpre	1087	10	00610.png	331.5	481.0	0	172	5	331.5	480.75	1	0.0	0.25
38	vr	04	2019-10-23	valpre	1103	10	00620.png	331.5	481.5	0	172	5	331.5	481.5	0	0.0	0.0
39	vr	04	2019-10-23	valpre	1120	10	00630.png	330.5	478.5	1	173	5	330.5	478.5	0	0.0	0.0
40	vr	04	2019-10-23	valpre	1138	10	00640.png	328.0	477.5	1	173	5	328.0	477.5	0	0.0	0.0
41	vr	04	2019-10-23	valpre	1156	10	00650.png	325.0	477.5	0	173	5	325.0	477.5	0	0.0	0.0
42	vr	04	2019-10-23	valpre	1174	10	00660.png	324.5	476.0	1	174	5	324.5	476.0	0	0.0	0.0
43	vr	04	2019-10-23	valpre	1192	10	00670.png	474.0	506.0	1	174	6	474.0	506.0	0	0.0	0.0
44	vr	04	2019-10-23	valpre	1210	10	00680.png	508.0	528.5	1	175	6	508.0	528.5	0	0.0	0.0
45	vr	04	2019-10-23	valpre	1228	10	00690.png	520.5	514.5	1	178	6	520.5	514.5	0	0.0	0.0
46	vr	04	2019-10-23	valpre	1246	10	00700.png	503.0	513.0	1	180	6	503.0	513.0	0	0.0	0.0
47	vr	04	2019-10-23	valpre	1264	10	00710.png	499.0	508.5	1	181	6	499.0	508.5	0	0.0	0.0
48	vr	04	2019-10-23	valpre	1282	10	00720.png	500.5	509.0	1	181	6	500.5	509.0	0	0.0	0.0
49	vr	04	2019-10-23	valpre	1299	10	00730.png	501.5	510.0	1	181	6	501.5	510.0	0	0.0	0.0
50	vr	04	2019-10-23	valpre	1317	10	00740.png	501.0	506.0	1	181	6	501.0	506.0	0	0.0	0.0
51	vr	04	2019-10-23	valpre	1335	10	00750.png	502.5	508.0	1	181	6	502.5	508.0	0	0.0	0.0
52	vr	04	2019-10-23	valpre	1353	10	00760.png	504.5	508.5	1	181	6	504.5	508.5	0	0.0	0.0
53	vr	04	2019-10-23	valpre	1370	10	00770.png	505.5	508.5	1	181	6	505.5	508.25	1	0.0	0.25
54	vr	04	2019-10-23	valpre	1371	10	00770.png	505.5	508.0	1	181	6	505.5	508.25	1	0.0	-0.25
55	vr	04	2019-10-23	valpre	1386	10	00780.png	507.0	508.5	1	180	6	507.0	508.5	0	0.0	0.0
56	vr	04	2019-10-23	valpre	1404	10	00790.png	507.5	507.5	1	180	6	507.5	507.5	0	0.0	0.0
57	vr	04	2019-10-23	valpre	1422	10	00800.png	503.0	501.5	1	181	6	503.0	501.5	0	0.0	0.0
58	vr	04	2019-10-23	valpre	1440	10	00810.png	507.5	508.5	1	180	6	507.5	508.5	0	0.0	0.0
59	vr	04	2019-10-23	valpre	1458	10	00820.png	504.0	502.5	1	181	6	504.0	502.5	0	0.0	0.0
60	vr	04	2019-10-23	valpre	1476	10	00830.png	506.5	512.0	1	181	6	506.5	512.0	0	0.0	0.0
61	vr	04	2019-10-23	valpre	1493	10	00840.png	507.5	512.5	1	181	6	507.5	512.5	0	0.0	0.0
62	vr	04	2019-10-23	valpre	1511	10	00850.png	504.0	511.0	1	181	6	504.0	511.0	0	0.0	0.0
63	vr	04	2019-10-23	valpre	1529	10	00860.png	501.0	508.0	1	182	6	501.0	508.0	0	0.0	0.0
64	vr	04	2019-10-23	valpre	1547	10	00870.png	503.0	505.0	1	181	6	503.0	505.0	0	0.0	0.0
65	vr	04	2019-10-23	valpre	1564	10	00880.png	401.5	380.0	1	181	5	400.0	379.25	1	1.5	0.75
66	vr	04	2019-10-23	valpre	1565	10	00880.png	398.5	378.5	1	181	5	400.0	379.25	1	-1.5	-0.75
67	vr	04	2019-10-23	valpre	1578	10	00890.png	394.0	376.0	1	181	5	393.25	374.5	1	0.75	1.5
68	vr	04	2019-10-23	valpre	1579	10	00890.png	392.5	373.0	1	181	5	393.25	374.5	1	-0.75	-1.5
69	vr	04	2019-10-23	valpre	1597	10	00900.png	409.0	366.0	0	180	5	409.0	366.0	0	0.0	0.0
70	vr	04	2019-10-23	valpre	1615	10	00910.png	395.0	364.0	0	180	5	395.0	364.0	0	0.0	0.0
71	vr	04	2019-10-23	valpre	1632	10	00920.png	397.0	363.0	0	180	5	397.0	363.0	0	0.0	0.0
72	vr	04	2019-10-23	valpre	1650	10	00930.png	404.0	369.0	360	180	5	404.0	369.0	0	0.0	0.0
73	vr	04	2019-10-23	valpre	1667	10	00940.png	404.5	368.5	360	180	5	404.5	368.25	1	0.0	0.25
74	vr	04	2019-10-23	valpre	1668	10	00940.png	404.5	368.0	360	180	5	404.5	368.25	1	0.0	-0.25
75	vr	04	2019-10-23	valpre	1682	10	00950.png	387.5	364.0	360	180	5	387.5	364.0	0	0.0	0.0
76	vr	04	2019-10-23	valpre	1701	10	00960.png	386.5	402.0	360	180	5	386.5	402.0	0	0.0	0.0
77	vr	04	2019-10-23	valpre	1718	10	00970.png	401.0	364.0	360	179	5	401.0	364.0	0	0.0	0.0
78	vr	04	2019-10-23	valpre	1735	10	00980.png	382.0	361.5	359	179	5	382.0	361.5	0	0.0	0.0
79	vr	04	2019-10-23	valpre	1752	10	00990.png	398.5	365.5	360	179	5	398.75	365.5	1	-0.25	0.0
80	vr	04	2019-10-23	valpre	1753	10	00990.png	399.0	365.5	360	179	5	398.75	365.5	1	0.25	0.0
81	vr	04	2019-10-23	valpre	1768	10	01000.png	398.5	364.5	360	179	5	398.5	364.5	0	0.0	0.0
