	setting_id	subject_id	date	trial_id	sample_id	frame_rate	frame_id	fix_pos_x_old	fix_pos_y_old	cam_angle_x	cam_angle_y	cam_angle_z	fix_pos_x	fix_pos_y	fix_pos_avrgd	fix_pos_diff_x	fix_pos_diff_y
0	vr	04	2019-10-23	loc_2	473	10	00260.png	334.0	455.5	0	80	0	334.0	455.5	0	0.0	0.0
1	vr	04	2019-10-23	loc_2	490	10	00270.png	332.5	454.0	0	80	0	340.75	453.75	1	-8.25	0.25
2	vr	04	2019-10-23	loc_2	491	10	00270.png	349.0	453.5	0	80	0	340.75	453.75	1	8.25	-0.25
3	vr	04	2019-10-23	loc_2	504	10	00280.png	223.0	447.5	360	80	0	223.0	447.5	0	0.0	0.0
4	vr	04	2019-10-23	loc_2	516	10	00290.png	248.5	459.5	357	72	360	248.5	459.5	0	0.0	0.0
5	vr	04	2019-10-23	loc_2	530	10	00300.png	247.0	460.0	357	63	1	247.0	460.0	0	0.0	0.0
6	vr	04	2019-10-23	loc_2	545	10	00310.png	494.5	457.0	358	60	1	494.5	457.0	0	0.0	0.0
7	vr	04	2019-10-23	loc_2	561	10	00320.png	485.0	453.0	358	65	2	485.0	453.0	0	0.0	0.0
8	vr	04	2019-10-23	loc_2	578	10	00330.png	491.0	456.0	359	69	4	491.0	456.0	0	0.0	0.0
9	vr	04	2019-10-23	loc_2	595	10	00340.png	496.5	459.5	359	75	4	496.5	459.5	0	0.0	0.0
10	vr	04	2019-10-23	loc_2	613	10	00350.png	464.0	449.5	359	80	3	464.0	449.5	0	0.0	0.0
11	vr	04	2019-10-23	loc_2	631	10	00360.png	372.0	423.5	0	80	3	372.0	423.5	0	0.0	0.0
12	vr	04	2019-10-23	loc_2	648	10	00370.png	116.5	421.0	1	72	3	116.5	421.0	0	0.0	0.0
13	vr	04	2019-10-23	loc_2	661	10	00380.png	258.5	433.0	1	56	2	258.5	433.0	0	0.0	0.0
14	vr	04	2019-10-23	loc_2	679	10	00390.png	239.0	433.0	360	42	2	239.0	433.0	0	0.0	0.0
15	vr	04	2019-10-23	loc_2	697	10	00400.png	252.5	440.0	359	30	3	252.5	440.0	0	0.0	0.0
16	vr	04	2019-10-23	loc_2	715	10	00410.png	233.0	434.0	358	22	4	233.0	434.0	0	0.0	0.0
17	vr	04	2019-10-23	loc_2	733	10	00420.png	278.0	438.5	358	19	4	278.0	438.5	0	0.0	0.0
18	vr	04	2019-10-23	loc_2	749	10	00430.png	261.0	429.5	359	17	4	261.0	429.5	0	0.0	0.0
19	vr	04	2019-10-23	loc_2	767	10	00440.png	268.5	426.0	358	16	4	268.5	426.0	0	0.0	0.0
20	vr	04	2019-10-23	loc_2	784	10	00450.png	270.0	426.5	358	16	4	270.0	426.5	0	0.0	0.0
21	vr	04	2019-10-23	loc_2	801	10	00460.png	332.0	440.0	358	17	4	332.0	440.0	0	0.0	0.0
22	vr	04	2019-10-23	loc_2	817	10	00470.png	328.5	437.5	358	19	4	328.5	437.5	0	0.0	0.0
23	vr	04	2019-10-23	loc_2	832	10	00480.png	323.5	437.0	359	20	4	323.25	437.0	1	0.25	0.0
24	vr	04	2019-10-23	loc_2	833	10	00480.png	323.0	437.0	359	20	4	323.25	437.0	1	-0.25	0.0
25	vr	04	2019-10-23	loc_2	847	10	00490.png	319.0	433.5	359	22	4	319.0	433.5	0	0.0	0.0
26	vr	04	2019-10-23	loc_2	864	10	00500.png	324.5	444.0	360	24	3	324.0	443.5	1	0.5	0.5
27	vr	04	2019-10-23	loc_2	865	10	00500.png	323.5	443.0	360	24	3	324.0	443.5	1	-0.5	-0.5
28	vr	04	2019-10-23	loc_2	879	10	00510.png	389.0	459.0	360	26	3	389.0	459.0	0	0.0	0.0
29	vr	04	2019-10-23	loc_2	897	10	00520.png	303.0	436.0	360	27	2	303.0	436.0	0	0.0	0.0
30	vr	04	2019-10-23	loc_2	915	10	00530.png	302.0	430.0	0	27	2	302.0	430.0	0	0.0	0.0
31	vr	04	2019-10-23	loc_2	933	10	00540.png	313.5	432.0	360	26	2	313.5	432.0	0	0.0	0.0
32	vr	04	2019-10-23	loc_2	949	10	00550.png	175.5	416.5	0	25	3	175.5	416.5	0	0.0	0.0
33	vr	04	2019-10-23	loc_2	965	10	00560.png	411.5	454.0	0	25	3	411.5	454.0	0	0.0	0.0
34	vr	04	2019-10-23	loc_2	981	10	00570.png	421.5	461.5	0	27	3	421.5	461.5	0	0.0	0.0
35	vr	04	2019-10-23	loc_2	997	10	00580.png	609.5	495.5	1	32	4	609.5	495.5	0	0.0	0.0
36	vr	04	2019-10-23	loc_2	1014	10	00590.png	532.5	488.0	1	43	4	526.5	487.25	1	6.0	0.75
37	vr	04	2019-10-23	loc_2	1015	10	00590.png	520.5	486.5	1	44	4	526.5	487.25	1	-6.0	-0.75
38	vr	04	2019-10-23	loc_2	1027	10	00600.png	464.0	470.0	1	51	4	464.0	470.0	0	0.0	0.0
39	vr	04	2019-10-23	loc_2	1045	10	00610.png	441.5	465.0	1	53	4	441.5	465.0	0	0.0	0.0
40	vr	04	2019-10-23	loc_2	1063	10	00620.png	429.5	464.5	1	54	4	429.5	464.5	0	0.0	0.0
41	vr	04	2019-10-23	loc_2	1081	10	00630.png	414.5	465.0	1	55	4	414.5	465.0	0	0.0	0.0
42	vr	04	2019-10-23	loc_2	1099	10	00640.png	409.0	461.0	2	55	4	409.0	461.0	0	0.0	0.0
43	vr	04	2019-10-23	loc_2	1115	10	00650.png	396.0	457.0	2	55	4	396.0	457.0	0	0.0	0.0
44	vr	04	2019-10-23	loc_2	1132	10	00660.png	386.0	460.5	2	55	4	386.0	460.5	0	0.0	0.0
45	vr	04	2019-10-23	loc_2	1150	10	00670.png	383.0	461.0	2	54	4	383.0	461.0	0	0.0	0.0
46	vr	04	2019-10-23	loc_2	1165	10	00680.png	374.5	461.5	1	54	4	374.5	461.5	0	0.0	0.0
47	vr	04	2019-10-23	loc_2	1183	10	00690.png	351.0	425.0	1	53	4	351.0	425.0	0	0.0	0.0
48	vr	04	2019-10-23	loc_2	1200	10	00700.png	352.0	424.5	2	53	4	352.0	424.5	0	0.0	0.0
49	vr	04	2019-10-23	loc_2	1218	10	00710.png	238.0	421.5	2	52	4	238.0	421.5	0	0.0	0.0
50	vr	04	2019-10-23	loc_2	1236	10	00720.png	253.0	424.0	1	50	4	253.0	424.0	0	0.0	0.0
51	vr	04	2019-10-23	loc_2	1253	10	00730.png	215.5	427.0	1	44	2	215.5	427.0	0	0.0	0.0
52	vr	04	2019-10-23	loc_2	1268	10	00740.png	0.0	840.0	1	39	2	0.0	840.0	0	0.0	0.0
53	vr	04	2019-10-23	loc_2	1286	10	00750.png	291.5	438.5	1	37	2	291.5	438.5	0	0.0	0.0
54	vr	04	2019-10-23	loc_2	1303	10	00760.png	290.5	432.0	0	37	2	290.5	432.0	0	0.0	0.0
55	vr	04	2019-10-23	loc_2	1319	10	00770.png	297.5	419.5	360	37	3	297.5	419.5	0	0.0	0.0
56	vr	04	2019-10-23	loc_2	1335	10	00780.png	305.0	421.5	360	38	3	305.0	421.5	0	0.0	0.0
57	vr	04	2019-10-23	loc_2	1352	10	00790.png	306.0	435.0	0	38	2	306.0	435.0	0	0.0	0.0
58	vr	04	2019-10-23	loc_2	1370	10	00800.png	315.0	436.0	0	39	2	315.0	436.0	0	0.0	0.0
59	vr	04	2019-10-23	loc_2	1388	10	00810.png	328.5	458.0	0	39	1	328.5	458.0	0	0.0	0.0
60	vr	04	2019-10-23	loc_2	1406	10	00820.png	330.5	433.5	0	40	1	330.5	433.5	0	0.0	0.0
61	vr	04	2019-10-23	loc_2	1422	10	00830.png	373.5	431.0	0	42	1	373.5	431.0	0	0.0	0.0
62	vr	04	2019-10-23	loc_2	1440	10	00840.png	369.5	428.0	1	46	1	369.5	428.0	0	0.0	0.0
63	vr	04	2019-10-23	loc_2	1455	10	00850.png	441.0	425.5	1	53	2	441.0	425.5	0	0.0	0.0
64	vr	04	2019-10-23	loc_2	1473	10	00860.png	460.0	433.0	2	63	3	460.0	433.0	0	0.0	0.0
65	vr	04	2019-10-23	loc_2	1491	10	00870.png	459.5	424.5	1	72	3	459.5	424.5	0	0.0	0.0
66	vr	04	2019-10-23	loc_2	1508	10	00880.png	424.5	422.5	0	79	3	424.5	422.5	0	0.0	0.0
67	vr	04	2019-10-23	loc_2	1525	10	00890.png	429.0	423.5	1	85	3	429.0	423.5	0	0.0	0.0
68	vr	04	2019-10-23	loc_2	1542	10	00900.png	449.5	435.5	1	90	3	449.0	435.0	1	0.5	0.5
69	vr	04	2019-10-23	loc_2	1543	10	00900.png	448.5	434.5	1	90	3	449.0	435.0	1	-0.5	-0.5
70	vr	04	2019-10-23	loc_2	1557	10	00910.png	502.0	454.0	1	95	3	502.0	454.0	0	0.0	0.0
71	vr	04	2019-10-23	loc_2	1575	10	00920.png	477.0	447.5	2	100	3	477.0	447.5	0	0.0	0.0
72	vr	04	2019-10-23	loc_2	1593	10	00930.png	428.5	428.0	3	103	3	428.5	428.0	0	0.0	0.0
73	vr	04	2019-10-23	loc_2	1610	10	00940.png	297.0	414.0	3	106	4	297.0	414.0	0	0.0	0.0
74	vr	04	2019-10-23	loc_2	1627	10	00950.png	292.0	413.0	4	106	4	292.0	413.0	0	0.0	0.0
75	vr	04	2019-10-23	loc_2	1644	10	00960.png	298.5	406.5	5	104	4	298.5	406.5	0	0.0	0.0
76	vr	04	2019-10-23	loc_2	1662	10	00970.png	277.0	406.5	4	100	4	277.0	406.5	0	0.0	0.0
77	vr	04	2019-10-23	loc_2	1678	10	00980.png	279.0	404.0	4	95	3	279.0	404.0	0	0.0	0.0
78	vr	04	2019-10-23	loc_2	1696	10	00990.png	303.5	408.5	3	90	3	303.5	408.5	0	0.0	0.0
79	vr	04	2019-10-23	loc_2	1713	10	01000.png	147.5	403.0	3	84	2	147.0	405.25	1	0.5	-2.25
80	vr	04	2019-10-23	loc_2	1714	10	01000.png	146.5	407.5	3	84	2	147.0	405.25	1	-0.5	2.25
