	subject_location	subject_id	date	daytime	setting_id	trial_id	sample_id	sample_n	sample_rate	sample_time_smi	frame_id	frame_n	frame_rate	frame_time_smi	fix_pos_x	fix_pos_y
0	03_valpost	03	17-10-2019	17:29:46:611	rl	valpost	11	11	60	59065	00005.png	1.0	25	59059.0	416	301
1	03_valpost	03	17-10-2019	17:29:46:810	rl	valpost	23	23	60	59264	00010.png	6.0	25	59259.0	418	301
2	03_valpost	03	17-10-2019	17:29:47:009	rl	valpost	35	35	60	59464	00015.png	11.0	25	59459.0	418	303
3	03_valpost	03	17-10-2019	17:29:47:209	rl	valpost	47	47	60	59663	00020.png	16.0	25	59659.0	416	305
4	03_valpost	03	17-10-2019	17:29:47:408	rl	valpost	59	59	60	59862	00025.png	21.0	25	59859.0	417	308
5	03_valpost	03	17-10-2019	17:29:47:607	rl	valpost	71	71	60	60061	00030.png	26.0	25	60059.0	415	311
6	03_valpost	03	17-10-2019	17:29:47:806	rl	valpost	83	83	60	60260	00035.png	31.0	25	60259.0	706	295
7	03_valpost	03	17-10-2019	17:29:48:005	rl	valpost	95	95	60	60459	00040.png	36.0	25	60459.0	728	289
8	03_valpost	03	17-10-2019	17:29:48:204	rl	valpost	107	107	60	60658	00045.png	41.0	25	60659.0	729	284
9	03_valpost	03	17-10-2019	17:29:48:403	rl	valpost	119	119	60	60857	00050.png	46.0	25	60859.0	693	285
10	03_valpost	03	17-10-2019	17:29:48:603	rl	valpost	131	131	60	61057	00055.png	51.0	25	61059.0	693	283
11	03_valpost	03	17-10-2019	17:29:48:802	rl	valpost	143	143	60	61256	00060.png	56.0	25	61259.0	690	283
12	03_valpost	03	17-10-2019	17:29:49:001	rl	valpost	155	155	60	61455	00065.png	61.0	25	61459.0	688	283
13	03_valpost	03	17-10-2019	17:29:49:200	rl	valpost	166	166	60	61654	00070.png	66.0	25	61659.0	687	283
14	03_valpost	03	17-10-2019	17:29:49:399	rl	valpost	177	177	60	61853	00075.png	71.0	25	61859.0	690	283
15	03_valpost	03	17-10-2019	17:29:49:598	rl	valpost	189	189	60	62053	00080.png	76.0	25	62059.0	688	290
16	03_valpost	03	17-10-2019	17:29:49:797	rl	valpost	201	201	60	62252	00085.png	81.0	25	62259.0	686	280
17	03_valpost	03	17-10-2019	17:29:49:996	rl	valpost	213	213	60	62451	00090.png	86.0	25	62459.0	685	288
18	03_valpost	03	17-10-2019	17:29:50:212	rl	valpost	226	226	60	62666	00095.png	91.0	25	62659.0	688	287
19	03_valpost	03	17-10-2019	17:29:50:411	rl	valpost	238	238	60	62866	00100.png	96.0	25	62859.0	686	283
20	03_valpost	03	17-10-2019	17:29:50:610	rl	valpost	250	250	60	63065	00105.png	101.0	25	63059.0	687	284
21	03_valpost	03	17-10-2019	17:29:50:810	rl	valpost	262	262	60	63264	00110.png	106.0	25	63259.0	691	288
22	03_valpost	03	17-10-2019	17:29:51:009	rl	valpost	274	274	60	63463	00115.png	111.0	25	63459.0	687	289
23	03_valpost	03	17-10-2019	17:29:51:208	rl	valpost	286	286	60	63662	00120.png	116.0	25	63659.0	682	287
24	03_valpost	03	17-10-2019	17:29:51:407	rl	valpost	298	298	60	63861	00125.png	121.0	25	63859.0	687	284
25	03_valpost	03	17-10-2019	17:29:51:606	rl	valpost	310	310	60	64061	00130.png	126.0	25	64059.0	687	287
26	03_valpost	03	17-10-2019	17:29:51:805	rl	valpost	322	322	60	64260	00135.png	131.0	25	64259.0	681	290
27	03_valpost	03	17-10-2019	17:29:52:004	rl	valpost	334	334	60	64459	00140.png	136.0	25	64459.0	678	297
28	03_valpost	03	17-10-2019	17:29:52:204	rl	valpost	346	346	60	64658	00145.png	141.0	25	64659.0	673	292
29	03_valpost	03	17-10-2019	17:29:52:403	rl	valpost	358	358	60	64857	00150.png	146.0	25	64859.0	674	284
30	03_valpost	03	17-10-2019	17:29:52:602	rl	valpost	370	370	60	65056	00155.png	151.0	25	65059.0	672	288
31	03_valpost	03	17-10-2019	17:29:52:801	rl	valpost	382	382	60	65255	00160.png	156.0	25	65259.0	519	178
32	03_valpost	03	17-10-2019	17:29:53:001	rl	valpost	394	394	60	65455	00165.png	161.0	25	65459.0	526	159
33	03_valpost	03	17-10-2019	17:29:53:199	rl	valpost	404	404	60	65654	00170.png	166.0	25	65659.0	531	167
34	03_valpost	03	17-10-2019	17:29:53:399	rl	valpost	415	415	60	65853	00175.png	171.0	25	65859.0	536	163
35	03_valpost	03	17-10-2019	17:29:53:598	rl	valpost	427	427	60	66052	00180.png	176.0	25	66059.0	530	157
36	03_valpost	03	17-10-2019	17:29:53:797	rl	valpost	439	439	60	66251	00185.png	181.0	25	66259.0	533	153
37	03_valpost	03	17-10-2019	17:29:54:013	rl	valpost	452	452	60	66467	00190.png	186.0	25	66459.0	536	150
38	03_valpost	03	17-10-2019	17:29:54:212	rl	valpost	464	464	60	66666	00195.png	191.0	25	66659.0	532	154
39	03_valpost	03	17-10-2019	17:29:54:411	rl	valpost	476	476	60	66865	00200.png	196.0	25	66859.0	537	156
40	03_valpost	03	17-10-2019	17:29:54:610	rl	valpost	488	488	60	67064	00205.png	201.0	25	67059.0	539	156
41	03_valpost	03	17-10-2019	17:29:54:810	rl	valpost	500	500	60	67264	00210.png	206.0	25	67259.0	537	156
42	03_valpost	03	17-10-2019	17:29:55:008	rl	valpost	512	512	60	67463	00215.png	211.0	25	67459.0	538	162
43	03_valpost	03	17-10-2019	17:29:55:208	rl	valpost	524	524	60	67662	00220.png	216.0	25	67659.0	534	168
44	03_valpost	03	17-10-2019	17:29:55:407	rl	valpost	536	536	60	67861	00225.png	221.0	25	67859.0	536	168
45	03_valpost	03	17-10-2019	17:29:55:605	rl	valpost	548	548	60	68060	00230.png	226.0	25	68059.0	533	166
46	03_valpost	03	17-10-2019	17:29:55:805	rl	valpost	560	560	60	68259	00235.png	231.0	25	68259.0	531	166
47	03_valpost	03	17-10-2019	17:29:56:004	rl	valpost	572	572	60	68459	00240.png	236.0	25	68459.0	531	162
48	03_valpost	03	17-10-2019	17:29:56:203	rl	valpost	584	584	60	68658	00245.png	241.0	25	68659.0	529	159
49	03_valpost	03	17-10-2019	17:29:56:402	rl	valpost	596	596	60	68857	00250.png	246.0	25	68859.0	525	162
50	03_valpost	03	17-10-2019	17:29:56:602	rl	valpost	608	608	60	69056	00255.png	251.0	25	69059.0	526	156
51	03_valpost	03	17-10-2019	17:29:56:800	rl	valpost	620	620	60	69255	00260.png	256.0	25	69259.0	527	156
52	03_valpost	03	17-10-2019	17:29:57:000	rl	valpost	630	630	60	69454	00265.png	261.0	25	69459.0	525	161
53	03_valpost	03	17-10-2019	17:29:57:199	rl	valpost	642	642	60	69653	00270.png	266.0	25	69659.0	526	162
54	03_valpost	03	17-10-2019	17:29:57:398	rl	valpost	654	654	60	69852	00275.png	271.0	25	69859.0	527	166
55	03_valpost	03	17-10-2019	17:29:57:597	rl	valpost	666	666	60	70051	00280.png	276.0	25	70059.0	529	169
56	03_valpost	03	17-10-2019	17:29:57:813	rl	valpost	679	679	60	70267	00285.png	281.0	25	70259.0	533	167
57	03_valpost	03	17-10-2019	17:29:58:012	rl	valpost	691	691	60	70466	00290.png	286.0	25	70459.0	417	310
58	03_valpost	03	17-10-2019	17:29:58:211	rl	valpost	703	703	60	70665	00295.png	291.0	25	70659.0	408	322
59	03_valpost	03	17-10-2019	17:29:58:410	rl	valpost	715	715	60	70865	00300.png	296.0	25	70859.0	410	319
60	03_valpost	03	17-10-2019	17:29:58:609	rl	valpost	727	727	60	71064	00305.png	301.0	25	71059.0	417	314
61	03_valpost	03	17-10-2019	17:29:58:809	rl	valpost	739	739	60	71263	00310.png	306.0	25	71259.0	418	307
62	03_valpost	03	17-10-2019	17:29:59:008	rl	valpost	751	751	60	71462	00315.png	311.0	25	71459.0	419	304
63	03_valpost	03	17-10-2019	17:29:59:207	rl	valpost	763	763	60	71661	00320.png	316.0	25	71659.0	415	300
64	03_valpost	03	17-10-2019	17:29:59:406	rl	valpost	775	775	60	71861	00325.png	321.0	25	71859.0	422	300
65	03_valpost	03	17-10-2019	17:29:59:605	rl	valpost	787	787	60	72060	00330.png	326.0	25	72059.0	418	299
66	03_valpost	03	17-10-2019	17:29:59:804	rl	valpost	799	799	60	72259	00335.png	331.0	25	72259.0	422	295
67	03_valpost	03	17-10-2019	17:30:00:004	rl	valpost	811	811	60	72458	00340.png	336.0	25	72459.0	429	286
68	03_valpost	03	17-10-2019	17:30:00:202	rl	valpost	823	823	60	72657	00345.png	341.0	25	72659.0	427	290
69	03_valpost	03	17-10-2019	17:30:00:402	rl	valpost	835	835	60	72856	00350.png	346.0	25	72859.0	429	284
70	03_valpost	03	17-10-2019	17:30:00:601	rl	valpost	847	847	60	73055	00355.png	351.0	25	73059.0	431	284
71	03_valpost	03	17-10-2019	17:30:00:816	rl	valpost	858	858	60	73271	00360.png	356.0	25	73259.0	432	284
72	03_valpost	03	17-10-2019	17:30:00:999	rl	valpost	867	867	60	73453	00365.png	361.0	25	73459.0	433	274
73	03_valpost	03	17-10-2019	17:30:01:198	rl	valpost	879	879	60	73653	00370.png	366.0	25	73659.0	435	283
74	03_valpost	03	17-10-2019	17:30:01:397	rl	valpost	891	891	60	73852	00375.png	371.0	25	73859.0	438	262
75	03_valpost	03	17-10-2019	17:30:01:597	rl	valpost	903	903	60	74051	00380.png	376.0	25	74059.0	439	272
76	03_valpost	03	17-10-2019	17:30:01:813	rl	valpost	916	916	60	74267	00385.png	381.0	25	74259.0	443	269
77	03_valpost	03	17-10-2019	17:30:02:012	rl	valpost	928	928	60	74466	00390.png	386.0	25	74459.0	445	269
78	03_valpost	03	17-10-2019	17:30:02:211	rl	valpost	940	940	60	74665	00395.png	391.0	25	74659.0	446	262
79	03_valpost	03	17-10-2019	17:30:02:410	rl	valpost	952	952	60	74864	00400.png	396.0	25	74859.0	445	257
80	03_valpost	03	17-10-2019	17:30:02:609	rl	valpost	964	964	60	75064	00405.png	401.0	25	75059.0	442	259
81	03_valpost	03	17-10-2019	17:30:02:808	rl	valpost	976	976	60	75263	00410.png	406.0	25	75259.0	440	258
82	03_valpost	03	17-10-2019	17:30:03:007	rl	valpost	988	988	60	75462	00415.png	411.0	25	75459.0	443	262
83	03_valpost	03	17-10-2019	17:30:03:206	rl	valpost	1000	1000	60	75661	00420.png	416.0	25	75659.0	706	254
84	03_valpost	03	17-10-2019	17:30:03:406	rl	valpost	1012	1012	60	75860	00425.png	421.0	25	75859.0	714	251
85	03_valpost	03	17-10-2019	17:30:03:605	rl	valpost	1024	1024	60	76059	00430.png	426.0	25	76059.0	721	251
86	03_valpost	03	17-10-2019	17:30:03:804	rl	valpost	1036	1036	60	76258	00435.png	431.0	25	76259.0	719	250
87	03_valpost	03	17-10-2019	17:30:04:003	rl	valpost	1048	1048	60	76457	00440.png	436.0	25	76459.0	717	244
88	03_valpost	03	17-10-2019	17:30:04:202	rl	valpost	1060	1060	60	76656	00445.png	441.0	25	76659.0	712	244
89	03_valpost	03	17-10-2019	17:30:04:402	rl	valpost	1072	1072	60	76856	00450.png	446.0	25	76859.0	712	248
90	03_valpost	03	17-10-2019	17:30:04:600	rl	valpost	1084	1084	60	77055	00455.png	451.0	25	77059.0	717	246
91	03_valpost	03	17-10-2019	17:30:04:800	rl	valpost	1093	1093	60	77254	00460.png	456.0	25	77259.0	715	244
92	03_valpost	03	17-10-2019	17:30:04:999	rl	valpost	1105	1105	60	77453	00465.png	461.0	25	77459.0	717	244
93	03_valpost	03	17-10-2019	17:30:05:198	rl	valpost	1117	1117	60	77652	00470.png	466.0	25	77659.0	712	244
94	03_valpost	03	17-10-2019	17:30:05:397	rl	valpost	1128	1128	60	77851	00475.png	471.0	25	77859.0	712	247
95	03_valpost	03	17-10-2019	17:30:05:613	rl	valpost	1141	1141	60	78067	00480.png	476.0	25	78059.0	710	247
96	03_valpost	03	17-10-2019	17:30:05:812	rl	valpost	1153	1153	60	78266	00485.png	481.0	25	78259.0	707	249
97	03_valpost	03	17-10-2019	17:30:06:011	rl	valpost	1165	1165	60	78465	00490.png	486.0	25	78459.0	712	258
98	03_valpost	03	17-10-2019	17:30:06:210	rl	valpost	1177	1177	60	78664	00495.png	491.0	25	78659.0	704	259
99	03_valpost	03	17-10-2019	17:30:06:410	rl	valpost	1189	1189	60	78864	00500.png	496.0	25	78859.0	706	260
100	03_valpost	03	17-10-2019	17:30:06:609	rl	valpost	1201	1201	60	79063	00505.png	501.0	25	79059.0	708	259
101	03_valpost	03	17-10-2019	17:30:06:808	rl	valpost	1213	1213	60	79262	00510.png	506.0	25	79259.0	707	259
102	03_valpost	03	17-10-2019	17:30:07:007	rl	valpost	1225	1225	60	79461	00515.png	511.0	25	79459.0	710	255
103	03_valpost	03	17-10-2019	17:30:07:206	rl	valpost	1237	1237	60	79660	00520.png	516.0	25	79659.0	712	257
104	03_valpost	03	17-10-2019	17:30:07:405	rl	valpost	1249	1249	60	79859	00525.png	521.0	25	79859.0	716	258
105	03_valpost	03	17-10-2019	17:30:07:604	rl	valpost	1261	1261	60	80059	00530.png	526.0	25	80059.0	714	256
106	03_valpost	03	17-10-2019	17:30:07:804	rl	valpost	1273	1273	60	80258	00535.png	531.0	25	80259.0	576	143
107	03_valpost	03	17-10-2019	17:30:08:003	rl	valpost	1285	1285	60	80457	00540.png	536.0	25	80459.0	579	127
108	03_valpost	03	17-10-2019	17:30:08:202	rl	valpost	1297	1297	60	80656	00545.png	541.0	25	80659.0	574	134
109	03_valpost	03	17-10-2019	17:30:08:401	rl	valpost	1309	1309	60	80855	00550.png	546.0	25	80859.0	570	130
110	03_valpost	03	17-10-2019	17:30:08:600	rl	valpost	1319	1319	60	81054	00555.png	551.0	25	81059.0	577	128
111	03_valpost	03	17-10-2019	17:30:08:799	rl	valpost	1330	1330	60	81253	00560.png	556.0	25	81259.0	576	124
112	03_valpost	03	17-10-2019	17:30:08:999	rl	valpost	1342	1342	60	81453	00565.png	561.0	25	81459.0	574	125
113	03_valpost	03	17-10-2019	17:30:09:197	rl	valpost	1354	1354	60	81652	00570.png	566.0	25	81659.0	575	129
114	03_valpost	03	17-10-2019	17:30:09:396	rl	valpost	1366	1366	60	81851	00575.png	571.0	25	81859.0	580	129
115	03_valpost	03	17-10-2019	17:30:09:612	rl	valpost	1379	1379	60	82067	00580.png	576.0	25	82059.0	575	133
116	03_valpost	03	17-10-2019	17:30:09:812	rl	valpost	1391	1391	60	82266	00585.png	581.0	25	82259.0	574	130
117	03_valpost	03	17-10-2019	17:30:10:011	rl	valpost	1403	1403	60	82465	00590.png	586.0	25	82459.0	573	128
118	03_valpost	03	17-10-2019	17:30:10:210	rl	valpost	1415	1415	60	82664	00595.png	591.0	25	82659.0	574	128
119	03_valpost	03	17-10-2019	17:30:10:409	rl	valpost	1427	1427	60	82863	00600.png	596.0	25	82859.0	574	129
120	03_valpost	03	17-10-2019	17:30:10:608	rl	valpost	1439	1439	60	83062	00605.png	601.0	25	83059.0	579	131
121	03_valpost	03	17-10-2019	17:30:10:807	rl	valpost	1451	1451	60	83262	00610.png	606.0	25	83259.0	579	131
122	03_valpost	03	17-10-2019	17:30:11:007	rl	valpost	1463	1463	60	83461	00615.png	611.0	25	83459.0	576	137
123	03_valpost	03	17-10-2019	17:30:11:206	rl	valpost	1475	1475	60	83660	00620.png	616.0	25	83659.0	580	136
124	03_valpost	03	17-10-2019	17:30:11:405	rl	valpost	1487	1487	60	83859	00625.png	621.0	25	83859.0	578	136
125	03_valpost	03	17-10-2019	17:30:11:604	rl	valpost	1499	1499	60	84058	00630.png	626.0	25	84059.0	577	137
126	03_valpost	03	17-10-2019	17:30:11:803	rl	valpost	1511	1511	60	84257	00635.png	631.0	25	84259.0	570	137
127	03_valpost	03	17-10-2019	17:30:12:002	rl	valpost	1523	1523	60	84456	00640.png	636.0	25	84459.0	571	146
128	03_valpost	03	17-10-2019	17:30:12:201	rl	valpost	1535	1535	60	84655	00645.png	641.0	25	84659.0	453	293
129	03_valpost	03	17-10-2019	17:30:12:400	rl	valpost	1547	1547	60	84855	00650.png	646.0	25	84859.0	446	297
130	03_valpost	03	17-10-2019	17:30:12:599	rl	valpost	1557	1557	60	85054	00655.png	651.0	25	85059.0	448	296
131	03_valpost	03	17-10-2019	17:30:12:799	rl	valpost	1569	1569	60	85253	00660.png	656.0	25	85259.0	447	293
132	03_valpost	03	17-10-2019	17:30:12:998	rl	valpost	1581	1581	60	85452	00665.png	661.0	25	85459.0	445	286
133	03_valpost	03	17-10-2019	17:30:13:197	rl	valpost	1593	1593	60	85652	00670.png	666.0	25	85659.0	445	287
134	03_valpost	03	17-10-2019	17:30:13:396	rl	valpost	1605	1605	60	85851	00675.png	671.0	25	85859.0	447	287
135	03_valpost	03	17-10-2019	17:30:13:612	rl	valpost	1618	1618	60	86066	00680.png	676.0	25	86059.0	448	283
136	03_valpost	03	17-10-2019	17:30:13:811	rl	valpost	1630	1630	60	86265	00685.png	681.0	25	86259.0	448	288
137	03_valpost	03	17-10-2019	17:30:14:010	rl	valpost	1642	1642	60	86464	00690.png	686.0	25	86459.0	446	288
138	03_valpost	03	17-10-2019	17:30:14:209	rl	valpost	1654	1654	60	86663	00695.png	691.0	25	86659.0	448	287
139	03_valpost	03	17-10-2019	17:30:14:408	rl	valpost	1666	1666	60	86862	00700.png	696.0	25	86859.0	452	290
140	03_valpost	03	17-10-2019	17:30:14:607	rl	valpost	1678	1678	60	87062	00705.png	701.0	25	87059.0	454	286
141	03_valpost	03	17-10-2019	17:30:14:807	rl	valpost	1690	1690	60	87261	00710.png	706.0	25	87259.0	451	287
142	03_valpost	03	17-10-2019	17:30:15:006	rl	valpost	1702	1702	60	87460	00715.png	711.0	25	87459.0	451	377
143	03_valpost	03	17-10-2019	17:30:15:205	rl	valpost	1714	1714	60	87659	00720.png	716.0	25	87659.0	457	288
144	03_valpost	03	17-10-2019	17:30:15:404	rl	valpost	1726	1726	60	87858	00725.png	721.0	25	87859.0	453	286
145	03_valpost	03	17-10-2019	17:30:15:603	rl	valpost	1738	1738	60	88058	00730.png	726.0	25	88059.0	453	278
146	03_valpost	03	17-10-2019	17:30:15:802	rl	valpost	1750	1750	60	88257	00735.png	731.0	25	88259.0	452	268
147	03_valpost	03	17-10-2019	17:30:16:002	rl	valpost	1762	1762	60	88456	00740.png	736.0	25	88459.0	455	268
148	03_valpost	03	17-10-2019	17:30:16:201	rl	valpost	1774	1774	60	88655	00745.png	741.0	25	88659.0	455	271
149	03_valpost	03	17-10-2019	17:30:16:400	rl	valpost	1782	1782	60	88854	00750.png	746.0	25	88859.0	455	267
150	03_valpost	03	17-10-2019	17:30:16:599	rl	valpost	1794	1794	60	89053	00755.png	751.0	25	89059.0	456	263
151	03_valpost	03	17-10-2019	17:30:16:798	rl	valpost	1806	1806	60	89252	00760.png	756.0	25	89259.0	455	266
152	03_valpost	03	17-10-2019	17:30:16:997	rl	valpost	1818	1818	60	89452	00765.png	761.0	25	89459.0	455	266
153	03_valpost	03	17-10-2019	17:30:17:196	rl	valpost	1830	1830	60	89651	00770.png	766.0	25	89659.0	733	254
154	03_valpost	03	17-10-2019	17:30:17:412	rl	valpost	1843	1843	60	89866	00775.png	771.0	25	89859.0	738	246
155	03_valpost	03	17-10-2019	17:30:17:611	rl	valpost	1855	1855	60	90065	00780.png	776.0	25	90059.0	731	243
156	03_valpost	03	17-10-2019	17:30:17:810	rl	valpost	1867	1867	60	90265	00785.png	781.0	25	90259.0	724	243
157	03_valpost	03	17-10-2019	17:30:18:010	rl	valpost	1879	1879	60	90464	00790.png	786.0	25	90459.0	720	241
158	03_valpost	03	17-10-2019	17:30:18:209	rl	valpost	1891	1891	60	90663	00795.png	791.0	25	90659.0	720	234
159	03_valpost	03	17-10-2019	17:30:18:408	rl	valpost	1903	1903	60	90862	00800.png	796.0	25	90859.0	723	230
160	03_valpost	03	17-10-2019	17:30:18:607	rl	valpost	1915	1915	60	91062	00805.png	801.0	25	91059.0	722	230
161	03_valpost	03	17-10-2019	17:30:18:806	rl	valpost	1927	1927	60	91261	00810.png	806.0	25	91259.0	719	231
162	03_valpost	03	17-10-2019	17:30:19:005	rl	valpost	1939	1939	60	91460	00815.png	811.0	25	91459.0	720	233
163	03_valpost	03	17-10-2019	17:30:19:205	rl	valpost	1951	1951	60	91659	00820.png	816.0	25	91659.0	723	231
164	03_valpost	03	17-10-2019	17:30:19:404	rl	valpost	1963	1963	60	91858	00825.png	821.0	25	91859.0	722	233
165	03_valpost	03	17-10-2019	17:30:19:603	rl	valpost	1975	1975	60	92057	00830.png	826.0	25	92059.0	721	236
166	03_valpost	03	17-10-2019	17:30:19:802	rl	valpost	1987	1987	60	92256	00835.png	831.0	25	92259.0	715	237
167	03_valpost	03	17-10-2019	17:30:20:001	rl	valpost	1999	1999	60	92455	00840.png	836.0	25	92459.0	711	235
168	03_valpost	03	17-10-2019	17:30:20:200	rl	valpost	2011	2011	60	92654	00845.png	841.0	25	92659.0	709	237
169	03_valpost	03	17-10-2019	17:30:20:399	rl	valpost	2020	2020	60	92854	00850.png	846.0	25	92859.0	708	234
170	03_valpost	03	17-10-2019	17:30:20:598	rl	valpost	2032	2032	60	93053	00855.png	851.0	25	93059.0	709	238
171	03_valpost	03	17-10-2019	17:30:20:797	rl	valpost	2044	2044	60	93252	00860.png	856.0	25	93259.0	711	239
172	03_valpost	03	17-10-2019	17:30:20:997	rl	valpost	2056	2056	60	93451	00865.png	861.0	25	93459.0	714	243
173	03_valpost	03	17-10-2019	17:30:21:212	rl	valpost	2069	2069	60	93667	00870.png	866.0	25	93659.0	709	240
174	03_valpost	03	17-10-2019	17:30:21:412	rl	valpost	2081	2081	60	93866	00875.png	871.0	25	93859.0	709	232
175	03_valpost	03	17-10-2019	17:30:21:611	rl	valpost	2093	2093	60	94065	00880.png	876.0	25	94059.0	709	236
176	03_valpost	03	17-10-2019	17:30:21:810	rl	valpost	2105	2105	60	94264	00885.png	881.0	25	94259.0	709	238
177	03_valpost	03	17-10-2019	17:30:22:009	rl	valpost	2117	2117	60	94463	00890.png	886.0	25	94459.0	709	242
178	03_valpost	03	17-10-2019	17:30:22:208	rl	valpost	2129	2129	60	94662	00895.png	891.0	25	94659.0	720	243
179	03_valpost	03	17-10-2019	17:30:22:407	rl	valpost	2141	2141	60	94862	00900.png	896.0	25	94859.0	718	240
180	03_valpost	03	17-10-2019	17:30:22:606	rl	valpost	2153	2153	60	95061	00905.png	901.0	25	95059.0	570	134
181	03_valpost	03	17-10-2019	17:30:22:805	rl	valpost	2165	2165	60	95260	00910.png	906.0	25	95259.0	556	106
182	03_valpost	03	17-10-2019	17:30:23:005	rl	valpost	2177	2177	60	95459	00915.png	911.0	25	95459.0	559	117
183	03_valpost	03	17-10-2019	17:30:23:204	rl	valpost	2189	2189	60	95658	00920.png	916.0	25	95659.0	560	116
184	03_valpost	03	17-10-2019	17:30:23:403	rl	valpost	2201	2201	60	95857	00925.png	921.0	25	95859.0	560	112
185	03_valpost	03	17-10-2019	17:30:23:602	rl	valpost	2213	2213	60	96057	00930.png	926.0	25	96059.0	560	122
186	03_valpost	03	17-10-2019	17:30:23:801	rl	valpost	2225	2225	60	96256	00935.png	931.0	25	96259.0	565	120
187	03_valpost	03	17-10-2019	17:30:24:001	rl	valpost	2237	2237	60	96455	00940.png	936.0	25	96459.0	565	121
188	03_valpost	03	17-10-2019	17:30:24:199	rl	valpost	2246	2246	60	96654	00945.png	941.0	25	96659.0	563	121
189	03_valpost	03	17-10-2019	17:30:24:399	rl	valpost	2258	2258	60	96853	00950.png	946.0	25	96859.0	559	123
190	03_valpost	03	17-10-2019	17:30:24:598	rl	valpost	2270	2270	60	97052	00955.png	951.0	25	97059.0	564	124
191	03_valpost	03	17-10-2019	17:30:24:797	rl	valpost	2282	2282	60	97251	00960.png	956.0	25	97259.0	562	123
192	03_valpost	03	17-10-2019	17:30:25:013	rl	valpost	2295	2295	60	97467	00965.png	961.0	25	97459.0	557	116
193	03_valpost	03	17-10-2019	17:30:25:212	rl	valpost	2307	2307	60	97666	00970.png	966.0	25	97659.0	562	120
194	03_valpost	03	17-10-2019	17:30:25:411	rl	valpost	2319	2319	60	97865	00975.png	971.0	25	97859.0	555	119
195	03_valpost	03	17-10-2019	17:30:25:610	rl	valpost	2331	2331	60	98065	00980.png	976.0	25	98059.0	561	122
196	03_valpost	03	17-10-2019	17:30:25:809	rl	valpost	2343	2343	60	98264	00985.png	981.0	25	98259.0	561	128
197	03_valpost	03	17-10-2019	17:30:26:008	rl	valpost	2355	2355	60	98463	00990.png	986.0	25	98459.0	560	123
198	03_valpost	03	17-10-2019	17:30:26:208	rl	valpost	2367	2367	60	98662	00995.png	991.0	25	98659.0	561	129
199	03_valpost	03	17-10-2019	17:30:26:407	rl	valpost	2379	2379	60	98861	01000.png	996.0	25	98859.0	560	129
200	03_valpost	03	17-10-2019	17:30:26:606	rl	valpost	2391	2391	60	99060	01005.png	1001.0	25	99059.0	561	129
201	03_valpost	03	17-10-2019	17:30:26:805	rl	valpost	2403	2403	60	99259	01010.png	1006.0	25	99259.0	560	131
202	03_valpost	03	17-10-2019	17:30:27:004	rl	valpost	2415	2415	60	99458	01015.png	1011.0	25	99459.0	559	131
203	03_valpost	03	17-10-2019	17:30:27:203	rl	valpost	2427	2427	60	99658	01020.png	1016.0	25	99659.0	558	127
204	03_valpost	03	17-10-2019	17:30:27:403	rl	valpost	2439	2439	60	99857	01025.png	1021.0	25	99859.0	560	128
205	03_valpost	03	17-10-2019	17:30:27:601	rl	valpost	2451	2451	60	100056	01030.png	1026.0	25	100059.0	558	122
206	03_valpost	03	17-10-2019	17:30:27:801	rl	valpost	2463	2463	60	100255	01035.png	1031.0	25	100259.0	561	127
207	03_valpost	03	17-10-2019	17:30:28:000	rl	valpost	2473	2473	60	100454	01040.png	1036.0	25	100459.0	564	126
208	03_valpost	03	17-10-2019	17:30:28:199	rl	valpost	2483	2483	60	100653	01045.png	1041.0	25	100659.0	565	129
209	03_valpost	03	17-10-2019	17:30:28:398	rl	valpost	2495	2495	60	100852	01050.png	1046.0	25	100859.0	567	127
