	setting_id	subject_id	date	trial_id	sample_id	frame_rate	frame_id	fix_pos_x_old	fix_pos_y_old	cam_angle_x	cam_angle_y	cam_angle_z	fix_pos_x	fix_pos_y	fix_pos_avrgd	fix_pos_diff_x	fix_pos_diff_y
0	vr	31	2019-12-09	gas_1	475	10	00260.png	383.0	422.0	358	185	358	383.0	422.0	0	0.0	0.0
1	vr	31	2019-12-09	gas_1	493	10	00270.png	385.5	421.0	358	185	358	385.5	421.0	0	0.0	0.0
2	vr	31	2019-12-09	gas_1	510	10	00280.png	365.0	419.0	358	184	359	365.0	419.0	0	0.0	0.0
3	vr	31	2019-12-09	gas_1	511	10	00280.png	365.0	419.0	358	184	359	365.0	419.0	0	0.0	0.0
4	vr	31	2019-12-09	gas_1	529	10	00290.png	402.0	411.0	359	185	358	402.0	411.0	0	0.0	0.0
5	vr	31	2019-12-09	gas_1	545	10	00300.png	421.0	422.5	359	185	358	421.0	422.5	0	0.0	0.0
6	vr	31	2019-12-09	gas_1	563	10	00310.png	421.5	416.0	359	186	358	421.5	416.0	0	0.0	0.0
7	vr	31	2019-12-09	gas_1	580	10	00320.png	0.0	840.0	360	186	358	0.0	840.0	0	0.0	0.0
8	vr	31	2019-12-09	gas_1	596	10	00330.png	423.0	411.5	360	187	358	422.75	411.0	1	0.25	0.5
9	vr	31	2019-12-09	gas_1	597	10	00330.png	422.5	410.5	360	187	358	422.75	411.0	1	-0.25	-0.5
10	vr	31	2019-12-09	gas_1	611	10	00340.png	417.0	439.5	0	188	358	417.0	439.5	0	0.0	0.0
11	vr	31	2019-12-09	gas_1	628	10	00350.png	494.0	436.5	0	189	358	494.0	436.5	0	0.0	0.0
12	vr	31	2019-12-09	gas_1	629	10	00350.png	494.0	436.5	0	189	358	494.0	436.5	0	0.0	0.0
13	vr	31	2019-12-09	gas_1	643	10	00360.png	227.5	413.5	360	186	358	227.5	413.5	0	0.0	0.0
14	vr	31	2019-12-09	gas_1	660	10	00370.png	153.0	428.0	358	173	357	153.0	428.0	0	0.0	0.0
15	vr	31	2019-12-09	gas_1	676	10	00380.png	278.0	438.0	357	163	357	278.0	438.0	0	0.0	0.0
16	vr	31	2019-12-09	gas_1	694	10	00390.png	467.5	435.0	357	171	357	467.5	435.0	0	0.0	0.0
17	vr	31	2019-12-09	gas_1	712	10	00400.png	418.0	435.0	357	177	357	418.0	435.0	0	0.0	0.0
18	vr	31	2019-12-09	gas_1	730	10	00410.png	465.5	414.5	357	174	358	465.5	414.5	0	0.0	0.0
19	vr	31	2019-12-09	gas_1	747	10	00420.png	473.5	414.5	357	174	357	473.5	414.5	0	0.0	0.0
20	vr	31	2019-12-09	gas_1	764	10	00430.png	492.0	430.0	357	175	357	492.0	430.0	0	0.0	0.0
21	vr	31	2019-12-09	gas_1	781	10	00440.png	485.5	433.5	357	176	357	485.5	433.5	0	0.0	0.0
22	vr	31	2019-12-09	gas_1	797	10	00450.png	579.5	436.0	357	181	357	579.5	436.0	0	0.0	0.0
23	vr	31	2019-12-09	gas_1	814	10	00460.png	523.0	392.0	356	192	357	522.0	390.25	1	1.0	1.75
24	vr	31	2019-12-09	gas_1	815	10	00460.png	521.0	388.5	356	192	357	522.0	390.25	1	-1.0	-1.75
25	vr	31	2019-12-09	gas_1	828	10	00470.png	589.0	419.5	356	209	357	589.0	419.5	0	0.0	0.0
26	vr	31	2019-12-09	gas_1	846	10	00480.png	474.5	423.5	359	229	355	474.5	423.5	0	0.0	0.0
27	vr	31	2019-12-09	gas_1	864	10	00490.png	573.5	427.0	1	252	355	573.5	427.0	0	0.0	0.0
28	vr	31	2019-12-09	gas_1	881	10	00500.png	528.5	423.0	2	267	355	528.5	423.0	0	0.0	0.0
29	vr	31	2019-12-09	gas_1	898	10	00510.png	459.5	421.5	2	274	354	459.5	421.5	0	0.0	0.0
30	vr	31	2019-12-09	gas_1	915	10	00520.png	442.5	414.5	2	278	355	442.5	414.5	0	0.0	0.0
31	vr	31	2019-12-09	gas_1	929	10	00530.png	530.5	389.0	3	285	356	530.5	389.0	0	0.0	0.0
32	vr	31	2019-12-09	gas_1	946	10	00540.png	542.5	383.0	3	292	357	542.5	383.0	0	0.0	0.0
33	vr	31	2019-12-09	gas_1	964	10	00550.png	549.0	382.0	3	298	357	549.0	382.0	0	0.0	0.0
34	vr	31	2019-12-09	gas_1	980	10	00560.png	418.5	344.0	1	303	357	418.5	344.0	0	0.0	0.0
35	vr	31	2019-12-09	gas_1	996	10	00570.png	396.5	338.0	360	306	357	396.5	338.0	0	0.0	0.0
36	vr	31	2019-12-09	gas_1	1014	10	00580.png	398.0	338.0	0	307	358	398.0	338.0	0	0.0	0.0
37	vr	31	2019-12-09	gas_1	1029	10	00590.png	590.0	392.5	3	314	358	590.0	392.5	0	0.0	0.0
38	vr	31	2019-12-09	gas_1	1046	10	00600.png	596.5	384.5	5	318	358	596.5	384.5	0	0.0	0.0
39	vr	31	2019-12-09	gas_1	1064	10	00610.png	566.0	384.0	5	323	357	566.0	384.0	0	0.0	0.0
40	vr	31	2019-12-09	gas_1	1081	10	00620.png	475.5	384.0	5	323	357	475.5	384.0	0	0.0	0.0
41	vr	31	2019-12-09	gas_1	1098	10	00630.png	390.0	391.5	3	319	358	390.0	391.5	0	0.0	0.0
42	vr	31	2019-12-09	gas_1	1115	10	00640.png	283.0	422.5	3	309	357	284.25	422.75	1	-1.25	-0.25
43	vr	31	2019-12-09	gas_1	1116	10	00640.png	285.5	423.0	3	308	357	284.25	422.75	1	1.25	0.25
44	vr	31	2019-12-09	gas_1	1131	10	00650.png	298.5	420.5	3	302	357	298.5	420.5	0	0.0	0.0
45	vr	31	2019-12-09	gas_1	1149	10	00660.png	327.0	412.0	3	297	358	327.0	412.0	0	0.0	0.0
46	vr	31	2019-12-09	gas_1	1167	10	00670.png	387.5	426.5	3	291	358	387.5	426.5	0	0.0	0.0
47	vr	31	2019-12-09	gas_1	1185	10	00680.png	391.5	409.0	4	286	358	391.5	409.0	0	0.0	0.0
48	vr	31	2019-12-09	gas_1	1203	10	00690.png	330.5	368.0	3	281	359	330.5	368.0	0	0.0	0.0
49	vr	31	2019-12-09	gas_1	1221	10	00700.png	368.5	351.5	1	277	359	368.5	351.5	0	0.0	0.0
50	vr	31	2019-12-09	gas_1	1237	10	00710.png	407.5	353.0	359	270	359	407.5	353.0	0	0.0	0.0
51	vr	31	2019-12-09	gas_1	1254	10	00720.png	416.0	344.5	356	266	358	416.0	344.5	0	0.0	0.0
52	vr	31	2019-12-09	gas_1	1272	10	00730.png	353.0	556.0	356	264	358	353.0	556.0	0	0.0	0.0
53	vr	31	2019-12-09	gas_1	1289	10	00740.png	443.5	362.0	356	263	357	443.5	362.0	0	0.0	0.0
54	vr	31	2019-12-09	gas_1	1307	10	00750.png	451.5	360.0	356	262	357	451.5	360.0	0	0.0	0.0
55	vr	31	2019-12-09	gas_1	1324	10	00760.png	469.5	340.0	355	260	357	469.5	340.0	0	0.0	0.0
56	vr	31	2019-12-09	gas_1	1341	10	00770.png	485.0	335.5	355	256	357	486.0	335.5	1	-1.0	0.0
57	vr	31	2019-12-09	gas_1	1342	10	00770.png	487.0	335.5	355	256	357	486.0	335.5	1	1.0	0.0
58	vr	31	2019-12-09	gas_1	1355	10	00780.png	218.5	394.0	354	237	356	218.5	394.0	0	0.0	0.0
59	vr	31	2019-12-09	gas_1	1373	10	00790.png	247.5	433.5	356	212	357	247.5	433.5	0	0.0	0.0
60	vr	31	2019-12-09	gas_1	1390	10	00800.png	338.0	436.0	357	201	357	338.0	436.0	0	0.0	0.0
61	vr	31	2019-12-09	gas_1	1408	10	00810.png	377.5	427.5	357	191	357	377.5	427.5	0	0.0	0.0
62	vr	31	2019-12-09	gas_1	1426	10	00820.png	431.0	419.0	359	178	356	431.0	419.0	0	0.0	0.0
63	vr	31	2019-12-09	gas_1	1444	10	00830.png	181.5	449.0	0	143	355	181.5	449.0	0	0.0	0.0
64	vr	31	2019-12-09	gas_1	1461	10	00840.png	200.0	467.0	360	116	356	200.0	467.0	0	0.0	0.0
65	vr	31	2019-12-09	gas_1	1478	10	00850.png	308.0	444.0	360	101	358	308.0	444.0	0	0.0	0.0
66	vr	31	2019-12-09	gas_1	1495	10	00860.png	359.0	405.5	2	93	359	361.5	403.0	1	-2.5	2.5
67	vr	31	2019-12-09	gas_1	1496	10	00860.png	364.0	400.5	2	92	359	361.5	403.0	1	2.5	-2.5
68	vr	31	2019-12-09	gas_1	1512	10	00870.png	347.0	365.0	2	88	359	347.0	365.0	0	0.0	0.0
69	vr	31	2019-12-09	gas_1	1529	10	00880.png	374.5	357.5	2	86	358	374.5	357.5	0	0.0	0.0
70	vr	31	2019-12-09	gas_1	1546	10	00890.png	405.5	385.5	4	86	358	405.5	385.5	0	0.0	0.0
71	vr	31	2019-12-09	gas_1	1564	10	00900.png	302.5	401.5	3	82	358	302.5	401.5	0	0.0	0.0
72	vr	31	2019-12-09	gas_1	1582	10	00910.png	218.0	411.0	3	76	359	218.0	411.0	0	0.0	0.0
73	vr	31	2019-12-09	gas_1	1600	10	00920.png	215.0	410.5	3	73	359	215.0	410.5	0	0.0	0.0
74	vr	31	2019-12-09	gas_1	1617	10	00930.png	150.0	405.5	3	69	0	150.0	405.5	0	0.0	0.0
75	vr	31	2019-12-09	gas_1	1634	10	00940.png	382.0	425.0	2	70	1	382.0	425.0	0	0.0	0.0
76	vr	31	2019-12-09	gas_1	1651	10	00950.png	376.5	425.5	2	73	1	376.5	425.5	0	0.0	0.0
77	vr	31	2019-12-09	gas_1	1669	10	00960.png	348.5	395.0	1	77	1	348.5	395.0	0	0.0	0.0
78	vr	31	2019-12-09	gas_1	1686	10	00970.png	437.5	414.0	2	81	0	437.5	414.0	0	0.0	0.0
79	vr	31	2019-12-09	gas_1	1703	10	00980.png	417.5	405.0	2	87	1	417.5	405.0	0	0.0	0.0
80	vr	31	2019-12-09	gas_1	1720	10	00990.png	401.0	411.5	1	94	0	398.75	411.75	1	2.25	-0.25
81	vr	31	2019-12-09	gas_1	1721	10	00990.png	396.5	412.0	1	94	0	398.75	411.75	1	-2.25	0.25
82	vr	31	2019-12-09	gas_1	1737	10	01000.png	378.0	413.5	1	100	359	377.0	414.0	1	1.0	-0.5
83	vr	31	2019-12-09	gas_1	1738	10	01000.png	376.0	414.5	1	100	359	377.0	414.0	1	-1.0	0.5
