subject_id	date	daytime	setting_start	correct_date	correct_daytime	notes
01	16.10.19	14:39:11:366	vr	22.10.19	10:29	Zeitlicher Unterschied: -4 Stunden 10 min
02	16.10.19	16:37:10:981	rl	22.10.19	12:27	
03	17.10.19	16:27:48:618	vr	23.10.19	12:17	
04	17.10.19	18:43:28:717	rl	23.10.19	14:33	
05	17.10.19	20:50:32:514	vr	23.10.19	16:40	
06	18.10.19	12:19:43:546	rl	24.10.19	08:09	
07	18.10.19	14:38:48:629	vr	24.10.19	10:28	
08	18.10.19	16:57:47:083	rl	24.10.19	12:47	
09	18.10.19	18:58:49:820	vr	24.10.19	14:48	
10	19.10.19	18:17:03:058	rl	25.10.19	14:07	
11	19.10.19	20:39:50:104	vr	25.10.19	16:29	
12	22.10.19	13:19:32:487	rl	28.10.19	08:09	Ab Hier Winterzeit; Zeitlicher Unterschied -5 Stunden 10 min 
13	22.10.19	15:48:24:371	vr	28.10.19	10:38	
14	22.10.19	17:43:12:099	rl	28.10.19	12:33	
15	22.10.19	19:35:47:958	vr	28.10.19	14:25	
16	23.10.19	15:28:34:749	rl	29.10.19	10:18	
17	23.10.19	17:57:25:062	vr	29.10.19	12:47	
18	23.10.19	19:55:13:866	rl	29.10.19	14:45	
19	24.10.19	13:33:17:583	vr	30.10.19	08:23	
20	24.10.19	15:20:27:079	rl	30.10.19	10:10	
21	24.10.19	17:54:19:961	vr	30.10.19	12:44	
22	24.10.19	19:44:48:723	rl	30.10.19	14:34	
23	25.10.19	13:31:45:148	vr	31.10.19	08:21	
24	25.10.19	15:35:04:889	rl	31.10.19	10:25	
25	25.10.19	17:46:22:726	vr	31.10.19	12:36	
26	26.10.19	19:16:27:986	rl	01.11.19	14:06	
27	26.10.19	21:21:56:396	vr	01.11.19	16:11	
28	08.11.19	14:25:34:102	rl	14.11.19	10:15	Erhebung Isabelle: Zeitlicher Unterschied -4 Stunden 10 Min 
29	08.11.19	16:35:38:642	vr	14.11.19	12:25	
30	03.12.19	18:42:04:354	rl	09.12.19	10:32	UNSICHER, laut Sona müsste das: 10:32 sein 
31	03.12.19	17:08:31:871	vr	09.12.19	12:58	UNSICHER, laut Sona müsste das nach  12 Uhr  sein 
32	04.12.19	13:16:15:708	rl	10.12.19	09:06	
33	04.12.19	15:39:40:713	vr	10.12.19	11:29	
34	04.12.19	17:16:34:293	rl	10.12.19	13:06	
35	10.12.19	17:00:19:402	vr	16.12.19	12:50	
36	10.12.19	18:46:40:884	rl	16.12.19	12:36	
37	11.12.19	16:31:06:574	vr	17.12.19	12:21	
38	12.12.19	14:14:35:718	rl	18.12.19	10:04	
39	12.12.19	18:26:47:256	vr	18.12.19	14:16	
40	13.12.19	14:29:14:680	rl	19.12.19	10:19	
41	13.12.19	16:26:31:150	vr	19.12.19	12:16	
42	13.12.19	18:19:06:514	rl	19.12.19	14:09	
43	14.12.19	14:33:41:765	vr	20.12.19	10:23	
44	14.12.19	16:16:00:939	rl	20.12.19	12:06	
