	setting_id	subject_id	date	trial_id	sample_id	frame_rate	frame_id	fix_pos_x_old	fix_pos_y_old	cam_angle_x	cam_angle_y	cam_angle_z	fix_pos_x	fix_pos_y	fix_pos_avrgd	fix_pos_diff_x	fix_pos_diff_y
0	vr	44	2019-12-20	valpre	473	10	00260.png	294.0	451.0	359	182	358	294.0	451.0	0	0.0	0.0
1	vr	44	2019-12-20	valpre	491	10	00270.png	446.5	459.5	359	182	358	446.5	459.5	0	0.0	0.0
2	vr	44	2019-12-20	valpre	509	10	00280.png	470.5	469.5	359	182	358	470.5	469.5	0	0.0	0.0
3	vr	44	2019-12-20	valpre	527	10	00290.png	478.0	483.5	360	182	358	478.0	483.5	0	0.0	0.0
4	vr	44	2019-12-20	valpre	544	10	00300.png	478.5	485.0	360	182	358	478.5	485.0	0	0.0	0.0
5	vr	44	2019-12-20	valpre	562	10	00310.png	471.5	490.0	360	183	358	471.5	490.0	0	0.0	0.0
6	vr	44	2019-12-20	valpre	574	10	00320.png	473.5	491.5	360	183	358	473.25	491.75	1	0.25	-0.25
7	vr	44	2019-12-20	valpre	575	10	00320.png	473.0	492.0	360	183	358	473.25	491.75	1	-0.25	0.25
8	vr	44	2019-12-20	valpre	589	10	00330.png	471.0	489.0	360	183	358	471.0	489.0	0	0.0	0.0
9	vr	44	2019-12-20	valpre	590	10	00330.png	471.0	489.0	360	183	358	471.0	489.0	0	0.0	0.0
10	vr	44	2019-12-20	valpre	607	10	00340.png	473.5	488.5	0	183	358	473.5	488.5	0	0.0	0.0
11	vr	44	2019-12-20	valpre	625	10	00350.png	474.5	488.5	0	183	358	474.5	488.5	0	0.0	0.0
12	vr	44	2019-12-20	valpre	642	10	00360.png	476.0	489.0	1	183	357	476.0	488.75	1	0.0	0.25
13	vr	44	2019-12-20	valpre	643	10	00360.png	476.0	488.5	1	183	357	476.0	488.75	1	0.0	-0.25
14	vr	44	2019-12-20	valpre	661	10	00370.png	357.5	369.0	1	182	358	357.5	369.0	0	0.0	0.0
15	vr	44	2019-12-20	valpre	679	10	00380.png	353.5	348.0	1	182	358	353.5	348.0	0	0.0	0.0
16	vr	44	2019-12-20	valpre	697	10	00390.png	308.5	427.5	1	182	358	308.5	427.5	0	0.0	0.0
17	vr	44	2019-12-20	valpre	715	10	00400.png	359.0	381.0	1	182	358	359.0	381.0	0	0.0	0.0
18	vr	44	2019-12-20	valpre	733	10	00410.png	457.5	444.5	1	182	358	457.5	444.5	0	0.0	0.0
19	vr	44	2019-12-20	valpre	750	10	00420.png	366.0	367.0	1	182	358	366.0	367.0	0	0.0	0.0
20	vr	44	2019-12-20	valpre	768	10	00430.png	365.0	369.5	1	182	358	365.0	369.5	0	0.0	0.0
21	vr	44	2019-12-20	valpre	785	10	00440.png	364.5	371.0	1	182	358	364.5	371.0	0	0.0	0.0
22	vr	44	2019-12-20	valpre	801	10	00450.png	365.0	369.5	1	182	358	365.25	369.5	1	-0.25	0.0
23	vr	44	2019-12-20	valpre	802	10	00450.png	365.5	369.5	1	182	358	365.25	369.5	1	0.25	0.0
24	vr	44	2019-12-20	valpre	818	10	00460.png	365.5	369.5	1	182	358	365.5	369.5	0	0.0	0.0
25	vr	44	2019-12-20	valpre	819	10	00460.png	365.5	369.5	1	182	358	365.5	369.5	0	0.0	0.0
26	vr	44	2019-12-20	valpre	835	10	00470.png	365.5	368.5	1	182	358	365.5	368.25	1	0.0	0.25
27	vr	44	2019-12-20	valpre	836	10	00470.png	365.5	368.0	1	182	358	365.5	368.25	1	0.0	-0.25
28	vr	44	2019-12-20	valpre	853	10	00480.png	365.5	368.5	1	182	358	365.5	368.5	0	0.0	0.0
29	vr	44	2019-12-20	valpre	871	10	00490.png	366.0	368.0	1	182	358	366.0	368.0	0	0.0	0.0
30	vr	44	2019-12-20	valpre	889	10	00500.png	365.5	368.5	1	182	357	365.5	368.5	0	0.0	0.0
31	vr	44	2019-12-20	valpre	905	10	00510.png	365.0	368.0	1	182	357	365.0	368.0	0	0.0	0.0
32	vr	44	2019-12-20	valpre	923	10	00520.png	364.5	368.5	1	182	357	364.5	368.5	0	0.0	0.0
33	vr	44	2019-12-20	valpre	941	10	00530.png	348.0	341.5	1	182	357	348.0	341.5	0	0.0	0.0
34	vr	44	2019-12-20	valpre	959	10	00540.png	349.5	339.5	1	183	357	349.5	339.5	0	0.0	0.0
35	vr	44	2019-12-20	valpre	976	10	00550.png	465.0	462.5	1	183	357	465.0	462.5	0	0.0	0.0
36	vr	44	2019-12-20	valpre	977	10	00550.png	465.0	462.5	1	183	357	465.0	462.5	0	0.0	0.0
37	vr	44	2019-12-20	valpre	991	10	00560.png	349.0	380.5	1	183	357	349.0	379.75	1	0.0	0.75
38	vr	44	2019-12-20	valpre	992	10	00560.png	349.0	379.0	1	183	357	349.0	379.75	1	0.0	-0.75
39	vr	44	2019-12-20	valpre	1005	10	00570.png	349.0	364.5	1	183	357	349.25	364.0	1	-0.25	0.5
40	vr	44	2019-12-20	valpre	1006	10	00570.png	349.5	363.5	1	183	357	349.25	364.0	1	0.25	-0.5
41	vr	44	2019-12-20	valpre	1021	10	00580.png	333.0	371.5	1	182	357	333.0	371.5	0	0.0	0.0
42	vr	44	2019-12-20	valpre	1039	10	00590.png	334.5	371.5	1	182	357	334.5	371.5	0	0.0	0.0
43	vr	44	2019-12-20	valpre	1057	10	00600.png	0.0	840.0	1	182	357	0.0	840.0	0	0.0	0.0
44	vr	44	2019-12-20	valpre	1075	10	00610.png	334.5	362.5	1	182	357	334.5	362.5	0	0.0	0.0
45	vr	44	2019-12-20	valpre	1093	10	00620.png	336.0	364.5	2	182	357	336.0	364.5	0	0.0	0.0
46	vr	44	2019-12-20	valpre	1111	10	00630.png	373.0	336.0	2	182	357	373.0	336.0	0	0.0	0.0
47	vr	44	2019-12-20	valpre	1127	10	00640.png	294.5	457.0	1	182	357	294.5	457.0	0	0.0	0.0
48	vr	44	2019-12-20	valpre	1145	10	00650.png	0.0	840.0	1	182	357	0.0	840.0	0	0.0	0.0
49	vr	44	2019-12-20	valpre	1162	10	00660.png	345.5	367.0	1	182	357	345.5	367.0	0	0.0	0.0
50	vr	44	2019-12-20	valpre	1163	10	00660.png	345.5	367.0	1	182	357	345.5	367.0	0	0.0	0.0
51	vr	44	2019-12-20	valpre	1177	10	00670.png	394.0	444.5	1	182	357	405.0	448.5	1	-11.0	-4.0
52	vr	44	2019-12-20	valpre	1178	10	00670.png	416.0	452.5	1	182	357	405.0	448.5	1	11.0	4.0
53	vr	44	2019-12-20	valpre	1193	10	00680.png	442.0	458.0	1	183	357	442.0	458.0	0	0.0	0.0
54	vr	44	2019-12-20	valpre	1211	10	00690.png	444.0	458.5	1	182	357	444.0	458.5	0	0.0	0.0
55	vr	44	2019-12-20	valpre	1228	10	00700.png	444.0	457.5	1	182	357	444.0	457.5	0	0.0	0.0
56	vr	44	2019-12-20	valpre	1246	10	00710.png	443.5	457.0	1	182	356	443.5	457.0	0	0.0	0.0
57	vr	44	2019-12-20	valpre	1264	10	00720.png	442.5	457.0	1	183	356	442.5	457.0	0	0.0	0.0
58	vr	44	2019-12-20	valpre	1282	10	00730.png	362.0	374.0	0	183	356	362.0	374.0	0	0.0	0.0
59	vr	44	2019-12-20	valpre	1299	10	00740.png	363.5	374.5	0	182	356	363.5	374.5	0	0.0	0.0
60	vr	44	2019-12-20	valpre	1317	10	00750.png	364.0	376.5	0	183	356	364.0	376.5	0	0.0	0.0
61	vr	44	2019-12-20	valpre	1334	10	00760.png	364.0	375.5	0	182	356	364.0	375.25	1	0.0	0.25
62	vr	44	2019-12-20	valpre	1335	10	00760.png	364.0	375.0	0	182	356	364.0	375.25	1	0.0	-0.25
63	vr	44	2019-12-20	valpre	1349	10	00770.png	0.0	840.0	1	183	356	214.75	714.25	1	-214.75	125.75
64	vr	44	2019-12-20	valpre	1350	10	00770.png	429.5	588.5	1	183	356	214.75	714.25	1	214.75	-125.75
65	vr	44	2019-12-20	valpre	1367	10	00780.png	485.0	485.5	1	182	356	485.0	485.5	0	0.0	0.0
66	vr	44	2019-12-20	valpre	1385	10	00790.png	480.5	477.5	1	183	356	480.5	477.5	0	0.0	0.0
67	vr	44	2019-12-20	valpre	1403	10	00800.png	479.5	477.0	1	183	356	479.5	477.0	0	0.0	0.0
68	vr	44	2019-12-20	valpre	1421	10	00810.png	479.0	475.0	1	183	356	479.0	475.0	0	0.0	0.0
69	vr	44	2019-12-20	valpre	1438	10	00820.png	475.0	467.5	2	183	356	475.0	467.5	0	0.0	0.0
70	vr	44	2019-12-20	valpre	1456	10	00830.png	474.0	465.5	2	183	356	474.0	465.5	0	0.0	0.0
71	vr	44	2019-12-20	valpre	1474	10	00840.png	469.0	470.0	2	183	356	469.0	470.0	0	0.0	0.0
72	vr	44	2019-12-20	valpre	1492	10	00850.png	469.5	469.5	2	183	356	469.5	469.5	0	0.0	0.0
73	vr	44	2019-12-20	valpre	1509	10	00860.png	471.0	464.0	3	183	356	471.0	464.0	0	0.0	0.0
74	vr	44	2019-12-20	valpre	1526	10	00870.png	470.0	473.0	3	183	356	470.0	473.0	0	0.0	0.0
75	vr	44	2019-12-20	valpre	1527	10	00870.png	470.0	473.0	3	183	356	470.0	473.0	0	0.0	0.0
76	vr	44	2019-12-20	valpre	1544	10	00880.png	468.5	469.5	3	183	357	468.5	469.5	0	0.0	0.0
77	vr	44	2019-12-20	valpre	1562	10	00890.png	465.0	470.5	3	183	356	465.0	470.5	0	0.0	0.0
78	vr	44	2019-12-20	valpre	1580	10	00900.png	392.5	357.5	3	183	356	392.5	357.5	0	0.0	0.0
79	vr	44	2019-12-20	valpre	1598	10	00910.png	357.5	351.0	2	183	356	357.5	351.0	0	0.0	0.0
80	vr	44	2019-12-20	valpre	1616	10	00920.png	360.0	352.5	2	183	356	360.0	352.5	0	0.0	0.0
81	vr	44	2019-12-20	valpre	1634	10	00930.png	362.5	361.0	2	182	357	362.5	361.0	0	0.0	0.0
82	vr	44	2019-12-20	valpre	1651	10	00940.png	363.0	363.5	2	183	357	363.0	363.5	0	0.0	0.0
83	vr	44	2019-12-20	valpre	1669	10	00950.png	362.0	364.5	2	183	357	361.75	364.5	1	0.25	0.0
84	vr	44	2019-12-20	valpre	1670	10	00950.png	361.5	364.5	2	183	357	361.75	364.5	1	-0.25	0.0
85	vr	44	2019-12-20	valpre	1687	10	00960.png	362.0	364.0	2	182	357	362.0	364.0	0	0.0	0.0
86	vr	44	2019-12-20	valpre	1688	10	00960.png	362.0	364.0	2	182	357	362.0	364.0	0	0.0	0.0
87	vr	44	2019-12-20	valpre	1704	10	00970.png	363.5	365.0	2	182	357	363.5	365.0	0	0.0	0.0
88	vr	44	2019-12-20	valpre	1722	10	00980.png	364.0	364.5	2	182	357	364.0	364.5	0	0.0	0.0
89	vr	44	2019-12-20	valpre	1740	10	00990.png	364.0	363.5	2	182	357	364.0	363.5	0	0.0	0.0
90	vr	44	2019-12-20	valpre	1758	10	01000.png	364.5	364.0	2	182	357	364.5	364.0	0	0.0	0.0
