	setting_id	subject_id	date	trial_id	sample_id	frame_rate	frame_id	fix_pos_x_old	fix_pos_y_old	cam_angle_x	cam_angle_y	cam_angle_z	fix_pos_x	fix_pos_y	fix_pos_avrgd	fix_pos_diff_x	fix_pos_diff_y
0	vr	44	2019-12-20	valpost	473	10	00260.png	478.5	452.0	360	178	357	478.5	452.0	0	0.0	0.0
1	vr	44	2019-12-20	valpost	491	10	00270.png	532.0	491.0	0	178	357	532.0	491.0	0	0.0	0.0
2	vr	44	2019-12-20	valpost	508	10	00280.png	508.5	478.0	1	178	357	508.5	478.0	0	0.0	0.0
3	vr	44	2019-12-20	valpost	526	10	00290.png	506.0	476.0	1	178	357	506.0	476.0	0	0.0	0.0
4	vr	44	2019-12-20	valpost	543	10	00300.png	505.0	476.5	1	178	357	505.0	476.5	0	0.0	0.0
5	vr	44	2019-12-20	valpost	561	10	00310.png	502.5	476.0	0	178	357	502.5	476.0	0	0.0	0.0
6	vr	44	2019-12-20	valpost	579	10	00320.png	502.0	477.0	0	178	357	502.0	477.0	0	0.0	0.0
7	vr	44	2019-12-20	valpost	597	10	00330.png	502.0	476.5	0	178	357	502.0	476.5	0	0.0	0.0
8	vr	44	2019-12-20	valpost	615	10	00340.png	503.0	476.0	0	178	357	503.0	476.0	0	0.0	0.0
9	vr	44	2019-12-20	valpost	632	10	00350.png	502.5	476.0	1	178	357	502.5	476.0	0	0.0	0.0
10	vr	44	2019-12-20	valpost	650	10	00360.png	504.5	476.5	1	178	357	504.5	476.5	0	0.0	0.0
11	vr	44	2019-12-20	valpost	668	10	00370.png	504.0	475.5	1	178	357	504.0	475.5	0	0.0	0.0
12	vr	44	2019-12-20	valpost	685	10	00380.png	391.0	370.5	1	178	357	391.0	370.5	0	0.0	0.0
13	vr	44	2019-12-20	valpost	702	10	00390.png	393.0	371.0	1	177	357	393.0	371.0	0	0.0	0.0
14	vr	44	2019-12-20	valpost	719	10	00400.png	394.0	369.0	1	177	357	394.0	369.0	0	0.0	0.0
15	vr	44	2019-12-20	valpost	737	10	00410.png	393.5	370.5	1	177	357	393.5	370.5	0	0.0	0.0
16	vr	44	2019-12-20	valpost	738	10	00410.png	393.5	370.5	1	177	357	393.5	370.5	0	0.0	0.0
17	vr	44	2019-12-20	valpost	755	10	00420.png	392.5	370.5	1	177	357	392.5	370.5	0	0.0	0.0
18	vr	44	2019-12-20	valpost	773	10	00430.png	390.0	367.0	1	177	357	390.0	367.0	0	0.0	0.0
19	vr	44	2019-12-20	valpost	790	10	00440.png	390.5	368.5	1	177	357	390.5	368.5	0	0.0	0.0
20	vr	44	2019-12-20	valpost	808	10	00450.png	391.0	367.0	2	177	357	391.0	367.0	0	0.0	0.0
21	vr	44	2019-12-20	valpost	826	10	00460.png	392.5	368.5	1	177	357	392.5	368.5	0	0.0	0.0
22	vr	44	2019-12-20	valpost	844	10	00470.png	395.0	366.5	2	177	357	395.0	366.5	0	0.0	0.0
23	vr	44	2019-12-20	valpost	862	10	00480.png	395.0	368.0	1	176	357	395.0	368.0	0	0.0	0.0
24	vr	44	2019-12-20	valpost	879	10	00490.png	393.0	372.0	1	177	356	393.0	372.0	0	0.0	0.0
25	vr	44	2019-12-20	valpost	896	10	00500.png	391.5	373.0	1	177	356	391.5	373.0	0	0.0	0.0
26	vr	44	2019-12-20	valpost	914	10	00510.png	392.0	377.0	360	177	357	392.0	377.0	0	0.0	0.0
27	vr	44	2019-12-20	valpost	932	10	00520.png	335.0	396.0	0	177	357	335.0	396.0	0	0.0	0.0
28	vr	44	2019-12-20	valpost	950	10	00530.png	281.0	477.5	1	177	357	281.0	477.5	0	0.0	0.0
29	vr	44	2019-12-20	valpost	968	10	00540.png	291.0	469.5	1	177	357	291.0	469.5	0	0.0	0.0
30	vr	44	2019-12-20	valpost	986	10	00550.png	295.5	466.0	1	177	357	295.5	466.0	0	0.0	0.0
31	vr	44	2019-12-20	valpost	1004	10	00560.png	292.0	463.5	1	177	357	292.0	463.5	0	0.0	0.0
32	vr	44	2019-12-20	valpost	1022	10	00570.png	294.5	478.0	1	177	357	294.5	478.0	0	0.0	0.0
33	vr	44	2019-12-20	valpost	1040	10	00580.png	294.5	479.0	1	177	357	294.5	479.0	0	0.0	0.0
34	vr	44	2019-12-20	valpost	1057	10	00590.png	294.0	479.5	1	177	357	294.0	479.5	0	0.0	0.0
35	vr	44	2019-12-20	valpost	1058	10	00590.png	294.0	479.5	1	177	357	294.0	479.5	0	0.0	0.0
36	vr	44	2019-12-20	valpost	1076	10	00600.png	294.5	479.5	1	177	357	294.5	479.5	0	0.0	0.0
37	vr	44	2019-12-20	valpost	1093	10	00610.png	304.0	471.5	1	177	357	304.0	471.5	0	0.0	0.0
38	vr	44	2019-12-20	valpost	1111	10	00620.png	302.5	473.5	1	177	357	302.5	473.5	0	0.0	0.0
39	vr	44	2019-12-20	valpost	1128	10	00630.png	303.0	475.5	1	177	357	303.0	475.5	0	0.0	0.0
40	vr	44	2019-12-20	valpost	1146	10	00640.png	304.0	476.0	0	177	357	304.0	476.0	0	0.0	0.0
41	vr	44	2019-12-20	valpost	1164	10	00650.png	303.0	480.0	360	177	357	303.0	480.0	0	0.0	0.0
42	vr	44	2019-12-20	valpost	1182	10	00660.png	307.5	476.5	0	177	357	307.5	476.5	0	0.0	0.0
43	vr	44	2019-12-20	valpost	1200	10	00670.png	498.0	482.0	0	177	357	498.0	482.0	0	0.0	0.0
44	vr	44	2019-12-20	valpost	1218	10	00680.png	494.0	479.5	360	177	357	494.0	479.5	0	0.0	0.0
45	vr	44	2019-12-20	valpost	1236	10	00690.png	517.5	481.0	360	178	357	517.5	481.0	0	0.0	0.0
46	vr	44	2019-12-20	valpost	1253	10	00700.png	513.5	479.0	360	178	357	513.5	479.0	0	0.0	0.0
47	vr	44	2019-12-20	valpost	1271	10	00710.png	516.0	480.0	0	178	357	516.0	480.0	0	0.0	0.0
48	vr	44	2019-12-20	valpost	1289	10	00720.png	517.0	479.0	0	178	357	517.0	479.0	0	0.0	0.0
49	vr	44	2019-12-20	valpost	1307	10	00730.png	517.0	479.0	0	178	357	517.0	479.0	0	0.0	0.0
50	vr	44	2019-12-20	valpost	1325	10	00740.png	515.5	477.5	0	178	357	515.5	477.5	0	0.0	0.0
51	vr	44	2019-12-20	valpost	1342	10	00750.png	516.5	476.5	0	178	357	516.5	476.5	0	0.0	0.0
52	vr	44	2019-12-20	valpost	1343	10	00750.png	516.5	476.5	0	178	357	516.5	476.5	0	0.0	0.0
53	vr	44	2019-12-20	valpost	1359	10	00760.png	517.0	477.0	0	178	357	517.0	477.0	0	0.0	0.0
54	vr	44	2019-12-20	valpost	1376	10	00770.png	517.0	477.5	0	178	357	517.0	477.5	0	0.0	0.0
55	vr	44	2019-12-20	valpost	1394	10	00780.png	0.0	840.0	0	178	357	0.0	840.0	0	0.0	0.0
56	vr	44	2019-12-20	valpost	1412	10	00790.png	523.5	484.5	0	178	357	523.5	484.5	0	0.0	0.0
57	vr	44	2019-12-20	valpost	1430	10	00800.png	516.5	482.5	0	178	357	516.5	482.5	0	0.0	0.0
58	vr	44	2019-12-20	valpost	1447	10	00810.png	512.0	483.0	0	178	357	512.0	483.0	0	0.0	0.0
59	vr	44	2019-12-20	valpost	1465	10	00820.png	505.0	481.0	0	178	357	505.0	481.0	0	0.0	0.0
60	vr	44	2019-12-20	valpost	1483	10	00830.png	507.0	481.5	1	178	357	507.0	481.5	0	0.0	0.0
61	vr	44	2019-12-20	valpost	1501	10	00840.png	504.5	479.0	1	178	356	504.5	479.0	0	0.0	0.0
62	vr	44	2019-12-20	valpost	1519	10	00850.png	505.5	479.5	1	178	356	505.5	479.5	0	0.0	0.0
63	vr	44	2019-12-20	valpost	1536	10	00860.png	503.5	478.0	1	178	357	503.5	478.0	0	0.0	0.0
64	vr	44	2019-12-20	valpost	1554	10	00870.png	0.0	840.0	1	178	357	0.0	840.0	0	0.0	0.0
65	vr	44	2019-12-20	valpost	1572	10	00880.png	383.0	363.0	1	178	357	383.0	363.0	0	0.0	0.0
66	vr	44	2019-12-20	valpost	1590	10	00890.png	384.0	361.0	1	178	357	384.0	361.0	0	0.0	0.0
67	vr	44	2019-12-20	valpost	1608	10	00900.png	383.0	364.0	1	178	357	383.0	364.0	0	0.0	0.0
68	vr	44	2019-12-20	valpost	1626	10	00910.png	386.0	374.5	1	178	357	386.0	374.5	0	0.0	0.0
69	vr	44	2019-12-20	valpost	1642	10	00920.png	385.5	375.5	1	178	357	385.5	375.5	0	0.0	0.0
70	vr	44	2019-12-20	valpost	1660	10	00930.png	384.5	372.0	1	178	357	384.5	372.0	0	0.0	0.0
71	vr	44	2019-12-20	valpost	1678	10	00940.png	386.0	372.0	1	178	357	386.0	372.0	0	0.0	0.0
72	vr	44	2019-12-20	valpost	1696	10	00950.png	385.0	372.5	0	178	357	385.0	372.5	0	0.0	0.0
73	vr	44	2019-12-20	valpost	1714	10	00960.png	0.0	840.0	0	178	356	0.0	840.0	0	0.0	0.0
74	vr	44	2019-12-20	valpost	1732	10	00970.png	401.0	359.5	0	178	357	401.0	359.5	0	0.0	0.0
75	vr	44	2019-12-20	valpost	1750	10	00980.png	400.5	362.0	0	178	357	400.5	362.0	0	0.0	0.0
76	vr	44	2019-12-20	valpost	1768	10	00990.png	387.0	376.5	0	178	357	387.0	376.5	0	0.0	0.0
77	vr	44	2019-12-20	valpost	1786	10	01000.png	386.0	376.0	1	178	357	386.0	376.0	0	0.0	0.0
