	setting_id	subject_id	date	trial_id	sample_id	frame_rate	frame_id	fix_pos_x_old	fix_pos_y_old	cam_angle_x	cam_angle_y	cam_angle_z	fix_pos_x	fix_pos_y	fix_pos_avrgd	fix_pos_diff_x	fix_pos_diff_y
0	vr	07	2019-10-24	rat_1	475	10	00260.png	391.5	436.0	354	186	358	391.5	436.0	0	0.0	0.0
1	vr	07	2019-10-24	rat_1	493	10	00270.png	439.0	458.5	354	186	359	439.0	458.5	0	0.0	0.0
2	vr	07	2019-10-24	rat_1	511	10	00280.png	329.0	463.5	354	187	359	329.0	463.5	0	0.0	0.0
3	vr	07	2019-10-24	rat_1	529	10	00290.png	333.5	458.0	355	186	359	333.5	458.0	0	0.0	0.0
4	vr	07	2019-10-24	rat_1	547	10	00300.png	489.0	462.0	355	188	358	489.0	462.0	0	0.0	0.0
5	vr	07	2019-10-24	rat_1	564	10	00310.png	519.0	458.5	356	193	357	519.0	458.5	0	0.0	0.0
6	vr	07	2019-10-24	rat_1	581	10	00320.png	503.0	454.0	358	201	357	503.0	454.0	0	0.0	0.0
7	vr	07	2019-10-24	rat_1	599	10	00330.png	466.5	442.5	0	206	357	466.5	442.5	0	0.0	0.0
8	vr	07	2019-10-24	rat_1	616	10	00340.png	586.0	438.0	2	210	357	586.0	438.0	0	0.0	0.0
9	vr	07	2019-10-24	rat_1	634	10	00350.png	508.0	436.0	2	218	357	508.0	436.0	0	0.0	0.0
10	vr	07	2019-10-24	rat_1	650	10	00360.png	472.0	434.5	2	222	356	471.25	434.5	1	0.75	0.0
11	vr	07	2019-10-24	rat_1	651	10	00360.png	470.5	434.5	2	222	356	471.25	434.5	1	-0.75	0.0
12	vr	07	2019-10-24	rat_1	665	10	00370.png	457.0	433.5	2	224	357	456.75	433.75	1	0.25	-0.25
13	vr	07	2019-10-24	rat_1	666	10	00370.png	456.5	434.0	2	224	357	456.75	433.75	1	-0.25	0.25
14	vr	07	2019-10-24	rat_1	681	10	00380.png	445.5	433.5	2	224	357	445.5	433.5	0	0.0	0.0
15	vr	07	2019-10-24	rat_1	698	10	00390.png	435.5	435.0	2	225	357	435.5	435.0	0	0.0	0.0
16	vr	07	2019-10-24	rat_1	716	10	00400.png	526.0	431.5	2	226	357	526.0	431.5	0	0.0	0.0
17	vr	07	2019-10-24	rat_1	734	10	00410.png	509.0	431.0	2	230	356	509.0	431.0	0	0.0	0.0
18	vr	07	2019-10-24	rat_1	752	10	00420.png	468.5	433.5	1	237	356	468.5	433.5	0	0.0	0.0
19	vr	07	2019-10-24	rat_1	770	10	00430.png	507.5	430.5	1	242	356	507.5	430.5	0	0.0	0.0
20	vr	07	2019-10-24	rat_1	787	10	00440.png	477.0	430.5	1	246	356	477.0	430.5	0	0.0	0.0
21	vr	07	2019-10-24	rat_1	804	10	00450.png	464.5	432.5	0	247	356	464.5	432.5	0	0.0	0.0
22	vr	07	2019-10-24	rat_1	822	10	00460.png	472.0	444.0	360	246	356	472.0	444.0	0	0.0	0.0
23	vr	07	2019-10-24	rat_1	840	10	00470.png	452.5	450.0	360	245	356	452.5	450.0	0	0.0	0.0
24	vr	07	2019-10-24	rat_1	857	10	00480.png	515.0	469.0	360	244	357	515.0	469.0	0	0.0	0.0
25	vr	07	2019-10-24	rat_1	858	10	00480.png	515.0	469.0	360	244	357	515.0	469.0	0	0.0	0.0
26	vr	07	2019-10-24	rat_1	872	10	00490.png	332.5	443.5	360	242	357	332.5	443.25	1	0.0	0.25
27	vr	07	2019-10-24	rat_1	873	10	00490.png	332.5	443.0	360	242	357	332.5	443.25	1	0.0	-0.25
28	vr	07	2019-10-24	rat_1	890	10	00500.png	342.5	442.0	359	239	357	342.5	442.0	0	0.0	0.0
29	vr	07	2019-10-24	rat_1	908	10	00510.png	351.5	442.0	359	236	357	351.5	442.0	0	0.0	0.0
30	vr	07	2019-10-24	rat_1	925	10	00520.png	367.0	447.0	359	233	357	367.0	447.0	0	0.0	0.0
31	vr	07	2019-10-24	rat_1	942	10	00530.png	422.0	441.5	359	232	357	422.0	441.5	0	0.0	0.0
32	vr	07	2019-10-24	rat_1	959	10	00540.png	469.5	443.5	359	230	357	469.5	443.5	0	0.0	0.0
33	vr	07	2019-10-24	rat_1	976	10	00550.png	477.0	444.5	359	229	357	477.0	444.5	0	0.0	0.0
34	vr	07	2019-10-24	rat_1	990	10	00560.png	464.0	445.0	359	228	357	464.0	445.0	0	0.0	0.0
35	vr	07	2019-10-24	rat_1	1003	10	00570.png	463.5	444.5	358	226	357	463.5	444.5	0	0.0	0.0
36	vr	07	2019-10-24	rat_1	1020	10	00580.png	465.0	446.5	358	226	357	465.0	446.5	0	0.0	0.0
37	vr	07	2019-10-24	rat_1	1036	10	00590.png	450.5	449.5	358	225	357	450.0	450.5	1	0.5	-1.0
38	vr	07	2019-10-24	rat_1	1037	10	00590.png	449.5	451.5	358	225	357	450.0	450.5	1	-0.5	1.0
39	vr	07	2019-10-24	rat_1	1053	10	00600.png	441.5	451.5	358	224	357	441.5	451.5	0	0.0	0.0
40	vr	07	2019-10-24	rat_1	1071	10	00610.png	437.5	451.0	358	223	357	437.5	451.0	0	0.0	0.0
41	vr	07	2019-10-24	rat_1	1089	10	00620.png	434.0	452.0	358	221	357	434.0	452.0	0	0.0	0.0
42	vr	07	2019-10-24	rat_1	1107	10	00630.png	248.0	448.5	358	220	357	248.0	448.5	0	0.0	0.0
43	vr	07	2019-10-24	rat_1	1125	10	00640.png	211.0	455.0	358	213	357	211.0	455.0	0	0.0	0.0
44	vr	07	2019-10-24	rat_1	1143	10	00650.png	266.0	445.5	358	205	357	266.0	445.5	0	0.0	0.0
45	vr	07	2019-10-24	rat_1	1161	10	00660.png	463.0	450.0	357	203	357	463.0	450.0	0	0.0	0.0
46	vr	07	2019-10-24	rat_1	1177	10	00670.png	456.0	450.5	357	206	357	455.25	450.75	1	0.75	-0.25
47	vr	07	2019-10-24	rat_1	1178	10	00670.png	454.5	451.0	357	206	357	455.25	450.75	1	-0.75	0.25
48	vr	07	2019-10-24	rat_1	1194	10	00680.png	443.0	450.0	357	207	357	442.75	450.0	1	0.25	0.0
49	vr	07	2019-10-24	rat_1	1195	10	00680.png	442.5	450.0	357	207	357	442.75	450.0	1	-0.25	0.0
50	vr	07	2019-10-24	rat_1	1207	10	00690.png	474.0	448.5	357	207	357	474.0	448.5	0	0.0	0.0
51	vr	07	2019-10-24	rat_1	1225	10	00700.png	460.5	448.0	357	208	357	460.5	448.0	0	0.0	0.0
52	vr	07	2019-10-24	rat_1	1242	10	00710.png	527.0	449.0	357	209	357	526.75	449.0	1	0.25	0.0
53	vr	07	2019-10-24	rat_1	1243	10	00710.png	526.5	449.0	357	209	357	526.75	449.0	1	-0.25	0.0
54	vr	07	2019-10-24	rat_1	1258	10	00720.png	413.5	451.5	357	210	357	413.5	451.5	0	0.0	0.0
55	vr	07	2019-10-24	rat_1	1275	10	00730.png	448.0	457.0	357	209	357	448.0	457.0	0	0.0	0.0
56	vr	07	2019-10-24	rat_1	1293	10	00740.png	368.0	454.0	356	208	357	368.0	454.0	0	0.0	0.0
57	vr	07	2019-10-24	rat_1	1311	10	00750.png	295.0	456.0	356	205	357	295.0	456.0	0	0.0	0.0
58	vr	07	2019-10-24	rat_1	1329	10	00760.png	329.0	449.0	356	203	357	329.0	449.0	0	0.0	0.0
59	vr	07	2019-10-24	rat_1	1346	10	00770.png	381.5	451.0	356	203	357	381.5	451.0	0	0.0	0.0
60	vr	07	2019-10-24	rat_1	1364	10	00780.png	456.5	454.0	356	206	357	456.5	454.0	0	0.0	0.0
61	vr	07	2019-10-24	rat_1	1381	10	00790.png	448.5	454.0	356	207	357	448.5	454.0	0	0.0	0.0
62	vr	07	2019-10-24	rat_1	1399	10	00800.png	557.5	458.5	356	213	356	557.5	458.5	0	0.0	0.0
63	vr	07	2019-10-24	rat_1	1415	10	00810.png	550.5	454.0	356	224	356	544.0	454.25	1	6.5	-0.25
64	vr	07	2019-10-24	rat_1	1416	10	00810.png	537.5	454.5	356	225	356	544.0	454.25	1	-6.5	0.25
65	vr	07	2019-10-24	rat_1	1432	10	00820.png	543.0	452.0	356	236	355	543.0	452.0	0	0.0	0.0
66	vr	07	2019-10-24	rat_1	1450	10	00830.png	533.0	450.5	356	241	355	533.0	450.5	0	0.0	0.0
67	vr	07	2019-10-24	rat_1	1468	10	00840.png	501.5	451.5	356	243	355	501.5	451.5	0	0.0	0.0
68	vr	07	2019-10-24	rat_1	1486	10	00850.png	491.0	451.5	356	243	355	491.0	451.5	0	0.0	0.0
69	vr	07	2019-10-24	rat_1	1503	10	00860.png	401.5	462.5	356	243	356	401.5	462.5	0	0.0	0.0
70	vr	07	2019-10-24	rat_1	1521	10	00870.png	325.0	466.0	355	242	356	325.0	466.0	0	0.0	0.0
71	vr	07	2019-10-24	rat_1	1538	10	00880.png	329.5	466.0	355	240	356	329.5	466.0	0	0.0	0.0
72	vr	07	2019-10-24	rat_1	1556	10	00890.png	356.0	463.0	355	239	356	356.0	463.0	0	0.0	0.0
73	vr	07	2019-10-24	rat_1	1574	10	00900.png	441.0	463.0	355	237	356	441.0	463.0	0	0.0	0.0
74	vr	07	2019-10-24	rat_1	1591	10	00910.png	433.0	467.0	355	236	356	432.75	467.25	1	0.25	-0.25
75	vr	07	2019-10-24	rat_1	1592	10	00910.png	432.5	467.5	355	236	356	432.75	467.25	1	-0.25	0.25
76	vr	07	2019-10-24	rat_1	1607	10	00920.png	434.5	468.0	355	235	356	434.5	468.0	0	0.0	0.0
77	vr	07	2019-10-24	rat_1	1624	10	00930.png	265.0	473.5	354	229	355	268.0	473.75	1	-3.0	-0.25
78	vr	07	2019-10-24	rat_1	1625	10	00930.png	271.0	474.0	354	228	356	268.0	473.75	1	3.0	0.25
79	vr	07	2019-10-24	rat_1	1640	10	00940.png	262.0	463.0	355	218	355	262.0	463.0	0	0.0	0.0
80	vr	07	2019-10-24	rat_1	1657	10	00950.png	295.0	467.0	354	208	356	295.0	467.0	0	0.0	0.0
81	vr	07	2019-10-24	rat_1	1675	10	00960.png	333.0	462.0	354	203	357	333.0	462.0	0	0.0	0.0
82	vr	07	2019-10-24	rat_1	1692	10	00970.png	322.0	461.0	354	200	357	322.5	461.25	1	-0.5	-0.25
83	vr	07	2019-10-24	rat_1	1693	10	00970.png	323.0	461.5	355	200	357	322.5	461.25	1	0.5	0.25
84	vr	07	2019-10-24	rat_1	1710	10	00980.png	301.5	474.5	355	198	357	301.5	474.5	0	0.0	0.0
85	vr	07	2019-10-24	rat_1	1726	10	00990.png	292.5	455.5	354	192	357	292.5	455.5	0	0.0	0.0
86	vr	07	2019-10-24	rat_1	1744	10	01000.png	328.0	453.5	355	187	357	328.0	453.5	0	0.0	0.0
